TypeSet	100	Classical	Scheme-examples/Sergey/gcfa2/sat.scm	true	SeqAAMLS	1	18728	0	0	672	3	#f, #t, {#f,#t}	1	true	3.944252539	true	
TypeSet	100	Classical	Scheme-examples/Sergey/gcfa2/sat.scm	true	ParAAM-L-SA-state	64	18728	0	0	672	3	#f, #t, {#f,#t}	1	true	2.842402116	true	
TypeSet	100	Classical	Scheme-examples/Sergey/gcfa2/sat.scm	true	ParAAM-L-SA-set	64	18728	0	0	672	3	#f, #t, {#f,#t}	1	true	1.173478685	true	
TypeSet	100	Classical	Scheme-examples/Sergey/gcfa2/sat.scm	true	ParAAM-L-SA-part	64	18728	0	0	672	3	#f, #t, {#f,#t}	1	true	0.903011783	true	
TypeSet	100	Classical	Scheme-examples/Sergey/gcfa2/sat.scm	true	ParAAM-C-S-part	64	18728	0	0	672	3	#f, #t, {#f,#t}	1	true	0.396321973	true	
TypeSet	100	Classical	Scheme-examples/Sergey/gcfa2/sat.scm	true	ParAAM-C-state	1	18728	0	0	672	3	#f, #t, {#f,#t}	1	true	1.615747994	true	
TypeSet	100	Classical	Scheme-examples/Sergey/gcfa2/sat.scm	true	ParAAM-C-state	64	18728	0	0	672	3	#f, #t, {#f,#t}	1	true	0.651513713	true	
TypeSet	100	Classical	Scheme-examples/Sergey/gcfa2/sat.scm	true	ParAAM-C-set	1	18728	0	0	672	3	#f, #t, {#f,#t}	1	true	1.611632356	true	
TypeSet	100	Classical	Scheme-examples/Sergey/gcfa2/sat.scm	true	ParAAM-C-set	64	18728	0	0	672	3	#f, #t, {#f,#t}	1	true	0.41225935	true	
TypeSet	100	Classical	Scheme-examples/Sergey/gcfa2/sat.scm	true	ParAAM-C-part	1	18728	0	0	672	3	#f, #t, {#f,#t}	1	true	1.49600563	true	
TypeSet	100	Classical	Scheme-examples/Sergey/gcfa2/sat.scm	true	ParAAM-C-part	64	18728	0	0	672	3	#f, #t, {#f,#t}	1	true	1.582507431	true	
Lattice	Bound	Address	Scheme program	Step filter?	Machine	p	# states	# error states	# error values	# final states	# final values	Final values	#	?	Time 1	?	Time 2	?	Time 3	?	Time 4	?	Time 5	?	Time 6	?	Time 7	?	Time 8	?	Time 9	?	Time 10	?	Time 11	?	Time 12	?	Time 13	# finished	Average time	Standard error	Correct?	Error 1	Error 2	Error 3	Error 4	Error 5	Error 6	Error 7	Error 8	Error 9	Error 10	Error 11	Error 12	Error 13
TypeSet	100	Classical	Scheme-examples/Larceny/Gabriel/takl.scm	false	SeqAAMLS	1	2509129	108	1	52821	3	(), Cons(@n-Time(),@(listn (- n 1))-Time()), {(),Cons(@n-Time(),@(listn (- n 1))-Time())}	13	true	94.548366148	true	88.053950124	true	86.580688029	true	88.927381057	true	88.764703861	true	87.650712171	true	88.909928941	true	89.309661784	true	84.949557076	true	88.240376876	true	89.31152138	true	87.005766051	true	88.208003149	13	88.4969705113077	1.3522677081775158	true													
TypeSet	100	Classical	Scheme-examples/Larceny/Gabriel/takl.scm	false	ParAAM-L-SA-state	2	2509129	108	1	52821	3	(), Cons(@n-Time(),@(listn (- n 1))-Time()), {(),Cons(@n-Time(),@(listn (- n 1))-Time())}	13	true	176.043286883	true	171.1708194	true	173.786409166	true	175.06077207	true	174.276395839	true	173.835546351	true	175.843801504	true	173.796176429	true	176.801829873	true	174.364605741	true	176.63998262	true	173.830824019	true	175.168526855	13	174.66299821153845	1.1661862362721906	true													
TypeSet	100	Classical	Scheme-examples/Larceny/Gabriel/takl.scm	false	ParAAM-L-SA-state	3	2509129	108	1	52821	3	(), Cons(@n-Time(),@(listn (- n 1))-Time()), {(),Cons(@n-Time(),@(listn (- n 1))-Time())}	13	true	122.01147349	true	122.011754381	true	121.750791243	true	124.3103329	true	122.797433493	true	123.259319791	true	121.299404866	true	119.43208006	true	120.508868343	true	121.919638721	true	125.217171187	true	120.781952693	true	123.192982465	13	122.19178489484617	1.2028177479645001	true													
TypeSet	100	Classical	Scheme-examples/Larceny/Gabriel/takl.scm	false	ParAAM-L-SA-state	4	2509129	108	1	52821	3	(), Cons(@n-Time(),@(listn (- n 1))-Time()), {(),Cons(@n-Time(),@(listn (- n 1))-Time())}	13	true	130.267427132	true	132.541145366	true	130.470258177	true	126.67176589	true	128.81748553	true	136.165121001	true	128.945938714	true	134.107396681	true	132.961019354	true	129.463572604	true	134.457074089	true	131.281802965	true	128.767574938	13	131.14750634161538	2.2505417548165676	true													
TypeSet	100	Classical	Scheme-examples/Larceny/Gabriel/takl.scm	false	ParAAM-L-SA-state	5	2509129	108	1	52821	3	(), Cons(@n-Time(),@(listn (- n 1))-Time()), {(),Cons(@n-Time(),@(listn (- n 1))-Time())}	13	true	143.387122766	true	141.082305711	true	140.255460149	true	140.607552437	true	142.708169292	true	138.723590022	true	140.527911247	true	143.081487602	true	138.101971184	true	144.651536823	true	143.966229579	true	145.515754193	true	139.48014012	13	141.699171625	2.0177339238461536	true													
TypeSet	100	Classical	Scheme-examples/Larceny/Gabriel/takl.scm	false	ParAAM-L-SA-state	6	2509129	108	1	52821	3	(), Cons(@n-Time(),@(listn (- n 1))-Time()), {(),Cons(@n-Time(),@(listn (- n 1))-Time())}	13	true	145.067265072	true	146.994242855	true	145.719533167	true	151.336050972	true	147.293499942	true	145.837915109	true	149.403190218	true	148.438185962	true	143.153241258	true	145.054581933	true	146.858774019	true	151.810983456	true	147.707683528	13	147.28270365315385	1.8912880244733707	true													
TypeSet	100	Classical	Scheme-examples/Larceny/Gabriel/takl.scm	false	ParAAM-L-SA-state	7	2509129	108	1	52821	3	(), Cons(@n-Time(),@(listn (- n 1))-Time()), {(),Cons(@n-Time(),@(listn (- n 1))-Time())}	13	true	152.327080646	true	148.01078763	true	148.301268314	true	151.503225407	true	150.968126745	true	151.778046718	true	152.27108232	true	150.370827261	true	150.67262727	true	151.67133923	true	151.338161994	true	147.890270467	true	155.665698597	13	150.9821955845385	1.4891178184970413	true													
TypeSet	100	Classical	Scheme-examples/Larceny/Gabriel/takl.scm	false	ParAAM-L-SA-state	8	2509129	108	1	52821	3	(), Cons(@n-Time(),@(listn (- n 1))-Time()), {(),Cons(@n-Time(),@(listn (- n 1))-Time())}	13	true	154.362786765	true	149.357856431	true	150.851261911	true	149.433756167	true	152.3510594	true	151.510390729	true	150.051798945	true	151.915063784	true	152.075128339	true	154.382463031	true	155.050127433	true	155.065607603	true	152.960169496	13	152.25903615646152	1.6335379675739607	true													
TypeSet	100	Classical	Scheme-examples/Larceny/Gabriel/takl.scm	false	ParAAM-L-SA-state	9	2509129	108	1	52821	3	(), Cons(@n-Time(),@(listn (- n 1))-Time()), {(),Cons(@n-Time(),@(listn (- n 1))-Time())}	13	true	154.450258828	true	152.466662616	true	152.081881681	true	153.827615718	true	155.884779549	true	152.4773047	true	157.473368684	true	154.610464323	true	148.969517009	true	155.090598261	true	153.467535354	true	157.083054819	true	154.406189374	13	154.022248532	1.66814986369231	true													
TypeSet	100	Classical	Scheme-examples/Larceny/Gabriel/takl.scm	false	ParAAM-L-SA-state	10	2509129	108	1	52821	3	(), Cons(@n-Time(),@(listn (- n 1))-Time()), {(),Cons(@n-Time(),@(listn (- n 1))-Time())}	13	true	151.94430788	true	155.178660602	true	155.693292747	true	154.399014789	true	152.40734928	true	151.947686371	true	154.352034095	true	152.80729294	true	154.879750105	true	157.473322858	true	155.259287434	true	155.363604257	true	155.11637979	13	154.3709217806154	1.2916828210887537	true													
TypeSet	100	Classical	Scheme-examples/Larceny/Gabriel/takl.scm	false	ParAAM-L-SA-state	12	2509129	108	1	52821	3	(), Cons(@n-Time(),@(listn (- n 1))-Time()), {(),Cons(@n-Time(),@(listn (- n 1))-Time())}	13	true	160.992195739	true	154.553690494	true	154.512105897	true	151.664343805	true	156.419284906	true	153.08177727	true	150.955498849	true	155.387410479	true	155.113595654	true	154.502869772	true	156.052738758	true	152.310326019	true	155.272445446	13	154.6783294683077	1.7181067957159804	true													
TypeSet	100	Classical	Scheme-examples/Larceny/Gabriel/takl.scm	false	ParAAM-L-SA-state	14	2509129	108	1	52821	3	(), Cons(@n-Time(),@(listn (- n 1))-Time()), {(),Cons(@n-Time(),@(listn (- n 1))-Time())}	13	true	148.326441547	true	155.502746188	true	155.97580502	true	156.174811045	true	154.510656398	true	155.785217925	true	158.784412621	true	151.914958989	true	155.015770735	true	155.837143004	true	158.450463934	true	151.497201464	true	154.043822994	13	154.75534245107693	2.074404748213016	true													
TypeSet	100	Classical	Scheme-examples/Larceny/Gabriel/takl.scm	false	ParAAM-L-SA-state	16	2509129	108	1	52821	3	(), Cons(@n-Time(),@(listn (- n 1))-Time()), {(),Cons(@n-Time(),@(listn (- n 1))-Time())}	13	true	154.35062973	true	154.753151726	true	155.40861537	true	156.184463389	true	152.433106787	true	156.18644848	true	157.848269931	true	156.781712714	true	150.134467233	true	154.200623724	true	155.078794786	true	154.392288605	true	155.85664728	13	154.89301690423076	1.3990513262130178	true													
TypeSet	100	Classical	Scheme-examples/Larceny/Gabriel/takl.scm	false	ParAAM-L-SA-state	18	2509129	108	1	52821	3	(), Cons(@n-Time(),@(listn (- n 1))-Time()), {(),Cons(@n-Time(),@(listn (- n 1))-Time())}	13	true	152.85222381	true	158.068444285	true	157.880626886	true	154.524711783	true	154.183831267	true	155.807861176	true	155.93696591	true	153.221028622	true	157.501829375	true	152.597284071	true	155.435744629	true	156.9105938	true	158.774356662	13	155.66888479046153	1.7228437785798816	true													
TypeSet	100	Classical	Scheme-examples/Larceny/Gabriel/takl.scm	false	ParAAM-L-SA-state	20	2509129	108	1	52821	3	(), Cons(@n-Time(),@(listn (- n 1))-Time()), {(),Cons(@n-Time(),@(listn (- n 1))-Time())}	13	true	153.177625261	true	153.922088958	true	151.925115865	true	157.042456384	true	153.798276453	true	154.72444048	true	156.4668204	true	153.778224006	true	159.167900007	true	152.161988503	true	157.204145961	true	155.209392879	true	154.188997489	13	154.8282671266154	1.6845199996804752	true													
TypeSet	100	Classical	Scheme-examples/Larceny/Gabriel/takl.scm	false	ParAAM-L-SA-state	24	2509129	108	1	52821	3	(), Cons(@n-Time(),@(listn (- n 1))-Time()), {(),Cons(@n-Time(),@(listn (- n 1))-Time())}	13	true	154.594247361	true	156.712169143	true	150.611541605	true	153.303647787	true	153.28773273	true	159.012619452	true	156.950548276	true	153.281585349	true	152.254437722	true	152.900963691	true	152.558591593	true	154.645929744	true	156.29304408	13	154.33900450253847	1.8730047755029597	true													
TypeSet	100	Classical	Scheme-examples/Larceny/Gabriel/takl.scm	false	ParAAM-L-SA-state	28	2509129	108	1	52821	3	(), Cons(@n-Time(),@(listn (- n 1))-Time()), {(),Cons(@n-Time(),@(listn (- n 1))-Time())}	13	true	153.600376032	true	154.082974698	true	153.253118696	true	152.690464366	true	151.39631014	true	155.024705226	true	156.773270338	true	152.721613491	true	155.001136708	true	154.981986056	true	153.524598682	true	152.201017819	true	155.031884624	13	153.8679582212308	1.1828012804023706	true													
TypeSet	100	Classical	Scheme-examples/Larceny/Gabriel/takl.scm	false	ParAAM-L-SA-state	32	2509129	108	1	52821	3	(), Cons(@n-Time(),@(listn (- n 1))-Time()), {(),Cons(@n-Time(),@(listn (- n 1))-Time())}	13	true	153.412181942	true	154.038873226	true	152.738196589	true	154.692634791	true	154.905824108	true	151.94470576	true	151.789633579	true	154.034709819	true	157.481086722	true	157.193459995	true	154.337991043	true	152.802489605	true	151.941871794	13	153.94720453638462	1.392945838355025	true													
TypeSet	100	Classical	Scheme-examples/Larceny/Gabriel/takl.scm	false	ParAAM-L-SA-state	40	2509129	108	1	52821	3	(), Cons(@n-Time(),@(listn (- n 1))-Time()), {(),Cons(@n-Time(),@(listn (- n 1))-Time())}	13	true	155.064137594	true	151.870378522	true	153.091531257	true	155.224662218	true	154.248300198	true	152.159861649	true	153.757635663	true	154.472881983	true	147.721350332	true	153.709699166	true	154.646701461	true	153.60037946	true	152.978859465	13	153.27279838215384	1.314155490118345	true													
TypeSet	100	Classical	Scheme-examples/Larceny/Gabriel/takl.scm	false	ParAAM-L-SA-state	48	2509129	108	1	52821	3	(), Cons(@n-Time(),@(listn (- n 1))-Time()), {(),Cons(@n-Time(),@(listn (- n 1))-Time())}	13	true	160.383621303	true	154.02825973	true	149.873133394	true	152.523075051	true	156.883756118	true	152.505103958	true	154.639756247	true	152.915749846	true	148.691404409	true	153.062715973	true	157.664749211	true	154.118408484	true	152.835642595	13	153.8557981783846	2.243655695798815	true													
TypeSet	100	Classical	Scheme-examples/Larceny/Gabriel/takl.scm	false	ParAAM-L-SA-state	56	2509129	108	1	52821	3	(), Cons(@n-Time(),@(listn (- n 1))-Time()), {(),Cons(@n-Time(),@(listn (- n 1))-Time())}	13	true	157.79491472	true	155.58159385	true	160.913118618	true	160.333370919	true	155.912407547	true	155.096470498	true	155.148808293	true	154.05312051	true	157.110541921	true	154.428876845	true	151.430119097	true	155.106659881	true	153.345674469	13	155.8658213206154	1.9592687879881685	true													
TypeSet	100	Classical	Scheme-examples/Larceny/Gabriel/takl.scm	false	ParAAM-L-SA-state	64	2509129	108	1	52821	3	(), Cons(@n-Time(),@(listn (- n 1))-Time()), {(),Cons(@n-Time(),@(listn (- n 1))-Time())}	13	true	156.196755256	true	154.932474584	true	153.377696494	true	151.131155755	true	157.172327281	true	154.238778752	true	154.20262169	true	155.945493928	true	150.148108023	true	153.367092745	true	155.792962012	true	154.208550693	true	152.342683204	13	154.08128464746153	1.544567233278109	true													
TypeSet	100	Classical	Scheme-examples/Larceny/Gabriel/takl.scm	false	ParAAM-L-SA-set	2	2509129	108	1	52821	3	(), Cons(@n-Time(),@(listn (- n 1))-Time()), {(),Cons(@n-Time(),@(listn (- n 1))-Time())}	13	true	164.099974504	true	159.023684529	true	161.077935116	true	158.736646391	true	158.476691673	true	160.009483839	true	159.562990685	true	158.846100033	true	161.71994013	true	163.277359528	true	163.389332296	true	163.306691919	true	162.410981809	13	161.0721394193846	1.811882979431951	true													
TypeSet	100	Classical	Scheme-examples/Larceny/Gabriel/takl.scm	false	ParAAM-L-SA-set	3	2509129	108	1	52821	3	(), Cons(@n-Time(),@(listn (- n 1))-Time()), {(),Cons(@n-Time(),@(listn (- n 1))-Time())}	13	true	119.619211308	true	120.511739473	true	119.756610218	true	116.917210694	true	118.919409016	true	118.236724207	true	123.546994847	true	118.489303491	true	117.915719372	true	121.25622315	true	120.163731602	true	122.483497627	true	122.959616763	13	120.05969167446155	1.6251774484970412	true													
TypeSet	100	Classical	Scheme-examples/Larceny/Gabriel/takl.scm	false	ParAAM-L-SA-set	4	2509129	108	1	52821	3	(), Cons(@n-Time(),@(listn (- n 1))-Time()), {(),Cons(@n-Time(),@(listn (- n 1))-Time())}	13	true	129.869261342	true	128.120999176	true	127.233623562	true	125.613385946	true	126.772370367	true	122.973128384	true	119.390360777	true	126.693623247	true	128.031862383	true	125.937760168	true	123.943562098	true	123.903347769	true	125.94656383	13	125.72537300376923	1.9697046222840215	true													
TypeSet	100	Classical	Scheme-examples/Larceny/Gabriel/takl.scm	false	ParAAM-L-SA-set	5	2509129	108	1	52821	3	(), Cons(@n-Time(),@(listn (- n 1))-Time()), {(),Cons(@n-Time(),@(listn (- n 1))-Time())}	13	true	129.411204389	true	137.135724511	true	131.751262551	true	131.439410165	true	132.780812871	true	134.816549406	true	132.04729384	true	129.813699054	true	135.317436427	true	133.277895977	true	129.694658849	true	130.731485227	true	132.478272971	13	132.36120817215385	1.790683558473369	true													
TypeSet	100	Classical	Scheme-examples/Larceny/Gabriel/takl.scm	false	ParAAM-L-SA-set	6	2509129	108	1	52821	3	(), Cons(@n-Time(),@(listn (- n 1))-Time()), {(),Cons(@n-Time(),@(listn (- n 1))-Time())}	13	true	137.506673043	true	137.26514767	true	137.532872789	true	133.232707287	true	132.604122471	true	138.67457809	true	135.471663136	true	135.637190782	true	136.589434465	true	136.314288988	true	135.400079243	true	137.336345548	true	137.254679992	13	136.21690642338464	1.3444260304496998	true													
TypeSet	100	Classical	Scheme-examples/Larceny/Gabriel/takl.scm	false	ParAAM-L-SA-set	7	2509129	108	1	52821	3	(), Cons(@n-Time(),@(listn (- n 1))-Time()), {(),Cons(@n-Time(),@(listn (- n 1))-Time())}	13	true	143.431311925	true	142.169439525	true	138.108321474	true	143.70026345	true	144.867039673	true	142.037596724	true	141.6918836	true	140.50790919	true	141.204073307	true	137.84920091	true	136.332995228	true	140.800768882	true	138.564149348	13	140.8665348643077	2.0055175621301746	true													
TypeSet	100	Classical	Scheme-examples/Larceny/Gabriel/takl.scm	false	ParAAM-L-SA-set	8	2509129	108	1	52821	3	(), Cons(@n-Time(),@(listn (- n 1))-Time()), {(),Cons(@n-Time(),@(listn (- n 1))-Time())}	13	true	143.014104345	true	146.752515872	true	144.550435168	true	137.553973764	true	142.312669326	true	142.385906082	true	142.876060965	true	143.245674209	true	144.305648127	true	140.430371325	true	140.162145032	true	144.04204727	true	145.44852796	13	142.85231380346156	1.7563851520473337	true													
TypeSet	100	Classical	Scheme-examples/Larceny/Gabriel/takl.scm	false	ParAAM-L-SA-set	9	2509129	108	1	52821	3	(), Cons(@n-Time(),@(listn (- n 1))-Time()), {(),Cons(@n-Time(),@(listn (- n 1))-Time())}	13	true	144.172461972	true	141.51379508	true	145.928002423	true	145.040058311	true	143.848197512	true	142.943427308	true	144.617209646	true	140.314006049	true	141.797031619	true	144.686088578	true	143.100304726	true	144.554594769	true	143.606351484	13	143.54780995976918	1.2416130795148075	true													
TypeSet	100	Classical	Scheme-examples/Larceny/Gabriel/takl.scm	false	ParAAM-L-SA-set	10	2509129	108	1	52821	3	(), Cons(@n-Time(),@(listn (- n 1))-Time()), {(),Cons(@n-Time(),@(listn (- n 1))-Time())}	13	true	145.293707475	true	143.919866215	true	145.040147713	true	146.319557313	true	142.375603106	true	146.746860042	true	145.275275648	true	143.861691723	true	147.568025694	true	141.781784796	true	142.982727537	true	142.833341681	true	145.923846414	13	144.60941810438462	1.5233067028165648	true													
TypeSet	100	Classical	Scheme-examples/Larceny/Gabriel/takl.scm	false	ParAAM-L-SA-set	12	2509129	108	1	52821	3	(), Cons(@n-Time(),@(listn (- n 1))-Time()), {(),Cons(@n-Time(),@(listn (- n 1))-Time())}	13	true	144.376931677	true	145.83071731	true	145.228663312	true	145.777353781	true	145.465889796	true	146.792299416	true	139.064292479	true	143.998255777	true	148.335900121	true	142.962123012	true	145.56390459	true	145.394224984	true	144.930227948	13	144.90159878484616	1.4161218760591727	true													
TypeSet	100	Classical	Scheme-examples/Larceny/Gabriel/takl.scm	false	ParAAM-L-SA-set	14	2509129	108	1	52821	3	(), Cons(@n-Time(),@(listn (- n 1))-Time()), {(),Cons(@n-Time(),@(listn (- n 1))-Time())}	13	true	142.620368806	true	150.691795637	true	145.494085088	true	144.633635119	true	146.938823186	true	144.276015692	true	141.134388361	true	140.185265622	true	144.35644745	true	142.837953373	true	142.689069994	true	143.151161771	true	143.327172337	13	144.0258601873846	1.8824063150295842	true													
TypeSet	100	Classical	Scheme-examples/Larceny/Gabriel/takl.scm	false	ParAAM-L-SA-set	16	2509129	108	1	52821	3	(), Cons(@n-Time(),@(listn (- n 1))-Time()), {(),Cons(@n-Time(),@(listn (- n 1))-Time())}	13	true	142.573778896	true	141.281177551	true	146.245531267	true	143.46792738	true	142.194054267	true	141.544113196	true	143.089580886	true	143.765902593	true	148.000582814	true	143.251226142	true	140.883610074	true	143.888443962	true	141.595808882	13	143.21397983923077	1.436266941940827	true													
TypeSet	100	Classical	Scheme-examples/Larceny/Gabriel/takl.scm	false	ParAAM-L-SA-set	18	2509129	108	1	52821	3	(), Cons(@n-Time(),@(listn (- n 1))-Time()), {(),Cons(@n-Time(),@(listn (- n 1))-Time())}	13	true	145.438952743	true	143.333185757	true	145.683341034	true	145.409567115	true	143.826587959	true	144.139977028	true	139.600290234	true	143.59771469	true	143.635459888	true	146.059609318	true	143.138484249	true	141.746433689	true	145.183478558	13	143.90716017399998	1.303379192615381	true													
TypeSet	100	Classical	Scheme-examples/Larceny/Gabriel/takl.scm	false	ParAAM-L-SA-set	20	2509129	108	1	52821	3	(), Cons(@n-Time(),@(listn (- n 1))-Time()), {(),Cons(@n-Time(),@(listn (- n 1))-Time())}	13	true	140.032022771	true	139.121803271	true	143.148759318	true	143.672459	true	145.375415509	true	142.900354817	true	142.465530902	true	141.556100056	true	146.398201693	true	142.460005993	true	139.614163956	true	143.333673924	true	142.17096794	13	142.4807276269231	1.5299228460710093	true													
TypeSet	100	Classical	Scheme-examples/Larceny/Gabriel/takl.scm	false	ParAAM-L-SA-set	24	2509129	108	1	52821	3	(), Cons(@n-Time(),@(listn (- n 1))-Time()), {(),Cons(@n-Time(),@(listn (- n 1))-Time())}	13	true	140.460003341	true	143.179509805	true	142.981640342	true	141.375520566	true	143.25805099	true	140.675549065	true	143.670834145	true	141.063873685	true	142.822069793	true	144.846260615	true	139.40509685	true	141.506588982	true	138.355262289	13	141.81540465138463	1.5178365817988124	true													
TypeSet	100	Classical	Scheme-examples/Larceny/Gabriel/takl.scm	false	ParAAM-L-SA-set	28	2509129	108	1	52821	3	(), Cons(@n-Time(),@(listn (- n 1))-Time()), {(),Cons(@n-Time(),@(listn (- n 1))-Time())}	13	true	140.392192234	true	140.976610635	true	145.39405438	true	141.990078155	true	140.462470904	true	143.495254779	true	143.955156995	true	142.346095507	true	139.890158845	true	138.937802562	true	144.530034471	true	143.497515602	true	140.331411321	13	142.01529510692308	1.711744783455622	true													
TypeSet	100	Classical	Scheme-examples/Larceny/Gabriel/takl.scm	false	ParAAM-L-SA-set	32	2509129	108	1	52821	3	(), Cons(@n-Time(),@(listn (- n 1))-Time()), {(),Cons(@n-Time(),@(listn (- n 1))-Time())}	13	true	143.444961196	true	138.435142002	true	136.195300373	true	144.669491222	true	142.918101848	true	143.824329167	true	142.246823807	true	143.185120738	true	143.942547662	true	139.684723518	true	140.01060735	true	143.122750709	true	145.11970202	13	142.0615078163077	2.1415781572662675	true													
TypeSet	100	Classical	Scheme-examples/Larceny/Gabriel/takl.scm	false	ParAAM-L-SA-set	40	2509129	108	1	52821	3	(), Cons(@n-Time(),@(listn (- n 1))-Time()), {(),Cons(@n-Time(),@(listn (- n 1))-Time())}	13	true	142.41261414	true	141.773668952	true	136.142962326	true	137.188788768	true	141.128568521	true	140.70436054	true	141.990630265	true	140.463090691	true	139.841877769	true	136.081597935	true	142.596551	true	139.87476507	true	145.773981064	13	140.45949669546155	2.0257679398934885	true													
TypeSet	100	Classical	Scheme-examples/Larceny/Gabriel/takl.scm	false	ParAAM-L-SA-set	48	2509129	108	1	52821	3	(), Cons(@n-Time(),@(listn (- n 1))-Time()), {(),Cons(@n-Time(),@(listn (- n 1))-Time())}	13	true	144.303127077	true	142.132203455	true	142.38053123	true	143.717176946	true	141.813409431	true	141.469559785	true	142.669998844	true	141.056202499	true	140.167474685	true	143.740378096	true	140.970101206	true	139.880211829	true	142.920341746	13	142.09390129453848	1.1086843588047306	true													
TypeSet	100	Classical	Scheme-examples/Larceny/Gabriel/takl.scm	false	ParAAM-L-SA-set	56	2509129	108	1	52821	3	(), Cons(@n-Time(),@(listn (- n 1))-Time()), {(),Cons(@n-Time(),@(listn (- n 1))-Time())}	13	true	141.518409057	true	138.64304111	true	138.210712897	true	138.844833511	true	138.308980741	true	137.723167987	true	140.179866716	true	139.35293928	true	138.095784312	true	141.995735537	true	142.843600669	true	140.557405723	true	145.947262891	13	140.17090311007695	1.848747989621304	true													
TypeSet	100	Classical	Scheme-examples/Larceny/Gabriel/takl.scm	false	ParAAM-L-SA-set	64	2509129	108	1	52821	3	(), Cons(@n-Time(),@(listn (- n 1))-Time()), {(),Cons(@n-Time(),@(listn (- n 1))-Time())}	13	true	140.745750986	true	142.660917474	true	143.477395845	true	144.616204331	true	140.713766179	true	140.256065716	true	142.181720033	true	139.090419415	true	139.981605794	true	139.939373524	true	141.595511023	true	141.689681518	true	145.390790399	13	141.71840017207694	1.4976964956331424	true													
TypeSet	100	Classical	Scheme-examples/Larceny/Gabriel/takl.scm	false	ParAAM-L-SA-part	2	2509129	108	1	52821	3	(), Cons(@n-Time(),@(listn (- n 1))-Time()), {(),Cons(@n-Time(),@(listn (- n 1))-Time())}	13	true	105.218942286	true	105.245091219	true	100.280848743	true	104.573256583	true	100.073661945	true	104.312464672	true	104.790654392	true	102.954374969	true	99.773874312	true	103.610619189	true	102.041861803	true	103.140065766	true	103.283328573	13	103.02300341938462	1.536983896142011	true													
TypeSet	100	Classical	Scheme-examples/Larceny/Gabriel/takl.scm	false	ParAAM-L-SA-part	3	2509129	108	1	52821	3	(), Cons(@n-Time(),@(listn (- n 1))-Time()), {(),Cons(@n-Time(),@(listn (- n 1))-Time())}	13	true	103.121598435	true	98.186300638	true	101.432971052	true	101.745421634	true	97.795090347	true	102.682209351	true	102.392356329	true	102.344002074	true	102.545361454	true	100.779517852	true	103.385532584	true	102.25482073	true	100.18879305	13	101.45030581	1.3644394016923065	true													
TypeSet	100	Classical	Scheme-examples/Larceny/Gabriel/takl.scm	false	ParAAM-L-SA-part	4	2509129	108	1	52821	3	(), Cons(@n-Time(),@(listn (- n 1))-Time()), {(),Cons(@n-Time(),@(listn (- n 1))-Time())}	13	true	91.31949138	true	92.988861702	true	96.478565298	true	94.019032982	true	96.362916186	true	93.317275647	true	93.010697055	true	94.067623411	true	93.019384221	true	93.334460953	true	92.387618104	true	92.27580487	true	91.213307298	13	93.36884916207691	1.1465755736449676	true													
TypeSet	100	Classical	Scheme-examples/Larceny/Gabriel/takl.scm	false	ParAAM-L-SA-part	5	2509129	108	1	52821	3	(), Cons(@n-Time(),@(listn (- n 1))-Time()), {(),Cons(@n-Time(),@(listn (- n 1))-Time())}	13	true	92.133903052	true	89.041347068	true	91.907259947	true	89.443360238	true	89.177849533	true	90.223745711	true	89.29230014	true	87.840521163	true	88.835659689	true	88.380925542	true	90.085291769	true	89.424798566	true	89.460103969	13	89.63438972207693	0.8942525524142046	true													
TypeSet	100	Classical	Scheme-examples/Larceny/Gabriel/takl.scm	false	ParAAM-L-SA-part	6	2509129	108	1	52821	3	(), Cons(@n-Time(),@(listn (- n 1))-Time()), {(),Cons(@n-Time(),@(listn (- n 1))-Time())}	13	true	87.056851275	true	87.317334644	true	86.620610037	true	84.608463779	true	86.415573215	true	89.603566125	true	87.218926593	true	85.031578533	true	83.39265398	true	85.698270832	true	84.766378415	true	86.984979136	true	87.499824615	13	86.32423162915386	1.2498173241183395	true													
TypeSet	100	Classical	Scheme-examples/Larceny/Gabriel/takl.scm	false	ParAAM-L-SA-part	7	2509129	108	1	52821	3	(), Cons(@n-Time(),@(listn (- n 1))-Time()), {(),Cons(@n-Time(),@(listn (- n 1))-Time())}	13	true	84.864720608	true	83.631875902	true	87.348871885	true	88.333935199	true	84.283813518	true	86.728679248	true	86.315935022	true	84.076770055	true	87.139494078	true	87.491275468	true	84.693834598	true	83.884577816	true	83.862653714	13	85.58895670084615	1.5114539530650881	true													
TypeSet	100	Classical	Scheme-examples/Larceny/Gabriel/takl.scm	false	ParAAM-L-SA-part	8	2509129	108	1	52821	3	(), Cons(@n-Time(),@(listn (- n 1))-Time()), {(),Cons(@n-Time(),@(listn (- n 1))-Time())}	13	true	85.247746137	true	86.036404483	true	83.88194866	true	84.943202626	true	85.780034925	true	85.484887629	true	85.914635329	true	85.867987598	true	84.172287604	true	84.190427408	true	79.767338125	true	85.597252484	true	84.954150974	13	84.756792614	1.079256716769227	true													
TypeSet	100	Classical	Scheme-examples/Larceny/Gabriel/takl.scm	false	ParAAM-L-SA-part	9	2509129	108	1	52821	3	(), Cons(@n-Time(),@(listn (- n 1))-Time()), {(),Cons(@n-Time(),@(listn (- n 1))-Time())}	13	true	83.434233838	true	84.190277038	true	84.907182184	true	85.02977642	true	84.572316799	true	82.177062086	true	85.263585479	true	81.443892907	true	87.047076026	true	83.53302658	true	84.523759153	true	83.34186371	true	83.680151837	13	84.08801569669231	1.0642866495621315	true													
TypeSet	100	Classical	Scheme-examples/Larceny/Gabriel/takl.scm	false	ParAAM-L-SA-part	10	2509129	108	1	52821	3	(), Cons(@n-Time(),@(listn (- n 1))-Time()), {(),Cons(@n-Time(),@(listn (- n 1))-Time())}	13	true	84.373961967	true	81.59009011	true	84.375608866	true	85.346711764	true	84.266672102	true	83.089142861	true	85.151599448	true	85.006092392	true	84.198408636	true	83.958186229	true	83.170541671	true	83.273788779	true	84.422244449	13	84.01715763646153	0.7698520818934917	true													
TypeSet	100	Classical	Scheme-examples/Larceny/Gabriel/takl.scm	false	ParAAM-L-SA-part	12	2509129	108	1	52821	3	(), Cons(@n-Time(),@(listn (- n 1))-Time()), {(),Cons(@n-Time(),@(listn (- n 1))-Time())}	13	true	83.057356231	true	82.316048441	true	81.686382455	true	84.587966849	true	83.377725714	true	83.828700505	true	82.646400994	true	84.166508942	true	84.349846944	true	84.06630735	true	84.797685291	true	82.872097529	true	81.669255257	13	83.34017557707692	0.8913096239171577	true													
TypeSet	100	Classical	Scheme-examples/Larceny/Gabriel/takl.scm	false	ParAAM-L-SA-part	14	2509129	108	1	52821	3	(), Cons(@n-Time(),@(listn (- n 1))-Time()), {(),Cons(@n-Time(),@(listn (- n 1))-Time())}	13	true	83.998691695	true	85.102385311	true	80.601842341	true	81.579370458	true	82.741579986	true	82.453445754	true	79.808703559	true	79.840628417	true	85.992769829	true	80.368042201	true	82.369115482	true	83.81900275	true	80.921324444	13	82.27668478669231	1.6215688154082846	true													
TypeSet	100	Classical	Scheme-examples/Larceny/Gabriel/takl.scm	false	ParAAM-L-SA-part	16	2509129	108	1	52821	3	(), Cons(@n-Time(),@(listn (- n 1))-Time()), {(),Cons(@n-Time(),@(listn (- n 1))-Time())}	13	true	83.547919309	true	80.78742165	true	83.338015416	true	82.299812986	true	83.570805693	true	80.811878089	true	78.650117866	true	84.552596857	true	82.724307956	true	82.040143626	true	81.000730086	true	82.239053005	true	82.034987128	13	82.12290689746153	1.1403327599644972	true													
TypeSet	100	Classical	Scheme-examples/Larceny/Gabriel/takl.scm	false	ParAAM-L-SA-part	18	2509129	108	1	52821	3	(), Cons(@n-Time(),@(listn (- n 1))-Time()), {(),Cons(@n-Time(),@(listn (- n 1))-Time())}	13	true	83.907329037	true	84.753808762	true	82.154485633	true	81.646735117	true	82.525650842	true	79.700314641	true	82.504077373	true	78.432310238	true	82.136366708	true	80.965845372	true	81.061845408	true	81.755194338	true	81.315506901	13	81.7584207976923	1.1432605490532524	true													
TypeSet	100	Classical	Scheme-examples/Larceny/Gabriel/takl.scm	false	ParAAM-L-SA-part	20	2509129	108	1	52821	3	(), Cons(@n-Time(),@(listn (- n 1))-Time()), {(),Cons(@n-Time(),@(listn (- n 1))-Time())}	13	true	83.90006516	true	82.966640529	true	82.373971876	true	82.793639426	true	80.77908112	true	80.905464425	true	82.009982069	true	81.788216138	true	81.254209882	true	81.517603561	true	81.881916542	true	82.38726112	true	77.776295965	13	81.71802675484614	0.9780736648047372	true													
TypeSet	100	Classical	Scheme-examples/Larceny/Gabriel/takl.scm	false	ParAAM-L-SA-part	24	2509129	108	1	52821	3	(), Cons(@n-Time(),@(listn (- n 1))-Time()), {(),Cons(@n-Time(),@(listn (- n 1))-Time())}	13	true	79.054333882	true	79.81811616	true	81.474448827	true	84.872746937	true	84.421204667	true	77.514191198	true	81.273108782	true	81.147165301	true	82.115606651	true	83.540162082	true	80.364232998	true	79.843974537	true	81.709151818	13	81.31911106461537	1.572100706816566	true													
TypeSet	100	Classical	Scheme-examples/Larceny/Gabriel/takl.scm	false	ParAAM-L-SA-part	28	2509129	108	1	52821	3	(), Cons(@n-Time(),@(listn (- n 1))-Time()), {(),Cons(@n-Time(),@(listn (- n 1))-Time())}	13	true	82.841620791	true	78.982383462	true	81.442527135	true	78.926904096	true	80.35566418	true	80.283539943	true	80.225238943	true	80.81355979	true	79.176385545	true	80.060412592	true	80.649244212	true	81.345155795	true	76.994195974	13	80.16129480446155	1.0255680543550265	true													
TypeSet	100	Classical	Scheme-examples/Larceny/Gabriel/takl.scm	false	ParAAM-L-SA-part	32	2509129	108	1	52821	3	(), Cons(@n-Time(),@(listn (- n 1))-Time()), {(),Cons(@n-Time(),@(listn (- n 1))-Time())}	13	true	79.19081316	true	80.572512545	true	81.193831816	true	83.482532947	true	80.625943035	true	83.311222103	true	81.747633317	true	82.747227578	true	81.450364761	true	79.040492277	true	81.410100949	true	79.314050571	true	80.183557433	13	81.09771403784615	1.1782946470887568	true													
TypeSet	100	Classical	Scheme-examples/Larceny/Gabriel/takl.scm	false	ParAAM-L-SA-part	40	2509129	108	1	52821	3	(), Cons(@n-Time(),@(listn (- n 1))-Time()), {(),Cons(@n-Time(),@(listn (- n 1))-Time())}	13	true	81.583269724	true	80.697990273	true	79.113175215	true	78.816379534	true	78.357345573	true	79.75702459	true	80.100195578	true	78.55699103	true	80.905094305	true	80.469161069	true	79.929102621	true	79.884504581	true	81.389017072	13	79.96609624346155	0.822792393881657	true													
TypeSet	100	Classical	Scheme-examples/Larceny/Gabriel/takl.scm	false	ParAAM-L-SA-part	48	2509129	108	1	52821	3	(), Cons(@n-Time(),@(listn (- n 1))-Time()), {(),Cons(@n-Time(),@(listn (- n 1))-Time())}	13	true	74.383810053	true	81.429907797	true	81.237413031	true	79.200764045	true	80.371274338	true	81.064162107	true	80.519130941	true	82.925420384	true	79.875075325	true	81.780466071	true	82.044487427	true	80.935097261	true	79.268756149	13	80.387366533	1.359561962307692	true													
TypeSet	100	Classical	Scheme-examples/Larceny/Gabriel/takl.scm	false	ParAAM-L-SA-part	56	2509129	108	1	52821	3	(), Cons(@n-Time(),@(listn (- n 1))-Time()), {(),Cons(@n-Time(),@(listn (- n 1))-Time())}	13	true	81.364379924	true	81.508513449	true	78.66776842	true	78.908807163	true	81.352649062	true	81.28102418	true	78.76485402	true	76.923006388	true	81.704905996	true	78.383949802	true	80.433043716	true	80.77264309	true	80.265999178	13	80.02550341446153	1.304481735278109	true													
TypeSet	100	Classical	Scheme-examples/Larceny/Gabriel/takl.scm	false	ParAAM-L-SA-part	64	2509129	108	1	52821	3	(), Cons(@n-Time(),@(listn (- n 1))-Time()), {(),Cons(@n-Time(),@(listn (- n 1))-Time())}	13	true	82.016174309	true	82.475837265	true	79.630046138	true	77.779167941	true	80.382789519	true	78.5671063	true	79.061765213	true	77.760126085	true	76.255978086	true	79.79212355	true	79.92356687	true	77.244824798	true	80.581805912	13	79.34394707584616	1.445340620319525	true													
TypeSet	100	Classical	Scheme-examples/Larceny/Gabriel/takl.scm	false	ParAAM-C-S-part	2	2509129	108	1	52821	3	(), Cons(@n-Time(),@(listn (- n 1))-Time()), {(),Cons(@n-Time(),@(listn (- n 1))-Time())}	13	true	91.99499782	true	92.708977119	true	93.080118847	true	91.207534477	true	90.974755502	true	89.89815096	true	89.667339279	true	90.791578805	true	90.605159792	true	94.351421183	true	92.08632922	true	92.773801348	true	90.982350706	13	91.62480885061538	1.1148911435857984	true													
TypeSet	100	Classical	Scheme-examples/Larceny/Gabriel/takl.scm	false	ParAAM-C-S-part	3	2509129	108	1	52821	3	(), Cons(@n-Time(),@(listn (- n 1))-Time()), {(),Cons(@n-Time(),@(listn (- n 1))-Time())}	13	true	51.301596792	true	51.448315308	true	52.654286186	true	52.713351103	true	54.069467625	true	52.400991973	true	55.218831566	true	54.28241288	true	54.278989691	true	50.946231412	true	52.424506105	true	52.350819965	true	52.497057127	13	52.81437367176922	1.0141857038343152	true													
TypeSet	100	Classical	Scheme-examples/Larceny/Gabriel/takl.scm	false	ParAAM-C-S-part	4	2509129	108	1	52821	3	(), Cons(@n-Time(),@(listn (- n 1))-Time()), {(),Cons(@n-Time(),@(listn (- n 1))-Time())}	13	true	41.928630298	true	38.058929193	true	39.394106692	true	39.126600416	true	40.188033967	true	40.095515684	true	39.531403629	true	40.372267911	true	39.418273225	true	37.34789037	true	39.233073107	true	38.688837413	true	40.360813269	13	39.51879809030769	0.82521172556213	true													
TypeSet	100	Classical	Scheme-examples/Larceny/Gabriel/takl.scm	false	ParAAM-C-S-part	5	2509129	108	1	52821	3	(), Cons(@n-Time(),@(listn (- n 1))-Time()), {(),Cons(@n-Time(),@(listn (- n 1))-Time())}	13	true	30.928994727	true	31.232915	true	30.731218146	true	30.863827053	true	29.497822057	true	28.575211912	true	31.243532354	true	27.836329108	true	30.930519255	true	29.412643048	true	31.44638767	true	30.847541193	true	30.605518537	13	30.31942000461538	0.916257522071007	true													
TypeSet	100	Classical	Scheme-examples/Larceny/Gabriel/takl.scm	false	ParAAM-C-S-part	6	2509129	108	1	52821	3	(), Cons(@n-Time(),@(listn (- n 1))-Time()), {(),Cons(@n-Time(),@(listn (- n 1))-Time())}	13	true	27.493966848	true	25.880841249	true	26.022553077	true	26.51250198	true	27.663139782	true	25.983025293	true	26.108856275	true	26.710898638	true	26.139366439	true	26.867115209	true	27.118364029	true	28.739606183	true	26.658422314	13	26.76143517815385	0.6269255631124265	true													
TypeSet	100	Classical	Scheme-examples/Larceny/Gabriel/takl.scm	false	ParAAM-C-S-part	7	2509129	108	1	52821	3	(), Cons(@n-Time(),@(listn (- n 1))-Time()), {(),Cons(@n-Time(),@(listn (- n 1))-Time())}	13	true	23.280245342	true	22.998524235	true	24.401015596	true	24.461983537	true	21.865594733	true	21.858335103	true	22.028369091	true	22.982548354	true	23.008193157	true	21.848571766	true	22.033705118	true	22.760309924	true	22.74586718	13	22.790251010461535	0.6755391012662719	true													
TypeSet	100	Classical	Scheme-examples/Larceny/Gabriel/takl.scm	false	ParAAM-C-S-part	8	2509129	108	1	52821	3	(), Cons(@n-Time(),@(listn (- n 1))-Time()), {(),Cons(@n-Time(),@(listn (- n 1))-Time())}	13	true	20.041925294	true	19.522675378	true	20.503010931	true	20.84692078	true	20.235635039	true	19.994057753	true	19.285093545	true	21.176238444	true	20.558392437	true	21.189013865	true	20.434533993	true	22.143233481	true	20.768264353	13	20.51530733023077	0.5523414428639055	true													
TypeSet	100	Classical	Scheme-examples/Larceny/Gabriel/takl.scm	false	ParAAM-C-S-part	9	2509129	108	1	52821	3	(), Cons(@n-Time(),@(listn (- n 1))-Time()), {(),Cons(@n-Time(),@(listn (- n 1))-Time())}	13	true	18.633022447	true	19.112904723	true	19.615017684	true	19.380262962	true	20.926565718	true	19.940129628	true	19.244823732	true	18.598375075	true	18.797445573	true	18.953491627	true	18.475956405	true	18.956506253	true	20.071469557	13	19.285074721846154	0.5397033753491127	true													
TypeSet	100	Classical	Scheme-examples/Larceny/Gabriel/takl.scm	false	ParAAM-C-S-part	10	2509129	108	1	52821	3	(), Cons(@n-Time(),@(listn (- n 1))-Time()), {(),Cons(@n-Time(),@(listn (- n 1))-Time())}	13	true	17.333383344	true	18.110076772	true	16.719045758	true	18.836444445	true	17.855633539	true	18.596717101	true	17.82737582	true	17.632833976	true	17.31565571	true	17.341736804	true	17.215572171	true	17.362162842	true	17.331448272	13	17.652160504153844	0.4562223317278099	true													
TypeSet	100	Classical	Scheme-examples/Larceny/Gabriel/takl.scm	false	ParAAM-C-S-part	12	2509129	108	1	52821	3	(), Cons(@n-Time(),@(listn (- n 1))-Time()), {(),Cons(@n-Time(),@(listn (- n 1))-Time())}	13	true	15.792210835	true	15.74533689	true	15.720515312	true	15.387412244	true	15.739272288	true	16.449807374	true	15.669599229	true	15.612148072	true	16.18981697	true	16.087343981	true	15.612783913	true	15.763244472	true	15.175833166	13	15.765024980461536	0.22447372894674458	true													
TypeSet	100	Classical	Scheme-examples/Larceny/Gabriel/takl.scm	false	ParAAM-C-S-part	14	2509129	108	1	52821	3	(), Cons(@n-Time(),@(listn (- n 1))-Time()), {(),Cons(@n-Time(),@(listn (- n 1))-Time())}	13	true	15.770243517	true	14.991350147	true	15.044978074	true	15.201468199	true	14.710821458	true	14.553937931	true	15.081763904	true	14.902558981	true	15.409406917	true	14.823098877	true	14.123292179	true	14.86009589	true	14.413610497	13	14.914355890076925	0.3097039103905328	true													
TypeSet	100	Classical	Scheme-examples/Larceny/Gabriel/takl.scm	false	ParAAM-C-S-part	16	2509129	108	1	52821	3	(), Cons(@n-Time(),@(listn (- n 1))-Time()), {(),Cons(@n-Time(),@(listn (- n 1))-Time())}	13	true	14.555679661	true	15.776426153	true	15.661583715	true	14.477619704	true	14.776303897	true	14.704336368	true	15.12775682	true	13.858200695	true	14.312267245	true	14.731774138	true	14.393585896	true	14.408922846	true	14.822116061	13	14.738967169153844	0.3799001231124255	true													
TypeSet	100	Classical	Scheme-examples/Larceny/Gabriel/takl.scm	false	ParAAM-C-S-part	18	2509129	108	1	52821	3	(), Cons(@n-Time(),@(listn (- n 1))-Time()), {(),Cons(@n-Time(),@(listn (- n 1))-Time())}	13	true	14.608108003	true	14.201679313	true	14.329727622	true	14.415466494	true	14.552662061	true	14.080515368	true	14.595524479	true	15.041296292	true	15.297759108	true	14.846110634	true	15.121311793	true	14.442041099	true	15.212449881	13	14.672665549769231	0.33163076294674565	true													
TypeSet	100	Classical	Scheme-examples/Larceny/Gabriel/takl.scm	false	ParAAM-C-S-part	20	2509129	108	1	52821	3	(), Cons(@n-Time(),@(listn (- n 1))-Time()), {(),Cons(@n-Time(),@(listn (- n 1))-Time())}	13	true	16.398478453	true	16.267911878	true	16.529451998	true	15.956730362	true	16.320522546	true	15.541910528	true	14.532905431	true	14.941074067	true	14.933323403	true	14.883610215	true	15.630423821	true	15.003957457	true	15.413242128	13	15.565657099000001	0.5707040713846153	true													
TypeSet	100	Classical	Scheme-examples/Larceny/Gabriel/takl.scm	false	ParAAM-C-S-part	24	2509129	108	1	52821	3	(), Cons(@n-Time(),@(listn (- n 1))-Time()), {(),Cons(@n-Time(),@(listn (- n 1))-Time())}	13	true	17.68797738	true	17.356472608	true	16.903724337	true	16.538040233	true	17.460822219	true	16.707440167	true	17.537312571	true	17.513274036	true	17.203008119	true	16.4037714	true	17.411777384	true	17.202263058	true	17.541484591	13	17.189797546384618	0.339417545928993	true													
TypeSet	100	Classical	Scheme-examples/Larceny/Gabriel/takl.scm	false	ParAAM-C-S-part	28	2509129	108	1	52821	3	(), Cons(@n-Time(),@(listn (- n 1))-Time()), {(),Cons(@n-Time(),@(listn (- n 1))-Time())}	13	true	19.212248053	true	18.77353573	true	18.488085994	true	18.059723901	true	19.065462249	true	18.412116029	true	18.659858578	true	18.312456977	true	18.097863622	true	18.162513571	true	18.127301105	true	18.03624141	true	17.80320745	13	18.400816513000002	0.33944731615384616	true													
TypeSet	100	Classical	Scheme-examples/Larceny/Gabriel/takl.scm	false	ParAAM-C-S-part	32	2509129	108	1	52821	3	(), Cons(@n-Time(),@(listn (- n 1))-Time()), {(),Cons(@n-Time(),@(listn (- n 1))-Time())}	13	true	19.706130134	true	18.130297291	true	19.252834037	true	18.893289195	true	19.392348752	true	19.153302599	true	19.785616006	true	18.33796858	true	19.06361796	true	19.238677969	true	18.825285965	true	19.56765445	true	19.804519964	13	19.165503300153844	0.3983474170650891	true													
TypeSet	100	Classical	Scheme-examples/Larceny/Gabriel/takl.scm	false	ParAAM-C-S-part	40	2509129	108	1	52821	3	(), Cons(@n-Time(),@(listn (- n 1))-Time()), {(),Cons(@n-Time(),@(listn (- n 1))-Time())}	13	true	20.661039656	true	20.238801302	true	21.70502622	true	21.468111764	true	20.234678378	true	20.138388313	true	20.313977366	true	20.562872619	true	20.342796045	true	20.653217975	true	20.375142259	true	20.097368048	true	20.874648626	13	20.58969758238461	0.3713163583195251	true													
TypeSet	100	Classical	Scheme-examples/Larceny/Gabriel/takl.scm	false	ParAAM-C-S-part	48	2509129	108	1	52821	3	(), Cons(@n-Time(),@(listn (- n 1))-Time()), {(),Cons(@n-Time(),@(listn (- n 1))-Time())}	13	true	22.889005493	true	22.111100133	true	21.931818717	true	21.149604682	true	21.953938239	true	21.609921545	true	21.845578878	true	22.340510058	true	21.490223848	true	21.097519852	true	21.343060217	true	21.955212868	true	20.807688219	13	21.732706365307692	0.445879973668639	true													
TypeSet	100	Classical	Scheme-examples/Larceny/Gabriel/takl.scm	false	ParAAM-C-S-part	56	2509129	108	1	52821	3	(), Cons(@n-Time(),@(listn (- n 1))-Time()), {(),Cons(@n-Time(),@(listn (- n 1))-Time())}	13	true	23.642577479	true	22.252619324	true	22.177457567	true	22.124120078	true	22.799720665	true	22.154591507	true	23.32273168	true	22.722376434	true	23.563223605	true	23.025812356	true	22.901007034	true	22.491222373	true	22.534911324	13	22.747105494307693	0.4265292081775146	true													
TypeSet	100	Classical	Scheme-examples/Larceny/Gabriel/takl.scm	false	ParAAM-C-S-part	64	2509129	108	1	52821	3	(), Cons(@n-Time(),@(listn (- n 1))-Time()), {(),Cons(@n-Time(),@(listn (- n 1))-Time())}	13	true	24.17386355	true	23.840495419	true	22.326322064	true	22.525313502	true	22.425365417	true	22.131013072	true	21.629252699	true	22.32044183	true	21.610019112	true	22.421406996	true	21.751601441	true	22.414542749	true	22.313729245	13	22.452566699692305	0.4895342110650877	true													
TypeSet	100	Classical	Scheme-examples/Larceny/Gabriel/takl.scm	false	ParAAM-C-state	1	2509129	108	1	52821	3	(), Cons(@n-Time(),@(listn (- n 1))-Time()), {(),Cons(@n-Time(),@(listn (- n 1))-Time())}	13	true	70.637309081	true	67.045264854	true	67.068945432	true	66.35716541	true	66.625882685	true	65.488812306	true	69.469642147	true	66.522735867	true	68.223282136	true	66.449712036	true	67.884027502	true	66.260842064	true	67.684379398	13	67.36292314753845	1.0898499271242594	true													
TypeSet	100	Classical	Scheme-examples/Larceny/Gabriel/takl.scm	false	ParAAM-C-state	2	2509129	108	1	52821	3	(), Cons(@n-Time(),@(listn (- n 1))-Time()), {(),Cons(@n-Time(),@(listn (- n 1))-Time())}	13	true	50.231667616	true	45.552193885	true	47.609783645	true	45.415592297	true	47.760154006	true	45.527133435	true	48.883439612	true	47.140403792	true	49.303550173	true	45.631932981	true	47.709780312	true	45.296633618	true	46.541524703	13	47.12336846730769	1.3500307515147922	true													
TypeSet	100	Classical	Scheme-examples/Larceny/Gabriel/takl.scm	false	ParAAM-C-state	3	2509129	108	1	52821	3	(), Cons(@n-Time(),@(listn (- n 1))-Time()), {(),Cons(@n-Time(),@(listn (- n 1))-Time())}	13	true	108.693718453	true	99.048301405	true	106.603407429	true	101.215154204	true	111.876474205	true	114.137502528	true	106.942910419	true	92.006164607	true	93.211527739	true	117.763547319	true	90.421773156	true	111.229933798	true	95.616954721	13	103.75133615253846	7.844329397420117	true													
TypeSet	100	Classical	Scheme-examples/Larceny/Gabriel/takl.scm	false	ParAAM-C-state	4	2509129	108	1	52821	3	(), Cons(@n-Time(),@(listn (- n 1))-Time()), {(),Cons(@n-Time(),@(listn (- n 1))-Time())}	13	true	141.161975786	true	143.126429104	true	148.930789767	true	151.038848024	true	145.880743633	true	152.360811622	true	136.622336116	true	138.717363088	true	141.682299537	true	133.965970409	true	123.136700635	true	134.340916831	true	121.301744058	13	139.4051483546154	7.43782446010651	true													
TypeSet	100	Classical	Scheme-examples/Larceny/Gabriel/takl.scm	false	ParAAM-C-state	5	2509129	108	1	52821	3	(), Cons(@n-Time(),@(listn (- n 1))-Time()), {(),Cons(@n-Time(),@(listn (- n 1))-Time())}	13	true	125.091409617	true	131.713411377	true	120.55141842	true	139.649190545	true	133.20552771	true	143.901710949	true	118.002328579	true	127.890586036	true	134.71531349	true	133.066009108	true	137.615991668	true	139.448068341	true	115.483798365	13	130.79498186192308	7.2239028142485235	true													
TypeSet	100	Classical	Scheme-examples/Larceny/Gabriel/takl.scm	false	ParAAM-C-state	6	2509129	108	1	52821	3	(), Cons(@n-Time(),@(listn (- n 1))-Time()), {(),Cons(@n-Time(),@(listn (- n 1))-Time())}	13	true	118.972939894	true	117.50302768	true	114.691221438	true	116.71475733	true	116.453104678	true	108.518083418	true	111.286484747	true	103.456738831	true	101.33324854	true	103.014046683	true	120.723931885	true	113.091444549	true	120.172633853	13	112.7639741173846	5.57096436429586	true													
TypeSet	100	Classical	Scheme-examples/Larceny/Gabriel/takl.scm	false	ParAAM-C-state	7	2509129	108	1	52821	3	(), Cons(@n-Time(),@(listn (- n 1))-Time()), {(),Cons(@n-Time(),@(listn (- n 1))-Time())}	13	true	106.086130673	true	104.473694254	true	101.393947817	true	105.750856325	true	103.915442404	true	102.585902065	true	93.942016272	true	108.792164207	true	97.45496808	true	99.958637713	true	99.616805082	true	104.178797878	true	92.849779417	13	101.61531862976925	3.765501138094673	true													
TypeSet	100	Classical	Scheme-examples/Larceny/Gabriel/takl.scm	false	ParAAM-C-state	8	2509129	108	1	52821	3	(), Cons(@n-Time(),@(listn (- n 1))-Time()), {(),Cons(@n-Time(),@(listn (- n 1))-Time())}	13	true	94.091873836	true	88.820632591	true	92.849213531	true	88.472896398	true	96.267296323	true	86.985403183	true	80.368033092	true	95.105365633	true	90.196441572	true	90.40506924	true	85.653312332	true	97.740846333	true	80.520675107	13	89.80592762853847	4.3099404720355015	true													
TypeSet	100	Classical	Scheme-examples/Larceny/Gabriel/takl.scm	false	ParAAM-C-state	9	2509129	108	1	52821	3	(), Cons(@n-Time(),@(listn (- n 1))-Time()), {(),Cons(@n-Time(),@(listn (- n 1))-Time())}	13	true	82.565423344	true	79.63481975	true	85.218406318	true	80.778316618	true	79.552366455	true	80.396948088	true	82.633724691	true	80.77273944	true	85.924873147	true	86.697029539	true	74.63812836	true	82.312446358	true	77.861164291	13	81.46049126146153	2.552147050497041	true													
TypeSet	100	Classical	Scheme-examples/Larceny/Gabriel/takl.scm	false	ParAAM-C-state	10	2509129	108	1	52821	3	(), Cons(@n-Time(),@(listn (- n 1))-Time()), {(),Cons(@n-Time(),@(listn (- n 1))-Time())}	13	true	80.045608361	true	72.087564646	true	75.422922367	true	76.167153997	true	74.159429028	true	75.749015625	true	71.914811569	true	75.494954595	true	74.924533617	true	71.428550977	true	72.293099004	true	68.66309882	true	72.645427139	13	73.92278228807692	2.2314063959171597	true													
TypeSet	100	Classical	Scheme-examples/Larceny/Gabriel/takl.scm	false	ParAAM-C-state	12	2509129	108	1	52821	3	(), Cons(@n-Time(),@(listn (- n 1))-Time()), {(),Cons(@n-Time(),@(listn (- n 1))-Time())}	13	true	67.144035015	true	62.270429512	true	63.274503162	true	65.730776008	true	70.297066744	true	62.146410804	true	65.892528419	true	65.197112246	true	61.586981795	true	65.079056439	true	66.530470713	true	65.41935502	true	59.615313698	13	64.62954150576924	2.1929336242840227	true													
TypeSet	100	Classical	Scheme-examples/Larceny/Gabriel/takl.scm	false	ParAAM-C-state	14	2509129	108	1	52821	3	(), Cons(@n-Time(),@(listn (- n 1))-Time()), {(),Cons(@n-Time(),@(listn (- n 1))-Time())}	13	true	61.913756371	true	61.582467615	true	61.918556584	true	57.318900913	true	60.619457498	true	63.750821674	true	60.546699615	true	61.833112325	true	61.254899557	true	57.828380383	true	60.899965001	true	61.466828403	true	53.95144142	13	60.375791335307696	1.8505617369112408	true													
TypeSet	100	Classical	Scheme-examples/Larceny/Gabriel/takl.scm	false	ParAAM-C-state	16	2509129	108	1	52821	3	(), Cons(@n-Time(),@(listn (- n 1))-Time()), {(),Cons(@n-Time(),@(listn (- n 1))-Time())}	13	true	59.667055629	true	58.805415302	true	58.574677441	true	60.098818648	true	59.38276938	true	56.709011548	true	60.5064524	true	62.077879757	true	61.041009465	true	58.442609545	true	58.124891726	true	62.649476269	true	60.184341706	13	59.712646832000004	1.274168808153846	true													
TypeSet	100	Classical	Scheme-examples/Larceny/Gabriel/takl.scm	false	ParAAM-C-state	18	2509129	108	1	52821	3	(), Cons(@n-Time(),@(listn (- n 1))-Time()), {(),Cons(@n-Time(),@(listn (- n 1))-Time())}	13	true	59.774580789	true	54.981155026	true	59.511821181	true	57.61189958	true	57.977678588	true	59.257364005	true	58.696850148	true	58.499874402	true	59.824907504	true	57.316021817	true	60.723009118	true	61.032960591	true	61.020762224	13	58.94068345946154	1.3170186455029578	true													
TypeSet	100	Classical	Scheme-examples/Larceny/Gabriel/takl.scm	false	ParAAM-C-state	20	2509129	108	1	52821	3	(), Cons(@n-Time(),@(listn (- n 1))-Time()), {(),Cons(@n-Time(),@(listn (- n 1))-Time())}	13	true	60.064155752	true	59.940068622	true	57.432001746	true	59.98599754	true	59.330356794	true	59.003145965	true	55.672347801	true	60.43485886	true	59.879148033	true	56.055316294	true	61.830256277	true	58.458173973	true	58.78641818	13	58.99017275669231	1.3148624291479278	true													
TypeSet	100	Classical	Scheme-examples/Larceny/Gabriel/takl.scm	false	ParAAM-C-state	24	2509129	108	1	52821	3	(), Cons(@n-Time(),@(listn (- n 1))-Time()), {(),Cons(@n-Time(),@(listn (- n 1))-Time())}	13	true	59.001567206	true	58.461945809	true	57.345818363	true	56.686907278	true	60.057405405	true	57.058252263	true	58.358978614	true	58.460665441	true	58.997325902	true	59.460957235	true	57.768338248	true	57.298739031	true	57.384774571	13	58.180128874307684	0.8519913064378708	true													
TypeSet	100	Classical	Scheme-examples/Larceny/Gabriel/takl.scm	false	ParAAM-C-state	28	2509129	108	1	52821	3	(), Cons(@n-Time(),@(listn (- n 1))-Time()), {(),Cons(@n-Time(),@(listn (- n 1))-Time())}	13	true	57.420034861	true	57.876227514	true	58.683542092	true	59.57542134	true	57.46436524	true	57.347688445	true	57.727684875	true	56.117934017	true	56.986165537	true	56.920672654	true	57.752958746	true	56.966700461	true	57.77607001	13	57.58580506092308	0.5964729556094672	true													
TypeSet	100	Classical	Scheme-examples/Larceny/Gabriel/takl.scm	false	ParAAM-C-state	32	2509129	108	1	52821	3	(), Cons(@n-Time(),@(listn (- n 1))-Time()), {(),Cons(@n-Time(),@(listn (- n 1))-Time())}	13	true	55.974820548	true	55.35617594	true	55.392016492	true	57.810196843	true	58.961730621	true	55.478345966	true	57.783212743	true	57.668743694	true	57.399446681	true	55.430443108	true	56.555377704	true	57.350966693	true	58.169161787	13	56.87158760153846	1.0834378232662725	true													
TypeSet	100	Classical	Scheme-examples/Larceny/Gabriel/takl.scm	false	ParAAM-C-state	40	2509129	108	1	52821	3	(), Cons(@n-Time(),@(listn (- n 1))-Time()), {(),Cons(@n-Time(),@(listn (- n 1))-Time())}	13	true	56.018729966	true	56.119337732	true	56.104649516	true	58.056377404	true	56.31030003	true	56.501462377	true	56.664170561	true	55.260010157	true	57.047932382	true	56.588328967	true	56.501672258	true	56.173221243	true	56.095554235	13	56.41859590984616	0.4382105369112429	true													
TypeSet	100	Classical	Scheme-examples/Larceny/Gabriel/takl.scm	false	ParAAM-C-state	48	2509129	108	1	52821	3	(), Cons(@n-Time(),@(listn (- n 1))-Time()), {(),Cons(@n-Time(),@(listn (- n 1))-Time())}	13	true	54.009952979	true	54.053062593	true	56.313879321	true	56.280302027	true	54.837232055	true	56.569763177	true	56.288440896	true	57.36465821	true	55.063710663	true	57.43240974	true	55.650140103	true	55.188219057	true	56.128216017	13	55.78307591061538	0.9070981559526629	true													
TypeSet	100	Classical	Scheme-examples/Larceny/Gabriel/takl.scm	false	ParAAM-C-state	56	2509129	108	1	52821	3	(), Cons(@n-Time(),@(listn (- n 1))-Time()), {(),Cons(@n-Time(),@(listn (- n 1))-Time())}	13	true	55.02548277	true	52.921981107	true	55.909636688	true	56.981295977	true	54.296044915	true	54.525670837	true	52.328604651	true	51.861117296	true	54.509696023	true	52.945623787	true	53.864218992	true	54.139398161	true	54.66849931	13	54.152097731846155	1.0540988303195264	true													
TypeSet	100	Classical	Scheme-examples/Larceny/Gabriel/takl.scm	false	ParAAM-C-state	64	2509129	108	1	52821	3	(), Cons(@n-Time(),@(listn (- n 1))-Time()), {(),Cons(@n-Time(),@(listn (- n 1))-Time())}	13	true	51.721188171	true	50.207069711	true	54.014541974	true	51.923954646	true	51.809360858	true	51.683218279	true	51.744223578	true	52.574477794	true	51.218994701	true	53.565573248	true	51.583779898	true	52.696816432	true	49.144826217	13	51.83754042361539	0.859640303988165	true													
TypeSet	100	Classical	Scheme-examples/Larceny/Gabriel/takl.scm	false	ParAAM-C-set	1	2509129	108	1	52821	3	(), Cons(@n-Time(),@(listn (- n 1))-Time()), {(),Cons(@n-Time(),@(listn (- n 1))-Time())}	13	true	70.233959178	true	68.917349446	true	67.36214412	true	67.435737413	true	67.692481986	true	67.21108037	true	68.476495825	true	69.593690428	true	69.068676662	true	68.648464531	true	66.188920688	true	68.512248136	true	66.279038084	13	68.1246374513077	1.012064930284023	true													
TypeSet	100	Classical	Scheme-examples/Larceny/Gabriel/takl.scm	false	ParAAM-C-set	2	2509129	108	1	52821	3	(), Cons(@n-Time(),@(listn (- n 1))-Time()), {(),Cons(@n-Time(),@(listn (- n 1))-Time())}	13	true	42.380642677	true	40.362268401	true	39.584995716	true	40.289054244	true	37.196488964	true	39.35291671	true	40.221525094	true	39.897304121	true	40.15875534	true	39.299381553	true	40.160697416	true	40.182897283	true	38.6889521	13	39.82891381684615	0.7725898524970407	true													
TypeSet	100	Classical	Scheme-examples/Larceny/Gabriel/takl.scm	false	ParAAM-C-set	3	2509129	108	1	52821	3	(), Cons(@n-Time(),@(listn (- n 1))-Time()), {(),Cons(@n-Time(),@(listn (- n 1))-Time())}	13	true	34.149795779	true	33.673598239	true	34.397158305	true	33.630416259	true	32.916218683	true	35.909523725	true	32.803798821	true	34.5581411	true	34.745850605	true	34.145766638	true	33.299316423	true	33.599523851	true	32.166996481	13	33.84585422376923	0.7432478168284024	true													
TypeSet	100	Classical	Scheme-examples/Larceny/Gabriel/takl.scm	false	ParAAM-C-set	4	2509129	108	1	52821	3	(), Cons(@n-Time(),@(listn (- n 1))-Time()), {(),Cons(@n-Time(),@(listn (- n 1))-Time())}	13	true	35.994964231	true	35.923804266	true	34.444535216	true	35.445691812	true	34.043570217	true	36.264795874	true	35.068592432	true	36.206370417	true	35.814347764	true	36.018244231	true	36.136942443	true	34.543540592	true	34.871656623	13	35.44438893215384	0.653853781656805	true													
TypeSet	100	Classical	Scheme-examples/Larceny/Gabriel/takl.scm	false	ParAAM-C-set	5	2509129	108	1	52821	3	(), Cons(@n-Time(),@(listn (- n 1))-Time()), {(),Cons(@n-Time(),@(listn (- n 1))-Time())}	13	true	37.216283287	true	36.250500948	true	36.961106905	true	37.924386045	true	36.009977797	true	36.806691425	true	35.432800937	true	37.245073066	true	36.799444561	true	37.462884322	true	36.907849956	true	35.562514796	true	36.0481633	13	36.663667488076925	0.6175968711360943	true													
TypeSet	100	Classical	Scheme-examples/Larceny/Gabriel/takl.scm	false	ParAAM-C-set	6	2509129	108	1	52821	3	(), Cons(@n-Time(),@(listn (- n 1))-Time()), {(),Cons(@n-Time(),@(listn (- n 1))-Time())}	13	true	41.912085068	true	41.06402403	true	37.405363652	true	39.623262489	true	38.383484096	true	39.200961923	true	39.040979193	true	41.392128734	true	40.982859848	true	40.567833801	true	38.897789245	true	36.871803243	true	39.672993675	13	39.616582230538455	1.2152480048047347	true													
TypeSet	100	Classical	Scheme-examples/Larceny/Gabriel/takl.scm	false	ParAAM-C-set	7	2509129	108	1	52821	3	(), Cons(@n-Time(),@(listn (- n 1))-Time()), {(),Cons(@n-Time(),@(listn (- n 1))-Time())}	13	true	46.223806111	true	44.635359194	true	47.021388957	true	47.803357239	true	45.054102408	true	42.951931496	true	42.144596129	true	43.722786035	true	44.610831384	true	43.962870848	true	46.520316201	true	46.885917536	true	43.922467575	13	45.03536393176924	1.4302622863668644	true													
TypeSet	100	Classical	Scheme-examples/Larceny/Gabriel/takl.scm	false	ParAAM-C-set	8	2509129	108	1	52821	3	(), Cons(@n-Time(),@(listn (- n 1))-Time()), {(),Cons(@n-Time(),@(listn (- n 1))-Time())}	13	true	57.180670515	true	51.681497704	true	53.714210489	true	51.250743497	true	50.171160164	true	55.170270721	true	56.583210238	true	53.939244628	true	50.471566337	true	54.879988425	true	54.770118543	true	51.302038232	true	54.580233643	13	53.51499639507692	1.953534775597634	true													
TypeSet	100	Classical	Scheme-examples/Larceny/Gabriel/takl.scm	false	ParAAM-C-set	9	2509129	108	1	52821	3	(), Cons(@n-Time(),@(listn (- n 1))-Time()), {(),Cons(@n-Time(),@(listn (- n 1))-Time())}	13	true	64.493876078	true	64.99688681	true	58.38383169	true	63.505293086	true	56.485242407	true	60.071503857	true	60.78580571	true	59.538131984	true	59.62889701	true	60.989670228	true	61.192323982	true	58.217138831	true	60.438291376	13	60.67129946530769	1.8363167849467448	true													
TypeSet	100	Classical	Scheme-examples/Larceny/Gabriel/takl.scm	false	ParAAM-C-set	10	2509129	108	1	52821	3	(), Cons(@n-Time(),@(listn (- n 1))-Time()), {(),Cons(@n-Time(),@(listn (- n 1))-Time())}	13	true	68.728499657	true	67.442140861	true	67.547681643	true	68.570661167	true	64.319543274	true	70.099195154	true	63.253127763	true	60.169999276	true	68.287545132	true	64.65984794	true	67.956577395	true	68.561399079	true	65.536058172	13	66.54863665484615	2.277631822958581	true													
TypeSet	100	Classical	Scheme-examples/Larceny/Gabriel/takl.scm	false	ParAAM-C-set	12	2509129	108	1	52821	3	(), Cons(@n-Time(),@(listn (- n 1))-Time()), {(),Cons(@n-Time(),@(listn (- n 1))-Time())}	13	true	77.606761365	true	75.614777456	true	72.454398016	true	66.756822363	true	76.421918694	true	71.609769909	true	71.575337189	true	68.959906688	true	71.397017451	true	68.903807041	true	73.030304053	true	74.223884252	true	70.279768204	13	72.21803636007692	2.4682808731597636	true													
TypeSet	100	Classical	Scheme-examples/Larceny/Gabriel/takl.scm	false	ParAAM-C-set	14	2509129	108	1	52821	3	(), Cons(@n-Time(),@(listn (- n 1))-Time()), {(),Cons(@n-Time(),@(listn (- n 1))-Time())}	13	true	63.075747361	true	69.956896406	true	74.101986456	true	70.72942698	true	70.986160739	true	72.333063872	true	72.92411795	true	75.361933439	true	70.371304436	true	74.686453991	true	67.512586434	true	66.312553544	true	71.818306365	13	70.78234907484617	2.5747045058579867	true													
TypeSet	100	Classical	Scheme-examples/Larceny/Gabriel/takl.scm	false	ParAAM-C-set	16	2509129	108	1	52821	3	(), Cons(@n-Time(),@(listn (- n 1))-Time()), {(),Cons(@n-Time(),@(listn (- n 1))-Time())}	13	true	68.732103925	true	66.521158557	true	64.093901859	true	67.289141152	true	68.575068719	true	68.203802454	true	68.21629283	true	64.083106166	true	62.42590135	true	61.39046811	true	68.546347307	true	62.544192565	true	69.635047509	13	66.1735794233077	2.5123580102366865	true													
TypeSet	100	Classical	Scheme-examples/Larceny/Gabriel/takl.scm	false	ParAAM-C-set	18	2509129	108	1	52821	3	(), Cons(@n-Time(),@(listn (- n 1))-Time()), {(),Cons(@n-Time(),@(listn (- n 1))-Time())}	13	true	66.804024194	true	62.094535842	true	61.067810695	true	59.733020248	true	62.314898279	true	65.244202135	true	65.686500577	true	62.765545316	true	62.894430724	true	69.642321548	true	65.796675922	true	64.852730257	true	60.21985226	13	63.77819599976923	2.362658251443787	true													
TypeSet	100	Classical	Scheme-examples/Larceny/Gabriel/takl.scm	false	ParAAM-C-set	20	2509129	108	1	52821	3	(), Cons(@n-Time(),@(listn (- n 1))-Time()), {(),Cons(@n-Time(),@(listn (- n 1))-Time())}	13	true	64.43451446	true	62.149212703	true	60.400154118	true	56.551130371	true	61.317338871	true	59.362099366	true	59.371233516	true	62.027363244	true	58.193613978	true	58.744804542	true	60.81406148	true	59.546536748	true	59.122192255	13	60.156481203999995	1.5698088695384615	true													
TypeSet	100	Classical	Scheme-examples/Larceny/Gabriel/takl.scm	false	ParAAM-C-set	24	2509129	108	1	52821	3	(), Cons(@n-Time(),@(listn (- n 1))-Time()), {(),Cons(@n-Time(),@(listn (- n 1))-Time())}	13	true	54.591196643	true	57.137059981	true	59.953479751	true	54.859762931	true	56.359006355	true	55.516929467	true	53.406059587	true	54.768858859	true	56.130814583	true	56.78621706	true	57.148927236	true	55.836869923	true	54.85310862	13	55.94986853815385	1.2025067287810656	true													
TypeSet	100	Classical	Scheme-examples/Larceny/Gabriel/takl.scm	false	ParAAM-C-set	28	2509129	108	1	52821	3	(), Cons(@n-Time(),@(listn (- n 1))-Time()), {(),Cons(@n-Time(),@(listn (- n 1))-Time())}	13	true	53.330081212	true	52.029557115	true	53.29517554	true	50.596123748	true	52.63841288	true	54.180432347	true	52.94584088	true	52.148409798	true	52.899247095	true	55.02127486	true	53.109349181	true	52.752392313	true	52.439176518	13	52.87580565284615	0.7155017761656813	true													
TypeSet	100	Classical	Scheme-examples/Larceny/Gabriel/takl.scm	false	ParAAM-C-set	32	2509129	108	1	52821	3	(), Cons(@n-Time(),@(listn (- n 1))-Time()), {(),Cons(@n-Time(),@(listn (- n 1))-Time())}	13	true	50.857189641	true	51.812176248	true	50.893614545	true	52.398597219	true	50.323494071	true	49.912445859	true	48.168006508	true	52.63831003	true	53.57269927	true	49.522639586	true	49.617969803	true	51.279968474	true	52.692836605	13	51.053072912230775	1.2424846727100602	true													
TypeSet	100	Classical	Scheme-examples/Larceny/Gabriel/takl.scm	false	ParAAM-C-set	40	2509129	108	1	52821	3	(), Cons(@n-Time(),@(listn (- n 1))-Time()), {(),Cons(@n-Time(),@(listn (- n 1))-Time())}	13	true	50.828954135	true	51.786622566	true	48.937756231	true	49.839017324	true	46.870983339	true	47.732758427	true	49.788299912	true	47.817023881	true	49.057464419	true	47.895451661	true	48.334480621	true	47.284813085	true	43.270368153	13	48.41876875030769	1.496231090023668	true													
TypeSet	100	Classical	Scheme-examples/Larceny/Gabriel/takl.scm	false	ParAAM-C-set	48	2509129	108	1	52821	3	(), Cons(@n-Time(),@(listn (- n 1))-Time()), {(),Cons(@n-Time(),@(listn (- n 1))-Time())}	13	true	46.762900056	true	43.95535684	true	44.082578068	true	47.323583461	true	43.986970587	true	45.720308798	true	47.416888932	true	45.83785587	true	48.550382041	true	45.111519221	true	47.214105378	true	45.806399211	true	46.666443582	13	46.03348400346153	1.1897537583431945	true													
TypeSet	100	Classical	Scheme-examples/Larceny/Gabriel/takl.scm	false	ParAAM-C-set	56	2509129	108	1	52821	3	(), Cons(@n-Time(),@(listn (- n 1))-Time()), {(),Cons(@n-Time(),@(listn (- n 1))-Time())}	13	true	43.666878668	true	44.333562718	true	42.829673124	true	45.104903687	true	42.956560358	true	43.212488735	true	45.124303484	true	44.751540398	true	44.168785203	true	48.486091426	true	44.918973543	true	44.785197829	true	44.650929265	13	44.537683726	0.9320236230769231	true													
TypeSet	100	Classical	Scheme-examples/Larceny/Gabriel/takl.scm	false	ParAAM-C-set	64	2509129	108	1	52821	3	(), Cons(@n-Time(),@(listn (- n 1))-Time()), {(),Cons(@n-Time(),@(listn (- n 1))-Time())}	13	true	41.213444065	true	41.614461337	true	43.170498116	true	41.211176899	true	41.786734716	true	41.824547355	true	41.914929668	true	39.876210284	true	43.147671361	true	40.224143219	true	40.370328739	true	41.35605418	true	41.130273229	13	41.44926716676923	0.7328060849822484	true													
TypeSet	100	Classical	Scheme-examples/Larceny/Gabriel/takl.scm	false	ParAAM-C-part	1	2509129	108	1	52821	3	(), Cons(@n-Time(),@(listn (- n 1))-Time()), {(),Cons(@n-Time(),@(listn (- n 1))-Time())}	13	true	94.654949231	true	88.971745498	true	90.180455387	true	88.244006265	true	89.268977399	true	88.830246007	true	89.065682956	true	88.334193306	true	89.194923393	true	89.258079	true	89.972139531	true	92.602591778	true	90.642363361	13	89.94002716246153	1.284978996260354	true													
TypeSet	100	Classical	Scheme-examples/Larceny/Gabriel/takl.scm	false	ParAAM-C-part	2	2509129	108	1	52821	3	(), Cons(@n-Time(),@(listn (- n 1))-Time()), {(),Cons(@n-Time(),@(listn (- n 1))-Time())}	13	true	53.125426991	true	52.528180706	true	51.238893159	true	52.006253433	true	51.449596893	true	50.527428249	true	51.367692839	true	53.03372586	true	51.756563372	true	52.512512589	true	51.891164105	true	53.022156714	true	49.181176872	13	51.81852090630769	0.8291960082840231	true													
TypeSet	100	Classical	Scheme-examples/Larceny/Gabriel/takl.scm	false	ParAAM-C-part	3	2509129	108	1	52821	3	(), Cons(@n-Time(),@(listn (- n 1))-Time()), {(),Cons(@n-Time(),@(listn (- n 1))-Time())}	13	true	36.505360651	true	35.524206105	true	35.646095752	true	37.333161668	true	38.399722871	true	37.627127031	true	36.941793286	true	36.502130527	true	37.80466823	true	36.646557902	true	37.038977065	true	37.24039236	true	38.749972076	13	37.07385888646154	0.7249062949585808	true													
TypeSet	100	Classical	Scheme-examples/Larceny/Gabriel/takl.scm	false	ParAAM-C-part	4	2509129	108	1	52821	3	(), Cons(@n-Time(),@(listn (- n 1))-Time()), {(),Cons(@n-Time(),@(listn (- n 1))-Time())}	13	true	31.242891185	true	29.629559102	true	30.254822344	true	29.516203648	true	28.845980262	true	30.253024571	true	30.764396919	true	29.116084389	true	31.209246522	true	29.163918903	true	29.120308645	true	31.006099238	true	29.300210758	13	29.955595883538464	0.7687546888875741	true													
TypeSet	100	Classical	Scheme-examples/Larceny/Gabriel/takl.scm	false	ParAAM-C-part	5	2509129	108	1	52821	3	(), Cons(@n-Time(),@(listn (- n 1))-Time()), {(),Cons(@n-Time(),@(listn (- n 1))-Time())}	13	true	26.266188061	true	28.282632888	true	26.912214064	true	25.118181956	true	26.83643436	true	25.704363518	true	26.208202389	true	26.477061486	true	26.207606959	true	27.043665417	true	26.042919355	true	26.583886351	true	27.029116915	13	26.516344132230763	0.5522900310177506	true													
TypeSet	100	Classical	Scheme-examples/Larceny/Gabriel/takl.scm	false	ParAAM-C-part	6	2509129	108	1	52821	3	(), Cons(@n-Time(),@(listn (- n 1))-Time()), {(),Cons(@n-Time(),@(listn (- n 1))-Time())}	13	true	23.62674922	true	22.978090733	true	24.814495998	true	23.948330449	true	23.830517551	true	23.052333137	true	22.943259709	true	22.691589751	true	23.234223801	true	23.744826546	true	23.075295049	true	24.222857849	true	22.464230263	13	23.432830773538456	0.5524296879644968	true													
TypeSet	100	Classical	Scheme-examples/Larceny/Gabriel/takl.scm	false	ParAAM-C-part	7	2509129	108	1	52821	3	(), Cons(@n-Time(),@(listn (- n 1))-Time()), {(),Cons(@n-Time(),@(listn (- n 1))-Time())}	13	true	19.867048567	true	21.204114764	true	20.347338972	true	21.470040658	true	21.497127866	true	19.596821657	true	21.977757974	true	21.699471697	true	19.744218487	true	21.024748079	true	19.53025725	true	19.576186734	true	21.131784691	13	20.666685953538465	0.8212683160355023	true													
TypeSet	100	Classical	Scheme-examples/Larceny/Gabriel/takl.scm	false	ParAAM-C-part	8	2509129	108	1	52821	3	(), Cons(@n-Time(),@(listn (- n 1))-Time()), {(),Cons(@n-Time(),@(listn (- n 1))-Time())}	13	true	18.719831645	true	18.84609694	true	18.939746067	true	19.489123516	true	19.741967504	true	19.364754748	true	19.203946525	true	19.607911043	true	19.832106503	true	19.013353458	true	18.979055898	true	19.004813435	true	19.144538543	13	19.222095832692307	0.2962129462366866	true													
TypeSet	100	Classical	Scheme-examples/Larceny/Gabriel/takl.scm	false	ParAAM-C-part	9	2509129	108	1	52821	3	(), Cons(@n-Time(),@(listn (- n 1))-Time()), {(),Cons(@n-Time(),@(listn (- n 1))-Time())}	13	true	17.257394345	true	17.964706044	true	18.117117896	true	18.664575333	true	17.050517976	true	17.741086096	true	17.560011604	true	17.735011958	true	18.850459448	true	18.372545093	true	18.215555772	true	17.35517453	true	17.232959357	13	17.855162727076923	0.4698435728520707	true													
TypeSet	100	Classical	Scheme-examples/Larceny/Gabriel/takl.scm	false	ParAAM-C-part	10	2509129	108	1	52821	3	(), Cons(@n-Time(),@(listn (- n 1))-Time()), {(),Cons(@n-Time(),@(listn (- n 1))-Time())}	13	true	16.918542051	true	16.170257764	true	16.625831027	true	15.183149224	true	16.584891521	true	16.69759456	true	15.777797263	true	17.106838567	true	16.178693132	true	16.078688466	true	16.223234677	true	17.990411824	true	16.99608757	13	16.502462895846154	0.5235318229349113	true													
TypeSet	100	Classical	Scheme-examples/Larceny/Gabriel/takl.scm	false	ParAAM-C-part	12	2509129	108	1	52821	3	(), Cons(@n-Time(),@(listn (- n 1))-Time()), {(),Cons(@n-Time(),@(listn (- n 1))-Time())}	13	true	15.286653415	true	15.84615611	true	15.702526207	true	15.851263621	true	16.532101798	true	13.984777169	true	13.873034001	true	16.543707785	true	15.592558964	true	13.741973397	true	15.667119181	true	15.567639622	true	14.347715991	13	15.272094404692307	0.7909041631952664	true													
TypeSet	100	Classical	Scheme-examples/Larceny/Gabriel/takl.scm	false	ParAAM-C-part	14	2509129	108	1	52821	3	(), Cons(@n-Time(),@(listn (- n 1))-Time()), {(),Cons(@n-Time(),@(listn (- n 1))-Time())}	13	true	14.108075818	true	14.287166494	true	14.139819405	true	14.693639895	true	14.715506641	true	14.137946297	true	14.565977536	true	14.665234554	true	13.833956615	true	13.774178805	true	14.004572745	true	14.532872746	true	14.41826214	13	14.298246899307692	0.27723263325443787	true													
TypeSet	100	Classical	Scheme-examples/Larceny/Gabriel/takl.scm	false	ParAAM-C-part	16	2509129	108	1	52821	3	(), Cons(@n-Time(),@(listn (- n 1))-Time()), {(),Cons(@n-Time(),@(listn (- n 1))-Time())}	13	true	14.307830448	true	14.936092157	true	14.670256087	true	14.45362974	true	14.353704169	true	15.093271453	true	14.66736958	true	14.726277717	true	13.864458974	true	14.465691051	true	13.815629397	true	14.536617433	true	13.994254391	13	14.452698661307693	0.29655629654437854	true													
TypeSet	100	Classical	Scheme-examples/Larceny/Gabriel/takl.scm	false	ParAAM-C-part	18	2509129	108	1	52821	3	(), Cons(@n-Time(),@(listn (- n 1))-Time()), {(),Cons(@n-Time(),@(listn (- n 1))-Time())}	13	true	13.8889155	true	15.189178224	true	14.148087317	true	14.893232592	true	14.694016807	true	14.875862086	true	15.044378667	true	14.607672666	true	14.723510563	true	14.130818083	true	14.234299602	true	14.029068416	true	13.890614814	13	14.488435025923078	0.4013548343905327	true													
TypeSet	100	Classical	Scheme-examples/Larceny/Gabriel/takl.scm	false	ParAAM-C-part	20	2509129	108	1	52821	3	(), Cons(@n-Time(),@(listn (- n 1))-Time()), {(),Cons(@n-Time(),@(listn (- n 1))-Time())}	13	true	15.245258465	true	14.622637298	true	16.163409704	true	14.630301472	true	14.978658981	true	14.841923789	true	14.843739369	true	14.537684034	true	15.040290253	true	14.754747438	true	14.369110886	true	14.6432761	true	14.950057838	13	14.893930432846153	0.29354201181065054	true													
TypeSet	100	Classical	Scheme-examples/Larceny/Gabriel/takl.scm	false	ParAAM-C-part	24	2509129	108	1	52821	3	(), Cons(@n-Time(),@(listn (- n 1))-Time()), {(),Cons(@n-Time(),@(listn (- n 1))-Time())}	13	true	18.401059845	true	18.148036561	true	17.036513183	true	16.04375511	true	16.569995084	true	16.069014686	true	15.999426139	true	16.801274232	true	16.609898092	true	17.377099945	true	16.017254811	true	15.757560796	true	17.192074942	13	16.770997186615386	0.6661654751242607	true													
TypeSet	100	Classical	Scheme-examples/Larceny/Gabriel/takl.scm	false	ParAAM-C-part	28	2509129	108	1	52821	3	(), Cons(@n-Time(),@(listn (- n 1))-Time()), {(),Cons(@n-Time(),@(listn (- n 1))-Time())}	13	true	17.767003749	true	18.48909202	true	17.459753573	true	17.343831746	true	19.233797906	true	17.748544339	true	17.268995642	true	17.345919829	true	18.49664681	true	17.793707281	true	17.359659939	true	18.06694322	true	17.3577191	13	17.825508858	0.45914531138461523	true													
TypeSet	100	Classical	Scheme-examples/Larceny/Gabriel/takl.scm	false	ParAAM-C-part	32	2509129	108	1	52821	3	(), Cons(@n-Time(),@(listn (- n 1))-Time()), {(),Cons(@n-Time(),@(listn (- n 1))-Time())}	13	true	18.704781752	true	18.286918903	true	18.21787125	true	18.34137781	true	18.967816467	true	17.830302895	true	18.373251094	true	18.403692581	true	18.958627171	true	18.045959786	true	18.00333615	true	19.145382454	true	19.655911266	13	18.533479198384615	0.4254035566272184	true													
TypeSet	100	Classical	Scheme-examples/Larceny/Gabriel/takl.scm	false	ParAAM-C-part	40	2509129	108	1	52821	3	(), Cons(@n-Time(),@(listn (- n 1))-Time()), {(),Cons(@n-Time(),@(listn (- n 1))-Time())}	13	true	18.873801632	true	18.763849069	true	18.878861848	true	19.025292453	true	19.009364796	true	19.557560992	true	19.747679089	true	19.345404772	true	20.630620382	true	18.714333599	true	19.599422717	true	19.138350425	true	19.496938989	13	19.29088313561538	0.40497355804733703	true													
TypeSet	100	Classical	Scheme-examples/Larceny/Gabriel/takl.scm	false	ParAAM-C-part	48	2509129	108	1	52821	3	(), Cons(@n-Time(),@(listn (- n 1))-Time()), {(),Cons(@n-Time(),@(listn (- n 1))-Time())}	13	true	20.007567113	true	19.98429719	true	19.450843132	true	19.54234931	true	20.589733183	true	19.796936807	true	20.160672718	true	20.052598829	true	20.14100212	true	19.844362208	true	19.562931785	true	19.456710237	true	20.081906042	13	19.897839282615386	0.2666003410295858	true													
TypeSet	100	Classical	Scheme-examples/Larceny/Gabriel/takl.scm	false	ParAAM-C-part	56	2509129	108	1	52821	3	(), Cons(@n-Time(),@(listn (- n 1))-Time()), {(),Cons(@n-Time(),@(listn (- n 1))-Time())}	13	true	21.092215503	true	19.24026388	true	20.613561077	true	19.899550327	true	19.846219999	true	19.838782078	true	19.390220336	true	20.690764062	true	20.099964391	true	18.888306684	true	20.709605046	true	19.787927344	true	19.360238245	13	19.958278382461536	0.5253412564142005	true													
TypeSet	100	Classical	Scheme-examples/Larceny/Gabriel/takl.scm	false	ParAAM-C-part	64	2509129	108	1	52821	3	(), Cons(@n-Time(),@(listn (- n 1))-Time()), {(),Cons(@n-Time(),@(listn (- n 1))-Time())}	13	true	21.210783802	true	20.317636884	true	19.426916853	true	20.890597337	true	19.661302655	true	20.950559129	true	20.222632228	true	20.441827285	true	20.691670661	true	21.000263171	true	20.899062458	true	19.842181405	true	21.222805082	13	20.521402996153842	0.4947570256804737	true													
