TypeSet	100	Classical	Scheme-examples/Sergey/gcfa2/sat.scm	true	SeqAAMLS	1	18728	0	0	672	3	#f, #t, {#f,#t}	1	true	0.878642054	true	
TypeSet	100	Classical	Scheme-examples/Sergey/gcfa2/sat.scm	true	ParAAM-L-SA-state	20	18728	0	0	672	3	#f, #t, {#f,#t}	1	true	0.897626902	true	
TypeSet	100	Classical	Scheme-examples/Sergey/gcfa2/sat.scm	true	ParAAM-L-SA-set	20	18728	0	0	672	3	#f, #t, {#f,#t}	1	true	0.310490936	true	
TypeSet	100	Classical	Scheme-examples/Sergey/gcfa2/sat.scm	true	ParAAM-L-SA-part	20	18728	0	0	672	3	#f, #t, {#f,#t}	1	true	0.199764479	true	
TypeSet	100	Classical	Scheme-examples/Sergey/gcfa2/sat.scm	true	ParAAM-C-S-set	20	18728	0	0	672	3	#f, #t, {#f,#t}	1	true	0.126177505	true	
TypeSet	100	Classical	Scheme-examples/Sergey/gcfa2/sat.scm	true	ParAAM-C-S-part	20	18728	0	0	672	3	#f, #t, {#f,#t}	1	true	0.109725202	true	
TypeSet	100	Classical	Scheme-examples/Sergey/gcfa2/sat.scm	true	ParAAM-C-state	1	18728	0	0	672	3	#f, #t, {#f,#t}	1	true	0.382420742	true	
TypeSet	100	Classical	Scheme-examples/Sergey/gcfa2/sat.scm	true	ParAAM-C-state	20	18728	0	0	672	3	#f, #t, {#f,#t}	1	true	0.104803545	true	
TypeSet	100	Classical	Scheme-examples/Sergey/gcfa2/sat.scm	true	ParAAM-C-set	1	18728	0	0	672	3	#f, #t, {#f,#t}	1	true	0.395131812	true	
TypeSet	100	Classical	Scheme-examples/Sergey/gcfa2/sat.scm	true	ParAAM-C-set	20	18728	0	0	672	3	#f, #t, {#f,#t}	1	true	0.065790316	true	
TypeSet	100	Classical	Scheme-examples/Sergey/gcfa2/sat.scm	true	ParAAM-C-part	1	18728	0	0	672	3	#f, #t, {#f,#t}	1	true	0.446159992	true	
TypeSet	100	Classical	Scheme-examples/Sergey/gcfa2/sat.scm	true	ParAAM-C-part	20	18728	0	0	672	3	#f, #t, {#f,#t}	1	true	0.047797173	true	
Lattice	Bound	Address	Scheme program	Step filter?	Machine	p	# states	# error states	# error values	# final states	# final values	Final values	#	?	Time 1	?	Time 2	?	Time 3	?	Time 4	?	Time 5	?	Time 6	?	Time 7	?	Time 8	?	Time 9	?	Time 10	?	Time 11	?	Time 12	?	Time 13	# finished	Average time	Standard error	Correct?	Error 1	Error 2	Error 3	Error 4	Error 5	Error 6	Error 7	Error 8	Error 9	Error 10	Error 11	Error 12	Error 13
TypeSet	100	Classical	Scheme-examples/AlgoDat1/qsort.scm	false	SeqAAMLS	1	2073573	0	0	16039	1	VectorAddress(@vector-Time())	13	true	22.494474219	true	21.661638218	true	21.795185707	true	21.950873698	true	21.735232519	true	21.725619503	true	21.726206167	true	21.881913996	true	21.929559992	true	21.894296472	true	21.824858741	true	21.996794954	true	21.679256366	13	21.868916196307694	0.14375633125443782	true													
TypeSet	100	Classical	Scheme-examples/AlgoDat1/qsort.scm	false	ParAAM-L-SA-state	2	2073573	0	0	16039	1	VectorAddress(@vector-Time())	13	true	19.598972589	true	19.368755025	true	19.917081887	true	19.674862549	true	19.671086493	true	19.740951532	true	19.373426666	true	19.388467016	true	19.141886793	true	19.369037567	true	19.283265116	true	19.363853216	true	19.319256856	13	19.477761792692306	0.18679170562130146	true													
TypeSet	100	Classical	Scheme-examples/AlgoDat1/qsort.scm	false	ParAAM-L-SA-state	3	2073573	0	0	16039	1	VectorAddress(@vector-Time())	13	true	21.614811741	true	21.60823691	true	21.8687144	true	21.469076526	true	21.768696658	true	21.96673748	true	22.019299201	true	21.830840042	true	21.550201893	true	21.895462932	true	22.081015012	true	21.624632883	true	22.016386261	13	21.79339322607692	0.17303119160946806	true													
TypeSet	100	Classical	Scheme-examples/AlgoDat1/qsort.scm	false	ParAAM-L-SA-state	4	2073573	0	0	16039	1	VectorAddress(@vector-Time())	13	true	22.835140867	true	22.796562168	true	22.708101737	true	22.673449371	true	22.754103565	true	22.867915799	true	22.960904492	true	22.912180923	true	22.691351776	true	22.815507896	true	22.974679467	true	23.464263827	true	23.041639911	13	22.884292446076927	0.14341636763313714	true													
TypeSet	100	Classical	Scheme-examples/AlgoDat1/qsort.scm	false	ParAAM-L-SA-state	5	2073573	0	0	16039	1	VectorAddress(@vector-Time())	13	true	23.191246149	true	23.034471676	true	22.907253807	true	22.746175111	true	22.967315257	true	23.097158255	true	23.11123489	true	23.198157774	true	22.914347199	true	23.278809598	true	23.056297684	true	23.129110623	true	23.205586178	13	23.064397246230765	0.11700349898224861	true													
TypeSet	100	Classical	Scheme-examples/AlgoDat1/qsort.scm	false	ParAAM-L-SA-state	6	2073573	0	0	16039	1	VectorAddress(@vector-Time())	13	true	23.315506603	true	23.307388199	true	23.160277413	true	23.190177214	true	23.420905663	true	24.186561371	true	23.373975177	true	23.25501136	true	23.188947046	true	23.350243689	true	23.283904351	true	23.050392036	true	23.42434799	13	23.34674139323077	0.15728106520710045	true													
TypeSet	100	Classical	Scheme-examples/AlgoDat1/qsort.scm	false	ParAAM-L-SA-state	7	2073573	0	0	16039	1	VectorAddress(@vector-Time())	13	true	23.075743761	true	23.316226044	true	23.314200788	true	23.969437593	true	23.010578606	true	23.373941243	true	22.934888229	true	23.300773163	true	23.105846161	true	23.355271809	true	23.085752622	true	23.209873271	true	22.893509594	13	23.226618683384615	0.19540592918343228	true													
TypeSet	100	Classical	Scheme-examples/AlgoDat1/qsort.scm	false	ParAAM-L-SA-state	8	2073573	0	0	16039	1	VectorAddress(@vector-Time())	13	true	23.593240305	true	23.398105379	true	23.128185282	true	23.287913693	true	23.894431653	true	23.127224921	true	23.05874965	true	23.150474202	true	23.063625154	true	23.16651774	true	23.987569582	true	23.284021281	true	23.070638955	13	23.32389983053846	0.24273039951479147	true													
TypeSet	100	Classical	Scheme-examples/AlgoDat1/qsort.scm	false	ParAAM-L-SA-state	9	2073573	0	0	16039	1	VectorAddress(@vector-Time())	13	true	23.327464903	true	23.223392498	true	23.598480845	true	23.136851729	true	23.087471912	true	23.816596561	true	23.037209161	true	23.597472545	true	23.518800785	true	23.324078683	true	23.164382097	true	24.064250692	true	23.529111179	13	23.417351045384617	0.2493240514911246	true													
TypeSet	100	Classical	Scheme-examples/AlgoDat1/qsort.scm	false	ParAAM-L-SA-state	10	2073573	0	0	16039	1	VectorAddress(@vector-Time())	13	true	23.364499676	true	23.43910403	true	23.494084805	true	23.205119477	true	23.245578935	true	23.136415207	true	23.450415067	true	23.355279205	true	23.138613154	true	23.42496256	true	23.301108157	true	23.111643619	true	23.155445893	13	23.294020752692308	0.11866280479289962	true													
TypeSet	100	Classical	Scheme-examples/AlgoDat1/qsort.scm	false	ParAAM-L-SA-state	12	2073573	0	0	16039	1	VectorAddress(@vector-Time())	13	true	23.356537731	true	23.281147365	true	23.314498064	true	23.468455435	true	23.369413303	true	23.339426576	true	23.136802655	true	23.57973545	true	23.206560359	true	23.348151589	true	23.324199477	true	23.259099501	true	24.02565011	13	23.38535981653846	0.141194083905325	true													
TypeSet	100	Classical	Scheme-examples/AlgoDat1/qsort.scm	false	ParAAM-L-SA-state	14	2073573	0	0	16039	1	VectorAddress(@vector-Time())	13	true	23.236223393	true	23.02540469	true	23.046765931	true	23.139213598	true	23.266442459	true	23.227991498	true	23.131241536	true	23.484272124	true	24.005461605	true	23.82000035	true	23.299862573	true	23.120112153	true	23.040326259	13	23.29563985915384	0.21954418698224634	true													
TypeSet	100	Classical	Scheme-examples/AlgoDat1/qsort.scm	false	ParAAM-L-SA-state	16	2073573	0	0	16039	1	VectorAddress(@vector-Time())	13	true	24.057045933	true	23.045160439	true	23.31125271	true	23.293381943	true	23.220220491	true	23.5234908	true	23.266869528	true	23.626338027	true	23.173976255	true	23.186391032	true	23.061517523	true	23.329788238	true	23.166471765	13	23.32783882184615	0.1885088785562116	true													
TypeSet	100	Classical	Scheme-examples/AlgoDat1/qsort.scm	false	ParAAM-L-SA-state	18	2073573	0	0	16039	1	VectorAddress(@vector-Time())	13	true	24.099248344	true	23.184233878	true	23.304900347	true	23.160129443	true	23.201176823	true	23.314549695	true	23.234809091	true	23.157128474	true	23.34900083	true	23.279653277	true	23.306012781	true	23.527481713	true	23.029477249	13	23.31906168807692	0.1566993573491115	true													
TypeSet	100	Classical	Scheme-examples/AlgoDat1/qsort.scm	false	ParAAM-L-SA-state	20	2073573	0	0	16039	1	VectorAddress(@vector-Time())	13	true	23.290728998	true	23.206778245	true	23.333004105	true	23.495558774	true	23.155141225	true	23.697630581	true	23.029737596	true	23.277233982	true	23.234268207	true	23.098643596	true	23.420599953	true	23.243785926	true	23.184748306	13	23.282143038	0.1272011109230771	true													
TypeSet	100	Classical	Scheme-examples/AlgoDat1/qsort.scm	false	ParAAM-L-SA-set	2	2073573	0	0	16039	1	VectorAddress(@vector-Time())	13	true	19.274272314	true	19.184131045	true	19.226473203	true	19.166976498	true	19.120259682	true	19.36444655	true	19.176154549	true	19.221209851	true	19.107155426	true	19.220606585	true	19.306348992	true	19.156491924	true	19.519859906	13	19.23418357884615	0.08126053024851906	true													
TypeSet	100	Classical	Scheme-examples/AlgoDat1/qsort.scm	false	ParAAM-L-SA-set	3	2073573	0	0	16039	1	VectorAddress(@vector-Time())	13	true	21.720759251	true	21.527636843	true	21.308009326	true	21.95437155	true	21.42719878	true	21.445384299	true	21.465838427	true	21.553612684	true	21.666473188	true	21.874272707	true	21.669495189	true	21.636531541	true	21.590999237	13	21.603121770923075	0.13894966160946717	true													
TypeSet	100	Classical	Scheme-examples/AlgoDat1/qsort.scm	false	ParAAM-L-SA-set	4	2073573	0	0	16039	1	VectorAddress(@vector-Time())	13	true	22.497649959	true	22.378884259	true	22.30894944	true	23.28819858	true	22.337618093	true	22.42556346	true	22.488558221	true	22.477106256	true	22.888577408	true	22.35807749	true	22.404137187	true	22.656186655	true	22.694558206	13	22.554158862615388	0.20167467669822622	true													
TypeSet	100	Classical	Scheme-examples/AlgoDat1/qsort.scm	false	ParAAM-L-SA-set	5	2073573	0	0	16039	1	VectorAddress(@vector-Time())	13	true	22.934004953	true	22.646580756	true	23.196023092	true	22.700913611	true	22.479665969	true	22.805240669	true	22.910357418	true	22.747417559	true	22.656690649	true	22.897178481	true	22.694705104	true	22.475999194	true	22.496452468	13	22.741633071	0.16006519169230743	true													
TypeSet	100	Classical	Scheme-examples/AlgoDat1/qsort.scm	false	ParAAM-L-SA-set	6	2073573	0	0	16039	1	VectorAddress(@vector-Time())	13	true	22.953648529	true	23.008203248	true	23.319215398	true	22.866899647	true	22.768352206	true	22.754991895	true	22.64602711	true	22.603410299	true	22.718121635	true	22.528390339	true	22.675429741	true	22.614615465	true	22.734171865	13	22.783959798230764	0.15571194293490967	true													
TypeSet	100	Classical	Scheme-examples/AlgoDat1/qsort.scm	false	ParAAM-L-SA-set	7	2073573	0	0	16039	1	VectorAddress(@vector-Time())	13	true	23.475351643	true	22.729281004	true	22.680022161	true	23.35607643	true	22.545286148	true	22.725110377	true	22.864817746	true	22.756380845	true	22.528351828	true	22.668522967	true	22.591017632	true	22.69999825	true	22.356210435	13	22.767417497384614	0.2144605118224841	true													
TypeSet	100	Classical	Scheme-examples/AlgoDat1/qsort.scm	false	ParAAM-L-SA-set	8	2073573	0	0	16039	1	VectorAddress(@vector-Time())	13	true	22.54820099	true	22.704305455	true	22.570837454	true	22.627641636	true	22.665339996	true	22.81838816	true	22.667950945	true	22.795929343	true	22.666996419	true	22.499219897	true	22.60594671	true	22.790515935	true	22.871231732	13	22.679423436307694	0.08973129899408286	true													
TypeSet	100	Classical	Scheme-examples/AlgoDat1/qsort.scm	false	ParAAM-L-SA-set	9	2073573	0	0	16039	1	VectorAddress(@vector-Time())	13	true	22.583679802	true	23.220793402	true	22.455298963	true	22.72362521	true	22.728250122	true	22.566003244	true	22.568455447	true	22.925263884	true	22.806197661	true	22.594895138	true	22.694786811	true	22.65382113	true	22.865811593	13	22.722067877461537	0.14423609342011817	true													
TypeSet	100	Classical	Scheme-examples/AlgoDat1/qsort.scm	false	ParAAM-L-SA-set	10	2073573	0	0	16039	1	VectorAddress(@vector-Time())	13	true	22.800201017	true	22.475536672	true	23.113989952	true	22.665027455	true	22.714484944	true	23.367183884	true	23.010142385	true	22.704143233	true	22.887796862	true	22.915097455	true	22.854735009	true	22.790043644	true	22.981226993	13	22.86766226961538	0.16453290973964485	true													
TypeSet	100	Classical	Scheme-examples/AlgoDat1/qsort.scm	false	ParAAM-L-SA-set	12	2073573	0	0	16039	1	VectorAddress(@vector-Time())	13	true	22.775395426	true	22.89640218	true	22.834908736	true	22.819100052	true	22.815982394	true	22.78078384	true	22.344475942	true	23.395964451	true	22.744256672	true	23.005277422	true	22.650588152	true	22.529390539	true	23.024277466	13	22.816677174769232	0.16551803975147933	true													
TypeSet	100	Classical	Scheme-examples/AlgoDat1/qsort.scm	false	ParAAM-L-SA-set	14	2073573	0	0	16039	1	VectorAddress(@vector-Time())	13	true	23.435582434	true	22.939435128	true	22.513668529	true	22.635682445	true	22.755757751	true	22.954709177	true	23.285374884	true	22.524000851	true	22.759934566	true	22.776045546	true	22.837627115	true	22.986100293	true	22.697327086	13	22.853941985000006	0.20484492169230906	true													
TypeSet	100	Classical	Scheme-examples/AlgoDat1/qsort.scm	false	ParAAM-L-SA-set	16	2073573	0	0	16039	1	VectorAddress(@vector-Time())	13	true	22.976507971	true	22.833912295	true	22.804719572	true	22.825859681	true	22.836354587	true	22.615376319	true	22.686630746	true	22.767826797	true	22.699153795	true	22.603153778	true	22.905166086	true	22.788574504	true	22.618612388	13	22.766296039923077	0.09362356517159807	true													
TypeSet	100	Classical	Scheme-examples/AlgoDat1/qsort.scm	false	ParAAM-L-SA-set	18	2073573	0	0	16039	1	VectorAddress(@vector-Time())	13	true	22.981411087	true	22.650339932	true	22.731134813	true	22.65114272	true	23.009352145	true	23.490641778	true	22.627277622	true	22.746206873	true	22.899537793	true	22.548489592	true	22.735096082	true	22.634780747	true	22.870870199	13	22.813560106384617	0.18215576462721964	true													
TypeSet	100	Classical	Scheme-examples/AlgoDat1/qsort.scm	false	ParAAM-L-SA-set	20	2073573	0	0	16039	1	VectorAddress(@vector-Time())	13	true	22.72376956	true	22.636652265	true	22.480694572	true	22.840950111	true	22.844926139	true	22.786992448	true	22.995051296	true	22.834244312	true	23.015256487	true	23.047200541	true	23.105143307	true	23.054998856	true	22.967109755	13	22.871768434538463	0.1467922515029585	true													
TypeSet	100	Classical	Scheme-examples/AlgoDat1/qsort.scm	false	ParAAM-L-SA-part	2	2073573	0	0	16039	1	VectorAddress(@vector-Time())	13	true	24.895521008	true	24.547355128	true	24.950539977	true	25.276329897	true	24.917291593	true	25.284327006	true	24.78783969	true	24.655906724	true	24.78610777	true	24.808389855	true	25.126394089	true	24.839543413	true	24.836927461	13	24.900959508538463	0.16155154143195324	true													
TypeSet	100	Classical	Scheme-examples/AlgoDat1/qsort.scm	false	ParAAM-L-SA-part	3	2073573	0	0	16039	1	VectorAddress(@vector-Time())	13	true	17.498069887	true	17.174425891	true	17.386006074	true	17.528400658	true	17.425252538	true	17.584506938	true	17.58679464	true	17.525905999	true	17.455459897	true	17.516853501	true	17.511644544	true	17.564079091	true	17.595001115	13	17.488646213307696	0.07899083895857828	true													
TypeSet	100	Classical	Scheme-examples/AlgoDat1/qsort.scm	false	ParAAM-L-SA-part	4	2073573	0	0	16039	1	VectorAddress(@vector-Time())	13	true	15.205125982	true	15.434918758	true	15.363882534	true	15.23484068	true	15.064357064	true	15.309767886	true	15.177511101	true	15.428174454	true	15.145693263	true	15.334502901	true	15.364173013	true	15.290494747	true	15.076845062	13	15.263868265000001	0.10443637507692312	true													
TypeSet	100	Classical	Scheme-examples/AlgoDat1/qsort.scm	false	ParAAM-L-SA-part	5	2073573	0	0	16039	1	VectorAddress(@vector-Time())	13	true	13.995997927	true	14.133824144	true	14.297912032	true	14.064437606	true	14.187585369	true	14.104539665	true	13.985152085	true	14.12048027	true	14.029496968	true	13.823623204	true	14.176203852	true	14.033904332	true	14.195440411	13	14.088353681923074	0.09192461069822513	true													
TypeSet	100	Classical	Scheme-examples/AlgoDat1/qsort.scm	false	ParAAM-L-SA-part	6	2073573	0	0	16039	1	VectorAddress(@vector-Time())	13	true	13.376518321	true	13.067812092	true	13.696117811	true	13.488994978	true	13.494890348	true	13.605675611	true	13.336297638	true	13.618853372	true	13.589466725	true	13.600951794	true	13.654502792	true	13.195850261	true	13.497771598	13	13.478746410846153	0.14438574328994122	true													
TypeSet	100	Classical	Scheme-examples/AlgoDat1/qsort.scm	false	ParAAM-L-SA-part	7	2073573	0	0	16039	1	VectorAddress(@vector-Time())	13	true	13.085053416	true	12.844490055	true	13.056895786	true	13.065913292	true	12.906383628	true	13.075618493	true	12.739186044	true	13.12990003	true	13.111056342	true	13.056295947	true	13.055587201	true	13.085272739	true	12.997036229	13	13.016053015538462	0.08878709325443743	true													
TypeSet	100	Classical	Scheme-examples/AlgoDat1/qsort.scm	false	ParAAM-L-SA-part	8	2073573	0	0	16039	1	VectorAddress(@vector-Time())	13	true	12.88450123	true	12.855346349	true	12.660314477	true	12.947021027	true	12.727146331	true	13.023617993	true	12.799964504	true	12.739436315	true	12.740396035	true	12.637046903	true	12.874368242	true	13.018104571	true	12.638468921	13	12.81121022292308	0.11318431914792913	true													
TypeSet	100	Classical	Scheme-examples/AlgoDat1/qsort.scm	false	ParAAM-L-SA-part	9	2073573	0	0	16039	1	VectorAddress(@vector-Time())	13	true	12.549905544	true	12.505081153	true	12.653788776	true	12.434561452	true	12.598416722	true	12.485782641	true	12.623924333	true	12.496231407	true	12.488159081	true	12.543421033	true	12.555940877	true	12.51446719	true	12.427809306	13	12.529037655	0.054026362307692165	true													
TypeSet	100	Classical	Scheme-examples/AlgoDat1/qsort.scm	false	ParAAM-L-SA-part	10	2073573	0	0	16039	1	VectorAddress(@vector-Time())	13	true	12.464474851	true	12.254642379	true	12.347309202	true	12.458572803	true	12.150098618	true	12.437435906	true	12.396553035	true	12.625047669	true	12.339637026	true	12.375086056	true	12.025896267	true	12.426828185	true	12.350300179	13	12.357837090461537	0.1044829033491126	true													
TypeSet	100	Classical	Scheme-examples/AlgoDat1/qsort.scm	false	ParAAM-L-SA-part	12	2073573	0	0	16039	1	VectorAddress(@vector-Time())	13	true	12.050932526	true	11.914262289	true	12.170998338	true	12.187890247	true	11.964543134	true	12.10886451	true	11.964261476	true	12.248990504	true	12.084575383	true	12.094123569	true	12.206710882	true	12.156652494	true	12.121298819	13	12.098008013153848	0.0792845695266269	true													
TypeSet	100	Classical	Scheme-examples/AlgoDat1/qsort.scm	false	ParAAM-L-SA-part	14	2073573	0	0	16039	1	VectorAddress(@vector-Time())	13	true	12.084573078	true	11.974519071	true	11.835327769	true	12.110893884	true	11.863647337	true	11.884717813	true	12.016457717	true	11.935319734	true	11.800975208	true	11.865523712	true	12.025630404	true	11.90605292	true	11.996047732	13	11.946129721461537	0.08174516265088723	true													
TypeSet	100	Classical	Scheme-examples/AlgoDat1/qsort.scm	false	ParAAM-L-SA-part	16	2073573	0	0	16039	1	VectorAddress(@vector-Time())	13	true	11.835763757	true	11.886930641	true	11.866191615	true	11.646404783	true	12.004912204	true	11.839796455	true	11.925961321	true	11.807660628	true	12.027196665	true	11.814353044	true	12.056447253	true	11.87763301	true	11.716119947	13	11.869643947923079	0.08634113945562141	true													
TypeSet	100	Classical	Scheme-examples/AlgoDat1/qsort.scm	false	ParAAM-L-SA-part	18	2073573	0	0	16039	1	VectorAddress(@vector-Time())	13	true	11.7668728	true	11.697893428	true	11.734743796	true	11.685161737	true	11.816129509	true	11.570490888	true	11.750243624	true	11.708409416	true	11.706523983	true	11.735427921	true	11.756117809	true	11.746838648	true	11.715917678	13	11.722367018230768	0.038431535289940685	true													
TypeSet	100	Classical	Scheme-examples/AlgoDat1/qsort.scm	false	ParAAM-L-SA-part	20	2073573	0	0	16039	1	VectorAddress(@vector-Time())	13	true	11.681005381	true	11.686113375	true	11.670182483	true	11.656290559	true	11.744004393	true	11.74582801	true	11.495122412	true	11.66048761	true	11.689841151	true	11.664683413	true	11.874146606	true	11.711253183	true	11.506536055	13	11.675807279307692	0.06177556059171593	true													
TypeSet	100	Classical	Scheme-examples/AlgoDat1/qsort.scm	false	ParAAM-C-S-set	2	2073573	0	0	16039	1	VectorAddress(@vector-Time())	13	true	28.05510164	true	27.688913675	true	29.024020184	true	27.453380159	true	27.548035861	true	27.767257703	true	27.577917364	true	27.203418948	true	27.804120657	true	27.478524335	true	27.704248989	true	27.977726517	true	28.986020251	13	27.86682202176923	0.39624315460355075	true													
TypeSet	100	Classical	Scheme-examples/AlgoDat1/qsort.scm	false	ParAAM-C-S-set	3	2073573	0	0	16039	1	VectorAddress(@vector-Time())	13	true	42.580239364	true	40.185034704	true	37.539071814	true	39.9762176	true	43.415496128	true	39.305199322	true	39.155498482	true	38.270728051	true	42.738093525	true	37.426835714	true	41.635370381	true	41.555500617	true	42.304497084	13	40.46829098353846	1.7568386458106504	true													
TypeSet	100	Classical	Scheme-examples/AlgoDat1/qsort.scm	false	ParAAM-C-S-set	4	2073573	0	0	16039	1	VectorAddress(@vector-Time())	13	true	53.196049565	true	55.384086791	true	52.290317764	true	55.125366067	true	51.365860584	true	49.696482382	true	53.486020316	true	51.409680211	true	49.2147178	true	54.645986025	true	54.993486741	true	53.420851454	true	53.875209397	13	52.93108577669231	1.642826175763312	true													
TypeSet	100	Classical	Scheme-examples/AlgoDat1/qsort.scm	false	ParAAM-C-S-set	5	2073573	0	0	16039	1	VectorAddress(@vector-Time())	13	true	61.957001724	true	59.403891623	true	58.668987463	true	58.799584614	true	61.774863018	true	58.287155147	true	60.356041958	true	57.989420294	true	58.648024641	true	60.515952403	true	57.768728381	true	58.255679572	true	57.956108295	13	59.260110702538455	1.185722648201182	true													
TypeSet	100	Classical	Scheme-examples/AlgoDat1/qsort.scm	false	ParAAM-C-S-set	6	2073573	0	0	16039	1	VectorAddress(@vector-Time())	13	true	64.606592719	true	64.647016092	true	66.95639926	true	62.926751	true	67.175487918	true	64.3938099	true	64.075695263	true	63.777830143	true	65.159695773	true	61.404295713	true	65.328586407	true	64.204666509	true	63.840608102	13	64.49980267684616	1.057686478142012	true													
TypeSet	100	Classical	Scheme-examples/AlgoDat1/qsort.scm	false	ParAAM-C-S-set	7	2073573	0	0	16039	1	VectorAddress(@vector-Time())	13	true	69.81942494	true	67.195851023	true	68.625884414	true	69.45048282	true	69.945842045	true	69.744337909	true	68.229607848	true	68.016891284	true	67.446673808	true	66.080087328	true	66.477840716	true	66.076675361	true	67.336208221	13	68.0342929013077	1.17074193356213	true													
TypeSet	100	Classical	Scheme-examples/AlgoDat1/qsort.scm	false	ParAAM-C-S-set	8	2073573	0	0	16039	1	VectorAddress(@vector-Time())	13	true	70.97628297	true	71.388950475	true	68.217143651	true	70.6262045	true	69.265765653	true	67.756645317	true	69.993647023	true	68.434484017	true	68.8872233	true	68.578118093	true	68.374853233	true	70.477606114	true	71.32921901	13	69.56201102738461	1.1415144504142007	true													
TypeSet	100	Classical	Scheme-examples/AlgoDat1/qsort.scm	false	ParAAM-C-S-set	9	2073573	0	0	16039	1	VectorAddress(@vector-Time())	13	true	70.324633095	true	70.267576532	true	69.883632404	true	70.585029118	true	73.308995203	true	70.57964574	true	70.947867556	true	72.925177313	true	70.978694303	true	70.029716645	true	70.62085829	true	70.495415347	true	71.087232373	13	70.925728763	0.7106650666153845	true													
TypeSet	100	Classical	Scheme-examples/AlgoDat1/qsort.scm	false	ParAAM-C-S-set	10	2073573	0	0	16039	1	VectorAddress(@vector-Time())	13	true	70.757211786	true	71.77480033	true	71.446208188	true	70.34613523	true	72.334307322	true	71.439388476	true	70.635132137	true	73.106404305	true	70.88768157	true	68.888576355	true	69.699227294	true	70.75749461	true	69.817723491	13	70.91463777646153	0.8504491905680479	true													
TypeSet	100	Classical	Scheme-examples/AlgoDat1/qsort.scm	false	ParAAM-C-S-set	12	2073573	0	0	16039	1	VectorAddress(@vector-Time())	13	true	72.958395365	true	74.000404369	true	71.49625329	true	72.384995974	true	71.854940513	true	71.376928467	true	72.418787897	true	71.850463028	true	73.820011897	true	72.315673543	true	73.309677724	true	72.114369321	true	72.365149273	13	72.48200389700001	0.6400728872307735	true													
TypeSet	100	Classical	Scheme-examples/AlgoDat1/qsort.scm	false	ParAAM-C-S-set	14	2073573	0	0	16039	1	VectorAddress(@vector-Time())	13	true	72.547264304	true	73.746780306	true	72.455281883	true	73.530622488	true	74.170454238	true	74.505326247	true	72.877946962	true	73.345421503	true	74.097089906	true	73.720144993	true	74.336111961	true	74.068084862	true	71.457499336	13	73.45061761453846	0.7030267822603585	true													
TypeSet	100	Classical	Scheme-examples/AlgoDat1/qsort.scm	false	ParAAM-C-S-set	16	2073573	0	0	16039	1	VectorAddress(@vector-Time())	13	true	73.118033702	true	72.975792998	true	74.568164749	true	72.546985271	true	74.074889497	true	75.18819681	true	74.116622591	true	72.887467998	true	74.186149494	true	74.435529502	true	74.394652873	true	74.433095307	true	74.377113163	13	73.94636107346155	0.6549483576686354	true													
TypeSet	100	Classical	Scheme-examples/AlgoDat1/qsort.scm	false	ParAAM-C-S-set	18	2073573	0	0	16039	1	VectorAddress(@vector-Time())	13	true	75.236163627	true	72.845701238	true	74.700733143	true	72.847447449	true	74.96100149	true	74.44793251	true	74.57537417	true	74.91590426	true	72.873746597	true	75.12766754	true	76.033852912	true	75.207651197	true	73.917738136	13	74.43776263607694	0.8102180191242551	true													
TypeSet	100	Classical	Scheme-examples/AlgoDat1/qsort.scm	false	ParAAM-C-S-set	20	2073573	0	0	16039	1	VectorAddress(@vector-Time())	13	true	73.999614057	true	76.630511204	true	75.923938787	true	73.725188267	true	75.088133762	true	73.906836635	true	74.980185317	true	75.068050862	true	76.195820174	true	74.015624416	true	73.58523041	true	79.08403094	true	75.394394713	13	75.19981227261539	1.112251454603553	true													
TypeSet	100	Classical	Scheme-examples/AlgoDat1/qsort.scm	false	ParAAM-C-S-part	2	2073573	0	0	16039	1	VectorAddress(@vector-Time())	13	true	25.448324661	true	25.410550625	true	25.404772238	true	25.204145974	true	25.203332923	true	25.363841775	true	25.480473223	true	25.135803595	true	25.14608182	true	25.417660332	true	25.368175701	true	25.426620073	true	25.314761364	13	25.332657254153844	0.10140932227218996	true													
TypeSet	100	Classical	Scheme-examples/AlgoDat1/qsort.scm	false	ParAAM-C-S-part	3	2073573	0	0	16039	1	VectorAddress(@vector-Time())	13	true	12.964347	true	13.298947405	true	12.99580498	true	13.696453533	true	13.454180797	true	12.946076722	true	13.535664223	true	12.886399046	true	13.378414935	true	13.299419656	true	12.950093332	true	13.300854463	true	13.145813152	13	13.21942071107692	0.21969077453254443	true													
TypeSet	100	Classical	Scheme-examples/AlgoDat1/qsort.scm	false	ParAAM-C-S-part	4	2073573	0	0	16039	1	VectorAddress(@vector-Time())	13	true	8.959588595	true	9.216062543	true	9.157426333	true	9.178362381	true	9.439775836	true	8.845799331	true	9.319685696	true	9.404169845	true	8.966331267	true	9.330735301	true	8.955904975	true	9.365216282	true	9.343446835	13	9.190961940000001	0.16651673200000025	true													
TypeSet	100	Classical	Scheme-examples/AlgoDat1/qsort.scm	false	ParAAM-C-S-part	5	2073573	0	0	16039	1	VectorAddress(@vector-Time())	13	true	6.967423082	true	7.055740864	true	6.813736394	true	6.689522286	true	7.111542559	true	6.979426751	true	7.02478985	true	7.055821762	true	6.748771503	true	7.019495025	true	7.185330551	true	7.005080232	true	6.864316054	13	6.963153608692307	0.11327203042603563	true													
TypeSet	100	Classical	Scheme-examples/AlgoDat1/qsort.scm	false	ParAAM-C-S-part	6	2073573	0	0	16039	1	VectorAddress(@vector-Time())	13	true	5.617621093	true	5.714647051	true	5.733844505	true	5.834675951	true	5.867108452	true	5.617059926	true	5.723544592	true	5.629495633	true	5.586799366	true	5.848393005	true	5.625660181	true	5.667094349	true	5.746974013	13	5.708686009	0.0782131547692308	true													
TypeSet	100	Classical	Scheme-examples/AlgoDat1/qsort.scm	false	ParAAM-C-S-part	7	2073573	0	0	16039	1	VectorAddress(@vector-Time())	13	true	4.956809411	true	4.979333623	true	4.885627406	true	5.086882795	true	4.825727367	true	4.963902996	true	5.150398979	true	4.885376294	true	5.006808894	true	4.918810789	true	5.0254813	true	4.815708171	true	4.835237683	13	4.948931208307693	0.0810922368994082	true													
TypeSet	100	Classical	Scheme-examples/AlgoDat1/qsort.scm	false	ParAAM-C-S-part	8	2073573	0	0	16039	1	VectorAddress(@vector-Time())	13	true	4.386637599	true	4.34813619	true	4.28626074	true	4.290974486	true	4.258464295	true	4.407010237	true	4.345054979	true	4.326509227	true	4.336005321	true	4.389024713	true	4.256122985	true	4.358021622	true	4.364895952	13	4.334855257384615	0.039376085218935084	true													
TypeSet	100	Classical	Scheme-examples/AlgoDat1/qsort.scm	false	ParAAM-C-S-part	9	2073573	0	0	16039	1	VectorAddress(@vector-Time())	13	true	3.897112458	true	3.790579822	true	3.964873736	true	3.857799843	true	3.936001385	true	3.888660373	true	3.954488206	true	3.905545352	true	3.885108513	true	3.838417047	true	4.004358483	true	3.845240778	true	3.886140783	13	3.8964866753076923	0.0436091643313609	true													
TypeSet	100	Classical	Scheme-examples/AlgoDat1/qsort.scm	false	ParAAM-C-S-part	10	2073573	0	0	16039	1	VectorAddress(@vector-Time())	13	true	3.654451889	true	3.569196565	true	3.629384648	true	3.634698254	true	3.588742954	true	3.666294803	true	3.536514088	true	3.417702028	true	3.506855743	true	3.518206734	true	3.557043401	true	3.489056609	true	3.564760167	13	3.564069837153847	0.05523698768047332	true													
TypeSet	100	Classical	Scheme-examples/AlgoDat1/qsort.scm	false	ParAAM-C-S-part	12	2073573	0	0	16039	1	VectorAddress(@vector-Time())	13	true	3.295543731	true	3.124608788	true	3.159090003	true	3.110044912	true	3.170442236	true	3.08475267	true	3.174960608	true	3.18393042	true	3.150069888	true	3.108729271	true	3.16093176	true	3.197194301	true	3.120404571	13	3.1569771660769232	0.037423522532544364	true													
TypeSet	100	Classical	Scheme-examples/AlgoDat1/qsort.scm	false	ParAAM-C-S-part	14	2073573	0	0	16039	1	VectorAddress(@vector-Time())	13	true	2.986016744	true	2.787771732	true	2.824358252	true	2.877148709	true	2.897108102	true	2.868946807	true	2.893090207	true	2.936272918	true	2.993972487	true	2.901103491	true	2.89759569	true	2.850776077	true	2.914188483	13	2.8944884383846152	0.04074443789349115	true													
TypeSet	100	Classical	Scheme-examples/AlgoDat1/qsort.scm	false	ParAAM-C-S-part	16	2073573	0	0	16039	1	VectorAddress(@vector-Time())	13	true	2.77362645	true	2.744801309	true	2.717888239	true	2.741347004	true	2.675203482	true	2.683963513	true	2.675491077	true	2.780821564	true	2.654868415	true	2.71603909	true	2.71847152	true	2.676764597	true	2.734027663	13	2.714870301769231	0.03200929613017749	true													
TypeSet	100	Classical	Scheme-examples/AlgoDat1/qsort.scm	false	ParAAM-C-S-part	18	2073573	0	0	16039	1	VectorAddress(@vector-Time())	13	true	2.624717526	true	2.575136217	true	2.557102082	true	2.58687397	true	2.679392525	true	2.644250142	true	2.585219041	true	2.606387986	true	2.608051566	true	2.547054628	true	2.565150588	true	2.557142081	true	2.596132444	13	2.594816215076923	0.029236138236686412	true													
TypeSet	100	Classical	Scheme-examples/AlgoDat1/qsort.scm	false	ParAAM-C-S-part	20	2073573	0	0	16039	1	VectorAddress(@vector-Time())	13	true	2.596139461	true	2.515494566	true	2.559258301	true	2.484892955	true	2.494626834	true	2.765832523	true	2.515248233	true	2.608716376	true	2.647843989	true	2.986653594	true	2.586348782	true	2.579641884	true	2.663913934	13	2.6157393409230774	0.09250564250887594	true													
TypeSet	100	Classical	Scheme-examples/AlgoDat1/qsort.scm	false	ParAAM-C-state	1	2073573	0	0	16039	1	VectorAddress(@vector-Time())	13	true	17.677956286	true	17.44456105	true	17.267786287	true	17.523888619	true	17.406527351	true	17.386327041	true	17.397561796	true	17.525934255	true	17.525159635	true	17.457391426	true	17.346044359	true	17.579456542	true	17.426005759	13	17.458815415846153	0.08281819350295823	true													
TypeSet	100	Classical	Scheme-examples/AlgoDat1/qsort.scm	false	ParAAM-C-state	2	2073573	0	0	16039	1	VectorAddress(@vector-Time())	13	true	10.036834729	true	9.821368422	true	9.928562491	true	9.807153293	true	9.846802721	true	9.920493177	true	9.82930035	true	9.815433207	true	9.785454742	true	9.818386256	true	9.998983832	true	9.776836941	true	9.86641893	13	9.865540699307692	0.06516764037869813	true													
TypeSet	100	Classical	Scheme-examples/AlgoDat1/qsort.scm	false	ParAAM-C-state	3	2073573	0	0	16039	1	VectorAddress(@vector-Time())	13	true	7.808262832	true	7.920379182	true	7.733987015	true	7.744719714	true	7.826183227	true	7.710236145	true	7.757660893	true	7.763728259	true	7.700736374	true	7.916038858	true	7.776804613	true	7.860020327	true	7.996171832	13	7.808840713153845	0.07301382465088736	true													
TypeSet	100	Classical	Scheme-examples/AlgoDat1/qsort.scm	false	ParAAM-C-state	4	2073573	0	0	16039	1	VectorAddress(@vector-Time())	13	true	8.955534407	true	8.210659282	true	9.045469247	true	9.066938003	true	8.795315716	true	9.145433902	true	8.955963324	true	8.201450482	true	8.864139715	true	9.12845089	true	8.698603524	true	8.867639189	true	8.824328401	13	8.827686621692308	0.21662703130177524	true													
TypeSet	100	Classical	Scheme-examples/AlgoDat1/qsort.scm	false	ParAAM-C-state	5	2073573	0	0	16039	1	VectorAddress(@vector-Time())	13	true	9.121380125	true	8.605052161	true	8.677972387	true	9.025574561	true	8.818258732	true	8.464937037	true	8.706180095	true	8.676714665	true	9.075293422	true	8.435062769	true	8.878606913	true	8.488491594	true	8.495413804	13	8.72837986653846	0.19649452620118332	true													
TypeSet	100	Classical	Scheme-examples/AlgoDat1/qsort.scm	false	ParAAM-C-state	6	2073573	0	0	16039	1	VectorAddress(@vector-Time())	13	true	7.874888515	true	7.745315136	true	8.046321489	true	8.357002385	true	8.274714672	true	8.127655698	true	8.223952633	true	8.087111422	true	8.136477738	true	8.045864214	true	8.217949199	true	7.977007792	true	8.095495408	13	8.093058177	0.12028315292307677	true													
TypeSet	100	Classical	Scheme-examples/AlgoDat1/qsort.scm	false	ParAAM-C-state	7	2073573	0	0	16039	1	VectorAddress(@vector-Time())	13	true	7.585413865	true	7.614255363	true	7.616764689	true	7.868409845	true	7.594241741	true	7.520485475	true	7.315025807	true	7.22676927	true	7.451474171	true	7.175970793	true	7.486448167	true	7.464386125	true	7.93542367	13	7.527312998538463	0.16163556642603558	true													
TypeSet	100	Classical	Scheme-examples/AlgoDat1/qsort.scm	false	ParAAM-C-state	8	2073573	0	0	16039	1	VectorAddress(@vector-Time())	13	true	7.106722431	true	6.59811126	true	7.200221712	true	7.284956173	true	7.034914213	true	7.104885025	true	6.975215696	true	7.277490975	true	6.758236458	true	6.607431292	true	6.724464338	true	6.668693983	true	7.129123712	13	6.9592667129230765	0.2214455744023671	true													
TypeSet	100	Classical	Scheme-examples/AlgoDat1/qsort.scm	false	ParAAM-C-state	9	2073573	0	0	16039	1	VectorAddress(@vector-Time())	13	true	6.81518301	true	6.805278109	true	6.447014367	true	6.785468872	true	6.610440572	true	6.100894277	true	6.606474746	true	6.625425845	true	6.675757436	true	6.496984704	true	6.474533961	true	6.617990368	true	6.286556592	13	6.5652309891538465	0.1569493915029584	true													
TypeSet	100	Classical	Scheme-examples/AlgoDat1/qsort.scm	false	ParAAM-C-state	10	2073573	0	0	16039	1	VectorAddress(@vector-Time())	13	true	6.435313845	true	5.844569519	true	6.335789233	true	6.190465418	true	5.860107949	true	6.485644933	true	6.216355484	true	6.364527542	true	5.957854099	true	6.375690146	true	6.245340704	true	5.925102591	true	6.193620258	13	6.186952440076922	0.1784885542011837	true													
TypeSet	100	Classical	Scheme-examples/AlgoDat1/qsort.scm	false	ParAAM-C-state	12	2073573	0	0	16039	1	VectorAddress(@vector-Time())	13	true	5.724727235	true	5.544389021	true	5.836138152	true	5.856695809	true	5.758865807	true	5.84628177	true	5.57021712	true	5.71123124	true	5.806694835	true	5.674859706	true	5.585066752	true	5.680717725	true	5.777480262	13	5.721028110307693	0.08610570736094665	true													
TypeSet	100	Classical	Scheme-examples/AlgoDat1/qsort.scm	false	ParAAM-C-state	14	2073573	0	0	16039	1	VectorAddress(@vector-Time())	13	true	5.537514353	true	5.365716537	true	5.430481617	true	5.385044984	true	5.513921929	true	5.351111251	true	5.399756144	true	5.350571637	true	5.356941209	true	5.445688723	true	5.556629222	true	5.199219497	true	5.427941669	13	5.40927221323077	0.07023757440236683	true													
TypeSet	100	Classical	Scheme-examples/AlgoDat1/qsort.scm	false	ParAAM-C-state	16	2073573	0	0	16039	1	VectorAddress(@vector-Time())	13	true	5.337931279	true	5.275420849	true	5.236146636	true	5.308337008	true	5.224673244	true	5.239865117	true	5.285335949	true	5.146602146	true	5.206933793	true	5.257606772	true	5.210136187	true	5.236566734	true	5.267216327	13	5.248674772384616	0.036892238414201195	true													
TypeSet	100	Classical	Scheme-examples/AlgoDat1/qsort.scm	false	ParAAM-C-state	18	2073573	0	0	16039	1	VectorAddress(@vector-Time())	13	true	5.254457431	true	5.113872869	true	5.093592711	true	5.117217448	true	5.273752978	true	5.260248167	true	5.104614415	true	4.897859537	true	5.268901606	true	5.149386797	true	5.240163172	true	5.18633219	true	5.095489068	13	5.158145260692309	0.08230522766863907	true													
TypeSet	100	Classical	Scheme-examples/AlgoDat1/qsort.scm	false	ParAAM-C-state	20	2073573	0	0	16039	1	VectorAddress(@vector-Time())	13	true	5.305638192	true	5.150792553	true	5.227715525	true	5.104780717	true	5.1290357	true	5.18863266	true	5.208008466	true	5.226586036	true	5.150789543	true	5.174968757	true	5.255143249	true	5.194923616	true	4.995911467	13	5.177917421615385	0.05557319887573948	true													
TypeSet	100	Classical	Scheme-examples/AlgoDat1/qsort.scm	false	ParAAM-C-set	1	2073573	0	0	16039	1	VectorAddress(@vector-Time())	13	true	15.308756804	true	14.938471584	true	14.765465538	true	15.016418082	true	14.9352943	true	15.048140131	true	14.945062004	true	15.048426822	true	14.857593232	true	15.048082571	true	15.044986244	true	15.02575178	true	15.04687341	13	15.002255577076921	0.0875986503668642	true													
TypeSet	100	Classical	Scheme-examples/AlgoDat1/qsort.scm	false	ParAAM-C-set	2	2073573	0	0	16039	1	VectorAddress(@vector-Time())	13	true	8.58581799	true	8.59819145	true	8.533444235	true	8.586822243	true	8.516900583	true	8.563571336	true	8.48467979	true	8.63479321	true	8.58883785	true	8.5771298	true	8.525107636	true	8.646557215	true	8.595069416	13	8.572070981076923	0.03640789621301789	true													
TypeSet	100	Classical	Scheme-examples/AlgoDat1/qsort.scm	false	ParAAM-C-set	3	2073573	0	0	16039	1	VectorAddress(@vector-Time())	13	true	6.400600403	true	6.396001466	true	6.376042192	true	6.400030109	true	6.366207807	true	6.344611896	true	6.425437093	true	6.325717651	true	6.438594793	true	6.354805362	true	6.376038569	true	6.434797582	true	6.454460551	13	6.391795805692307	0.031900208792899606	true													
TypeSet	100	Classical	Scheme-examples/AlgoDat1/qsort.scm	false	ParAAM-C-set	4	2073573	0	0	16039	1	VectorAddress(@vector-Time())	13	true	5.463836217	true	5.394267034	true	5.328170721	true	5.437818348	true	5.340876628	true	5.278408207	true	5.337262475	true	5.344475024	true	5.385206897	true	5.269650355	true	5.296651504	true	5.40787648	true	5.324565924	13	5.354543524153845	0.048659593112425834	true													
TypeSet	100	Classical	Scheme-examples/AlgoDat1/qsort.scm	false	ParAAM-C-set	5	2073573	0	0	16039	1	VectorAddress(@vector-Time())	13	true	4.868759189	true	4.774497532	true	4.816160066	true	4.808583466	true	4.757115689	true	4.756488918	true	4.786729681	true	4.786229116	true	4.877128862	true	4.881154196	true	4.796384548	true	4.86627717	true	4.803991352	13	4.8138076757692305	0.03699093910059178	true													
TypeSet	100	Classical	Scheme-examples/AlgoDat1/qsort.scm	false	ParAAM-C-set	6	2073573	0	0	16039	1	VectorAddress(@vector-Time())	13	true	4.746378515	true	4.730242472	true	4.728854301	true	4.726067466	true	4.666778786	true	4.764789009	true	4.804426928	true	4.645201794	true	4.68085484	true	4.714098182	true	4.685654227	true	4.755383628	true	4.77816779	13	4.725145995230769	0.035868022639053226	true													
TypeSet	100	Classical	Scheme-examples/AlgoDat1/qsort.scm	false	ParAAM-C-set	7	2073573	0	0	16039	1	VectorAddress(@vector-Time())	13	true	5.055401516	true	5.278744486	true	5.236962571	true	5.114301439	true	5.184322067	true	5.069723742	true	5.129255677	true	5.045731418	true	5.063720907	true	5.061231472	true	5.030394259	true	5.061346834	true	5.056683262	13	5.106755357692308	0.06304760792899419	true													
TypeSet	100	Classical	Scheme-examples/AlgoDat1/qsort.scm	false	ParAAM-C-set	8	2073573	0	0	16039	1	VectorAddress(@vector-Time())	13	true	5.816625886	true	5.814580918	true	5.985977133	true	5.830108414	true	6.029705677	true	5.884921004	true	5.895232965	true	5.876811394	true	5.968784063	true	5.896042585	true	5.834517888	true	5.990201748	true	5.887189027	13	5.900822977076923	0.05713487887573976	true													
TypeSet	100	Classical	Scheme-examples/AlgoDat1/qsort.scm	false	ParAAM-C-set	9	2073573	0	0	16039	1	VectorAddress(@vector-Time())	13	true	6.977074825	true	6.774158908	true	6.851396198	true	6.963997757	true	6.737627395	true	6.776201901	true	6.815272232	true	6.81812458	true	6.919066716	true	6.850826735	true	6.996767713	true	7.123956659	true	6.959392067	13	6.889527975846153	0.09278275106508858	true													
TypeSet	100	Classical	Scheme-examples/AlgoDat1/qsort.scm	false	ParAAM-C-set	10	2073573	0	0	16039	1	VectorAddress(@vector-Time())	13	true	7.978063656	true	7.860196646	true	7.895658607	true	7.75625912	true	7.804925214	true	7.90518306	true	7.768546402	true	7.631003621	true	7.887687846	true	7.67545458	true	7.789554395	true	7.739491436	true	7.85579322	13	7.8113706002307675	0.0791322205562129	true													
TypeSet	100	Classical	Scheme-examples/AlgoDat1/qsort.scm	false	ParAAM-C-set	12	2073573	0	0	16039	1	VectorAddress(@vector-Time())	13	true	8.704084696	true	8.69506444	true	8.81764093	true	8.835911227	true	8.619723818	true	8.765813394	true	8.667920313	true	8.738839916	true	8.728565133	true	8.705192413	true	8.759927909	true	8.739749268	true	8.554809869	13	8.717941794307693	0.055516187207100526	true													
TypeSet	100	Classical	Scheme-examples/AlgoDat1/qsort.scm	false	ParAAM-C-set	14	2073573	0	0	16039	1	VectorAddress(@vector-Time())	13	true	8.787330257	true	8.474774008	true	8.544543197	true	8.548149033	true	8.756819895	true	8.625439136	true	8.605979122	true	8.679697599	true	8.516334065	true	8.585890064	true	8.525273328	true	8.739245844	true	8.707995832	13	8.622882413846153	0.08603601229585774	true													
TypeSet	100	Classical	Scheme-examples/AlgoDat1/qsort.scm	false	ParAAM-C-set	16	2073573	0	0	16039	1	VectorAddress(@vector-Time())	13	true	8.164737912	true	8.065254729	true	7.974938819	true	7.804894259	true	7.996047078	true	8.066268789	true	8.114898373	true	8.018889032	true	8.008288738	true	8.075479713	true	8.088509902	true	8.131075367	true	8.045565991	13	8.042680669384616	0.0631300647573963	true													
TypeSet	100	Classical	Scheme-examples/AlgoDat1/qsort.scm	false	ParAAM-C-set	18	2073573	0	0	16039	1	VectorAddress(@vector-Time())	13	true	7.513006594	true	7.514651803	true	7.29612428	true	7.465187513	true	7.345651701	true	7.33564383	true	7.289122234	true	7.434576216	true	7.435962044	true	7.275559557	true	7.438250536	true	7.6105023	true	7.563462907	13	7.424438578076923	0.08924481359763317	true													
TypeSet	100	Classical	Scheme-examples/AlgoDat1/qsort.scm	false	ParAAM-C-set	20	2073573	0	0	16039	1	VectorAddress(@vector-Time())	13	true	6.953958079	true	7.074092937	true	6.805398206	true	7.000526204	true	7.013710605	true	6.766389502	true	6.695137158	true	7.026172376	true	6.716532264	true	7.057843041	true	6.889094358	true	7.035468626	true	6.980509457	13	6.924217908692307	0.11515970084023695	true													
TypeSet	100	Classical	Scheme-examples/AlgoDat1/qsort.scm	false	ParAAM-C-part	1	2073573	0	0	16039	1	VectorAddress(@vector-Time())	13	true	22.285469431	true	22.065269133	true	22.079151026	true	22.015553714	true	21.89569412	true	21.929201676	true	22.263748955	true	22.069849071	true	22.130997839	true	21.855313558	true	21.955544193	true	22.19987617	true	21.998022012	13	22.057206992153848	0.10675579691124235	true													
TypeSet	100	Classical	Scheme-examples/AlgoDat1/qsort.scm	false	ParAAM-C-part	2	2073573	0	0	16039	1	VectorAddress(@vector-Time())	13	true	11.820858151	true	11.784307449	true	11.814541763	true	11.760284762	true	11.905645919	true	11.865727959	true	11.92778297	true	11.783833255	true	11.936070325	true	11.919729843	true	11.90511288	true	12.134655985	true	11.82625244	13	11.875754130846152	0.07299586721893506	true													
TypeSet	100	Classical	Scheme-examples/AlgoDat1/qsort.scm	false	ParAAM-C-part	3	2073573	0	0	16039	1	VectorAddress(@vector-Time())	13	true	8.544993012	true	8.54078016	true	8.517898155	true	8.533585289	true	8.536741256	true	8.555789059	true	8.498603805	true	8.536599074	true	8.536121675	true	8.515895518	true	8.54733814	true	8.528247116	true	8.498094675	13	8.530052841076925	0.014080759443786771	true													
TypeSet	100	Classical	Scheme-examples/AlgoDat1/qsort.scm	false	ParAAM-C-part	4	2073573	0	0	16039	1	VectorAddress(@vector-Time())	13	true	6.686424821	true	6.63564496	true	6.731042741	true	6.664298024	true	6.659092551	true	6.623580854	true	6.61600918	true	6.466017862	true	6.636115171	true	6.669518533	true	6.697638473	true	6.62402187	true	6.628014272	13	6.641339947076921	0.0399962246982247	true													
TypeSet	100	Classical	Scheme-examples/AlgoDat1/qsort.scm	false	ParAAM-C-part	5	2073573	0	0	16039	1	VectorAddress(@vector-Time())	13	true	5.468422785	true	5.445145164	true	5.49594047	true	5.415204482	true	5.525736364	true	5.488921811	true	5.387383788	true	5.526294936	true	5.411128337	true	5.456312689	true	5.487373729	true	5.395767674	true	5.405644752	13	5.454559767769231	0.04108990917159753	true													
TypeSet	100	Classical	Scheme-examples/AlgoDat1/qsort.scm	false	ParAAM-C-part	6	2073573	0	0	16039	1	VectorAddress(@vector-Time())	13	true	4.748232918	true	4.658308561	true	4.704163408	true	4.714888652	true	4.726779626	true	4.770636716	true	4.756774061	true	4.723136082	true	4.644852347	true	4.734147053	true	4.754539705	true	4.738635481	true	4.756891789	13	4.725537415307692	0.02805200408284027	true													
TypeSet	100	Classical	Scheme-examples/AlgoDat1/qsort.scm	false	ParAAM-C-part	7	2073573	0	0	16039	1	VectorAddress(@vector-Time())	13	true	4.248771131	true	4.198528776	true	4.274066832	true	4.22052957	true	4.114483719	true	4.266227587	true	4.124198495	true	4.208140668	true	4.28094478	true	4.225897101	true	4.194814171	true	4.057650385	true	4.219174392	13	4.202571354384615	0.04972018860355053	true													
TypeSet	100	Classical	Scheme-examples/AlgoDat1/qsort.scm	false	ParAAM-C-part	8	2073573	0	0	16039	1	VectorAddress(@vector-Time())	13	true	3.729366432	true	3.789125129	true	3.623678105	true	3.744536574	true	3.698278672	true	3.830688168	true	3.795743596	true	3.849746693	true	3.735938708	true	3.835062057	true	3.781223627	true	3.70756196	true	3.78972217	13	3.762359376230769	0.05150704713609469	true													
TypeSet	100	Classical	Scheme-examples/AlgoDat1/qsort.scm	false	ParAAM-C-part	9	2073573	0	0	16039	1	VectorAddress(@vector-Time())	13	true	3.445752025	true	3.344463595	true	3.484705944	true	3.455959043	true	3.440944944	true	3.434554981	true	3.396450409	true	3.43455441	true	3.445593868	true	3.488857199	true	3.433629013	true	3.387334884	true	3.443297267	13	3.433545967846153	0.02652138700591757	true													
TypeSet	100	Classical	Scheme-examples/AlgoDat1/qsort.scm	false	ParAAM-C-part	10	2073573	0	0	16039	1	VectorAddress(@vector-Time())	13	true	3.135303554	true	3.175806419	true	3.235693247	true	3.195582996	true	3.189986564	true	3.178369446	true	3.164658782	true	3.175071218	true	3.195766566	true	3.189052954	true	3.199085302	true	3.098425088	true	3.144197347	13	3.175153806384616	0.024325083526627135	true													
TypeSet	100	Classical	Scheme-examples/AlgoDat1/qsort.scm	false	ParAAM-C-part	12	2073573	0	0	16039	1	VectorAddress(@vector-Time())	13	true	2.887196591	true	2.846690333	true	2.794450122	true	2.799500242	true	2.887633582	true	2.836072621	true	2.837460702	true	2.839457372	true	2.889665053	true	2.835601578	true	2.809784567	true	2.868499075	true	2.777229955	13	2.839172445615385	0.028324204970414196	true													
TypeSet	100	Classical	Scheme-examples/AlgoDat1/qsort.scm	false	ParAAM-C-part	14	2073573	0	0	16039	1	VectorAddress(@vector-Time())	13	true	2.650407871	true	2.586499453	true	2.620324222	true	2.639877602	true	2.674187883	true	2.614447945	true	2.669255482	true	2.64740946	true	2.65496794	true	2.678575969	true	2.66098925	true	2.585288104	true	2.620093934	13	2.6386403934615386	0.025622816816568077	true													
TypeSet	100	Classical	Scheme-examples/AlgoDat1/qsort.scm	false	ParAAM-C-part	16	2073573	0	0	16039	1	VectorAddress(@vector-Time())	13	true	2.614244773	true	2.535202167	true	2.507696635	true	2.564531432	true	2.555231206	true	2.540299786	true	2.4736234	true	2.577580187	true	2.524020245	true	2.505021178	true	2.526634244	true	2.546412628	true	2.499292044	13	2.536137686538461	0.027919060426035466	true													
TypeSet	100	Classical	Scheme-examples/AlgoDat1/qsort.scm	false	ParAAM-C-part	18	2073573	0	0	16039	1	VectorAddress(@vector-Time())	13	true	2.486677085	true	2.444742122	true	2.480330026	true	2.477008396	true	2.424291991	true	2.446484603	true	2.476800805	true	2.449857401	true	2.463996698	true	2.457151965	true	2.478823213	true	2.456144655	true	2.485582106	13	2.463683928153846	0.01591243568047335	true													
TypeSet	100	Classical	Scheme-examples/AlgoDat1/qsort.scm	false	ParAAM-C-part	20	2073573	0	0	16039	1	VectorAddress(@vector-Time())	13	true	2.453901636	true	2.459570958	true	2.388060333	true	2.397435124	true	2.440426744	true	2.387440515	true	2.425633265	true	2.416054754	true	2.410914102	true	2.425449388	true	2.446235902	true	2.484250234	true	2.428729727	13	2.428007898615385	0.02231812450887573	true													
