Lattice	Bound	Address	Scheme program	Step filter?	Machine	p	β	# initial chain	# states	# error states	# error values	# final states	# final values	Final values	# words	# !	#	# states /s	Ideal time	Average time	Time error	Time min	Time max	Ideal abstract speedup	Chain abstract speedup	Abstract speedup ideal weighted	Abstract speedup chain weighted	Average speedup	Speedup error	Speedup min	Speedup max	Ideal abstract efficiency	Chain abstract efficiency	Average efficiency	Efficiency error	Efficiency min	Efficiency max	Minimal abstract overhead	Chain abstract overhead	Average overhead	Overhead error	Overhead min	Overhead max
TypeSet	100	Classical	Scheme-examples/AlgoDat1/qsort.scm	false	SeqAAMLS	1	6.751631121740107e-06	14	2073573	0	0	16039	1	VectorAddress(@vector-Time())	192	2	10	94967.90312944884	21.834461240800003	21.834461240800003	0.10600597684385102	21.679256366	21.996794954	1.0	1.0	1.0000117864828568	1.0000117864828568	1.0000117864828568	0.004855661156116343	0.9926201197247385	1.0071591420009873	1.0	1.0	1.0	0.0	1.0	1.0	0.0	0.0	0.0	0.0	0.0	0.0
TypeSet	100	Classical	Scheme-examples/AlgoDat1/qsort.scm	false	ParAAM-L-SA-state	2	6.751631121740107e-06	14	2073573	0	0	16039	1	VectorAddress(@vector-Time())	192	2	10	106705.84476891892	10.917230620400002	19.4326093804	0.18561381088868634	19.141886793	19.740951532	1.9999990354817334	1.999986496828925	1.1236507058055347	1.1236577503861358	1.1236501639147192	0.010691522063797077	1.1060490779994283	1.1406640043856413	0.9999995177408667	0.9999932484144625	0.5617995199044794	1.1102230246251565e-16	0.5617995199044794	0.5617995199044794	1.0529873431415246e-05	0.00014741822803981342	17.030757519999998	3.552713678800501e-15	17.030757519999995	17.030757519999995
TypeSet	100	Classical	Scheme-examples/AlgoDat1/qsort.scm	false	ParAAM-L-SA-state	3	6.751631121740107e-06	14	2073573	0	0	16039	1	VectorAddress(@vector-Time())	192	2	10	95021.11083334715	7.278153746933334	21.8222348888	0.2025954884350335	21.469076526	22.081015012	2.999997106446596	2.9999594907602765	1.000604475978008	1.0006170222887878	1.0006035108771787	0.009328493023249545	0.9888341287270531	1.0170191165119518	0.9999990354821986	0.9999864969200921	0.3335200901292085	0.0	0.3335200901292085	0.3335200901292085	2.105974686283049e-05	0.00029483645607962684	43.6322434256	0.0	43.6322434256	43.6322434256
TypeSet	100	Classical	Scheme-examples/AlgoDat1/qsort.scm	false	ParAAM-L-SA-state	4	6.751631121740107e-06	14	2073573	0	0	16039	1	VectorAddress(@vector-Time())	192	2	10	90487.39840553612	5.458615310200001	22.9155997027	0.21674181152798316	22.673449371	23.464263827	3.9999942128959827	3.9999189820675487	0.9528644985374382	0.9528824200968327	0.9528631199559463	0.008901752958793311	0.9305410730881484	0.9629968904831443	0.9999985532239957	0.9999797455168872	0.23820521308708523	0.0	0.23820521308708525	0.23820521308708525	3.1589620294245735e-05	0.00044225468411944024	69.82793757	1.4210854715202004e-14	69.82793756999999	69.82793756999999
TypeSet	100	Classical	Scheme-examples/AlgoDat1/qsort.scm	false	ParAAM-L-SA-state	5	6.751631121740107e-06	14	2073573	0	0	16039	1	VectorAddress(@vector-Time())	192	2	10	89880.16112363571	4.366892248160001	23.0704192569	0.14972038370838972	22.746175111	23.278809598	4.999990354831289	4.999864971024229	0.9464485422762006	0.9464722767814533	0.9464467165450273	0.0061727523752840635	0.9379543721460702	0.9599179261677673	0.9999980709662578	0.9999729942048458	0.1892853441254186	2.7755575615628914e-17	0.18928534412541861	0.18928534412541861	4.211949372566098e-05	0.0005896729121592537	93.5176350437	1.4210854715202004e-14	93.51763504369998	93.51763504369998
TypeSet	100	Classical	Scheme-examples/AlgoDat1/qsort.scm	false	ParAAM-L-SA-state	6	6.751631121740107e-06	14	2073573	0	0	16039	1	VectorAddress(@vector-Time())	192	2	10	88718.69669450022	3.639076873466667	23.372446589699997	0.29335376668312124	23.050392036	24.186561371	5.999985532253911	5.999797457903796	0.9342713216230144	0.9343006080235768	0.9342690688229711	0.01145071888221485	0.9027517763223591	0.9472490188756458	0.9999975887089851	0.9999662429839659	0.15569944119886753	2.7755575615628914e-17	0.15569944119886756	0.15569944119886756	5.264936715707622e-05	0.0007370911401990671	118.40021829739999	0.0	118.40021829739999	118.40021829739999
TypeSet	100	Classical	Scheme-examples/AlgoDat1/qsort.scm	false	ParAAM-L-SA-state	7	6.751631121740107e-06	14	2073573	0	0	16039	1	VectorAddress(@vector-Time())	192	2	10	89285.83104807182	3.1192087486857147	23.223987229099997	0.29545159228653217	22.893509594	23.969437593	6.999979745165243	6.999716442979722	0.9402464648959089	0.940281833321352	0.9402437442477979	0.011766120177752469	0.9109292262733987	0.9537402359017266	0.9999971064521777	0.9999594918542459	0.1343097857364174	2.7755575615628914e-17	0.13430978573641741	0.13430978573641741	6.317924058849147e-05	0.0008845093682388805	140.7334493629	2.842170943040401e-14	140.73344936289996	140.73344936289996
TypeSet	100	Classical	Scheme-examples/AlgoDat1/qsort.scm	false	ParAAM-L-SA-state	8	6.751631121740107e-06	14	2073573	0	0	16039	1	VectorAddress(@vector-Time())	192	2	10	88959.74172643873	2.7293076551000004	23.309116683099997	0.3259415857843438	23.05874965	23.987569582	7.999972993566682	7.999621926525471	0.9368284734406197	0.93686958658363	0.9368253108911574	0.01286559983070924	0.910240663030086	0.94690568969337	0.9999966241958352	0.9999527408156839	0.11709185260884865	0.0	0.11709185260884866	0.11709185260884866	7.370911401990671e-05	0.001031927596278694	164.63847222399997	0.0	164.63847222399997	164.63847222399997
TypeSet	100	Classical	Scheme-examples/AlgoDat1/qsort.scm	false	ParAAM-L-SA-state	9	6.751631121740107e-06	14	2073573	0	0	16039	1	VectorAddress(@vector-Time())	192	2	10	88509.74941888638	2.426051248977778	23.4276225344	0.32198574739443964	23.037209161	24.064250692	8.999965277459621	8.999513908814501	0.9320876642995181	0.9321344129517708	0.9320840682493446	0.012720199087047409	0.9073401669663756	0.9477910752212059	0.999996141939958	0.999945989868278	0.10355516209190584	0.0	0.10355516209190585	0.10355516209190585	8.423898745132197e-05	0.0011793458243185074	189.01414156879997	2.842170943040401e-14	189.0141415688	189.0141415688
TypeSet	100	Classical	Scheme-examples/AlgoDat1/qsort.scm	false	ParAAM-L-SA-state	10	6.751631121740107e-06	14	2073573	0	0	16039	1	VectorAddress(@vector-Time())	192	2	10	89176.50721652363	2.1834461240800005	23.252458127400004	0.11825342973197203	23.111643619	23.450415067	9.99995659684546	9.999392390120263	0.9390335352685746	0.9390865193915204	0.9390294595668095	0.004765103239732799	0.9310906087767288	0.9447385742332047	0.9999956596845458	0.9999392390120263	0.09390173340456819	0.0	0.0939017334045682	0.0939017334045682	9.47688608827372e-05	0.0013267640523583208	210.6901200332	2.842170943040401e-14	210.69012003320003	210.69012003320003
TypeSet	100	Classical	Scheme-examples/AlgoDat1/qsort.scm	false	ParAAM-L-SA-state	12	6.751631121740107e-06	14	2073573	0	0	16039	1	VectorAddress(@vector-Time())	192	2	10	88592.46335300176	1.8195384367333336	23.4057494455	0.23826074539412445	23.136802655	24.02565011	11.999936342101405	11.999108850875743	0.9329202073793891	0.9329845440976773	0.9329152584010592	0.009349894175313839	0.9087979364068081	0.9437112623719184	0.9999946951751171	0.9999257375729785	0.07773895217370015	1.3877787807814457e-17	0.07773895217370017	0.07773895217370017	0.00011582860774556769	0.0016216005084379475	259.0345321052	0.0	259.0345321052	259.0345321052
TypeSet	100	Classical	Scheme-examples/AlgoDat1/qsort.scm	false	ParAAM-L-SA-state	14	6.751631121740107e-06	14	2073573	0	0	16039	1	VectorAddress(@vector-Time())	192	2	10	88790.70261130383	1.5596043743428574	23.3534924155	0.30558982279518565	23.040326259	24.005461605	13.999912229345684	13.99877131097936	0.9350400219026153	0.9351162289003966	0.9350341598258628	0.012064582810014974	0.9095622321318825	0.9476628497077396	0.9999937306675488	0.9999122364985257	0.06678249002739002	1.3877787807814457e-17	0.06678249002739003	0.06678249002739003	0.00013688835460839817	0.0019164369645175746	305.11443257619993	5.684341886080802e-14	305.1144325762	305.1144325762
TypeSet	100	Classical	Scheme-examples/AlgoDat1/qsort.scm	false	ParAAM-L-SA-state	16	6.751631121740107e-06	14	2073573	0	0	16039	1	VectorAddress(@vector-Time())	192	2	10	89052.47336476913	1.3646538275500002	23.2848445602	0.16310547854701984	23.061517523	23.626338027	15.999884258589459	15.998379772618447	0.9377409696117496	0.937829154675067	0.9377341861453405	0.006529110396556821	0.9241576589587327	0.9467920408543707	0.9999927661618412	0.999898735788653	0.05860695458034351	0.0	0.05860695458034352	0.05860695458034352	0.00015794810147122868	0.0022112734205972013	350.72305172239993	5.684341886080802e-14	350.7230517224	350.7230517224
TypeSet	100	Classical	Scheme-examples/AlgoDat1/qsort.scm	false	ParAAM-L-SA-state	18	6.751631121740107e-06	14	2073573	0	0	16039	1	VectorAddress(@vector-Time())	192	2	10	89163.148306948	1.213025624488889	23.255941937599996	0.12750458742992485	23.029477249	23.527481713	17.999852429843894	17.99793423798022	0.9388984570003426	0.9389985233389134	0.9388907595896833	0.0051379320777812	0.9280407273140275	0.9481092864037161	0.9999918016579941	0.9998852354433456	0.05215981480103715	6.938893903907228e-18	0.05215981480103716	0.05215981480103716	0.00017900784833405916	0.002506109876676828	396.772493636	5.684341886080802e-14	396.7724936359999	396.7724936359999
TypeSet	100	Classical	Scheme-examples/AlgoDat1/qsort.scm	false	ParAAM-L-SA-state	20	6.751631121740107e-06	14	2073573	0	0	16039	1	VectorAddress(@vector-Time())	192	2	10	89056.71776934051	1.0917230620400002	23.2837348146	0.19081516385017908	23.029737596	23.697630581	19.99981674312015	19.997434709251777	0.9377959121790984	0.9379076195884192	0.9377873193014583	0.0076352038601008474	0.9213773995745455	0.9480985682004643	0.9999908371560076	0.9998717354625889	0.04688779831642122	6.938893903907228e-18	0.046887798316421224	0.046887798316421224	0.00020006759519688964	0.0028009463327564547	443.8402350512	5.684341886080802e-14	443.84023505119995	443.84023505119995
TypeSet	100	Classical	Scheme-examples/AlgoDat1/qsort.scm	false	ParAAM-L-SA-set	2	6.751631121740107e-06	14	2073573	0	0	16039	1	VectorAddress(@vector-Time())	192	2	10	107796.74997086693	10.917230620400002	19.2359509963	0.12130277254818543	19.107155426	19.519859906	1.9999990354817334	1.999986496828925	1.135109142077933	1.1351162584956962	1.1351085946611819	0.007106857667668915	1.1185767390722174	1.1427374066936637	0.9999995177408667	0.9999932484144625	0.5675430667555719	1.1102230246251565e-16	0.5675430667555719	0.5675430667555719	1.0529873431415246e-05	0.00014741822803981342	16.6374407518	0.0	16.6374407518	16.6374407518
TypeSet	100	Classical	Scheme-examples/AlgoDat1/qsort.scm	false	ParAAM-L-SA-set	3	6.751631121740107e-06	14	2073573	0	0	16039	1	VectorAddress(@vector-Time())	192	2	10	95872.61643409394	7.278153746933334	21.6284177602	0.1665263471438789	21.42719878	21.95437155	2.999997106446596	2.9999594907602765	1.0095573141343817	1.0095699727023948	1.0095563403983807	0.0077344694769702	0.994538203522387	1.019006799021258	0.9999990354821986	0.9999864969200921	0.3365088388632101	5.551115123125783e-17	0.3365088388632101	0.3365088388632101	2.105974686283049e-05	0.00029483645607962684	43.05079203980001	0.0	43.05079203980001	43.05079203980001
TypeSet	100	Classical	Scheme-examples/AlgoDat1/qsort.scm	false	ParAAM-L-SA-set	4	6.751631121740107e-06	14	2073573	0	0	16039	1	VectorAddress(@vector-Time())	192	2	10	91743.47461720691	5.458615310200001	22.601858155600002	0.2815388302546964	22.337618093	23.28819858	3.9999942128959827	3.9999189820675487	0.9661227136943658	0.9661408846154383	0.9661213159312063	0.011841025465097247	0.9375762219561082	0.9774749102565384	0.9999985532239957	0.9999797455168872	0.24151179396936148	5.551115123125783e-17	0.2415117939693615	0.2415117939693615	3.1589620294245735e-05	0.00044225468411944024	68.57297138160003	1.4210854715202004e-14	68.57297138160001	68.57297138160001
TypeSet	100	Classical	Scheme-examples/AlgoDat1/qsort.scm	false	ParAAM-L-SA-set	5	6.751631121740107e-06	14	2073573	0	0	16039	1	VectorAddress(@vector-Time())	192	2	10	91401.33837284852	4.366892248160001	22.6864621122	0.1538442363271135	22.475999194	22.910357418	4.999990354831289	4.999864971024229	0.9624685190129723	0.9624926552582087	0.9624666623787234	0.006530403493678195	0.9530388741838355	0.9714567549294424	0.9999980709662578	0.9999729942048458	0.19248890490561044	0.0	0.19248890490561046	0.19248890490561046	4.211949372566098e-05	0.0005896729121592537	91.5978493202	0.0	91.5978493202	91.5978493202
TypeSet	100	Classical	Scheme-examples/AlgoDat1/qsort.scm	false	ParAAM-L-SA-set	6	6.751631121740107e-06	14	2073573	0	0	16039	1	VectorAddress(@vector-Time())	192	2	10	91382.89416312217	3.639076873466667	22.691041020199997	0.0926454731537461	22.528390339	22.866899647	5.999985532253911	5.999797457903796	0.962260648206085	0.9622908119819995	0.96225832791563	0.00392748625487454	0.9548500923982737	0.9691975730286108	0.9999975887089851	0.9999662429839659	0.16037505155568188	0.0	0.1603750515556819	0.1603750515556819	5.264936715707622e-05	0.0007370911401990671	114.31178488039996	0.0	114.31178488039996	114.31178488039996
TypeSet	100	Classical	Scheme-examples/AlgoDat1/qsort.scm	false	ParAAM-L-SA-set	7	6.751631121740107e-06	14	2073573	0	0	16039	1	VectorAddress(@vector-Time())	192	2	10	91309.91298054637	3.1192087486857147	22.7091772658	0.25397381285033416	22.356210435	23.35607643	6.999979745165243	6.999716442979722	0.9615441590806841	0.9615803286427833	0.9615413768066764	0.010599843654364482	0.9348514210526584	0.9766620020098232	0.9999971064521777	0.9999594918542459	0.13735454667409902	2.7755575615628914e-17	0.13735454667409902	0.13735454667409902	6.317924058849147e-05	0.0008845093682388805	137.12977961980002	2.842170943040401e-14	137.1297796198	137.1297796198
TypeSet	100	Classical	Scheme-examples/AlgoDat1/qsort.scm	false	ParAAM-L-SA-set	8	6.751631121740107e-06	14	2073573	0	0	16039	1	VectorAddress(@vector-Time())	192	2	10	91343.14196568874	2.7293076551000004	22.7009160773	0.10882800281031199	22.499219897	22.871231732	7.999972993566682	7.999621926525471	0.9618460275779783	0.9618882386277133	0.9618427805741525	0.004613758271424845	0.954669232363668	0.9704541464440447	0.9999966241958352	0.9999527408156839	0.12022896546581209	0.0	0.1202289654658121	0.1202289654658121	7.370911401990671e-05	0.001031927596278694	159.77286737760002	2.842170943040401e-14	159.7728673776	159.7728673776
TypeSet	100	Classical	Scheme-examples/AlgoDat1/qsort.scm	false	ParAAM-L-SA-set	9	6.751631121740107e-06	14	2073573	0	0	16039	1	VectorAddress(@vector-Time())	192	2	10	91295.70652349264	2.426051248977778	22.712711024	0.11735482992687837	22.566003244	22.925263884	8.999965277459621	8.999513908814501	0.961348759844736	0.9613969760808145	0.9613450509034992	0.004957906443917081	0.9524191892089282	0.9675821192042723	0.999996141939958	0.999945989868278	0.10681469272488982	0.0	0.10681469272488983	0.10681469272488983	8.423898745132197e-05	0.0011793458243185074	182.57993797519998	0.0	182.57993797519998	182.57993797519998
TypeSet	100	Classical	Scheme-examples/AlgoDat1/qsort.scm	false	ParAAM-L-SA-set	10	6.751631121740107e-06	14	2073573	0	0	16039	1	VectorAddress(@vector-Time())	192	2	10	90592.60213311043	2.1834461240800005	22.8889881864	0.1944945567085952	22.665027455	23.367183884	9.99995659684546	9.999392390120263	0.9539669855889186	0.9540208123183722	0.9539628450712684	0.008026130431302729	0.9344070449049925	0.9633547227838557	0.9999956596845458	0.9999392390120263	0.09539286342842114	1.3877787807814457e-17	0.09539286342842115	0.09539286342842115	9.47688608827372e-05	0.0013267640523583208	207.05542062319995	2.842170943040401e-14	207.05542062319998	207.05542062319998
TypeSet	100	Classical	Scheme-examples/AlgoDat1/qsort.scm	false	ParAAM-L-SA-set	12	6.751631121740107e-06	14	2073573	0	0	16039	1	VectorAddress(@vector-Time())	192	2	10	90902.2891974973	1.8195384367333336	22.811009693	0.27450921143794893	22.344475942	23.395964451	11.999936342101405	11.999108850875743	0.9572637664632896	0.9573297819797114	0.9572586883466417	0.011465990131071987	0.9332575832267835	0.9771749087996581	0.9999946951751171	0.9999257375729785	0.07976579998962931	1.3877787807814457e-17	0.07976579998962932	0.07976579998962932	0.00011582860774556769	0.0016216005084379475	251.89765507519996	0.0	251.89765507519996	251.89765507519996
TypeSet	100	Classical	Scheme-examples/AlgoDat1/qsort.scm	false	ParAAM-L-SA-set	14	6.751631121740107e-06	14	2073573	0	0	16039	1	VectorAddress(@vector-Time())	192	2	10	90861.47592396484	1.5596043743428574	22.8212559714	0.20221488841481014	22.524000851	23.285374884	13.999912229345684	13.99877131097936	0.9568032126769459	0.9568811934035434	0.9567972141595152	0.008415324399640293	0.9376899169359323	0.9693864507126679	0.9999937306675488	0.9999122364985257	0.06833998866220951	1.3877787807814457e-17	0.06833998866220953	0.06833998866220953	0.00013688835460839817	0.0019164369645175746	297.6631223588	5.684341886080802e-14	297.66312235879997	297.66312235879997
TypeSet	100	Classical	Scheme-examples/AlgoDat1/qsort.scm	false	ParAAM-L-SA-set	16	6.751631121740107e-06	14	2073573	0	0	16039	1	VectorAddress(@vector-Time())	192	2	10	91207.52229184544	1.3646538275500002	22.7346708681	0.10014755925538882	22.603153778	22.905166086	15.999884258589459	15.998379772618447	0.9604199280920018	0.9605102458822176	0.9604129805696775	0.004228451671832941	0.953254875289709	0.9659918016419383	0.9999927661618412	0.999898735788653	0.06002522910788231	0.0	0.060025229107882314	0.060025229107882314	0.00015794810147122868	0.0022112734205972013	341.92027264880005	5.684341886080802e-14	341.9202726488	341.9202726488
TypeSet	100	Classical	Scheme-examples/AlgoDat1/qsort.scm	false	ParAAM-L-SA-set	18	6.751631121740107e-06	14	2073573	0	0	16039	1	VectorAddress(@vector-Time())	192	2	10	90861.14314164384	1.213025624488889	22.821339555100003	0.26092979764822216	22.548489592	23.490641778	17.999852429843894	17.99793423798022	0.956826022313466	0.9569279993440899	0.956818177926495	0.010758446110061264	0.929496156262913	0.9683336505406851	0.9999918016579941	0.9998852354433456	0.05315312983973405	1.3877787807814457e-17	0.053153129839734053	0.053153129839734053	0.00017900784833405916	0.002506109876676828	388.9496507510001	5.684341886080802e-14	388.94965075100004	388.94965075100004
TypeSet	100	Classical	Scheme-examples/AlgoDat1/qsort.scm	false	ParAAM-L-SA-set	20	6.751631121740107e-06	14	2073573	0	0	16039	1	VectorAddress(@vector-Time())	192	2	10	90354.96423540259	1.0917230620400002	22.949187325199997	0.10677993921535933	22.786992448	23.105143307	19.99981674312015	19.997434709251777	0.9514453592698695	0.9515586925599958	0.9514366413244751	0.004430220147048388	0.9450043633438523	0.9581984674206709	0.9999908371560076	0.9998717354625889	0.04757131686494201	6.938893903907228e-18	0.047571316864942016	0.047571316864942016	0.00020006759519688964	0.0028009463327564547	437.1492852631999	5.684341886080802e-14	437.14928526319994	437.14928526319994
TypeSet	100	Classical	Scheme-examples/AlgoDat1/qsort.scm	false	ParAAM-L-SA-part	2	6.751631121740107e-06	14	2073573	0	0	16039	1	VectorAddress(@vector-Time())	192	2	10	83169.45446565528	10.917230620400002	24.9319057498	0.20781323785388855	24.655906724	25.284327006	1.9999990354817334	1.999986496828925	0.8757945606921776	0.8758000513712124	0.8757941383322518	0.007259277995669149	0.8635571449308759	0.8855671578099535	0.9999995177408667	0.9999932484144625	0.43788191444160174	1.1102230246251565e-16	0.43788191444160174	0.43788191444160174	1.0529873431415246e-05	0.00014741822803981342	28.029350258799987	7.105427357601002e-15	28.029350258799994	28.029350258799994
TypeSet	100	Classical	Scheme-examples/AlgoDat1/qsort.scm	false	ParAAM-L-SA-part	3	6.751631121740107e-06	14	2073573	0	0	16039	1	VectorAddress(@vector-Time())	192	2	10	118291.22478098914	7.278153746933334	17.5293898921	0.05351333870320245	17.425252538	17.595001115	2.999997106446596	2.9999594907602765	1.2455986372165284	1.2456142554432952	1.2455974358144697	0.003809129674763098	1.2409468517842719	1.253035569681682	0.9999990354821986	0.9999864969200921	0.4151972083303021	5.551115123125783e-17	0.4151972083303021	0.4151972083303021	2.105974686283049e-05	0.00029483645607962684	30.753708435499995	0.0	30.753708435499995	30.753708435499995
TypeSet	100	Classical	Scheme-examples/AlgoDat1/qsort.scm	false	ParAAM-L-SA-part	4	6.751631121740107e-06	14	2073573	0	0	16039	1	VectorAddress(@vector-Time())	192	2	10	136037.69044105988	5.458615310200001	15.2426360171	0.11721875643781003	15.064357064	15.428174454	3.9999942128959827	3.9999189820675487	1.432504122272069	1.4325310649357421	1.4325020497594787	0.011028037994996761	1.415232975612294	1.449412088948611	0.9999985532239957	0.9999797455168872	0.358114915561602	5.551115123125783e-17	0.358114915561602	0.358114915561602	3.1589620294245735e-05	0.00044225468411944024	39.13608282759999	7.105427357601002e-15	39.1360828276	39.1360828276
TypeSet	100	Classical	Scheme-examples/AlgoDat1/qsort.scm	false	ParAAM-L-SA-part	5	6.751631121740107e-06	14	2073573	0	0	16039	1	VectorAddress(@vector-Time())	192	2	10	147353.62934575332	4.366892248160001	14.072086376200001	0.1074307301097327	13.823623204	14.195440411	4.999990354831289	4.999864971024229	1.5516634933966338	1.5517024051426922	1.5516605001853985	0.011931748606468607	1.5381320063786503	1.5795035005353726	0.9999980709662578	0.9999729942048458	0.3103230133340915	0.0	0.3103230133340915	0.3103230133340915	4.211949372566098e-05	0.0005896729121592537	48.52597064020001	0.0	48.52597064020001	48.52597064020001
TypeSet	100	Classical	Scheme-examples/AlgoDat1/qsort.scm	false	ParAAM-L-SA-part	6	6.751631121740107e-06	14	2073573	0	0	16039	1	VectorAddress(@vector-Time())	192	2	10	153503.33379248308	3.639076873466667	13.508325511699999	0.1364275271202873	13.195850261	13.654502792	5.999985532253911	5.999797457903796	1.6164576563342563	1.6165083270819502	1.6164537585844336	0.016518426394065578	1.5990667381599963	1.6546460295424235	0.9999975887089851	0.9999662429839659	0.269395112689189	0.0	0.269395112689189	0.269395112689189	5.264936715707622e-05	0.0007370911401990671	59.215491829399994	7.105427357601002e-15	59.21549182939999	59.21549182939999
TypeSet	100	Classical	Scheme-examples/AlgoDat1/qsort.scm	false	ParAAM-L-SA-part	7	6.751631121740107e-06	14	2073573	0	0	16039	1	VectorAddress(@vector-Time())	192	2	10	159233.38760279323	3.1192087486857147	13.022224994499998	0.1116503841921718	12.739186044	13.12990003	6.999979745165243	6.999716442979722	1.6767744585458964	1.6768375322979772	1.6767696067188131	0.014573524786190787	1.6629571581589568	1.7139604654006733	0.9999971064521777	0.9999594918542459	0.2395296310732711	0.0	0.23952963107327113	0.23952963107327113	6.317924058849147e-05	0.0008845093682388805	69.32111372069998	1.4210854715202004e-14	69.3211137207	69.3211137207
TypeSet	100	Classical	Scheme-examples/AlgoDat1/qsort.scm	false	ParAAM-L-SA-part	8	6.751631121740107e-06	14	2073573	0	0	16039	1	VectorAddress(@vector-Time())	192	2	10	161813.86421514786	2.7293076551000004	12.8145570842	0.13703123502133094	12.637046903	13.023617993	7.999972993566682	7.999621926525471	1.7039824887015351	1.704057268746902	1.703976736390353	0.01816726875009878	1.6765280778763396	1.7278135792640417	0.9999966241958352	0.9999527408156839	0.21298493870421492	2.7755575615628914e-17	0.21298493870421495	0.21298493870421495	7.370911401990671e-05	0.001031927596278694	80.68199543280001	1.4210854715202004e-14	80.6819954328	80.6819954328
TypeSet	100	Classical	Scheme-examples/AlgoDat1/qsort.scm	false	ParAAM-L-SA-part	9	6.751631121740107e-06	14	2073573	0	0	16039	1	VectorAddress(@vector-Time())	192	2	10	165662.24362616832	2.426051248977778	12.5168714042	0.06104994587400014	12.427809306	12.623924333	8.999965277459621	8.999513908814501	1.7444299219841888	1.7445174134841044	1.7444231918688107	0.008499195475895659	1.7296096415694513	1.7569034657024052	0.999996141939958	0.999945989868278	0.19382249530531434	2.7755575615628914e-17	0.19382249530531437	0.19382249530531437	8.423898745132197e-05	0.0011793458243185074	90.81738139699998	1.4210854715202004e-14	90.81738139699999	90.81738139699999
TypeSet	100	Classical	Scheme-examples/AlgoDat1/qsort.scm	false	ParAAM-L-SA-part	10	6.751631121740107e-06	14	2073573	0	0	16039	1	VectorAddress(@vector-Time())	192	2	10	167784.54936439157	2.1834461240800005	12.3585455744	0.1575323401415514	12.025896267	12.625047669	9.99995659684546	9.999392390120263	1.7669020951219157	1.7670017909840177	1.7668944262094464	0.022719418868309447	1.729455746485071	1.8156202877548073	0.9999956596845458	0.9999392390120263	0.17667500685540863	2.7755575615628914e-17	0.17667500685540866	0.17667500685540866	9.47688608827372e-05	0.0013267640523583208	101.75099450319999	0.0	101.75099450319999	101.75099450319999
TypeSet	100	Classical	Scheme-examples/AlgoDat1/qsort.scm	false	ParAAM-L-SA-part	12	6.751631121740107e-06	14	2073573	0	0	16039	1	VectorAddress(@vector-Time())	192	2	10	171174.5714099268	1.8195384367333336	12.1137911018	0.08955211792493963	11.964261476	12.248990504	11.999936342101405	11.999108850875743	1.8025054887101422	1.802629794397727	1.802495926734174	0.013367088991626998	1.782551895494555	1.8249735919429184	0.9999946951751171	0.9999257375729785	0.15020388096860662	2.7755575615628914e-17	0.15020388096860665	0.15020388096860665	0.00011582860774556769	0.0016216005084379475	123.53103198079998	0.0	123.53103198079998	123.53103198079998
TypeSet	100	Classical	Scheme-examples/AlgoDat1/qsort.scm	false	ParAAM-L-SA-part	14	6.751631121740107e-06	14	2073573	0	0	16039	1	VectorAddress(@vector-Time())	192	2	10	173658.42072613002	1.5596043743428574	11.9405266461	0.08969749807537077	11.800975208	12.110893884	13.999912229345684	13.99877131097936	1.8286641687713794	1.8288132073183805	1.8286527042677638	0.013704794509188744	1.802877760298606	1.8502251598662967	0.9999937306675488	0.9999122364985257	0.1306143707532576	0.0	0.13061437075325763	0.13061437075325763	0.00013688835460839817	0.0019164369645175746	145.33291180459997	2.842170943040401e-14	145.3329118046	145.3329118046
TypeSet	100	Classical	Scheme-examples/AlgoDat1/qsort.scm	false	ParAAM-L-SA-part	16	6.751631121740107e-06	14	2073573	0	0	16039	1	VectorAddress(@vector-Time())	192	2	10	174665.9694805953	1.3646538275500002	11.871648531	0.12743875199177016	11.646404783	12.056447253	15.999884258589459	15.998379772618447	1.8393299545032962	1.8395029249010453	1.8393166490880846	0.01978052651506362	1.8110195136769618	1.8747812434504496	0.9999927661618412	0.999898735788653	0.11495065946288163	1.3877787807814457e-17	0.11495065946288165	0.11495065946288165	0.00015794810147122868	0.0022112734205972013	168.11191525520002	2.842170943040401e-14	168.1119152552	168.1119152552
TypeSet	100	Classical	Scheme-examples/AlgoDat1/qsort.scm	false	ParAAM-L-SA-part	18	6.751631121740107e-06	14	2073573	0	0	16039	1	VectorAddress(@vector-Time())	192	2	10	176939.2170147563	1.213025624488889	11.7191261213	0.06025781419672016	11.570490888	11.816129509	17.999852429843894	17.99793423798022	1.863187555283665	1.8633861309180564	1.8631722802348658	0.009633357085985585	1.8478522281064484	1.8870816676797164	0.9999918016579941	0.9998852354433456	0.10350819778994991	1.3877787807814457e-17	0.10350819778994992	0.10350819778994992	0.00017900784833405916	0.002506109876676828	189.1098089426	0.0	189.1098089426	189.1098089426
TypeSet	100	Classical	Scheme-examples/AlgoDat1/qsort.scm	false	ParAAM-L-SA-part	20	6.751631121740107e-06	14	2073573	0	0	16039	1	VectorAddress(@vector-Time())	192	2	10	177610.71411509212	1.0917230620400002	11.6748193392	0.10600704817869491	11.495122412	11.874146606	19.99981674312015	19.997434709251777	1.8703126584902101	1.8705354444705993	1.8702955211071033	0.017011411059484706	1.8388236195237022	1.8994544345179438	0.9999908371560076	0.9998717354625889	0.09351091698475984	1.3877787807814457e-17	0.09351091698475986	0.09351091698475986	0.00020006759519688964	0.0028009463327564547	211.66192554319997	2.842170943040401e-14	211.6619255432	211.6619255432
TypeSet	100	Classical	Scheme-examples/AlgoDat1/qsort.scm	false	ParAAM-C-S-set	2	6.751631121740107e-06	14	2073573	0	0	16039	1	VectorAddress(@vector-Time())	192	2	10	74723.17611298218	10.917230620400002	27.750065078400002	0.45997397471289014	27.203418948	28.986020251	1.9999990354817334	1.999986496828925	0.7869320839366863	0.786937017504088	0.7869317044315016	0.012690915907624872	0.7532755808395852	0.8026366569046748	0.9999995177408667	0.9999932484144625	0.39341279343152663	5.551115123125783e-17	0.39341279343152663	0.39341279343152663	1.0529873431415246e-05	0.00014741822803981342	33.66566891600001	7.105427357601002e-15	33.665668916	33.665668916
TypeSet	100	Classical	Scheme-examples/AlgoDat1/qsort.scm	false	ParAAM-C-S-set	3	6.751631121740107e-06	14	2073573	0	0	16039	1	VectorAddress(@vector-Time())	192	2	10	51100.48393844534	7.278153746933334	40.578343690400004	1.9243371141103747	37.426835714	43.415496128	2.999997106446596	2.9999594907602765	0.5386910120846308	0.5386977665865486	0.5386904925075602	0.025781745408188773	0.5029186163490201	0.5833905224489105	0.9999990354821986	0.9999864969200921	0.1793605427186323	2.7755575615628914e-17	0.17936054271863233	0.17936054271863233	2.105974686283049e-05	0.00029483645607962684	99.90056983039999	1.4210854715202004e-14	99.9005698304	99.9005698304
TypeSet	100	Classical	Scheme-examples/AlgoDat1/qsort.scm	false	ParAAM-C-S-set	4	6.751631121740107e-06	14	2073573	0	0	16039	1	VectorAddress(@vector-Time())	192	2	10	39329.29843966198	5.458615310200001	52.7233660977	2.05074666820538	49.2147178	55.125366067	3.9999942128959827	3.9999189820675487	0.41445080691918956	0.4144586019464612	0.4144502073017071	0.016456915161514377	0.39608736954711826	0.4436571460092778	0.9999985532239957	0.9999797455168872	0.10353313367899941	1.3877787807814457e-17	0.10353313367899943	0.10353313367899943	3.1589620294245735e-05	0.00044225468411944024	189.05900315000002	2.842170943040401e-14	189.05900315	189.05900315
TypeSet	100	Classical	Scheme-examples/AlgoDat1/qsort.scm	false	ParAAM-C-S-set	5	6.751631121740107e-06	14	2073573	0	0	16039	1	VectorAddress(@vector-Time())	192	2	10	35124.375819221306	4.366892248160001	59.035155832300006	1.2914213727986728	57.768728381	61.774863018	4.999990354831289	4.999864971024229	0.36994326024607477	0.36995253747548695	0.3699425466130431	0.007930949447622331	0.35345220003867694	0.37796333505553337	0.9999980709662578	0.9999729942048458	0.07397104634677248	1.3877787807814457e-17	0.0739710463467725	0.0739710463467725	4.211949372566098e-05	0.0005896729121592537	273.3413179207	0.0	273.3413179207	273.3413179207
TypeSet	100	Classical	Scheme-examples/AlgoDat1/qsort.scm	false	ParAAM-C-S-set	6	6.751631121740107e-06	14	2073573	0	0	16039	1	VectorAddress(@vector-Time())	192	2	10	32284.191060120655	3.639076873466667	64.22874267280001	1.4435214343642366	61.404295713	67.175487918	5.999985532253911	5.999797457903796	0.3400350830074111	0.3400457420134362	0.3400342630838707	0.007641291213396431	0.3250361391859627	0.35558524020620585	0.9999975887089851	0.9999662429839659	0.05665807428311633	1.3877787807814457e-17	0.05665807428311634	0.05665807428311634	5.264936715707622e-05	0.0007370911401990671	363.537994796	0.0	363.537994796	363.537994796
TypeSet	100	Classical	Scheme-examples/AlgoDat1/qsort.scm	false	ParAAM-C-S-set	7	6.751631121740107e-06	14	2073573	0	0	16039	1	VectorAddress(@vector-Time())	192	2	10	30547.419027338918	3.1192087486857147	67.880464734	1.388957714213076	66.076675361	69.945842045	6.999979745165243	6.999716442979722	0.3217286004546322	0.32174070263681837	0.32172766951754095	0.006564554508674837	0.31216239024976916	0.3304412808530499	0.9999971064521777	0.9999594918542459	0.04595149371632637	6.938893903907228e-18	0.045951493716326376	0.045951493716326376	6.317924058849147e-05	0.0008845093682388805	453.32879189719995	5.684341886080802e-14	453.3287918972	453.3287918972
TypeSet	100	Classical	Scheme-examples/AlgoDat1/qsort.scm	false	ParAAM-C-S-set	8	6.751631121740107e-06	14	2073573	0	0	16039	1	VectorAddress(@vector-Time())	192	2	10	29890.47083076073	2.7293076551000004	69.37237662599999	1.1122812133534197	67.756645317	71.32921901	7.999972993566682	7.999621926525471	0.31478426683082084	0.3147980812813275	0.3147832041807819	0.005023335870652359	0.3061082336782479	0.3222482627150047	0.9999966241958352	0.9999527408156839	0.03934285933166496	6.938893903907228e-18	0.03934285933166497	0.03934285933166497	7.370911401990671e-05	0.001031927596278694	533.1445517671999	0.0	533.1445517671999	533.1445517671999
TypeSet	100	Classical	Scheme-examples/AlgoDat1/qsort.scm	false	ParAAM-C-S-set	9	6.751631121740107e-06	14	2073573	0	0	16039	1	VectorAddress(@vector-Time())	192	2	10	29141.28094403305	2.426051248977778	71.1558631888	1.0244177294044685	70.029716645	73.308995203	8.999965277459621	8.999513908814501	0.3068866194683604	0.3069020112994124	0.3068854354813564	0.004342216989138014	0.29784150199219317	0.3117885133176381	0.999996141939958	0.999945989868278	0.03409488888555343	6.938893903907228e-18	0.03409488888555344	0.03409488888555344	8.423898745132197e-05	0.0011793458243185074	618.5683074584001	1.1368683772161603e-13	618.5683074584	618.5683074584
TypeSet	100	Classical	Scheme-examples/AlgoDat1/qsort.scm	false	ParAAM-C-S-set	10	6.751631121740107e-06	14	2073573	0	0	16039	1	VectorAddress(@vector-Time())	192	2	10	29291.392046557135	2.1834461240800005	70.791207079	1.1897235684719698	68.888576355	73.106404305	9.99995659684546	9.999392390120263	0.30847935860393216	0.3084967642743887	0.30847801970620475	0.005151146298711714	0.2986668739677937	0.3169532946693743	0.9999956596845458	0.9999392390120263	0.030843465088020976	3.469446951953614e-18	0.030843465088020983	0.030843465088020983	9.47688608827372e-05	0.0013267640523583208	686.0776095492	0.0	686.0776095492	686.0776095492
TypeSet	100	Classical	Scheme-examples/AlgoDat1/qsort.scm	false	ParAAM-C-S-set	12	6.751631121740107e-06	14	2073573	0	0	16039	1	VectorAddress(@vector-Time())	192	2	10	28647.989693020965	1.8195384367333336	72.3810997637	0.6765071887732236	71.376928467	73.820011897	11.999936342101405	11.999108850875743	0.30167441873415546	0.30169522302367496	0.3016728184041924	0.002799457030650809	0.29577970362921796	0.30590362614013045	0.9999946951751171	0.9999257375729785	0.02513830879433326	3.469446951953614e-18	0.025138308794333267	0.025138308794333267	0.00011582860774556769	0.0016216005084379475	846.7387359236002	1.1368683772161603e-13	846.7387359236001	846.7387359236001
TypeSet	100	Classical	Scheme-examples/AlgoDat1/qsort.scm	false	ParAAM-C-S-set	14	6.751631121740107e-06	14	2073573	0	0	16039	1	VectorAddress(@vector-Time())	192	2	10	28169.385757414922	1.5596043743428574	73.6108702496	0.8571839134210386	71.457499336	74.505326247	13.999912229345684	13.99877131097936	0.29664226503920565	0.2966664417759272	0.29664040529022706	0.0035133505143817817	0.2930590649105329	0.30555870893455533	0.9999937306675488	0.9999122364985257	0.021187147619020737	0.0	0.02118714761902074	0.02118714761902074	0.00013688835460839817	0.0019164369645175746	1008.7177222536	0.0	1008.7177222536	1008.7177222536
TypeSet	100	Classical	Scheme-examples/AlgoDat1/qsort.scm	false	ParAAM-C-S-set	16	6.751631121740107e-06	14	2073573	0	0	16039	1	VectorAddress(@vector-Time())	192	2	10	27997.016542352423	1.3646538275500002	74.0640702506	0.7381615383424888	72.546985271	75.18819681	15.999884258589459	15.998379772618447	0.29482190301725225	0.2948496280383694	0.29481977032332013	0.0029649416566990858	0.29039745820711094	0.3009699322340846	0.9999927661618412	0.999898735788653	0.018425315040513115	0.0	0.01842531504051312	0.01842531504051312	0.00015794810147122868	0.0022112734205972013	1163.1906627688002	2.2737367544323206e-13	1163.1906627688	1163.1906627688
TypeSet	100	Classical	Scheme-examples/AlgoDat1/qsort.scm	false	ParAAM-C-S-set	18	6.751631121740107e-06	14	2073573	0	0	16039	1	VectorAddress(@vector-Time())	192	2	10	27836.62035628911	1.213025624488889	74.4908316261	0.9672202893538423	72.847447449	76.033852912	17.999852429843894	17.99793423798022	0.2931433107065997	0.2931745534651326	0.29314090741748183	0.003831690842677989	0.28716762868864154	0.2997285698457198	0.9999918016579941	0.9998852354433456	0.0162842271727823	0.0	0.016284227172782304	0.016284227172782304	0.00017900784833405916	0.002506109876676828	1319.0005080289998	2.2737367544323206e-13	1319.000508029	1319.000508029
TypeSet	100	Classical	Scheme-examples/AlgoDat1/qsort.scm	false	ParAAM-C-S-set	20	6.751631121740107e-06	14	2073573	0	0	16039	1	VectorAddress(@vector-Time())	192	2	10	27609.226528625775	1.0917230620400002	75.10434954960002	1.547884491616548	73.58523041	79.08403094	19.99981674312015	19.997434709251777	0.2907848706570978	0.29081950807036533	0.29078220624069256	0.0058207329800608505	0.27609191111370535	0.2967234201638481	0.9999908371560076	0.9998717354625889	0.014536083044285072	1.734723475976807e-18	0.014536083044285076	0.014536083044285076	0.00020006759519688964	0.0028009463327564547	1480.2525297512002	0.0	1480.2525297512002	1480.2525297512002
TypeSet	100	Classical	Scheme-examples/AlgoDat1/qsort.scm	false	ParAAM-C-S-part	2	6.751631121740107e-06	14	2073573	0	0	16039	1	VectorAddress(@vector-Time())	192	2	10	81939.6843362439	10.917230620400002	25.306089678	0.11840680680862417	25.135803595	25.480473223	1.9999990354817334	1.999986496828925	0.8628243702300453	0.8628297795941736	0.8628239541251124	0.004039876551013174	0.8569095655998682	0.86865976487592	0.9999995177408667	0.9999932484144625	0.43140725253538326	0.0	0.43140725253538326	0.43140725253538326	1.0529873431415246e-05	0.00014741822803981342	28.777718115199995	0.0	28.777718115199995	28.777718115199995
TypeSet	100	Classical	Scheme-examples/AlgoDat1/qsort.scm	false	ParAAM-C-S-part	3	6.751631121740107e-06	14	2073573	0	0	16039	1	VectorAddress(@vector-Time())	192	2	10	156385.87375862317	7.278153746933334	13.259336985899997	0.25857989211096943	12.886399046	13.696453533	2.999997106446596	2.9999594907602765	1.64703831876968	1.6470589705407943	1.647036730171902	0.03214067244202561	1.5941689714196765	1.6943803434038096	0.9999990354821986	0.9999864969200921	0.5489078190465282	0.0	0.5489078190465282	0.5489078190465282	2.105974686283049e-05	0.00029483645607962684	17.943549716899984	3.552713678800501e-15	17.943549716899987	17.943549716899987
TypeSet	100	Classical	Scheme-examples/AlgoDat1/qsort.scm	false	ParAAM-C-S-part	4	6.751631121740107e-06	14	2073573	0	0	16039	1	VectorAddress(@vector-Time())	192	2	10	225022.88409734616	5.458615310200001	9.214942774899999	0.20404520809646623	8.845799331	9.439775836	3.9999942128959827	3.9999189820675487	2.370052866092211	2.3700974422552155	2.3700494371565957	0.053296344603522096	2.3130275146504022	2.4683423649778478	0.9999985532239957	0.9999797455168872	0.5923656221792694	1.1102230246251565e-16	0.5923656221792694	0.5923656221792694	3.1589620294245735e-05	0.00044225468411944024	15.025309858799996	3.552713678800501e-15	15.025309858799993	15.025309858799993
TypeSet	100	Classical	Scheme-examples/AlgoDat1/qsort.scm	false	ParAAM-C-S-part	5	6.751631121740107e-06	14	2073573	0	0	16039	1	VectorAddress(@vector-Time())	192	2	10	297567.60896336753	4.366892248160001	6.968409657299999	0.1480850056514909	6.689522286	7.185330551	4.999990354831289	4.999864971024229	3.1340692173452775	3.134147811773795	3.134063171620007	0.06751150135785369	3.0387552925816683	3.263979146387734	0.9999980709662578	0.9999729942048458	0.626669851934625	1.1102230246251565e-16	0.626669851934625	0.626669851934625	4.211949372566098e-05	0.0005896729121592537	13.007587045699992	0.0	13.007587045699992	13.007587045699992
TypeSet	100	Classical	Scheme-examples/AlgoDat1/qsort.scm	false	ParAAM-C-S-part	6	6.751631121740107e-06	14	2073573	0	0	16039	1	VectorAddress(@vector-Time())	192	2	10	362850.20361481456	3.639076873466667	5.7146805468	0.0999812719176478	5.586799366	5.867108452	5.999985532253911	5.999797457903796	3.8213586578047214	3.8214784451060706	3.8213494433969255	0.06650283003029812	3.721502920805392	3.9082236197132127	0.9999975887089851	0.9999662429839659	0.6367944531045413	1.1102230246251565e-16	0.6367944531045413	0.6367944531045413	5.264936715707622e-05	0.0007370911401990671	12.453622039999999	0.0	12.453622039999999	12.453622039999999
TypeSet	100	Classical	Scheme-examples/AlgoDat1/qsort.scm	false	ParAAM-C-S-part	7	6.751631121740107e-06	14	2073573	0	0	16039	1	VectorAddress(@vector-Time())	192	2	10	418782.3564179207	3.1192087486857147	4.951433526800001	0.1094492727511079	4.815708171	5.150398979	6.999979745165243	6.999716442979722	4.410810395009695	4.410976312590269	4.410797632118881	0.09683285033261467	4.239372780599489	4.5340083878600135	0.9999971064521777	0.9999594918542459	0.6299607440557903	1.1102230246251565e-16	0.6299607440557903	0.6299607440557903	6.317924058849147e-05	0.0008845093682388805	12.825573446800004	3.552713678800501e-15	12.8255734468	12.8255734468
TypeSet	100	Classical	Scheme-examples/AlgoDat1/qsort.scm	false	ParAAM-C-S-part	8	6.751631121740107e-06	14	2073573	0	0	16039	1	VectorAddress(@vector-Time())	192	2	10	478530.6445813017	2.7293076551000004	4.3332083817	0.04866986534700844	4.256122985	4.407010237	7.999972993566682	7.999621926525471	5.039202692505162	5.0394238402038365	5.039185681143725	0.056793092226643443	4.9544838942020375	5.130129302595799	0.9999966241958352	0.9999527408156839	0.6298583900618325	1.1102230246251565e-16	0.6298583900618325	0.6298583900618325	7.370911401990671e-05	0.001031927596278694	12.831205812799993	0.0	12.831205812799993	12.831205812799993
TypeSet	100	Classical	Scheme-examples/AlgoDat1/qsort.scm	false	ParAAM-C-S-part	9	6.751631121740107e-06	14	2073573	0	0	16039	1	VectorAddress(@vector-Time())	192	2	10	531661.3812900332	2.426051248977778	3.9001760763	0.04929554275564997	3.838417047	4.004358483	8.999965277459621	8.999513908814501	5.598793256662085	5.599074062909197	5.598771656181537	0.07015830268117165	5.4526739635063795	5.688402529856731	0.999996141939958	0.999945989868278	0.6220363392617168	1.1102230246251565e-16	0.6220363392617168	0.6220363392617168	8.423898745132197e-05	0.0011793458243185074	13.267123445899998	0.0	13.267123445899998	13.267123445899998
TypeSet	100	Classical	Scheme-examples/AlgoDat1/qsort.scm	false	ParAAM-C-S-part	10	6.751631121740107e-06	14	2073573	0	0	16039	1	VectorAddress(@vector-Time())	192	2	10	584436.3918416164	2.1834461240800005	3.5479874781	0.06833536441918678	3.417702028	3.666294803	9.99995659684546	9.999392390120263	6.155210662252098	6.155557964479589	6.1551839466961376	0.1187719782551174	5.955457052426235	6.388638056190428	0.9999956596845458	0.9999392390120263	0.6154041234805225	0.0	0.6154041234805225	0.6154041234805225	9.47688608827372e-05	0.0013267640523583208	13.645413540199996	0.0	13.645413540199996	13.645413540199996
TypeSet	100	Classical	Scheme-examples/AlgoDat1/qsort.scm	false	ParAAM-C-S-part	12	6.751631121740107e-06	14	2073573	0	0	16039	1	VectorAddress(@vector-Time())	192	2	10	659083.5129763145	1.8195384367333336	3.1461460637000003	0.03580957699101186	3.08475267	3.197194301	11.999936342101405	11.999108850875743	6.940553288430603	6.941031927887816	6.940516470010818	0.07924687267458214	6.829256900017226	7.078188618862596	0.9999946951751171	0.9999257375729785	0.5783388310310932	0.0	0.5783388310310932	0.5783388310310932	0.00011582860774556769	0.0016216005084379475	15.919291523600005	3.552713678800501e-15	15.919291523600002	15.919291523600002
TypeSet	100	Classical	Scheme-examples/AlgoDat1/qsort.scm	false	ParAAM-C-S-part	14	6.751631121740107e-06	14	2073573	0	0	16039	1	VectorAddress(@vector-Time())	192	2	10	714281.2615094065	1.5596043743428574	2.9030202971	0.03772164842765865	2.850776077	2.993972487	13.999912229345684	13.99877131097936	7.52196757975082	7.522580630051592	7.521920422035376	0.09641234903765872	7.292806241742863	7.659128830552483	0.9999937306675488	0.9999122364985257	0.5372350912946903	1.1102230246251565e-16	0.5372350912946903	0.5372350912946903	0.00013688835460839817	0.0019164369645175746	18.807822918599992	3.552713678800501e-15	18.807822918599996	18.807822918599996
TypeSet	100	Classical	Scheme-examples/AlgoDat1/qsort.scm	false	ParAAM-C-S-part	16	6.751631121740107e-06	14	2073573	0	0	16039	1	VectorAddress(@vector-Time())	192	2	10	766372.1621104423	1.3646538275500002	2.7056997925	0.037044058031162896	2.654868415	2.780821564	15.999884258589459	15.998379772618447	8.070613062726022	8.071372022339613	8.070554681217283	0.10972837765928194	7.851802331895325	8.22431014563108	0.9999927661618412	0.999898735788653	0.5043626167739377	1.1102230246251565e-16	0.5043626167739377	0.5043626167739377	0.00015794810147122868	0.0022112734205972013	21.4567354392	3.552713678800501e-15	21.456735439199996	21.456735439199996
TypeSet	100	Classical	Scheme-examples/AlgoDat1/qsort.scm	false	ParAAM-C-S-part	18	6.751631121740107e-06	14	2073573	0	0	16039	1	VectorAddress(@vector-Time())	192	2	10	798275.5400450916	1.213025624488889	2.5975654971000006	0.03816783552324086	2.547054628	2.679392525	17.999852429843894	17.99793423798022	8.406710356170567	8.407606330296945	8.406641435083923	0.12223264632975843	8.149034169900135	8.57243539293261	0.9999918016579941	0.9998852354433456	0.4669855777816371	0.0	0.4669855777816371	0.4669855777816371	0.00017900784833405916	0.002506109876676828	24.921717707000003	3.552713678800501e-15	24.921717707000006	24.921717707000006
TypeSet	100	Classical	Scheme-examples/AlgoDat1/qsort.scm	false	ParAAM-C-S-part	20	6.751631121740107e-06	14	2073573	0	0	16039	1	VectorAddress(@vector-Time())	192	2	10	787421.2494675814	1.0917230620400002	2.6333719104	0.1429865040570748	2.484892955	2.986653594	19.99981674312015	19.997434709251777	8.303235923416898	8.304224979737082	8.303159842161499	0.4235378535713258	7.310677503632852	8.78688202518567	0.9999908371560076	0.9998717354625889	0.41457230470502404	0.0	0.41457230470502404	0.41457230470502404	0.00020006759519688964	0.0028009463327564547	30.832976967200004	0.0	30.832976967200004	30.832976967200004
TypeSet	100	Classical	Scheme-examples/AlgoDat1/qsort.scm	false	ParAAM-C-state	1	6.751631121740107e-06	14	2073573	0	0	16039	1	VectorAddress(@vector-Time())	192	2	10	118778.82587592494	21.834461240800003	17.4574296783	0.0729469116114498	17.346044359	17.579456542	1.0	1.0	1.2507369171910085	1.2507369171910085	1.2507369171910085	0.005222910413050484	1.2420441547003545	1.2587573736643414	1.0	1.0	1.2507260028055998	0.0	1.2507260028055998	1.2507260028055998	0.0	0.0	-4.377031562500005	8.881784197001252e-16	-4.3770315625000045	-4.3770315625000045
TypeSet	100	Classical	Scheme-examples/AlgoDat1/qsort.scm	false	ParAAM-C-state	2	6.751631121740107e-06	14	2073573	0	0	16039	1	VectorAddress(@vector-Time())	192	2	10	210589.29081868604	10.917230620400002	9.846526344900001	0.06426674302480385	9.776836941	9.998983832	1.9999990354817334	1.999986496828925	2.217526630482128	2.2175405329742484	2.217525561059657	0.01435921893568023	2.183668021436601	2.233284790629506	0.9999995177408667	0.9999932484144625	1.1087392891661303	2.220446049250313e-16	1.1087392891661303	1.1087392891661303	1.0529873431415246e-05	0.00014741822803981342	-2.1414085510000014	0.0	-2.1414085510000014	-2.1414085510000014
TypeSet	100	Classical	Scheme-examples/AlgoDat1/qsort.scm	false	ParAAM-C-state	3	6.751631121740107e-06	14	2073573	0	0	16039	1	VectorAddress(@vector-Time())	192	2	10	265664.55999002175	7.278153746933334	7.8052300242	0.08976406074836081	7.700736374	7.996171832	2.999997106446596	2.9999594907602765	2.797600732121536	2.7976358104857306	2.7975980337858286	0.03187391670483362	2.7306143113909016	2.8353731617822557	0.9999990354821986	0.9999864969200921	0.9324713973025172	2.220446049250313e-16	0.9324713973025172	0.9324713973025172	2.105974686283049e-05	0.00029483645607962684	1.5812288317999972	0.0	1.5812288317999972	1.5812288317999972
TypeSet	100	Classical	Scheme-examples/AlgoDat1/qsort.scm	false	ParAAM-C-state	4	6.751631121740107e-06	14	2073573	0	0	16039	1	VectorAddress(@vector-Time())	192	2	10	234174.32779918617	5.458615310200001	8.8548263146	0.2589539193233485	8.201450482	9.145433902	3.9999942128959827	3.9999189820675487	2.466913280010901	2.4669596779330996	2.4669097109399627	0.07521859948396753	2.3874713299305634	2.662268252270843	0.9999985532239957	0.9999797455168872	0.6164565081530436	0.0	0.6164565081530436	0.6164565081530436	3.1589620294245735e-05	0.00044225468411944024	13.584844017600002	3.552713678800501e-15	13.584844017599998	13.584844017599998
TypeSet	100	Classical	Scheme-examples/AlgoDat1/qsort.scm	false	ParAAM-C-state	5	6.751631121740107e-06	14	2073573	0	0	16039	1	VectorAddress(@vector-Time())	192	2	10	238165.06152977684	4.366892248160001	8.7064533592	0.22470671924305644	8.435062769	9.075293422	4.999990354831289	4.999864971024229	2.5086841775368365	2.5087470889103867	2.50867933820041	0.06428933967308303	2.405923447926178	2.5885357155900026	0.9999980709662578	0.9999729942048458	0.5015695907387548	0.0	0.5015695907387548	0.5015695907387548	4.211949372566098e-05	0.0005896729121592537	21.697805555199988	3.552713678800501e-15	21.69780555519999	21.69780555519999
TypeSet	100	Classical	Scheme-examples/AlgoDat1/qsort.scm	false	ParAAM-C-state	6	6.751631121740107e-06	14	2073573	0	0	16039	1	VectorAddress(@vector-Time())	192	2	10	254291.24778069087	3.639076873466667	8.154323116099999	0.10801913636016283	7.977007792	8.357002385	5.999985532253911	5.999797457903796	2.6778955637612487	2.6779795071728993	2.677889106575737	0.03536591121074293	2.61271449197989	2.7371743653926726	0.9999975887089851	0.9999662429839659	0.44627577564122123	1.1102230246251565e-16	0.44627577564122123	0.44627577564122123	5.264936715707622e-05	0.0007370911401990671	27.091477455799982	7.105427357601002e-15	27.09147745579999	27.09147745579999
TypeSet	100	Classical	Scheme-examples/AlgoDat1/qsort.scm	false	ParAAM-C-state	7	6.751631121740107e-06	14	2073573	0	0	16039	1	VectorAddress(@vector-Time())	192	2	10	276334.05088344985	3.1192087486857147	7.5038635064	0.23497737064163154	7.175970793	7.93542367	6.999979745165243	6.999716442979722	2.9111843975339142	2.911293905000477	2.91117597388264	0.08991377169072785	2.7515180220743027	3.0427188000958747	0.9999971064521777	0.9999594918542459	0.41568036865614094	5.551115123125783e-17	0.41568036865614094	0.41568036865614094	6.317924058849147e-05	0.0008845093682388805	30.69258330399999	7.105427357601002e-15	30.692583303999996	30.692583303999996
TypeSet	100	Classical	Scheme-examples/AlgoDat1/qsort.scm	false	ParAAM-C-state	8	6.751631121740107e-06	14	2073573	0	0	16039	1	VectorAddress(@vector-Time())	192	2	10	298075.28546284133	2.7293076551000004	6.956541186499999	0.23813127076644514	6.607431292	7.284956173	7.999972993566682	7.999621926525471	3.1405496736848177	3.1406874981335036	3.1405390718041497	0.10792521427328045	2.9971987095439734	3.304530955507059	0.9999966241958352	0.9999527408156839	0.3923368786195859	5.551115123125783e-17	0.39233687861958594	0.39233687861958594	7.370911401990671e-05	0.001031927596278694	33.81786825119998	7.105427357601002e-15	33.81786825119999	33.81786825119999
TypeSet	100	Classical	Scheme-examples/AlgoDat1/qsort.scm	false	ParAAM-C-state	9	6.751631121740107e-06	14	2073573	0	0	16039	1	VectorAddress(@vector-Time())	192	2	10	317640.3566950394	2.426051248977778	6.5280527372999995	0.19057860089908665	6.100894277	6.785468872	8.999965277459621	8.999513908814501	3.34618104601912	3.346348872995151	3.3461681362517326	0.10082508351262467	3.217826454248305	3.5788951995307627	0.999996141939958	0.999945989868278	0.3716347503009285	5.551115123125783e-17	0.3716347503009285	0.3716347503009285	8.423898745132197e-05	0.0011793458243185074	36.9180133949	7.105427357601002e-15	36.918013394899994	36.918013394899994
TypeSet	100	Classical	Scheme-examples/AlgoDat1/qsort.scm	false	ParAAM-C-state	10	6.751631121740107e-06	14	2073573	0	0	16039	1	VectorAddress(@vector-Time())	192	2	10	335449.7706752001	2.1834461240800005	6.1814709124	0.19704842455364766	5.860107949	6.485644933	9.99995659684546	9.999392390120263	3.5340654668018208	3.53426487326832	3.5340501278428595	0.11377161132020683	3.366582886723072	3.725948639653635	0.9999956596845458	0.9999392390120263	0.3532243627807127	5.551115123125783e-17	0.3532243627807127	0.3532243627807127	9.47688608827372e-05	0.0013267640523583208	39.98024788319999	7.105427357601002e-15	39.9802478832	39.9802478832
TypeSet	100	Classical	Scheme-examples/AlgoDat1/qsort.scm	false	ParAAM-C-state	12	6.751631121740107e-06	14	2073573	0	0	16039	1	VectorAddress(@vector-Time())	192	2	10	362081.6127597762	1.8195384367333336	5.7268111026	0.09528849422448163	5.57021712	5.856695809	11.999936342101405	11.999108850875743	3.8132233378596716	3.8134863081262793	3.813203109377625	0.06376773919973763	3.7281193957942858	3.919858197699842	0.9999946951751171	0.9999257375729785	0.31772279618359583	0.0	0.31772279618359583	0.31772279618359583	0.00011582860774556769	0.0016216005084379475	46.8872719904	0.0	46.8872719904	46.8872719904
TypeSet	100	Classical	Scheme-examples/AlgoDat1/qsort.scm	false	ParAAM-C-state	14	6.751631121740107e-06	14	2073573	0	0	16039	1	VectorAddress(@vector-Time())	192	2	10	384088.7015327868	1.5596043743428574	5.398682626499999	0.09358718679507691	5.199219497	5.556629222	13.999912229345684	13.99877131097936	4.045041052180088	4.045370728372838	4.045015692472954	0.0705893572947293	3.9294436192273268	4.199565195006423	0.9999937306675488	0.9999122364985257	0.28888610096977657	5.551115123125783e-17	0.28888610096977657	0.28888610096977657	0.00013688835460839817	0.0019164369645175746	53.747095530199985	7.105427357601002e-15	53.74709553019999	53.74709553019999
TypeSet	100	Classical	Scheme-examples/AlgoDat1/qsort.scm	false	ParAAM-C-state	16	6.751631121740107e-06	14	2073573	0	0	16039	1	VectorAddress(@vector-Time())	192	2	10	395846.3971953518	1.3646538275500002	5.2383273277	0.04324712585354864	5.146602146	5.308337008	15.999884258589459	15.998379772618447	4.168385021070008	4.168777015564144	4.168354867647381	0.03454402283210311	4.113239458590155	4.242500317956383	0.9999927661618412	0.999898735788653	0.2605132787967988	5.551115123125783e-17	0.2605132787967988	0.2605132787967988	0.00015794810147122868	0.0022112734205972013	61.978776002400004	0.0	61.978776002400004	61.978776002400004
TypeSet	100	Classical	Scheme-examples/AlgoDat1/qsort.scm	false	ParAAM-C-state	18	6.751631121740107e-06	14	2073573	0	0	16039	1	VectorAddress(@vector-Time())	192	2	10	401902.23504010506	1.213025624488889	5.1593965378	0.10947817318435851	4.897859537	5.273752978	17.999852429843894	17.99793423798022	4.232982403734911	4.233433548421771	4.23294770029746	0.09201704992380678	4.1402131142442	4.4579598650911665	0.9999918016579941	0.9998852354433456	0.2351099814875115	2.7755575615628914e-17	0.23510998148751153	0.23510998148751153	0.00017900784833405916	0.002506109876676828	71.03467643959998	1.4210854715202004e-14	71.03467643959999	71.03467643959999
TypeSet	100	Classical	Scheme-examples/AlgoDat1/qsort.scm	false	ParAAM-C-state	20	6.751631121740107e-06	14	2073573	0	0	16039	1	VectorAddress(@vector-Time())	192	2	10	401631.2203243193	1.0917230620400002	5.1628780211	0.06999236308534167	4.995911467	5.255143249	19.99981674312015	19.997434709251777	4.229557249151093	4.230061061203099	4.229518494377862	0.05822129126406889	4.1548746068824824	4.370466007059049	0.9999908371560076	0.9998717354625889	0.2114562958059966	0.0	0.21145629580599662	0.21145629580599662	0.00020006759519688964	0.0028009463327564547	81.42309918119999	1.4210854715202004e-14	81.4230991812	81.4230991812
TypeSet	100	Classical	Scheme-examples/AlgoDat1/qsort.scm	false	ParAAM-C-set	1	6.751631121740107e-06	14	2073573	0	0	16039	1	VectorAddress(@vector-Time())	192	2	10	138222.8770025655	21.834461240800003	15.0016628576	0.06291676793580771	14.857593232	15.048426822	1.0	1.0	1.455482243758637	1.455482243758637	1.455482243758637	0.006135121166971412	1.4509464344059662	1.4695826504237146	1.0	1.0	1.4554694001630917	2.220446049250313e-16	1.4554694001630917	1.4554694001630917	0.0	0.0	-6.832798383200002	1.7763568394002505e-15	-6.832798383200004	-6.832798383200004
TypeSet	100	Classical	Scheme-examples/AlgoDat1/qsort.scm	false	ParAAM-C-set	2	6.751631121740107e-06	14	2073573	0	0	16039	1	VectorAddress(@vector-Time())	192	2	10	241902.22154653945	10.917230620400002	8.571946907900001	0.048470778034050095	8.48467979	8.646557215	1.9999990354817334	1.999986496828925	2.5472417620676326	2.5472577316654896	2.5472405336370283	0.014422521418088044	2.5252202348145802	2.5733983816966184	0.9999995177408667	0.9999932484144625	1.273599887831615	0.0	1.273599887831615	1.273599887831615	1.0529873431415246e-05	0.00014741822803981342	-4.690567425	8.881784197001252e-16	-4.690567425000001	-4.690567425000001
TypeSet	100	Classical	Scheme-examples/AlgoDat1/qsort.scm	false	ParAAM-C-set	3	6.751631121740107e-06	14	2073573	0	0	16039	1	VectorAddress(@vector-Time())	192	2	10	324397.7231417368	7.278153746933334	6.3920701413000005	0.04246048588599384	6.325717651	6.454460551	2.999997106446596	2.9999594907602765	3.415945632907018	3.4159884645318477	3.4159423381666465	0.022694940793412024	3.3828483524339075	3.451697095166476	0.9999990354821986	0.9999864969200921	1.1386223220405909	2.220446049250313e-16	1.1386223220405909	1.1386223220405909	2.105974686283049e-05	0.00029483645607962684	-2.6582508169000008	0.0	-2.6582508169000008	-2.6582508169000008
TypeSet	100	Classical	Scheme-examples/AlgoDat1/qsort.scm	false	ParAAM-C-set	4	6.751631121740107e-06	14	2073573	0	0	16039	1	VectorAddress(@vector-Time())	192	2	10	388143.88550352695	5.458615310200001	5.3422791842	0.052014973955992874	5.269650355	5.437818348	3.9999942128959827	3.9999189820675487	4.087305214437588	4.087382088833976	4.087299301022481	0.039669088743865495	4.015298019072409	4.1434364274439615	0.9999985532239957	0.9999797455168872	1.0217764968824672	2.220446049250313e-16	1.0217764968824672	1.0217764968824672	3.1589620294245735e-05	0.00044225468411944024	-0.4653445040000044	0.0	-0.4653445040000044	-0.4653445040000044
TypeSet	100	Classical	Scheme-examples/AlgoDat1/qsort.scm	false	ParAAM-C-set	5	6.751631121740107e-06	14	2073573	0	0	16039	1	VectorAddress(@vector-Time())	192	2	10	430916.33904417476	4.366892248160001	4.8120082998	0.044369168096717385	4.756488918	4.881154196	4.999990354831289	4.999864971024229	4.5376956328826195	4.537809426666458	4.537686879514633	0.04167203707002699	4.47321685897423	4.590457713077343	0.9999980709662578	0.9999729942048458	0.9074989019327958	1.1102230246251565e-16	0.9074989019327958	0.9074989019327958	4.211949372566098e-05	0.0005896729121592537	2.2255802581999973	0.0	2.2255802581999973	2.2255802581999973
TypeSet	100	Classical	Scheme-examples/AlgoDat1/qsort.scm	false	ParAAM-C-set	6	6.751631121740107e-06	14	2073573	0	0	16039	1	VectorAddress(@vector-Time())	192	2	10	439117.0116514903	3.639076873466667	4.7221422650000004	0.049934408921659554	4.645201794	4.804426928	5.999985532253911	5.999797457903796	4.62411610722317	4.624261058388242	4.624104957133549	0.04886398333686385	4.544654662879703	4.700433309270354	0.9999975887089851	0.9999662429839659	0.770641092378581	1.1102230246251565e-16	0.770641092378581	0.770641092378581	5.264936715707622e-05	0.0007370911401990671	6.498392349200001	1.7763568394002505e-15	6.4983923491999995	6.4983923491999995
TypeSet	100	Classical	Scheme-examples/AlgoDat1/qsort.scm	false	ParAAM-C-set	7	6.751631121740107e-06	14	2073573	0	0	16039	1	VectorAddress(@vector-Time())	192	2	10	408049.4302077165	3.1192087486857147	5.081671107699999	0.044393042477180476	5.030394259	5.184322067	6.999979745165243	6.999716442979722	4.296884169983872	4.297045802101702	4.2968717367440386	0.037170316302341536	4.211632872846363	4.340506949676049	0.9999971064521777	0.9999594918542459	0.6138155505497661	1.1102230246251565e-16	0.6138155505497661	0.6138155505497661	6.317924058849147e-05	0.0008845093682388805	13.73723651309999	3.552713678800501e-15	13.737236513099994	13.737236513099994
TypeSet	100	Classical	Scheme-examples/AlgoDat1/qsort.scm	false	ParAAM-C-set	8	6.751631121740107e-06	14	2073573	0	0	16039	1	VectorAddress(@vector-Time())	192	2	10	350896.8806892053	2.7293076551000004	5.9093514765	0.06241554239395723	5.830108414	6.029705677	7.999972993566682	7.999621926525471	3.695117451140381	3.6952796130478327	3.6951049771475	0.03878325001192387	3.621148760890009	3.745120963508725	0.9999966241958352	0.9999527408156839	0.46186246764196853	5.551115123125783e-17	0.46186246764196853	0.46186246764196853	7.370911401990671e-05	0.001031927596278694	25.440350571199996	3.552713678800501e-15	25.4403505712	25.4403505712
TypeSet	100	Classical	Scheme-examples/AlgoDat1/qsort.scm	false	ParAAM-C-set	9	6.751631121740107e-06	14	2073573	0	0	16039	1	VectorAddress(@vector-Time())	192	2	10	300686.76082084404	2.426051248977778	6.896123375499999	0.11195900349183131	6.737627395	7.123956659	8.999965277459621	8.999513908814501	3.1666210451673003	3.166779866350894	3.1666088281531777	0.05104910893970379	3.0649345982777128	3.24067508645601	0.999996141939958	0.999945989868278	0.351799281549524	5.551115123125783e-17	0.351799281549524	0.351799281549524	8.423898745132197e-05	0.0011793458243185074	40.23064913869998	7.105427357601002e-15	40.23064913869999	40.23064913869999
TypeSet	100	Classical	Scheme-examples/AlgoDat1/qsort.scm	false	ParAAM-C-set	10	6.751631121740107e-06	14	2073573	0	0	16039	1	VectorAddress(@vector-Time())	192	2	10	266478.48642370076	2.1834461240800005	7.781389889399999	0.08316894947161553	7.631003621	7.90518306	9.99995659684546	9.999392390120263	2.8061574422902695	2.806315777200945	2.8061452626817562	0.03006479269723293	2.762043721831282	2.8612830402429714	0.9999956596845458	0.9999392390120263	0.2805984734236674	5.551115123125783e-17	0.28059847342366745	0.28059847342366745	9.47688608827372e-05	0.0013267640523583208	55.97943765319998	7.105427357601002e-15	55.97943765319999	55.97943765319999
TypeSet	100	Classical	Scheme-examples/AlgoDat1/qsort.scm	false	ParAAM-C-set	12	6.751631121740107e-06	14	2073573	0	0	16039	1	VectorAddress(@vector-Time())	192	2	10	238023.11990496205	1.8195384367333336	8.711645326	0.0758442481450636	8.554809869	8.835911227	11.999936342101405	11.999108850875743	2.50646193369072	2.506634786131961	2.506448637349086	0.02193447509713886	2.4711046410335333	2.552302339286508	0.9999946951751171	0.9999257375729785	0.2088627771958187	2.7755575615628914e-17	0.20886277719581872	0.20886277719581872	0.00011582860774556769	0.0016216005084379475	82.70528267119998	1.4210854715202004e-14	82.7052826712	82.7052826712
TypeSet	100	Classical	Scheme-examples/AlgoDat1/qsort.scm	false	ParAAM-C-set	14	6.751631121740107e-06	14	2073573	0	0	16039	1	VectorAddress(@vector-Time())	192	2	10	240300.5216372096	1.5596043743428574	8.629082391799999	0.08348258095401045	8.516334065	8.756819895	13.999912229345684	13.99877131097936	2.530468256523337	2.53067449303118	2.53045239217658	0.02444892822119586	2.493423583288166	2.563833343566708	0.9999937306675488	0.9999122364985257	0.18073814845306266	2.7755575615628914e-17	0.18073814845306266	0.18073814845306266	0.00013688835460839817	0.0019164369645175746	98.97269224439997	1.4210854715202004e-14	98.97269224439998	98.97269224439998
TypeSet	100	Classical	Scheme-examples/AlgoDat1/qsort.scm	false	ParAAM-C-set	16	6.751631121740107e-06	14	2073573	0	0	16039	1	VectorAddress(@vector-Time())	192	2	10	258067.8451422368	1.3646538275500002	8.034991724200001	0.08754687690393106	7.804894259	8.131075367	15.999884258589459	15.998379772618447	2.717604613591431	2.7178601768468367	2.717584954879477	0.030139431033727303	2.685310399337245	2.797534536181857	0.9999927661618412	0.999898735788653	0.1698388591291139	2.7755575615628914e-17	0.16983885912911392	0.16983885912911392	0.00015794810147122868	0.0022112734205972013	106.72540634639998	2.842170943040401e-14	106.7254063464	106.7254063464
TypeSet	100	Classical	Scheme-examples/AlgoDat1/qsort.scm	false	ParAAM-C-set	18	6.751631121740107e-06	14	2073573	0	0	16039	1	VectorAddress(@vector-Time())	192	2	10	279480.18280683877	1.213025624488889	7.4193918838	0.10504615387649943	7.275559557	7.6105023	17.999852429843894	17.99793423798022	2.9432091823188746	2.9435228649800047	2.943185052883403	0.041489084058606504	2.8689908208555437	3.001069686769661	0.9999918016579941	0.9998852354433456	0.16349394175248927	2.7755575615628914e-17	0.1634939417524893	0.1634939417524893	0.00017900784833405916	0.002506109876676828	111.71459266759999	0.0	111.71459266759999	111.71459266759999
TypeSet	100	Classical	Scheme-examples/AlgoDat1/qsort.scm	false	ParAAM-C-set	20	6.751631121740107e-06	14	2073573	0	0	16039	1	VectorAddress(@vector-Time())	192	2	10	299729.91177206766	1.0917230620400002	6.9181383591	0.13379571234333668	6.695137158	7.057843041	19.99981674312015	19.997434709251777	3.1567423823378395	3.1571184039314977	3.1567134575998654	0.06184766165089644	3.0936450575566155	3.2612418126057463	0.9999908371560076	0.9998717354625889	0.1578059017284565	0.0	0.15780590172845652	0.15780590172845652	0.00020006759519688964	0.0028009463327564547	116.52830594119999	0.0	116.52830594119999	116.52830594119999
TypeSet	100	Classical	Scheme-examples/AlgoDat1/qsort.scm	false	ParAAM-C-part	1	6.751631121740107e-06	14	2073573	0	0	16039	1	VectorAddress(@vector-Time())	192	2	10	94119.06960386618	21.834461240800003	22.031380130800002	0.12678904923674916	21.855313558	22.263748955	1.0	1.0	0.9910782752755991	0.9910782752755991	0.9910782752755991	0.005689660442807762	0.980718085032863	0.9990458925631674	1.0	1.0	0.9910618904112727	0.0	0.9910618904112727	0.9910618904112727	0.0	0.0	0.19691888999999918	0.0	0.19691888999999918	0.19691888999999918
TypeSet	100	Classical	Scheme-examples/AlgoDat1/qsort.scm	false	ParAAM-C-part	2	6.751631121740107e-06	14	2073573	0	0	16039	1	VectorAddress(@vector-Time())	192	2	10	174300.95581216758	10.917230620400002	11.896509633800001	0.09853435285394163	11.760284762	12.134655985	1.9999990354817334	1.999986496828925	1.8354305160931041	1.8354420230837922	1.8354296309399742	0.015084683748754544	1.7993473624460565	1.8566269170073013	0.9999995177408667	0.9999932484144625	0.9176835018384131	0.0	0.9176835018384131	0.9176835018384131	1.0529873431415246e-05	0.00014741822803981342	1.9585580267999987	0.0	1.9585580267999987	1.9585580267999987
TypeSet	100	Classical	Scheme-examples/AlgoDat1/qsort.scm	false	ParAAM-C-part	3	6.751631121740107e-06	14	2073573	0	0	16039	1	VectorAddress(@vector-Time())	192	2	10	243128.80281272373	7.278153746933334	8.528701560700002	0.018148907866262387	8.498094675	8.555789059	2.999997106446596	2.9999594907602765	2.560123791102817	2.5601558918074305	2.560121321817847	0.005453788737723575	2.5520102342672777	2.569336077772045	0.9999990354821986	0.9999864969200921	0.8533718403831653	1.1102230246251565e-16	0.8533718403831653	0.8533718403831653	2.105974686283049e-05	0.00029483645607962684	3.751643441300004	0.0	3.751643441300004	3.751643441300004
TypeSet	100	Classical	Scheme-examples/AlgoDat1/qsort.scm	false	ParAAM-C-part	4	6.751631121740107e-06	14	2073573	0	0	16039	1	VectorAddress(@vector-Time())	192	2	10	312830.15549509076	5.458615310200001	6.628430679	0.05944657038321413	6.466017862	6.697638473	3.9999942128959827	3.9999189820675487	3.294200654543017	3.2942626121590037	3.2941958885725566	0.03003897969521737	3.2600238619657733	3.376801875095099	0.9999985532239957	0.9999797455168872	0.823515485723314	2.220446049250313e-16	0.823515485723314	0.823515485723314	3.1589620294245735e-05	0.00044225468411944024	4.679261475199996	8.881784197001252e-16	4.679261475199997	4.679261475199997
TypeSet	100	Classical	Scheme-examples/AlgoDat1/qsort.scm	false	ParAAM-C-part	5	6.751631121740107e-06	14	2073573	0	0	16039	1	VectorAddress(@vector-Time())	192	2	10	380473.7257995991	4.366892248160001	5.4499768562	0.05104852518843256	5.387383788	5.526294936	4.999990354831289	4.999864971024229	4.006523341787752	4.006623815131048	4.006515613069037	0.037426666936252156	3.9510126574250584	4.052887653824599	0.9999980709662578	0.9999729942048458	0.8012680353297534	0.0	0.8012680353297534	0.8012680353297534	4.211949372566098e-05	0.0005896729121592537	5.415423040199997	0.0	5.415423040199997	5.415423040199997
TypeSet	100	Classical	Scheme-examples/AlgoDat1/qsort.scm	false	ParAAM-C-part	6	6.751631121740107e-06	14	2073573	0	0	16039	1	VectorAddress(@vector-Time())	192	2	10	438190.37307224475	3.639076873466667	4.7321281512	0.03357975223402591	4.644852347	4.770636716	5.999985532253911	5.999797457903796	4.614217310582475	4.614361951452116	4.614206184361734	0.03310249149461937	4.576844253843621	4.700786937802741	0.9999975887089851	0.9999662429839659	0.7690148612192274	1.1102230246251565e-16	0.7690148612192274	0.7690148612192274	5.264936715707622e-05	0.0007370911401990671	6.5583076663999975	0.0	6.5583076663999975	6.5583076663999975
TypeSet	100	Classical	Scheme-examples/AlgoDat1/qsort.scm	false	ParAAM-C-part	7	6.751631121740107e-06	14	2073573	0	0	16039	1	VectorAddress(@vector-Time())	192	2	10	494743.74608555227	3.1192087486857147	4.191206086799999	0.0671119070310524	4.057650385	4.28094478	6.999979745165243	6.999716442979722	5.210276695719759	5.210472686121988	5.210261619534971	0.08431766569604557	5.100383761735886	5.381060261257576	0.9999971064521777	0.9999594918542459	0.7442270038950153	0.0	0.7442270038950153	0.7442270038950153	6.317924058849147e-05	0.0008845093682388805	7.503981366799991	0.0	7.503981366799991	7.503981366799991
TypeSet	100	Classical	Scheme-examples/AlgoDat1/qsort.scm	false	ParAAM-C-part	8	6.751631121740107e-06	14	2073573	0	0	16039	1	VectorAddress(@vector-Time())	192	2	10	549021.7715404785	2.7293076551000004	3.7768502225	0.05082822689289474	3.698278672	3.849746693	7.999972993566682	7.999621926525471	5.7816735166291835	5.781927247997163	5.781653998831647	0.07796610379901134	5.671661795437512	5.9039523998314865	0.9999966241958352	0.9999527408156839	0.7226412206765768	0.0	0.7226412206765768	0.7226412206765768	7.370911401990671e-05	0.001031927596278694	8.380340539199993	1.7763568394002505e-15	8.380340539199995	8.380340539199995
TypeSet	100	Classical	Scheme-examples/AlgoDat1/qsort.scm	false	ParAAM-C-part	9	6.751631121740107e-06	14	2073573	0	0	16039	1	VectorAddress(@vector-Time())	192	2	10	603463.9207091646	2.426051248977778	3.4361176018000004	0.027026129051484687	3.387334884	3.488857199	8.999965277459621	8.999513908814501	6.354619913177324	6.354938627744525	6.3545953966721545	0.050036856660074264	6.258341914096784	6.445911605591342	0.999996141939958	0.999945989868278	0.7060443006103453	1.1102230246251565e-16	0.7060443006103453	0.7060443006103453	8.423898745132197e-05	0.0011793458243185074	9.090597175400001	1.7763568394002505e-15	9.0905971754	9.0905971754
TypeSet	100	Classical	Scheme-examples/AlgoDat1/qsort.scm	false	ParAAM-C-part	10	6.751631121740107e-06	14	2073573	0	0	16039	1	VectorAddress(@vector-Time())	192	2	10	653501.4731118936	2.1834461240800005	3.1730196263	0.029578193292788185	3.098425088	3.199085302	9.99995659684546	9.999392390120263	6.881619503981846	6.88200779317512	6.881589635582364	0.06507315139729723	6.825220079986478	7.046954701394415	0.9999956596845458	0.9999392390120263	0.6881287799111652	1.1102230246251565e-16	0.6881287799111652	0.6881287799111652	9.47688608827372e-05	0.0013267640523583208	9.895735022199998	1.7763568394002505e-15	9.895735022199997	9.895735022199997
TypeSet	100	Classical	Scheme-examples/AlgoDat1/qsort.scm	false	ParAAM-C-part	12	6.751631121740107e-06	14	2073573	0	0	16039	1	VectorAddress(@vector-Time())	192	2	10	730622.5853209231	1.8195384367333336	2.8380904747	0.0347074981393109	2.777229955	2.889665053	11.999936342101405	11.999108850875743	7.6939797681956374	7.694510365994835	7.693938952980314	0.09417241872016044	7.556052635973102	7.861956551883728	0.9999946951751171	0.9999257375729785	0.6411136124635589	0.0	0.6411136124635589	0.6411136124635589	0.00011582860774556769	0.0016216005084379475	12.222624455599998	0.0	12.222624455599998	12.222624455599998
TypeSet	100	Classical	Scheme-examples/AlgoDat1/qsort.scm	false	ParAAM-C-part	14	6.751631121740107e-06	14	2073573	0	0	16039	1	VectorAddress(@vector-Time())	192	2	10	784104.9964862766	1.5596043743428574	2.6445093569	0.028410403769129237	2.585288104	2.678575969	13.999912229345684	13.99877131097936	8.257057111083592	8.257730072152857	8.257005344847494	0.08940942856239255	8.151518378980873	8.445658805692629	0.9999937306675488	0.9999122364985257	0.5897518835671992	1.1102230246251565e-16	0.5897518835671992	0.5897518835671992	0.00013688835460839817	0.0019164369645175746	15.188669755799996	3.552713678800501e-15	15.1886697558	15.1886697558
TypeSet	100	Classical	Scheme-examples/AlgoDat1/qsort.scm	false	ParAAM-C-part	16	6.751631121740107e-06	14	2073573	0	0	16039	1	VectorAddress(@vector-Time())	192	2	10	819184.5970304877	1.3646538275500002	2.5312646350000003	0.030405100889319775	2.4736234	2.577580187	15.999884258589459	15.998379772618447	8.626596509684656	8.627407753923814	8.626534106281644	0.10404664990424577	8.470914445619147	8.82691408918593	0.9999927661618412	0.999898735788653	0.539119382730996	1.1102230246251565e-16	0.539119382730996	0.539119382730996	0.00015794810147122868	0.0022112734205972013	18.665772919200005	3.552713678800501e-15	18.665772919200002	18.665772919200002
TypeSet	100	Classical	Scheme-examples/AlgoDat1/qsort.scm	false	ParAAM-C-part	18	6.751631121740107e-06	14	2073573	0	0	16039	1	VectorAddress(@vector-Time())	192	2	10	842363.1185047048	1.213025624488889	2.4616141833	0.017758949748054885	2.424291991	2.485582106	17.999852429843894	17.99793423798022	8.870281208889041	8.871226589676548	8.870208487290004	0.0642598078857461	8.784445779559375	9.006531111705513	0.9999918016579941	0.9998852354433456	0.49277650117482125	5.551115123125783e-17	0.49277650117482125	0.49277650117482125	0.00017900784833405916	0.002506109876676828	22.474594058599994	3.552713678800501e-15	22.474594058599997	22.474594058599997
TypeSet	100	Classical	Scheme-examples/AlgoDat1/qsort.scm	false	ParAAM-C-part	20	6.751631121740107e-06	14	2073573	0	0	16039	1	VectorAddress(@vector-Time())	192	2	10	854638.6557312959	1.0917230620400002	2.4262569755000003	0.025782202015403415	2.387440515	2.484250234	19.99981674312015	19.997434709251777	8.999825042962495	9.00089707486926	8.999742578969666	0.09496918971362282	8.789155352375023	9.145551943018777	0.9999908371560076	0.9998717354625889	0.4499618437222706	0.0	0.44996184372227066	0.44996184372227066	0.00020006759519688964	0.0028009463327564547	26.6906782692	0.0	26.6906782692	26.6906782692
