TypeSet	100	Classical	Scheme-examples/Sergey/gcfa2/sat.scm	true	SeqAAMLS	1	18728	0	0	672	3	#f, #t, {#f,#t}	1	true	1.241857854	true	
TypeSet	100	Classical	Scheme-examples/Sergey/gcfa2/sat.scm	true	ParAAM-L-SA-state	32	18728	0	0	672	3	#f, #t, {#f,#t}	1	true	0.905541917	true	
TypeSet	100	Classical	Scheme-examples/Sergey/gcfa2/sat.scm	true	ParAAM-L-SA-set	32	18728	0	0	672	3	#f, #t, {#f,#t}	1	true	0.3420212	true	
TypeSet	100	Classical	Scheme-examples/Sergey/gcfa2/sat.scm	true	ParAAM-L-SA-part	32	18728	0	0	672	3	#f, #t, {#f,#t}	1	true	0.309663144	true	
TypeSet	100	Classical	Scheme-examples/Sergey/gcfa2/sat.scm	true	ParAAM-C-S-state	32	18728	0	0	672	3	#f, #t, {#f,#t}	1	true	0.655717252	true	
TypeSet	100	Classical	Scheme-examples/Sergey/gcfa2/sat.scm	true	ParAAM-C-S-set	32	18728	0	0	672	3	#f, #t, {#f,#t}	1	true	0.245192289	true	
TypeSet	100	Classical	Scheme-examples/Sergey/gcfa2/sat.scm	true	ParAAM-C-S-part	32	18728	0	0	672	3	#f, #t, {#f,#t}	1	true	0.567573172	true	
TypeSet	100	Classical	Scheme-examples/Sergey/gcfa2/sat.scm	true	ParAAM-C-state	1	18728	0	0	672	3	#f, #t, {#f,#t}	1	true	0.522768444	true	
TypeSet	100	Classical	Scheme-examples/Sergey/gcfa2/sat.scm	true	ParAAM-C-state	32	18728	0	0	672	3	#f, #t, {#f,#t}	1	true	0.192737399	true	
TypeSet	100	Classical	Scheme-examples/Sergey/gcfa2/sat.scm	true	ParAAM-C-set	1	18728	0	0	672	3	#f, #t, {#f,#t}	1	true	0.528034784	true	
TypeSet	100	Classical	Scheme-examples/Sergey/gcfa2/sat.scm	true	ParAAM-C-set	32	18728	0	0	672	3	#f, #t, {#f,#t}	1	true	0.14630762	true	
TypeSet	100	Classical	Scheme-examples/Sergey/gcfa2/sat.scm	true	ParAAM-C-part	1	18728	0	0	672	3	#f, #t, {#f,#t}	1	true	0.593585862	true	
TypeSet	100	Classical	Scheme-examples/Sergey/gcfa2/sat.scm	true	ParAAM-C-part	32	18728	0	0	672	3	#f, #t, {#f,#t}	1	true	0.123943432	true	
Lattice	Bound	Address	Scheme program	Step filter?	Machine	p	# states	# error states	# error values	# final states	# final values	Final values	#	?	Time 1	?	Time 2	?	Time 3	?	Time 4	?	Time 5	?	Time 6	?	Time 7	?	Time 8	?	Time 9	?	Time 10	?	Time 11	?	Time 12	?	Time 13	# finished	Average time	Standard error	Correct?	Error 1	Error 2	Error 3	Error 4	Error 5	Error 6	Error 7	Error 8	Error 9	Error 10	Error 11	Error 12	Error 13
TypeSet	100	Classical	Scheme-examples/OPi/linear_10000.scm	false	SeqAAMLS	1	30001	0	0	1	1	Int	13	true	3.178228246	true	3.497938733	true	3.420828861	true	3.49943808	true	3.429004884	true	3.348009362	true	3.112664632	true	3.219735484	true	3.195807273	true	3.263271951	true	3.272452627	true	3.098552858	true	3.098552858	13	3.294661082583333	0.1203190845138888	true													
TypeSet	100	Classical	Scheme-examples/OPi/linear_10000.scm	false	ParAAM-L-SA-state	2	30001	0	0	1	1	Int	13	true	7.507516974	true	6.777193259	true	6.863657491	true	6.845964114	true	6.750998034	true	7.393639003	true	7.160952787	true	6.668558323	true	7.365016574	true	7.408980748	true	7.175659792	true	7.204901225	true	7.36052909	13	7.114120570307692	0.25603563546745567	true													
TypeSet	100	Classical	Scheme-examples/OPi/linear_10000.scm	false	ParAAM-L-SA-state	3	30001	0	0	1	1	Int	13	true	7.348029784	true	7.027727176	true	7.194598886	true	7.124664932	true	7.290595151	true	7.240915758	true	7.018091546	true	7.215668916	true	7.10111991	true	7.107871666	true	7.352125164	true	7.348285136	true	7.191530937	13	7.197017304769229	0.09438708928994079	true													
TypeSet	100	Classical	Scheme-examples/OPi/linear_10000.scm	false	ParAAM-L-SA-state	4	30001	0	0	1	1	Int	13	true	7.047721685	true	7.008153492	true	6.932383988	true	7.146947372	true	7.145260353	true	6.802242819	true	7.283644062	true	7.344867953	true	7.3527901	true	7.212573462	true	7.279090287	true	7.333908357	true	7.203605216	13	7.161014549692307	0.13590424448520708	true													
TypeSet	100	Classical	Scheme-examples/OPi/linear_10000.scm	false	ParAAM-L-SA-state	5	30001	0	0	1	1	Int	13	true	7.196208438	true	7.427189174	true	7.343209702	true	7.558919357	true	7.353343304	true	6.76534737	true	6.605302216	true	6.747104942	true	6.933194659	true	6.810144884	true	6.769331189	true	7.090906473	true	7.247688999	13	7.0652223620769234	0.2709090634556214	true													
TypeSet	100	Classical	Scheme-examples/OPi/linear_10000.scm	false	ParAAM-L-SA-state	6	30001	0	0	1	1	Int	13	true	7.287313617	true	7.233768588	true	7.249483569	true	7.388699794	true	7.32063099	true	7.240645047	true	7.15680036	true	7.298635694	true	6.974065146	true	6.86044388	true	6.923696145	true	6.566275664	true	6.787766506	13	7.09909423076923	0.21280366351479293	true													
TypeSet	100	Classical	Scheme-examples/OPi/linear_10000.scm	false	ParAAM-L-SA-state	7	30001	0	0	1	1	Int	13	true	6.627295017	true	7.402776197	true	7.138458596	true	7.306134224	true	7.120918971	true	7.333036699	true	7.440063068	true	7.189308862	true	7.325282293	true	6.702238227	true	6.789147926	true	6.846528889	true	6.544763841	13	7.058919446923076	0.2745574360946748	true													
TypeSet	100	Classical	Scheme-examples/OPi/linear_10000.scm	false	ParAAM-L-SA-state	8	30001	0	0	1	1	Int	13	true	6.951993661	true	6.621449376	true	7.087360496	true	7.424760042	true	7.177936339	true	7.260791602	true	6.852690087	true	7.249251496	true	7.071228891	true	7.319916023	true	7.156079091	true	7.345260034	true	7.295543631	13	7.139558520692308	0.17124155268639052	true													
TypeSet	100	Classical	Scheme-examples/OPi/linear_10000.scm	false	ParAAM-L-SA-state	9	30001	0	0	1	1	Int	13	true	7.190716298	true	7.445266677	true	7.31793524	true	7.064046137	true	7.115289524	true	7.38741193	true	7.397215423	true	6.793467401	true	6.872552348	true	7.364586261	true	7.524346614	true	7.448669937	true	7.277976522	13	7.246113870153847	0.183768868118343	true													
TypeSet	100	Classical	Scheme-examples/OPi/linear_10000.scm	false	ParAAM-L-SA-state	10	30001	0	0	1	1	Int	13	true	7.3837595	true	7.404373638	true	7.314852722	true	7.32584975	true	7.295925884	true	7.29972199	true	7.480618622	true	7.507506523	true	7.340908518	true	7.183183416	true	7.172165313	true	7.399399976	true	7.429235558	13	7.34903857	0.07856344569230768	true													
TypeSet	100	Classical	Scheme-examples/OPi/linear_10000.scm	false	ParAAM-L-SA-state	12	30001	0	0	1	1	Int	13	true	7.205991455	true	6.674338498	true	7.109704723	true	7.197453258	true	7.148435368	true	7.315781464	true	7.182764194	true	7.161129754	true	7.446475216	true	7.196242922	true	7.21135631	true	7.442280665	true	7.341349502	13	7.20256179453846	0.11505597611834305	true													
TypeSet	100	Classical	Scheme-examples/OPi/linear_10000.scm	false	ParAAM-L-SA-state	14	30001	0	0	1	1	Int	13	true	7.293764849	true	7.362961122	true	7.394940892	true	7.340524925	true	7.268811741	true	6.879568741	true	6.777531332	true	7.344711831	true	7.081396305	true	6.845491081	true	6.89281431	true	7.216352871	true	6.789504042	13	7.114490310923078	0.21855939300591712	true													
TypeSet	100	Classical	Scheme-examples/OPi/linear_10000.scm	false	ParAAM-L-SA-state	16	30001	0	0	1	1	Int	13	true	6.826064005	true	7.420375217	true	7.109698039	true	7.498364702	true	7.234228406	true	7.263809706	true	7.052576125	true	7.25249199	true	7.252392261	true	7.331543856	true	7.195616228	true	7.524967092	true	7.470091826	13	7.264016881000002	0.1423474289230773	true													
TypeSet	100	Classical	Scheme-examples/OPi/linear_10000.scm	false	ParAAM-L-SA-state	24	30001	0	0	1	1	Int	13	true	7.344076972	true	6.680252434	true	6.845471169	true	6.8227175	true	6.451919625	true	6.993542183	true	7.004313395	true	7.241284127	true	7.381317508	true	7.424548833	true	7.624583106	true	7.289967405	true	7.434924346	13	7.118378354076923	0.2941621259171598	true													
TypeSet	100	Classical	Scheme-examples/OPi/linear_10000.scm	false	ParAAM-L-SA-state	32	30001	0	0	1	1	Int	13	true	7.198894594	true	7.139858399	true	7.244744262	true	7.478367717	true	7.42996876	true	7.334941011	true	7.620885938	true	7.331101114	true	6.921017392	true	6.564917724	true	6.802827653	true	6.641000604	true	6.869203334	13	7.121363730923077	0.2781310688639053	true													
TypeSet	100	Classical	Scheme-examples/OPi/linear_10000.scm	false	ParAAM-L-SA-set	2	30001	0	0	1	1	Int	13	true	6.876903039	true	7.358790716	true	7.070942321	true	7.312341008	true	6.921656442	true	7.144136328	true	6.993825274	true	7.062811567	true	7.297003342	true	6.988163297	true	6.471500098	true	6.994417431	true	7.172240152	13	7.051133155000001	0.16312820753846147	true													
TypeSet	100	Classical	Scheme-examples/OPi/linear_10000.scm	false	ParAAM-L-SA-set	3	30001	0	0	1	1	Int	13	true	6.578842622	true	7.079508769	true	7.237617351	true	6.918615662	true	7.020722139	true	6.893094252	true	6.584364101	true	6.96786479	true	7.226968507	true	6.690319414	true	6.814976959	true	7.228231209	true	7.191727281	13	6.956373312	0.19354259415384614	true													
TypeSet	100	Classical	Scheme-examples/OPi/linear_10000.scm	false	ParAAM-L-SA-set	4	30001	0	0	1	1	Int	13	true	7.191982465	true	7.044852756	true	6.729830007	true	7.133817566	true	7.039351867	true	6.831356834	true	6.669166154	true	7.01320159	true	6.976533412	true	7.135369602	true	7.109984087	true	7.088420887	true	7.15744565	13	7.009331759769231	0.12776009724260334	true													
TypeSet	100	Classical	Scheme-examples/OPi/linear_10000.scm	false	ParAAM-L-SA-set	5	30001	0	0	1	1	Int	13	true	7.114512395	true	7.038282457	true	6.95388059	true	7.108983436	true	6.848547826	true	6.402178439	true	6.813929474	true	7.166426471	true	7.147992152	true	7.223546028	true	7.0856792	true	7.317212052	true	6.707881804	13	6.994542486461539	0.1917375845088758	true													
TypeSet	100	Classical	Scheme-examples/OPi/linear_10000.scm	false	ParAAM-L-SA-set	6	30001	0	0	1	1	Int	13	true	7.411081088	true	7.184797658	true	7.214196906	true	7.159359803	true	7.133410093	true	6.980289382	true	7.175626016	true	7.121147817	true	7.037237709	true	6.974150268	true	6.522218479	true	7.257151886	true	7.154923812	13	7.101968532076925	0.13753512158579806	true													
TypeSet	100	Classical	Scheme-examples/OPi/linear_10000.scm	false	ParAAM-L-SA-set	7	30001	0	0	1	1	Int	13	true	7.162520005	true	7.049268961	true	7.374199449	true	7.165944825	true	6.869724397	true	6.768799657	true	7.113963367	true	7.140075653	true	7.347744696	true	7.05097629	true	6.649171544	true	6.605417295	true	6.652535706	13	6.996180141923076	0.22080801701775196	true													
TypeSet	100	Classical	Scheme-examples/OPi/linear_10000.scm	false	ParAAM-L-SA-set	8	30001	0	0	1	1	Int	13	true	6.820898532	true	6.993735137	true	6.733461053	true	6.406669604	true	6.757791974	true	7.308091933	true	6.267567637	true	6.686970824	true	6.604365916	true	6.285227946	true	6.46569628	true	7.291867035	true	6.626006136	13	6.711411539	0.25190406615384614	true													
TypeSet	100	Classical	Scheme-examples/OPi/linear_10000.scm	false	ParAAM-L-SA-set	9	30001	0	0	1	1	Int	13	true	6.672367006	true	6.591687722	true	6.477166858	true	6.539969674	true	6.555276992	true	7.350251544	true	6.358565953	true	6.780263404	true	6.87679168	true	6.879871445	true	6.769714623	true	6.431378051	true	7.23332758	13	6.7320486563076924	0.23045051356213017	true													
TypeSet	100	Classical	Scheme-examples/OPi/linear_10000.scm	false	ParAAM-L-SA-set	10	30001	0	0	1	1	Int	13	true	7.321204995	true	7.105483885	true	6.684267063	true	6.748091937	true	6.523380609	true	6.800925097	true	6.472879505	true	6.499042013	true	7.379871315	true	6.520058771	true	6.403018799	true	6.865910254	true	6.701283174	13	6.771185955153845	0.24884088772781035	true													
TypeSet	100	Classical	Scheme-examples/OPi/linear_10000.scm	false	ParAAM-L-SA-set	12	30001	0	0	1	1	Int	13	true	6.626643918	true	6.790114303	true	6.701109096	true	7.337017647	true	7.281229369	true	6.612778249	true	6.616528211	true	6.742302246	true	6.980849208	true	6.6655492	true	6.704202342	true	6.520829471	true	7.204231714	13	6.829491151846154	0.22851743547929004	true													
TypeSet	100	Classical	Scheme-examples/OPi/linear_10000.scm	false	ParAAM-L-SA-set	14	30001	0	0	1	1	Int	13	true	6.849224038	true	6.794908549	true	6.686637702	true	6.596258163	true	6.687470333	true	6.535563868	true	6.56012646	true	6.776254191	true	6.512546617	true	6.714887323	true	6.734252069	true	7.009037592	true	7.135904745	13	6.737928588461539	0.13472094964497058	true													
TypeSet	100	Classical	Scheme-examples/OPi/linear_10000.scm	false	ParAAM-L-SA-set	16	30001	0	0	1	1	Int	13	true	6.747029686	true	6.778619881	true	6.641548032	true	6.434885414	true	6.785880398	true	6.860871002	true	6.908947893	true	6.897851251	true	7.15234871	true	7.263508276	true	7.118555946	true	6.704069566	true	6.940565318	13	6.864206259461538	0.16869843649704125	true													
TypeSet	100	Classical	Scheme-examples/OPi/linear_10000.scm	false	ParAAM-L-SA-set	24	30001	0	0	1	1	Int	13	true	6.780663892	true	6.702234376	true	6.532863086	true	6.924033916	true	6.796695099	true	6.737678705	true	6.671822613	true	6.840224303	true	7.147557583	true	7.276687646	true	7.411286759	true	7.556777846	true	7.075213264	13	6.957979929846155	0.25809591519526653	true													
TypeSet	100	Classical	Scheme-examples/OPi/linear_10000.scm	false	ParAAM-L-SA-set	32	30001	0	0	1	1	Int	13	true	7.135919653	true	7.155015032	true	6.673475846	true	6.74383514	true	7.300032084	true	6.651745373	true	6.520768664	true	7.400164133	true	7.172534752	true	6.652886025	true	6.739960284	true	7.144656599	true	7.242462468	13	6.964112004076923	0.2772308757633136	true													
TypeSet	100	Classical	Scheme-examples/OPi/linear_10000.scm	false	ParAAM-L-SA-part	2	30001	0	0	1	1	Int	13	true	7.066193761	true	6.521251349	true	7.049695545	true	6.759314374	true	6.739542629	true	7.025035579	true	6.677452834	true	7.375277096	true	6.863320655	true	6.636167808	true	7.149755177	true	6.419819518	true	6.792649971	13	6.851959715076924	0.21807992654437874	true													
TypeSet	100	Classical	Scheme-examples/OPi/linear_10000.scm	false	ParAAM-L-SA-part	3	30001	0	0	1	1	Int	13	true	6.432679036	true	6.532854172	true	6.663304409	true	6.622944888	true	6.667245145	true	6.419780117	true	6.621760208	true	6.47893468	true	6.599556722	true	6.33329153	true	6.50079216	true	6.495683028	true	6.685842249	13	6.542666795692309	0.09302351489940842	true													
TypeSet	100	Classical	Scheme-examples/OPi/linear_10000.scm	false	ParAAM-L-SA-part	4	30001	0	0	1	1	Int	13	true	7.175566578	true	6.60578275	true	6.731363541	true	6.562223587	true	6.478468459	true	6.804929364	true	6.559105338	true	6.765129441	true	6.57325807	true	6.640012801	true	6.364549232	true	6.617463163	true	6.691099745	13	6.659150159153847	0.13420582665088773	true													
TypeSet	100	Classical	Scheme-examples/OPi/linear_10000.scm	false	ParAAM-L-SA-part	5	30001	0	0	1	1	Int	13	true	7.107004498	true	6.542256609	true	6.78585425	true	6.731785493	true	6.740344723	true	6.883009437	true	6.589680077	true	6.751843204	true	6.427675109	true	6.517371828	true	6.598457542	true	6.580193158	true	6.900968307	13	6.704341864230769	0.14929490190532552	true													
TypeSet	100	Classical	Scheme-examples/OPi/linear_10000.scm	false	ParAAM-L-SA-part	6	30001	0	0	1	1	Int	13	true	7.001308483	true	6.830786177	true	7.139863642	true	7.324635632	true	6.63146782	true	7.0955282	true	7.253865839	true	7.193174309	true	6.569892072	true	6.638013279	true	6.764527803	true	6.676639225	true	6.683421423	13	6.907932608000001	0.24012007030769236	true													
TypeSet	100	Classical	Scheme-examples/OPi/linear_10000.scm	false	ParAAM-L-SA-part	7	30001	0	0	1	1	Int	13	true	6.548848901	true	7.218088053	true	6.451448108	true	6.687838067	true	6.6277999	true	6.746664061	true	6.974366322	true	6.578650756	true	6.773187625	true	6.53615746	true	7.239480712	true	6.497863971	true	6.590389207	13	6.7285217802307695	0.20141198028402355	true													
TypeSet	100	Classical	Scheme-examples/OPi/linear_10000.scm	false	ParAAM-L-SA-part	8	30001	0	0	1	1	Int	13	true	6.496755083	true	6.465258551	true	6.556221998	true	6.673993827	true	6.713857769	true	6.36492617	true	7.032231478	true	6.712443982	true	6.731373431	true	6.954631459	true	6.726889756	true	7.422532915	true	6.730400431	13	6.737039757692309	0.18435024291124336	true													
TypeSet	100	Classical	Scheme-examples/OPi/linear_10000.scm	false	ParAAM-L-SA-part	9	30001	0	0	1	1	Int	13	true	6.619006362	true	7.209690418	true	6.644071812	true	6.723032075	true	6.614611106	true	6.524809308	true	7.148050453	true	6.811532567	true	6.599955256	true	6.640430995	true	6.671824103	true	6.619211144	true	6.423868332	13	6.711545687000001	0.16094196384615422	true													
TypeSet	100	Classical	Scheme-examples/OPi/linear_10000.scm	false	ParAAM-L-SA-part	10	30001	0	0	1	1	Int	13	true	6.574664545	true	7.252381566	true	6.582932215	true	6.420993996	true	6.655873003	true	6.687548191	true	6.810729699	true	6.585248168	true	6.675235175	true	7.097463706	true	7.159585853	true	6.352518287	true	6.45210286	13	6.715944404923077	0.2240589545088758	true													
TypeSet	100	Classical	Scheme-examples/OPi/linear_10000.scm	false	ParAAM-L-SA-part	12	30001	0	0	1	1	Int	13	true	6.54239687	true	6.754787342	true	6.369567027	true	6.333082781	true	6.658815076	true	7.296300021	true	7.100254052	true	6.694510872	true	6.705208986	true	6.58811236	true	6.823346839	true	6.706979165	true	6.674474579	13	6.71137199769231	0.17372311742011923	true													
TypeSet	100	Classical	Scheme-examples/OPi/linear_10000.scm	false	ParAAM-L-SA-part	14	30001	0	0	1	1	Int	13	true	6.875957957	true	6.598235221	true	7.113404271	true	6.885041808	true	6.483287893	true	6.644883661	true	6.555178938	true	6.604651076	true	6.707945797	true	6.685207429	true	6.536298585	true	6.574076327	true	6.563253018	13	6.679032460076922	0.13421460947928965	true													
TypeSet	100	Classical	Scheme-examples/OPi/linear_10000.scm	false	ParAAM-L-SA-part	16	30001	0	0	1	1	Int	13	true	6.620580884	true	6.570832969	true	7.148832437	true	6.817659482	true	6.859294116	true	6.702271055	true	6.654614238	true	6.901123658	true	6.692604245	true	6.74789785	true	6.745623752	true	6.797550386	true	6.594051623	13	6.757918207307692	0.11305677576331362	true													
TypeSet	100	Classical	Scheme-examples/OPi/linear_10000.scm	false	ParAAM-L-SA-part	24	30001	0	0	1	1	Int	13	true	7.086755337	true	7.002078576	true	6.766859736	true	6.69301105	true	6.748124153	true	6.920820429	true	6.807279586	true	6.648036796	true	6.484913805	true	6.519913414	true	6.685708419	true	6.799342735	true	6.746204623	13	6.762234512230767	0.12457374240236661	true													
TypeSet	100	Classical	Scheme-examples/OPi/linear_10000.scm	false	ParAAM-L-SA-part	32	30001	0	0	1	1	Int	13	true	6.637142067	true	6.793023127	true	6.711656597	true	6.813857395	true	6.767522553	true	6.876490283	true	6.519177213	true	6.67925515	true	7.013009138	true	6.568354715	true	6.879024569	true	7.036756876	true	6.917705272	13	6.785613458076924	0.12778037745562126	true													
TypeSet	100	Classical	Scheme-examples/OPi/linear_10000.scm	false	ParAAM-C-S-state	2	30001	0	0	1	1	Int	13	true	4.442497184	true	4.218056752	true	4.341386491	true	4.255059718	true	4.167299522	true	4.353506974	true	4.226244297	true	4.403282687	true	4.205380444	true	4.192622968	true	4.238187771	true	4.330326717	true	4.244795257	13	4.278357444769231	0.07372505063905323	true													
TypeSet	100	Classical	Scheme-examples/OPi/linear_10000.scm	false	ParAAM-C-S-state	3	30001	0	0	1	1	Int	13	true	4.330773006	true	4.162837977	true	4.151443202	true	4.168490931	true	4.294183013	true	4.110771488	true	4.273533727	true	4.440492703	true	4.384651671	true	4.314142033	true	4.550941869	true	4.189818174	true	4.396304571	13	4.289875720384616	0.1049782805088757	true													
TypeSet	100	Classical	Scheme-examples/OPi/linear_10000.scm	false	ParAAM-C-S-state	4	30001	0	0	1	1	Int	13	true	4.49171563	true	4.28017202	true	4.544648113	true	4.245374156	true	4.216522809	true	4.174065527	true	4.317274947	true	4.430711966	true	4.227925949	true	4.508013626	true	4.425088305	true	4.325973364	true	4.27927113	13	4.343596734	0.10495291846153855	true													
TypeSet	100	Classical	Scheme-examples/OPi/linear_10000.scm	false	ParAAM-C-S-state	5	30001	0	0	1	1	Int	13	true	4.279140605	true	4.25416605	true	4.356102695	true	4.077332672	true	4.332165796	true	4.417595364	true	4.232911208	true	4.219143688	true	4.412006079	true	4.422904774	true	4.394660951	true	4.281880145	true	4.254638549	13	4.302665275076924	0.07991446285207107	true													
TypeSet	100	Classical	Scheme-examples/OPi/linear_10000.scm	false	ParAAM-C-S-state	6	30001	0	0	1	1	Int	13	true	4.268846067	true	4.437486753	true	4.250226474	true	4.265575274	true	4.468554913	true	4.394550364	true	4.311114789	true	4.184510529	true	4.241878244	true	4.249950145	true	4.183742116	true	4.242545575	true	4.326530509	13	4.2942701347692305	0.07182871602366867	true													
TypeSet	100	Classical	Scheme-examples/OPi/linear_10000.scm	false	ParAAM-C-S-state	7	30001	0	0	1	1	Int	13	true	4.277642027	true	4.292404396	true	4.329288551	true	4.129630408	true	4.295151127	true	4.215366289	true	4.306551401	true	4.441341197	true	4.249690271	true	4.266194103	true	4.462967735	true	4.173140478	true	4.284707492	13	4.286467344230769	0.06290774486390537	true													
TypeSet	100	Classical	Scheme-examples/OPi/linear_10000.scm	false	ParAAM-C-S-state	8	30001	0	0	1	1	Int	13	true	4.257426477	true	4.260629146	true	4.196677516	true	4.214861435	true	4.230953848	true	4.371563966	true	4.272176908	true	4.150403467	true	4.306580948	true	4.248146219	true	4.026207257	true	4.185858406	true	4.360052635	13	4.237041402153846	0.0641979206035501	true													
TypeSet	100	Classical	Scheme-examples/OPi/linear_10000.scm	false	ParAAM-C-S-state	9	30001	0	0	1	1	Int	13	true	4.23669352	true	4.239650419	true	4.40830578	true	4.310708273	true	4.280182452	true	4.36383346	true	4.479604703	true	4.105812906	true	4.311760416	true	4.155728859	true	4.274145029	true	4.222490186	true	4.406685563	13	4.291969351230768	0.0813972442485207	true													
TypeSet	100	Classical	Scheme-examples/OPi/linear_10000.scm	false	ParAAM-C-S-state	10	30001	0	0	1	1	Int	13	true	4.442886485	true	4.306523532	true	4.257980379	true	4.303757254	true	4.249844253	true	4.348634166	true	4.179370315	true	4.174604738	true	4.318043741	true	4.30727798	true	4.403643748	true	4.488047489	true	4.348366792	13	4.317613913230769	0.06829829871005923	true													
TypeSet	100	Classical	Scheme-examples/OPi/linear_10000.scm	false	ParAAM-C-S-state	12	30001	0	0	1	1	Int	13	true	4.305978656	true	4.221601094	true	4.187439553	true	4.203530104	true	4.334520757	true	4.285279715	true	4.178784281	true	4.214504022	true	4.215024534	true	4.414868824	true	4.137258855	true	4.163420462	true	4.24123406	13	4.238726532076924	0.05973066947928991	true													
TypeSet	100	Classical	Scheme-examples/OPi/linear_10000.scm	false	ParAAM-C-S-state	14	30001	0	0	1	1	Int	13	true	4.279879467	true	4.227896483	true	4.246011434	true	4.317433443	true	4.334656502	true	4.288301836	true	4.508167205	true	4.341603385	true	4.45157213	true	4.236227925	true	4.388137634	true	4.491353202	true	4.231616591	13	4.334065941307692	0.0786299092544379	true													
TypeSet	100	Classical	Scheme-examples/OPi/linear_10000.scm	false	ParAAM-C-S-state	16	30001	0	0	1	1	Int	13	true	4.239034977	true	4.433900054	true	4.378120593	true	4.372494925	true	4.552118218	true	4.251731526	true	4.326741824	true	4.536097799	true	4.317348151	true	4.386487514	true	4.295402476	true	4.316358613	true	4.297862453	13	4.3618230094615384	0.07512016095857994	true													
TypeSet	100	Classical	Scheme-examples/OPi/linear_10000.scm	false	ParAAM-C-S-state	24	30001	0	0	1	1	Int	13	true	4.344612017	true	4.291355471	true	4.214472947	true	4.401291261	true	4.309788982	true	4.3338384	true	4.352681222	true	4.186487254	true	4.529545671	true	4.267012448	true	4.484605809	true	4.327516456	true	4.213003317	13	4.327400865769231	0.0741976577869822	true													
TypeSet	100	Classical	Scheme-examples/OPi/linear_10000.scm	false	ParAAM-C-S-state	32	30001	0	0	1	1	Int	13	true	4.2962388	true	4.318676382	true	4.370463573	true	4.403144416	true	4.211049477	true	4.289258314	true	4.334996036	true	4.248274899	true	4.218074859	true	4.2717507	true	4.397820692	true	4.381209827	true	4.241400099	13	4.306335236461537	0.05666146265088745	true													
TypeSet	100	Classical	Scheme-examples/OPi/linear_10000.scm	false	ParAAM-C-S-set	2	30001	0	0	1	1	Int	13	true	4.28018997	true	4.181063565	true	4.202147398	true	4.267939572	true	4.292822925	true	4.385125969	true	4.269839745	true	4.217685963	true	4.16242353	true	4.222961551	true	4.454689875	true	4.192784113	true	4.196461942	13	4.255856624461538	0.06391820142011834	true													
TypeSet	100	Classical	Scheme-examples/OPi/linear_10000.scm	false	ParAAM-C-S-set	3	30001	0	0	1	1	Int	13	true	4.209012042	true	4.312387392	true	4.341765469	true	4.344844285	true	4.275289345	true	4.319973068	true	4.3100896	true	4.346333516	true	4.282180911	true	4.281440664	true	4.436485505	true	4.23333815	true	4.087012308	13	4.290780942692307	0.05790957479289945	true													
TypeSet	100	Classical	Scheme-examples/OPi/linear_10000.scm	false	ParAAM-C-S-set	4	30001	0	0	1	1	Int	13	true	4.350848976	true	4.29489004	true	4.37769831	true	4.20108357	true	4.29996714	true	4.201892779	true	4.504218015	true	4.330463255	true	4.279629627	true	4.34578935	true	4.411131824	true	4.228123706	true	4.131130149	13	4.304374364692308	0.07598516028402379	true													
TypeSet	100	Classical	Scheme-examples/OPi/linear_10000.scm	false	ParAAM-C-S-set	5	30001	0	0	1	1	Int	13	true	4.232624474	true	4.087434122	true	4.294479749	true	4.394790508	true	4.247850001	true	4.326185456	true	4.209188974	true	4.307760923	true	4.172404248	true	4.267936013	true	4.290578756	true	4.309847176	true	4.316193022	13	4.265944109384615	0.05849518891124263	true													
TypeSet	100	Classical	Scheme-examples/OPi/linear_10000.scm	false	ParAAM-C-S-set	6	30001	0	0	1	1	Int	13	true	4.290829498	true	4.176762221	true	4.274257039	true	4.343069719	true	4.301436264	true	4.159125234	true	4.314107315	true	4.419415464	true	4.214381425	true	4.186059067	true	4.225506667	true	4.191909934	true	4.151829841	13	4.249899206769231	0.06826462436686395	true													
TypeSet	100	Classical	Scheme-examples/OPi/linear_10000.scm	false	ParAAM-C-S-set	7	30001	0	0	1	1	Int	13	true	4.483849238	true	4.218234706	true	4.30738398	true	4.350534155	true	4.430514615	true	4.246479717	true	4.23167552	true	4.313498542	true	4.36842491	true	4.312665774	true	4.146547735	true	4.304781319	true	4.228503037	13	4.303314865230769	0.06848209402366869	true													
TypeSet	100	Classical	Scheme-examples/OPi/linear_10000.scm	false	ParAAM-C-S-set	8	30001	0	0	1	1	Int	13	true	4.193196958	true	4.234862696	true	4.220934356	true	4.283571067	true	4.120273604	true	4.112830918	true	4.240279907	true	4.228279718	true	4.163949407	true	4.254025699	true	4.28733509	true	4.365056047	true	4.467948599	13	4.24404185123077	0.06734265320710066	true													
TypeSet	100	Classical	Scheme-examples/OPi/linear_10000.scm	false	ParAAM-C-S-set	9	30001	0	0	1	1	Int	13	true	4.244676278	true	4.23211618	true	4.200067809	true	4.438091031	true	4.20207429	true	4.303992314	true	4.299799297	true	4.251189216	true	4.359484397	true	4.391860747	true	4.213191077	true	4.354865682	true	4.252983111	13	4.288030109923077	0.06460197053254434	true													
TypeSet	100	Classical	Scheme-examples/OPi/linear_10000.scm	false	ParAAM-C-S-set	10	30001	0	0	1	1	Int	13	true	4.268195405	true	4.42687429	true	4.321571493	true	4.267836543	true	4.44516314	true	4.20565491	true	4.278107371	true	4.376161542	true	4.096247285	true	4.263324842	true	4.171029695	true	4.137480204	true	4.268216774	13	4.271220268769231	0.07565792186982272	true													
TypeSet	100	Classical	Scheme-examples/OPi/linear_10000.scm	false	ParAAM-C-S-set	12	30001	0	0	1	1	Int	13	true	4.248379523	true	4.203978856	true	4.283729574	true	4.233575124	true	4.256292898	true	4.394868339	true	4.793890455	true	4.232346806	true	4.468710162	true	4.27963867	true	4.417015011	true	4.109019343	true	4.375477695	13	4.330532496615384	0.12266141214201184	true													
TypeSet	100	Classical	Scheme-examples/OPi/linear_10000.scm	false	ParAAM-C-S-set	14	30001	0	0	1	1	Int	13	true	4.549741694	true	4.177578689	true	4.266767971	true	4.279333329	true	4.20615443	true	4.280855044	true	4.180146426	true	4.372480131	true	4.229808388	true	4.252399491	true	4.309896407	true	4.233694823	true	4.352898534	13	4.283981181307691	0.06909108319526581	true													
TypeSet	100	Classical	Scheme-examples/OPi/linear_10000.scm	false	ParAAM-C-S-set	16	30001	0	0	1	1	Int	13	true	4.337758919	true	4.531748215	true	4.402494745	true	4.287806785	true	4.247432626	true	4.119482964	true	4.360189414	true	4.297291175	true	4.284738797	true	4.268823484	true	4.270582534	true	4.250764841	true	4.315556196	13	4.305743899615385	0.06446584475739663	true													
TypeSet	100	Classical	Scheme-examples/OPi/linear_10000.scm	false	ParAAM-C-S-set	24	30001	0	0	1	1	Int	13	true	4.298824298	true	4.288864495	true	4.35130752	true	4.418611285	true	4.238993894	true	4.222815822	true	4.329232819	true	4.419424338	true	4.581441631	true	4.437769246	true	4.189039604	true	4.251870539	true	4.357891569	13	4.337391312307693	0.08339964848520708	true													
TypeSet	100	Classical	Scheme-examples/OPi/linear_10000.scm	false	ParAAM-C-S-set	32	30001	0	0	1	1	Int	13	true	4.464589589	true	4.277555379	true	4.356864848	true	4.343724913	true	4.412248122	true	4.196400114	true	4.222707981	true	4.299626753	true	4.29238068	true	4.230164139	true	4.521440481	true	4.267447615	true	4.242373132	13	4.317501826615385	0.07867058768047344	true													
TypeSet	100	Classical	Scheme-examples/OPi/linear_10000.scm	false	ParAAM-C-S-part	2	30001	0	0	1	1	Int	13	true	4.412764213	true	4.342285794	true	4.23906077	true	4.054299022	true	4.367804099	true	4.272181551	true	4.21652061	true	4.060118131	true	4.341670822	true	4.227379037	true	4.343340338	true	4.413764205	true	4.293915615	13	4.275777246692308	0.09001605525443779	true													
TypeSet	100	Classical	Scheme-examples/OPi/linear_10000.scm	false	ParAAM-C-S-part	3	30001	0	0	1	1	Int	13	true	4.240139065	true	4.01708057	true	4.090774965	true	4.286500895	true	4.31441251	true	4.237436539	true	4.208570718	true	4.318641345	true	4.201303198	true	4.372331045	true	4.314667352	true	4.309875577	true	4.167036615	13	4.236828491846154	0.07682713742011832	true													
TypeSet	100	Classical	Scheme-examples/OPi/linear_10000.scm	false	ParAAM-C-S-part	4	30001	0	0	1	1	Int	13	true	4.278608468	true	4.398346035	true	4.326512914	true	4.248314486	true	4.232242317	true	4.581809452	true	4.259136284	true	4.525558869	true	4.272351022	true	4.238872005	true	4.302753995	true	4.323965045	true	4.268251027	13	4.327440147615385	0.0805221404852074	true													
TypeSet	100	Classical	Scheme-examples/OPi/linear_10000.scm	false	ParAAM-C-S-part	5	30001	0	0	1	1	Int	13	true	4.305116979	true	4.384317599	true	4.373180973	true	4.307674298	true	4.334011398	true	4.176767032	true	4.358281534	true	4.514130198	true	4.284225618	true	4.311513466	true	4.242212442	true	4.194499234	true	4.276039895	13	4.312459282000001	0.06178850646153865	true													
TypeSet	100	Classical	Scheme-examples/OPi/linear_10000.scm	false	ParAAM-C-S-part	6	30001	0	0	1	1	Int	13	true	4.137501735	true	4.248420415	true	4.315518133	true	4.266657933	true	4.393886212	true	4.176887539	true	4.271489025	true	4.348641038	true	4.201098709	true	4.234132881	true	4.298042813	true	4.24183382	true	4.230877513	13	4.258845212769232	0.05248675036686406	true													
TypeSet	100	Classical	Scheme-examples/OPi/linear_10000.scm	false	ParAAM-C-S-part	7	30001	0	0	1	1	Int	13	true	4.40251169	true	4.455169232	true	4.215027191	true	4.240632547	true	4.254184033	true	4.319443082	true	4.128551279	true	4.281266583	true	4.258033313	true	4.329780203	true	4.393236224	true	4.264997221	true	4.565426104	13	4.316019900153846	0.08760725139644986	true													
TypeSet	100	Classical	Scheme-examples/OPi/linear_10000.scm	false	ParAAM-C-S-part	8	30001	0	0	1	1	Int	13	true	4.273783709	true	4.367053277	true	4.130193842	true	4.312943364	true	4.105284195	true	4.224701774	true	4.253993683	true	4.210195079	true	4.383994511	true	4.424529332	true	4.375514294	true	4.391597514	true	4.206383488	13	4.281551389384615	0.08712676241420111	true													
TypeSet	100	Classical	Scheme-examples/OPi/linear_10000.scm	false	ParAAM-C-S-part	9	30001	0	0	1	1	Int	13	true	4.13102563	true	4.10651822	true	4.283420213	true	4.082256025	true	4.378794045	true	4.409769273	true	4.465742905	true	4.350575568	true	4.209668239	true	4.216938586	true	4.398190183	true	4.277892711	true	4.466372779	13	4.290551105923076	0.1117135565325443	true													
TypeSet	100	Classical	Scheme-examples/OPi/linear_10000.scm	false	ParAAM-C-S-part	10	30001	0	0	1	1	Int	13	true	4.206487404	true	4.127656294	true	4.366259321	true	4.368652961	true	4.22534168	true	4.216841946	true	4.180250373	true	4.22488521	true	4.261579511	true	4.310501368	true	4.375061287	true	4.173411928	true	4.911955173	13	4.30376034276923	0.12517359940828396	true													
TypeSet	100	Classical	Scheme-examples/OPi/linear_10000.scm	false	ParAAM-C-S-part	12	30001	0	0	1	1	Int	13	true	4.381294281	true	4.336881489	true	4.285574287	true	4.766550045	true	4.452395691	true	4.233134564	true	4.415065388	true	4.693631794	true	4.287569092	true	4.369070655	true	4.331148738	true	4.134619105	true	4.2685689	13	4.381192617615384	0.12353447860355021	true													
TypeSet	100	Classical	Scheme-examples/OPi/linear_10000.scm	false	ParAAM-C-S-part	14	30001	0	0	1	1	Int	13	true	4.315566066	true	4.287987242	true	4.175619695	true	4.422564911	true	4.324500299	true	4.158814014	true	4.290549887	true	4.22169413	true	4.351257722	true	4.416915504	true	4.411652523	true	4.211796319	true	4.067067041	13	4.281229642538462	0.08787030979881642	true													
TypeSet	100	Classical	Scheme-examples/OPi/linear_10000.scm	false	ParAAM-C-S-part	16	30001	0	0	1	1	Int	13	true	4.441381566	true	4.303028813	true	4.377673482	true	4.378358092	true	4.260718234	true	4.272296109	true	4.31861235	true	4.40858249	true	4.341096434	true	4.194940485	true	4.397953854	true	4.363452885	true	4.324882869	13	4.337152127923077	0.05360521654437859	true													
TypeSet	100	Classical	Scheme-examples/OPi/linear_10000.scm	false	ParAAM-C-S-part	24	30001	0	0	1	1	Int	13	true	4.228205792	true	4.356352845	true	4.349239002	true	4.406534394	true	4.357381086	true	4.115225736	true	4.302956804	true	4.493694249	true	4.436078444	true	4.229197252	true	4.355100748	true	4.473154766	true	4.252821235	13	4.335072488692308	0.08414701914792894	true													
TypeSet	100	Classical	Scheme-examples/OPi/linear_10000.scm	false	ParAAM-C-S-part	32	30001	0	0	1	1	Int	13	true	4.295392505	true	4.224430399	true	4.277889435	true	4.380719286	true	4.388290441	true	4.506932716	true	4.321654829	true	4.442981486	true	4.32584065	true	4.300308888	true	4.398835051	true	4.461937657	true	4.412710963	13	4.364455715846154	0.06787962908875735	true													
TypeSet	100	Classical	Scheme-examples/OPi/linear_10000.scm	false	ParAAM-C-state	1	30001	0	0	1	1	Int	13	true	3.520151355	true	3.467878201	true	3.204546509	true	3.301839339	true	3.520331014	true	3.167297095	true	3.255128329	true	3.282840189	true	3.447123323	true	3.586755932	true	3.254946377	true	3.264803306	true	3.22512825	13	3.3460591706923077	0.12491445715976332	true													
TypeSet	100	Classical	Scheme-examples/OPi/linear_10000.scm	false	ParAAM-C-state	2	30001	0	0	1	1	Int	13	true	3.51685568	true	3.531345576	true	3.552140702	true	3.5900886	true	3.604317676	true	3.972859701	true	3.636238469	true	3.650816887	true	3.669965093	true	3.536485545	true	3.611962317	true	3.651446135	true	3.51409525	13	3.618355202384615	0.07531542662721882	true													
TypeSet	100	Classical	Scheme-examples/OPi/linear_10000.scm	false	ParAAM-C-state	3	30001	0	0	1	1	Int	13	true	3.514455494	true	3.60488365	true	3.538399716	true	3.62309717	true	3.537453132	true	3.571534872	true	3.811364488	true	3.883504378	true	3.492545473	true	3.896711003	true	3.607167514	true	3.719717687	true	3.616485529	13	3.647486162	0.11097737046153847	true													
TypeSet	100	Classical	Scheme-examples/OPi/linear_10000.scm	false	ParAAM-C-state	4	30001	0	0	1	1	Int	13	true	3.560662177	true	3.616723356	true	3.518083111	true	4.041835927	true	3.853550853	true	3.697739389	true	3.459618789	true	3.573878704	true	3.868346324	true	3.533942849	true	3.711654432	true	3.643241504	true	3.560047063	13	3.664563421384616	0.1308168950887575	true													
TypeSet	100	Classical	Scheme-examples/OPi/linear_10000.scm	false	ParAAM-C-state	5	30001	0	0	1	1	Int	13	true	3.451914902	true	3.606751611	true	3.656813989	true	3.602133594	true	3.449388329	true	3.594651311	true	3.439312747	true	3.647209633	true	3.951552456	true	3.530933102	true	3.676783706	true	3.75038276	true	3.536874214	13	3.607284796461539	0.09943362487573978	true													
TypeSet	100	Classical	Scheme-examples/OPi/linear_10000.scm	false	ParAAM-C-state	6	30001	0	0	1	1	Int	13	true	3.685096009	true	3.522368934	true	3.667642697	true	3.653821479	true	3.460075801	true	3.730164207	true	3.665817903	true	3.957691148	true	3.664820959	true	3.608792677	true	3.54916575	true	3.70543884	true	3.571518442	13	3.6494165266153837	0.08233246601183453	true													
TypeSet	100	Classical	Scheme-examples/OPi/linear_10000.scm	false	ParAAM-C-state	7	30001	0	0	1	1	Int	13	true	3.759751053	true	3.688849668	true	3.633131994	true	3.54310459	true	3.575415152	true	3.873857707	true	3.607524584	true	3.532331525	true	3.646234784	true	3.567465444	true	3.687768598	true	3.615755036	true	3.729647838	13	3.650833690230769	0.0747240635147928	true													
TypeSet	100	Classical	Scheme-examples/OPi/linear_10000.scm	false	ParAAM-C-state	8	30001	0	0	1	1	Int	13	true	3.754381481	true	3.633434132	true	3.705993656	true	3.665957119	true	3.502488758	true	4.1183163	true	3.725352005	true	3.521435649	true	3.583445011	true	3.558031852	true	3.510734815	true	3.583101203	true	3.649882832	13	3.6548119086923077	0.107067848852071	true													
TypeSet	100	Classical	Scheme-examples/OPi/linear_10000.scm	false	ParAAM-C-state	9	30001	0	0	1	1	Int	13	true	3.463244269	true	3.721315535	true	3.697439925	true	3.864575311	true	3.53755712	true	3.683837954	true	3.533252271	true	3.651928971	true	3.643679436	true	3.642760744	true	3.556396193	true	3.663541421	true	3.628645959	13	3.637551931461538	0.07210213004733738	true													
TypeSet	100	Classical	Scheme-examples/OPi/linear_10000.scm	false	ParAAM-C-state	10	30001	0	0	1	1	Int	13	true	3.514174854	true	3.677557142	true	3.897449898	true	4.026917813	true	3.719170219	true	3.668452344	true	3.649052052	true	3.560615663	true	3.534935144	true	3.771682512	true	3.771806922	true	3.518857914	true	3.591255627	13	3.684763700307693	0.11741674807100609	true													
TypeSet	100	Classical	Scheme-examples/OPi/linear_10000.scm	false	ParAAM-C-state	12	30001	0	0	1	1	Int	13	true	3.481398584	true	3.533839075	true	3.622975939	true	3.636018473	true	3.673910736	true	3.656499093	true	3.704098175	true	3.621408424	true	3.690559224	true	3.895337603	true	4.13793379	true	3.481731053	true	3.942511963	13	3.698324779384615	0.13639729437869813	true													
TypeSet	100	Classical	Scheme-examples/OPi/linear_10000.scm	false	ParAAM-C-state	14	30001	0	0	1	1	Int	13	true	3.83536001	true	3.503295232	true	3.601984504	true	3.819240894	true	3.562615584	true	3.684109501	true	3.827949898	true	3.653447812	true	3.702509826	true	3.877210478	true	3.797284912	true	3.652321613	true	3.747933804	13	3.7127126206153847	0.09672373420118344	true													
TypeSet	100	Classical	Scheme-examples/OPi/linear_10000.scm	false	ParAAM-C-state	16	30001	0	0	1	1	Int	13	true	3.72583998	true	3.593230576	true	3.48293868	true	3.631893066	true	3.680158051	true	3.667293824	true	3.559149059	true	3.684351097	true	3.745987842	true	3.88791053	true	3.647508884	true	3.524849288	true	3.58441621	13	3.647348237461538	0.0780942378106509	true													
TypeSet	100	Classical	Scheme-examples/OPi/linear_10000.scm	false	ParAAM-C-state	24	30001	0	0	1	1	Int	13	true	3.709501419	true	3.733997532	true	3.702670833	true	3.684943607	true	3.599732959	true	3.6012818	true	3.711257004	true	3.952703648	true	3.707296661	true	3.681344655	true	3.7367141	true	3.841894394	true	3.733851254	13	3.7228607589230767	0.05920878975147922	true													
TypeSet	100	Classical	Scheme-examples/OPi/linear_10000.scm	false	ParAAM-C-state	32	30001	0	0	1	1	Int	13	true	3.681620672	true	3.73254357	true	3.518059232	true	3.7170573	true	3.843528568	true	3.665345073	true	3.519398244	true	3.711452088	true	3.741430455	true	3.574083874	true	3.706786476	true	3.690568558	true	4.049634473	13	3.7039621986923086	0.08841500602366859	true													
TypeSet	100	Classical	Scheme-examples/OPi/linear_10000.scm	false	ParAAM-C-set	1	30001	0	0	1	1	Int	13	true	3.47802506	true	3.190335848	true	3.264036772	true	3.182999359	true	3.714759569	true	3.504436931	true	3.202107876	true	3.485170389	true	3.23381293	true	3.206467853	true	3.593742995	true	3.242699921	true	3.596237665	13	3.376525628307692	0.17126443679289935	true													
TypeSet	100	Classical	Scheme-examples/OPi/linear_10000.scm	false	ParAAM-C-set	2	30001	0	0	1	1	Int	13	true	3.610985931	true	3.632982448	true	3.630827069	true	3.718859715	true	3.559866949	true	3.562040918	true	3.737896479	true	3.892506631	true	3.591818771	true	3.354143521	true	3.583509148	true	3.594902957	true	3.585754082	13	3.619699586076923	0.07916529409467457	true													
TypeSet	100	Classical	Scheme-examples/OPi/linear_10000.scm	false	ParAAM-C-set	3	30001	0	0	1	1	Int	13	true	3.597313001	true	3.519210432	true	3.630355427	true	3.465284821	true	3.629001422	true	3.709889119	true	3.609706309	true	3.508208706	true	3.478221304	true	3.916022573	true	3.421648465	true	3.516601675	true	3.701307138	13	3.592520799384615	0.099376829739645	true													
TypeSet	100	Classical	Scheme-examples/OPi/linear_10000.scm	false	ParAAM-C-set	4	30001	0	0	1	1	Int	13	true	3.516945468	true	3.621476176	true	3.533558807	true	3.585592527	true	3.515943943	true	3.660160034	true	3.630015929	true	3.527282205	true	3.569386869	true	3.574708726	true	3.51374212	true	3.656014731	true	3.553243356	13	3.5736977608461538	0.04396639352662722	true													
TypeSet	100	Classical	Scheme-examples/OPi/linear_10000.scm	false	ParAAM-C-set	5	30001	0	0	1	1	Int	13	true	3.555634998	true	3.587101059	true	3.929040073	true	3.909589611	true	3.570486902	true	3.888079143	true	3.967243022	true	3.627811609	true	3.630865308	true	3.839475714	true	3.855579767	true	3.491803865	true	3.494544875	13	3.7190196881538466	0.16536756939644975	true													
TypeSet	100	Classical	Scheme-examples/OPi/linear_10000.scm	false	ParAAM-C-set	6	30001	0	0	1	1	Int	13	true	3.668606826	true	3.526255648	true	3.531064291	true	3.583411751	true	3.466025558	true	3.549252893	true	3.510087671	true	3.93746167	true	3.727128599	true	3.667930293	true	3.644864275	true	3.57170619	true	3.627705161	13	3.6162692943076924	0.08862785510059176	true													
TypeSet	100	Classical	Scheme-examples/OPi/linear_10000.scm	false	ParAAM-C-set	7	30001	0	0	1	1	Int	13	true	3.677044282	true	3.669265358	true	3.709186083	true	3.583582998	true	3.754075489	true	3.552630786	true	3.877636577	true	3.694748499	true	3.499313277	true	3.805601363	true	3.807221663	true	3.565148727	true	3.56473597	13	3.673860851692308	0.09361353756213017	true													
TypeSet	100	Classical	Scheme-examples/OPi/linear_10000.scm	false	ParAAM-C-set	8	30001	0	0	1	1	Int	13	true	3.612607544	true	3.619992867	true	3.73856141	true	3.490538684	true	3.679171404	true	3.716895798	true	3.658011746	true	3.66383412	true	3.392046402	true	3.725320537	true	3.574264085	true	3.574295956	true	3.61695923	13	3.620192291	0.07086788753846156	true													
TypeSet	100	Classical	Scheme-examples/OPi/linear_10000.scm	false	ParAAM-C-set	9	30001	0	0	1	1	Int	13	true	3.596254929	true	3.852565223	true	3.704040594	true	3.713774677	true	3.564923083	true	3.956062015	true	3.798894585	true	3.831956836	true	3.753648538	true	3.448030697	true	3.583770749	true	3.726734133	true	3.899386085	13	3.7253878572307695	0.11408190990532543	true													
TypeSet	100	Classical	Scheme-examples/OPi/linear_10000.scm	false	ParAAM-C-set	10	30001	0	0	1	1	Int	13	true	3.882993237	true	3.926361947	true	4.159837148	true	3.846489147	true	3.513228969	true	3.44759454	true	3.735978174	true	3.744381379	true	3.763115281	true	3.556371673	true	3.728182087	true	3.620230174	true	3.783773144	13	3.746810530769231	0.13564718759763322	true													
TypeSet	100	Classical	Scheme-examples/OPi/linear_10000.scm	false	ParAAM-C-set	12	30001	0	0	1	1	Int	13	true	3.671122076	true	3.494598532	true	4.01590237	true	3.689257397	true	3.617574644	true	3.597447262	true	3.715787441	true	3.590835148	true	3.500431321	true	3.69132041	true	3.517682375	true	3.766332695	true	3.54019151	13	3.6468063985384616	0.10290523042603546	true													
TypeSet	100	Classical	Scheme-examples/OPi/linear_10000.scm	false	ParAAM-C-set	14	30001	0	0	1	1	Int	13	true	3.757034242	true	3.663391835	true	4.030428968	true	4.04130045	true	3.739089877	true	3.867636746	true	3.635237839	true	3.826022136	true	3.755174653	true	3.709125708	true	3.621516404	true	3.563035361	true	3.694853835	13	3.7618344656923073	0.11046929803550275	true													
TypeSet	100	Classical	Scheme-examples/OPi/linear_10000.scm	false	ParAAM-C-set	16	30001	0	0	1	1	Int	13	true	3.82722163	true	3.523796055	true	3.641789735	true	3.957823272	true	3.897837943	true	3.630949987	true	3.676640544	true	3.707169661	true	3.598727435	true	3.716373078	true	3.508585499	true	3.677726435	true	3.625845204	13	3.691575882923077	0.09977633375147935	true													
TypeSet	100	Classical	Scheme-examples/OPi/linear_10000.scm	false	ParAAM-C-set	24	30001	0	0	1	1	Int	13	true	3.526203911	true	3.549997631	true	3.657708536	true	3.651148717	true	3.53963468	true	3.587052022	true	3.752888592	true	3.745288422	true	3.63289689	true	3.753097897	true	3.587566786	true	3.661793727	true	3.51131024	13	3.627429850076923	0.07120212776331362	true													
TypeSet	100	Classical	Scheme-examples/OPi/linear_10000.scm	false	ParAAM-C-set	32	30001	0	0	1	1	Int	13	true	3.55223011	true	3.635737781	true	3.638574492	true	3.429995848	true	3.667212474	true	3.623532818	true	3.688277241	true	4.017106667	true	3.630224162	true	3.90524405	true	3.446493741	true	3.738573531	true	3.737984286	13	3.670091323153846	0.11334294757396453	true													
TypeSet	100	Classical	Scheme-examples/OPi/linear_10000.scm	false	ParAAM-C-part	1	30001	0	0	1	1	Int	13	true	3.15469689	true	3.523753584	true	3.191784922	true	3.305593413	true	3.258407334	true	3.226150782	true	3.312927714	true	3.262003965	true	3.2677047	true	3.223240124	true	3.249363971	true	3.273059201	true	3.330753215	13	3.275341524230769	0.05717874293491118	true													
TypeSet	100	Classical	Scheme-examples/OPi/linear_10000.scm	false	ParAAM-C-part	2	30001	0	0	1	1	Int	13	true	3.279945923	true	3.264393735	true	3.202965122	true	3.280013094	true	3.303849165	true	3.56160287	true	3.318754096	true	3.181491269	true	3.296424906	true	3.363979798	true	3.349222429	true	3.168972835	true	3.263220116	13	3.2949873352307693	0.06521680809467457	true													
TypeSet	100	Classical	Scheme-examples/OPi/linear_10000.scm	false	ParAAM-C-part	3	30001	0	0	1	1	Int	13	true	3.485568656	true	3.352563183	true	3.245636985	true	3.312166419	true	3.364655852	true	3.248071574	true	3.467571872	true	3.704137909	true	3.263031143	true	3.346693929	true	3.245415292	true	3.146669887	true	3.291204168	13	3.344106682230769	0.1010078934792899	true													
TypeSet	100	Classical	Scheme-examples/OPi/linear_10000.scm	false	ParAAM-C-part	4	30001	0	0	1	1	Int	13	true	3.234730372	true	3.279508225	true	3.221685986	true	3.206505146	true	3.293277728	true	3.17283692	true	3.274395083	true	3.297475009	true	3.278153155	true	3.301176156	true	3.312396363	true	3.288516334	true	3.235585037	13	3.261249347230769	0.0361389654082841	true													
TypeSet	100	Classical	Scheme-examples/OPi/linear_10000.scm	false	ParAAM-C-part	5	30001	0	0	1	1	Int	13	true	3.208820645	true	3.392785958	true	3.267113743	true	3.238251614	true	3.528585893	true	3.268572553	true	3.203857435	true	3.300474627	true	3.243969439	true	3.30162204	true	3.207540173	true	3.267960522	true	3.250597443	13	3.2830886219230773	0.06017138927810661	true													
TypeSet	100	Classical	Scheme-examples/OPi/linear_10000.scm	false	ParAAM-C-part	6	30001	0	0	1	1	Int	13	true	3.339996331	true	3.185187051	true	3.319490393	true	3.185749211	true	3.220658671	true	3.129645695	true	3.198027069	true	3.263028836	true	3.233148766	true	3.279402595	true	3.337434156	true	3.215686398	true	3.568238041	13	3.267361016384615	0.07811637447337276	true													
TypeSet	100	Classical	Scheme-examples/OPi/linear_10000.scm	false	ParAAM-C-part	7	30001	0	0	1	1	Int	13	true	3.225041941	true	3.200503772	true	3.25835666	true	3.248791509	true	3.284671568	true	3.340794645	true	3.241499873	true	3.310419345	true	3.221359208	true	3.21957531	true	3.326202009	true	3.273003685	true	3.171468914	13	3.2555144953076924	0.04005552925443785	true													
TypeSet	100	Classical	Scheme-examples/OPi/linear_10000.scm	false	ParAAM-C-part	8	30001	0	0	1	1	Int	13	true	3.300920933	true	3.184370682	true	3.307883931	true	3.184035671	true	3.620503032	true	3.397800748	true	3.378136059	true	3.223579801	true	3.569974339	true	3.230702372	true	3.517852816	true	3.272574075	true	3.602750744	13	3.3685450156153847	0.13473040681656798	true													
TypeSet	100	Classical	Scheme-examples/OPi/linear_10000.scm	false	ParAAM-C-part	9	30001	0	0	1	1	Int	13	true	3.214616538	true	3.291275588	true	3.399071672	true	3.487036186	true	3.216378677	true	3.314831026	true	3.266267973	true	3.286843922	true	3.454822567	true	3.184234832	true	3.573804139	true	3.238405691	true	3.335255248	13	3.327911081461539	0.09391298533727827	true													
TypeSet	100	Classical	Scheme-examples/OPi/linear_10000.scm	false	ParAAM-C-part	10	30001	0	0	1	1	Int	13	true	3.222258642	true	3.365460678	true	3.257003028	true	3.216832075	true	3.317808827	true	3.294137369	true	3.306484842	true	3.259035049	true	3.47408478	true	3.271461696	true	3.599619783	true	3.734264003	true	3.308327294	13	3.355906005076924	0.11535464979881684	true													
TypeSet	100	Classical	Scheme-examples/OPi/linear_10000.scm	false	ParAAM-C-part	12	30001	0	0	1	1	Int	13	true	3.380840765	true	3.195574001	true	3.398732166	true	3.291647454	true	3.355276154	true	3.406080869	true	3.260922768	true	3.301439893	true	3.480526181	true	3.272017589	true	3.311130742	true	3.232762045	true	3.35659364	13	3.3264264820769234	0.064537058852071	true													
TypeSet	100	Classical	Scheme-examples/OPi/linear_10000.scm	false	ParAAM-C-part	14	30001	0	0	1	1	Int	13	true	3.361512041	true	3.219740908	true	3.680723902	true	3.562414019	true	3.58342123	true	3.595943456	true	3.643300006	true	3.617724575	true	3.431532304	true	3.246355484	true	3.300807608	true	3.303383902	true	3.236991351	13	3.444911598923077	0.15600886068639055	true													
TypeSet	100	Classical	Scheme-examples/OPi/linear_10000.scm	false	ParAAM-C-part	16	30001	0	0	1	1	Int	13	true	3.319492775	true	3.293248747	true	3.195388598	true	3.355541341	true	3.435625508	true	3.308019431	true	3.274308927	true	3.490130318	true	3.225233116	true	3.361428572	true	3.32861274	true	3.251493622	true	3.319028794	13	3.3198117299230763	0.05727381990532532	true													
TypeSet	100	Classical	Scheme-examples/OPi/linear_10000.scm	false	ParAAM-C-part	24	30001	0	0	1	1	Int	13	true	3.320060254	true	3.346395926	true	3.279184951	true	3.35593906	true	3.515968106	true	3.588416457	true	3.340530256	true	3.525681421	true	3.439276781	true	3.66019846	true	3.32262422	true	3.300003409	true	3.437213503	13	3.417807138769231	0.10152490698224857	true													
TypeSet	100	Classical	Scheme-examples/OPi/linear_10000.scm	false	ParAAM-C-part	32	30001	0	0	1	1	Int	13	true	3.647078389	true	3.274277049	true	3.416784628	true	3.37159179	true	3.382311899	true	3.3869143	true	3.386250599	true	3.411665826	true	3.252987165	true	3.363134727	true	3.390824699	true	3.575518253	true	3.655940719	13	3.4242523109999996	0.09319698892307673	true													
