Lattice	Bound	Address	Scheme program	Step filter?	Machine	p	β	# initial chain	# states	# error states	# error values	# final states	# final values	Final values	# words	# !	#	# states /s	Ideal time	Average time	Time error	Time min	Time max	Ideal abstract speedup	Chain abstract speedup	Abstract speedup ideal weighted	Abstract speedup chain weighted	Average speedup	Speedup error	Speedup min	Speedup max	Ideal abstract efficiency	Chain abstract efficiency	Average efficiency	Efficiency error	Efficiency min	Efficiency max	Minimal abstract overhead	Chain abstract overhead	Average overhead	Overhead error	Overhead min	Overhead max
TypeSet	100	Classical	Scheme-examples/OPi/tree/tree_16.scm	false	SeqAAMLS	1	1.69542675586872e-05	5	294911	0	0	32768	1	Int	327676	0	10	494999.6874199444	0.5957801742	0.5957801742	0.028220860799366154	0.545861118	0.648290086	1.0	1.0	1.001119491718865	1.001119491718865	1.001119491718865	0.04731560906013585	0.9190024451492228	1.0914501043468714	1.0	1.0	1.0	0.0	1.0	1.0	0.0	0.0	0.0	0.0	0.0	0.0
TypeSet	100	Classical	Scheme-examples/OPi/tree/tree_16.scm	false	ParAAM-L-SA-state	2	1.69542675586872e-05	5	294911	0	0	32768	1	Int	327676	0	10	269354.107800393	0.2978900871	1.0948821327	0.1025242869657369	0.910273616	1.249570597	1.9999932183159723	1.9999660920397673	0.5466088285728845	0.5466162424296089	0.5466069751087035	0.053527063853937684	0.47678792669286857	0.6545066930732616	0.9999966091579862	0.9999830460198836	0.2720750281725736	0.0	0.2720750281725736	0.2720750281725736	2.0202032959096134e-06	1.0101016479548066e-05	1.5939840911999998	2.220446049250313e-16	1.5939840912	1.5939840912
TypeSet	100	Classical	Scheme-examples/OPi/tree/tree_16.scm	false	ParAAM-L-SA-state	3	1.69542675586872e-05	5	294911	0	0	32768	1	Int	327676	0	10	252677.53698755053	0.19859339139999999	1.1671437181	0.10317908373095509	1.030515285	1.353119141	2.999979655016903	2.999898277843897	0.5123984676476107	0.5124123672984947	0.5123949927348896	0.04324325238844963	0.44030134239302726	0.5781381245596954	0.9999932183389678	0.9999660926146324	0.1701533310081909	2.7755575615628914e-17	0.17015333100819094	0.17015333100819094	4.040406591819227e-06	2.0202032959096133e-05	2.9056509800999994	4.440892098500626e-16	2.9056509801	2.9056509801
TypeSet	100	Classical	Scheme-examples/OPi/tree/tree_16.scm	false	ParAAM-L-SA-state	4	1.69542675586872e-05	5	294911	0	0	32768	1	Int	327676	0	10	225597.02575370748	0.14894504355	1.3072468443000003	0.09096548290752521	1.119315042	1.400529386	3.999959310171779	3.9997965591368683	0.45690203239474203	0.45692062365995406	0.45689738457843904	0.033652771933113626	0.4253964109254327	0.5322721055686482	0.9999898275429447	0.9999491397842171	0.11393796374376143	0.0	0.11393796374376144	0.11393796374376144	6.06060988772884e-06	3.03030494386442e-05	4.633207203	8.881784197001252e-16	4.633207203000001	4.633207203000001
TypeSet	100	Classical	Scheme-examples/OPi/tree/tree_16.scm	false	ParAAM-L-SA-state	5	1.69542675586872e-05	5	294911	0	0	32768	1	Int	327676	0	10	205928.81808686067	0.11915603484	1.4321016492000003	0.05792338720871728	1.332241339	1.547723895	4.999932183849584	4.999660937643042	0.41636206767987377	0.4163846565379613	0.4163564204653519	0.016711771054642957	0.38493957231305775	0.44720138668508913	0.9999864367699167	0.9999321875286084	0.0832036154043694	1.3877787807814457e-17	0.08320361540436941	0.08320361540436941	8.080813183638453e-06	4.0404065918192266e-05	6.564728071800003	1.7763568394002505e-15	6.564728071800001	6.564728071800001
TypeSet	100	Classical	Scheme-examples/OPi/tree/tree_16.scm	false	ParAAM-L-SA-state	6	1.69542675586872e-05	5	294911	0	0	32768	1	Int	327676	0	10	215528.3644745061	0.09929669569999999	1.3683164196	0.0700233794677537	1.235680344	1.476546407	5.999898276119302	5.999491415086663	0.43599808847129107	0.43602765608298194	0.43599069656836836	0.022883610434540153	0.4034957325929817	0.48214748829896414	0.9999830460198836	0.9999152358477772	0.07256851871223426	1.3877787807814457e-17	0.07256851871223427	0.07256851871223427	1.0101016479548066e-05	5.050508239774033e-05	7.6141183433999995	0.0	7.6141183433999995	7.6141183433999995
TypeSet	100	Classical	Scheme-examples/OPi/tree/tree_16.scm	false	ParAAM-L-SA-state	7	1.69542675586872e-05	5	294911	0	0	32768	1	Int	327676	0	10	219358.0874224062	0.08511145345714285	1.3444272944999998	0.08322625044398181	1.219335933	1.475848005	6.999857587049916	6.999287993191858	0.4440174641056446	0.4440535977267602	0.4440084307003657	0.02802842617343233	0.4036866751735725	0.48861036411366054	0.9999796552928452	0.9998982847416941	0.06330684731359629	1.3877787807814457e-17	0.0633068473135963	0.0633068473135963	1.212121977545768e-05	6.06060988772884e-05	8.8152108873	0.0	8.8152108873	8.8152108873
TypeSet	100	Classical	Scheme-examples/OPi/tree/tree_16.scm	false	ParAAM-L-SA-state	8	1.69542675586872e-05	5	294911	0	0	32768	1	Int	327676	0	10	217182.5289990107	0.074472521775	1.3578946767	0.05209029830253722	1.230378649	1.413658226	7.999810116710408	7.99905067368264	0.4390976321806477	0.439139320832073	0.43908721001779133	0.01776714028940465	0.4214456954604811	0.4842250592402794	0.999976264588801	0.99988133421033	0.05484410761222332	6.938893903907228e-18	0.054844107612223324	0.054844107612223324	1.4141423071367292e-05	7.070711535683647e-05	10.267377239400002	1.7763568394002505e-15	10.2673772394	10.2673772394
TypeSet	100	Classical	Scheme-examples/OPi/tree/tree_16.scm	false	ParAAM-L-SA-state	9	1.69542675586872e-05	5	294911	0	0	32768	1	Int	327676	0	10	210986.20539500006	0.06619779713333333	1.3977738471	0.06131215757286135	1.322303047	1.558770397	8.999755865169758	8.9987794582829	0.42664035923418275	0.42668665157714986	0.426628786148441	0.017637831183783544	0.3822116299787543	0.4505625057370075	0.9999728739077509	0.9998643842536556	0.04735944750338241	6.938893903907228e-18	0.04735944750338242	0.04735944750338242	1.6161626367276907e-05	8.080813183638453e-05	11.984184449699999	1.7763568394002505e-15	11.9841844497	11.9841844497
TypeSet	100	Classical	Scheme-examples/OPi/tree/tree_16.scm	false	ParAAM-L-SA-state	10	1.69542675586872e-05	5	294911	0	0	32768	1	Int	327676	0	10	219452.23397995357	0.05957801742	1.3438505257	0.05292012208988656	1.272823547	1.462331294	9.999694832496948	9.99847434871642	0.44368799096653133	0.4437421506290662	0.4436744510508976	0.016917009774312767	0.40741805680047216	0.46807758671988176	0.9999694832496948	0.9998474348716418	0.04433381263810297	0.0	0.04433381263810298	0.04433381263810298	1.8181829663186518e-05	9.09091483159326e-05	12.842725082799998	1.7763568394002505e-15	12.8427250828	12.8427250828
TypeSet	100	Classical	Scheme-examples/OPi/tree/tree_16.scm	false	ParAAM-L-SA-state	12	1.69542675586872e-05	5	294911	0	0	32768	1	Int	327676	0	10	223382.97542302182	0.049648347849999996	1.3202035627000002	0.10676462793943814	1.173299437	1.528507589	11.99955242403076	11.997762453977746	0.45275754498900167	0.4528250927880113	0.45274065803924923	0.03614236833889152	0.38977900959574496	0.5077818631903085	0.9999627020025634	0.9998135378314789	0.037606585266640395	0.0	0.0376065852666404	0.0376065852666404	2.2222236255005744e-05	0.00011111118127502873	15.246662578200006	3.552713678800501e-15	15.246662578200002	15.246662578200002
TypeSet	100	Classical	Scheme-examples/OPi/tree/tree_16.scm	false	ParAAM-L-SA-state	14	1.69542675586872e-05	5	294911	0	0	32768	1	Int	327676	0	10	222978.65631911243	0.04255572672857143	1.3225974398999998	0.07008751583543056	1.190659155	1.438200675	13.999382891863666	13.996915003254502	0.4511289829554153	0.4512085244885346	0.45110909757213546	0.024754209645855063	0.4142538552208647	0.5003784430650096	0.9999559208474047	0.9997796430896073	0.032175872600954836	0.0	0.03217587260095484	0.03217587260095484	2.6262642846824973e-05	0.00013131321423412486	17.920583984399997	0.0	17.920583984399997	17.920583984399997
TypeSet	100	Classical	Scheme-examples/OPi/tree/tree_16.scm	false	ParAAM-L-SA-state	16	1.69542675586872e-05	5	294911	0	0	32768	1	Int	327676	0	10	216724.47717192484	0.0372362608875	1.3607646162000002	0.05889360386209598	1.274441722	1.509632117	15.999186236547473	15.995932010332695	0.43824680696414087	0.4383359642728144	0.4382245176369725	0.018102147831526694	0.3946525564015938	0.46748326260461204	0.9999491397842171	0.9997457506457934	0.027364218942938136	3.469446951953614e-18	0.027364218942938143	0.027364218942938143	3.03030494386442e-05	0.00015151524719322099	21.176453685000006	3.552713678800501e-15	21.176453685000002	21.176453685000002
TypeSet	100	Classical	Scheme-examples/OPi/tree/tree_16.scm	false	ParAAM-L-SA-state	24	1.69542675586872e-05	5	294911	0	0	32768	1	Int	327676	0	10	218539.35588974852	0.024824173924999998	1.3494640303999998	0.0619622097729308	1.192534768	1.428292982	23.99812839482732	23.990644892314577	0.44201492438461076	0.4421528039544243	0.4419804544921574	0.021734400598632207	0.4171274253310025	0.4995914502343465	0.9999220164511382	0.9996102038464406	0.018395580293934746	3.469446951953614e-18	0.01839558029393475	0.01839558029393475	4.6464675805921106e-05	0.00023232337902960554	31.791356555399993	0.0	31.791356555399993	31.791356555399993
TypeSet	100	Classical	Scheme-examples/OPi/tree/tree_16.scm	false	ParAAM-L-SA-state	32	1.69542675586872e-05	5	294911	0	0	32768	1	Int	327676	0	10	218614.4569874653	0.01861813044375	1.3490004461000003	0.06723874279142321	1.182909263	1.461613298	31.99663662686223	31.983190201514237	0.4422630003818381	0.4424489373187523	0.44221651614760954	0.023475629240474423	0.40761819491874923	0.5036566986457016	0.9998948945894447	0.9994746937973199	0.01380142645436149	1.734723475976807e-18	0.013801426454361493	0.013801426454361493	6.262630217319801e-05	0.00031313151086599005	42.572234101	7.105427357601002e-15	42.57223410100001	42.57223410100001
TypeSet	100	Classical	Scheme-examples/OPi/tree/tree_16.scm	false	ParAAM-L-SA-set	2	1.69542675586872e-05	5	294911	0	0	32768	1	Int	327676	0	10	269246.7712623901	0.2978900871	1.0953186128	0.050126046158448324	1.01792977	1.170360545	1.9999932183159723	1.9999660920397673	0.5445025191702885	0.5445099044583632	0.5445006728482699	0.024775862571439194	0.5090569540687993	0.5852861285312443	0.9999966091579862	0.9999830460198836	0.2719666073586511	5.551115123125783e-17	0.2719666073586511	0.2719666073586511	2.0202032959096134e-06	1.0101016479548066e-05	1.5948570514000002	0.0	1.5948570514000002	1.5948570514000002
TypeSet	100	Classical	Scheme-examples/OPi/tree/tree_16.scm	false	ParAAM-L-SA-set	3	1.69542675586872e-05	5	294911	0	0	32768	1	Int	327676	0	10	261746.9312816527	0.19859339139999999	1.1267027986	0.04803785660559567	1.062737448	1.20248266	2.999979655016903	2.999898277843897	0.5292637671222554	0.5292781242721165	0.5292601778347902	0.022388404528302003	0.49545843280600815	0.56060899643766	0.9999932183389678	0.9999660926146324	0.17626067108980725	2.7755575615628914e-17	0.17626067108980728	0.17626067108980728	4.040406591819227e-06	2.0202032959096133e-05	2.7843282215999996	4.440892098500626e-16	2.7843282216	2.7843282216
TypeSet	100	Classical	Scheme-examples/OPi/tree/tree_16.scm	false	ParAAM-L-SA-set	4	1.69542675586872e-05	5	294911	0	0	32768	1	Int	327676	0	10	237441.67951112957	0.14894504355	1.2420355205	0.04804384200912336	1.144478178	1.308717701	3.999959310171779	3.9997965591368683	0.4800488802115432	0.48006841331801675	0.48004399693492483	0.01894461412403989	0.4552396393391488	0.5205692739735226	0.9999898275429447	0.9999491397842171	0.1199201158836745	2.7755575615628914e-17	0.11992011588367452	0.11992011588367452	6.06060988772884e-06	3.03030494386442e-05	4.372361907799999	8.881784197001252e-16	4.3723619078	4.3723619078
TypeSet	100	Classical	Scheme-examples/OPi/tree/tree_16.scm	false	ParAAM-L-SA-set	5	1.69542675586872e-05	5	294911	0	0	32768	1	Int	327676	0	10	231327.60786275213	0.11915603484	1.2748629648	0.06316352075262333	1.180229411	1.370423394	4.999932183849584	4.999660937643042	0.4679057933884784	0.4679311786442104	0.4678994470745454	0.02299633855512524	0.4347416840725648	0.5048003114031869	0.9999864367699167	0.9999321875286084	0.09346575916784368	1.3877787807814457e-17	0.09346575916784369	0.09346575916784369	8.080813183638453e-06	4.0404065918192266e-05	5.778534649800001	0.0	5.778534649800001	5.778534649800001
TypeSet	100	Classical	Scheme-examples/OPi/tree/tree_16.scm	false	ParAAM-L-SA-set	6	1.69542675586872e-05	5	294911	0	0	32768	1	Int	327676	0	10	232769.0030911319	0.09929669569999999	1.2669685228	0.04469621721749785	1.183219656	1.340911557	5.999898276119302	5.999491415086663	0.4705440214707187	0.4705759318466543	0.4705360438767348	0.016837171738702254	0.44430982124796464	0.5035245748148728	0.9999830460198836	0.9999152358477772	0.07837345120504992	1.3877787807814457e-17	0.07837345120504993	0.07837345120504993	1.0101016479548066e-05	5.050508239774033e-05	7.006030962600001	0.0	7.006030962600001	7.006030962600001
TypeSet	100	Classical	Scheme-examples/OPi/tree/tree_16.scm	false	ParAAM-L-SA-set	7	1.69542675586872e-05	5	294911	0	0	32768	1	Int	327676	0	10	234934.6011798439	0.08511145345714285	1.2552897637	0.07003583617955089	1.182701044	1.396529332	6.999857587049916	6.999287993191858	0.475340511329872	0.47537919398387946	0.4753308406663701	0.025263076104229055	0.42661486626046746	0.5037453693158319	0.9999796552928452	0.9998982847416941	0.06780223651810444	0.0	0.06780223651810445	0.06780223651810445	1.212121977545768e-05	6.06060988772884e-05	8.191248171699998	1.7763568394002505e-15	8.1912481717	8.1912481717
TypeSet	100	Classical	Scheme-examples/OPi/tree/tree_16.scm	false	ParAAM-L-SA-set	8	1.69542675586872e-05	5	294911	0	0	32768	1	Int	327676	0	10	239304.03856051463	0.074472521775	1.2323695069	0.01763126497127191	1.205004247	1.262218055	7.999810116710408	7.99905067368264	0.4835037515948176	0.4835496562362592	0.4834922754344572	0.006915461184578183	0.47201049916846577	0.4944216384990052	0.999976264588801	0.99988133421033	0.0604303509280541	6.938893903907228e-18	0.060430350928054107	0.060430350928054107	1.4141423071367292e-05	7.070711535683647e-05	9.263175880999999	1.7763568394002505e-15	9.263175881	9.263175881
TypeSet	100	Classical	Scheme-examples/OPi/tree/tree_16.scm	false	ParAAM-L-SA-set	9	1.69542675586872e-05	5	294911	0	0	32768	1	Int	327676	0	10	238358.3043343035	0.06619779713333333	1.2372591793	0.023818642375233266	1.216574193	1.297250272	8.999755865169758	8.9987794582829	0.48163286299388003	0.4816851222637671	0.48161979817640826	0.009014467157027086	0.4592638653152658	0.48971955646275983	0.9999728739077509	0.9998643842536556	0.05350358133595406	0.0	0.053503581335954065	0.053503581335954065	1.6161626367276907e-05	8.080813183638453e-05	10.539552439500001	0.0	10.539552439500001	10.539552439500001
TypeSet	100	Classical	Scheme-examples/OPi/tree/tree_16.scm	false	ParAAM-L-SA-set	10	1.69542675586872e-05	5	294911	0	0	32768	1	Int	327676	0	10	240108.033570852	0.05957801742	1.2282429522	0.04395184122168996	1.178127056	1.341732664	9.999694832496948	9.99847434871642	0.48538243955362126	0.4854416887324627	0.48536762725891086	0.01655217378931151	0.444037914694458	0.5057011221037606	0.9999694832496948	0.9998474348716418	0.04850670407942113	6.938893903907228e-18	0.048506704079421134	0.048506704079421134	1.8181829663186518e-05	9.09091483159326e-05	11.686649347800001	0.0	11.686649347800001	11.686649347800001
TypeSet	100	Classical	Scheme-examples/OPi/tree/tree_16.scm	false	ParAAM-L-SA-set	12	1.69542675586872e-05	5	294911	0	0	32768	1	Int	327676	0	10	241811.67081751628	0.049648347849999996	1.2195896045999999	0.03896672645491693	1.180033942	1.320753023	11.99955242403076	11.997762453977746	0.48876888326688483	0.48884180366910557	0.4887506531663296	0.014933135372139281	0.4510912818860911	0.5048839300251247	0.9999627020025634	0.9998135378314789	0.040709061197913066	0.0	0.04070906119791307	0.04070906119791307	2.2222236255005744e-05	0.00011111118127502873	14.039295081000002	3.552713678800501e-15	14.039295080999999	14.039295080999999
TypeSet	100	Classical	Scheme-examples/OPi/tree/tree_16.scm	false	ParAAM-L-SA-set	14	1.69542675586872e-05	5	294911	0	0	32768	1	Int	327676	0	10	235140.15896259787	0.04255572672857143	1.2541923987000003	0.04294445861726843	1.203508681	1.337513168	13.999382891863666	13.996915003254502	0.47532717280459785	0.4754109808805287	0.47530622078561513	0.015998268665507156	0.4454387354487712	0.49503604220367065	0.9999559208474047	0.9997796430896073	0.03393078029549646	6.938893903907228e-18	0.03393078029549647	0.03393078029549647	2.6262642846824973e-05	0.00013131321423412486	16.962913407600006	3.552713678800501e-15	16.962913407600002	16.962913407600002
TypeSet	100	Classical	Scheme-examples/OPi/tree/tree_16.scm	false	ParAAM-L-SA-set	16	1.69542675586872e-05	5	294911	0	0	32768	1	Int	327676	0	10	242114.58920348663	0.0372362608875	1.2180637316	0.04683409262643	1.129054927	1.278553707	15.999186236547473	15.995932010332695	0.4895108235898593	0.48961041009432277	0.48948592696374343	0.019112436784800978	0.46597977929135204	0.5276804165613458	0.9999491397842171	0.9997457506457934	0.030570043193542853	0.0	0.03057004319354286	0.03057004319354286	3.03030494386442e-05	0.00015151524719322099	18.893239531400003	3.552713678800501e-15	18.8932395314	18.8932395314
TypeSet	100	Classical	Scheme-examples/OPi/tree/tree_16.scm	false	ParAAM-L-SA-set	24	1.69542675586872e-05	5	294911	0	0	32768	1	Int	327676	0	10	241001.89720477778	0.024824173924999998	1.2236874623	0.04122350214460269	1.170091476	1.310978236	23.99812839482732	23.990644892314577	0.4871838301905403	0.48733579948664557	0.48714583786651394	0.01612725913233285	0.45445466434120113	0.5091740145280743	0.9999220164511382	0.9996102038464406	0.02028636779389841	3.469446951953614e-18	0.020286367793898412	0.020286367793898412	4.6464675805921106e-05	0.00023232337902960554	28.772718921	0.0	28.772718921	28.772718921
TypeSet	100	Classical	Scheme-examples/OPi/tree/tree_16.scm	false	ParAAM-L-SA-set	32	1.69542675586872e-05	5	294911	0	0	32768	1	Int	327676	0	10	235087.12068496164	0.01861813044375	1.2544753585	0.05348138789115775	1.153037091	1.328156765	31.99663662686223	31.983190201514237	0.475416267875842	0.4756161431639211	0.47536629905382227	0.02104428747896419	0.448576696591987	0.5167051249698262	0.9998948945894447	0.9994746937973199	0.014841368001051888	0.0	0.014841368001051892	0.014841368001051892	6.262630217319801e-05	0.00031313151086599005	39.5474312978	7.105427357601002e-15	39.547431297799996	39.547431297799996
TypeSet	100	Classical	Scheme-examples/OPi/tree/tree_16.scm	false	ParAAM-L-SA-part	2	1.69542675586872e-05	5	294911	0	0	32768	1	Int	327676	0	10	378213.0529307783	0.2978900871	0.7797483395	0.03654729653985363	0.73564272	0.858139999	1.9999932183159723	1.9999660920397673	0.7648874676512909	0.7648978421015358	0.7648848740387297	0.034475750439952	0.6942692042024252	0.8098770748387206	0.9999966091579862	0.9999830460198836	0.3820336280433977	5.551115123125783e-17	0.3820336280433977	0.3820336280433977	2.0202032959096134e-06	1.0101016479548066e-05	0.9637165048	0.0	0.9637165048	0.9637165048
TypeSet	100	Classical	Scheme-examples/OPi/tree/tree_16.scm	false	ParAAM-L-SA-part	3	1.69542675586872e-05	5	294911	0	0	32768	1	Int	327676	0	10	508493.8517392853	0.19859339139999999	0.5799696476000001	0.016324851584691612	0.543827785	0.599460594	2.999979655016903	2.999898277843897	1.0276827565004893	1.0277106340849023	1.027675787104386	0.029777517352144737	0.9938604474808898	1.095530957838059	0.9999932183389678	0.9999660926146324	0.34242031841115944	0.0	0.34242031841115944	0.34242031841115944	4.040406591819227e-06	2.0202032959096133e-05	1.1441287686000003	2.220446049250313e-16	1.1441287686000006	1.1441287686000006
TypeSet	100	Classical	Scheme-examples/OPi/tree/tree_16.scm	false	ParAAM-L-SA-part	4	1.69542675586872e-05	5	294911	0	0	32768	1	Int	327676	0	10	601683.6504499684	0.14894504355	0.49014295100000005	0.02587965449900995	0.456578288	0.537344965	3.999959310171779	3.9997965591368683	1.2172212934072444	1.21727082193258	1.2172089112759104	0.06376479184275435	1.108748035258877	1.304880652143494	0.9999898275429447	0.9999491397842171	0.30388082343348843	0.0	0.30388082343348843	0.30388082343348843	6.06060988772884e-06	3.03030494386442e-05	1.3647916298000005	2.220446049250313e-16	1.3647916298000002	1.3647916298000002
TypeSet	100	Classical	Scheme-examples/OPi/tree/tree_16.scm	false	ParAAM-L-SA-part	5	1.69542675586872e-05	5	294911	0	0	32768	1	Int	327676	0	10	649392.5388732909	0.11915603484	0.4541336439	0.013173261925153008	0.432113567	0.47422047	4.999932183849584	4.999660937643042	1.3124737482635895	1.312544953797293	1.3124559468801635	0.03797826027799082	1.2563358435370788	1.3787583165607942	0.9999864367699167	0.9999321875286084	0.26238098947418675	5.551115123125783e-17	0.26238098947418675	0.26238098947418675	8.080813183638453e-06	4.0404065918192266e-05	1.6748880453	2.220446049250313e-16	1.6748880453000001	1.6748880453000001
TypeSet	100	Classical	Scheme-examples/OPi/tree/tree_16.scm	false	ParAAM-L-SA-part	6	1.69542675586872e-05	5	294911	0	0	32768	1	Int	327676	0	10	674722.3015344072	0.09929669569999999	0.43708500419999996	0.016843014548407326	0.402375942	0.462637557	5.999898276119302	5.999491415086663	1.364124844565825	1.364217353947789	1.364101717220334	0.05366244019416772	1.287790334324284	1.4806555561912793	0.9999830460198836	0.9999152358477772	0.22717936956392154	0.0	0.22717936956392157	0.22717936956392157	1.0101016479548066e-05	5.050508239774033e-05	2.0267298509999994	4.440892098500626e-16	2.026729851	2.026729851
TypeSet	100	Classical	Scheme-examples/OPi/tree/tree_16.scm	false	ParAAM-L-SA-part	7	1.69542675586872e-05	5	294911	0	0	32768	1	Int	327676	0	10	681886.872805221	0.08511145345714285	0.4324925611	0.02439321449010164	0.398953673	0.486612198	6.999857587049916	6.999287993191858	1.3797065937851885	1.3798188726916296	1.3796785240585783	0.07458557030962362	1.224342868199124	1.493356784310142	0.9999796552928452	0.9998982847416941	0.19679287255408665	2.7755575615628914e-17	0.19679287255408667	0.19679287255408667	1.212121977545768e-05	6.06060988772884e-05	2.4316677535000006	4.440892098500626e-16	2.4316677535	2.4316677535
TypeSet	100	Classical	Scheme-examples/OPi/tree/tree_16.scm	false	ParAAM-L-SA-part	8	1.69542675586872e-05	5	294911	0	0	32768	1	Int	327676	0	10	688640.5492488915	0.074472521775	0.42825099440000003	0.027878228767031398	0.387151339	0.500969318	7.999810116710408	7.99905067368264	1.3940233225078258	1.3941556733749492	1.3939902347910451	0.08423619576035536	1.1892548162001408	1.5388818639730961	0.999976264588801	0.99988133421033	0.1738992384112021	0.0	0.17389923841120214	0.17389923841120214	1.4141423071367292e-05	7.070711535683647e-05	2.830227781000001	4.440892098500626e-16	2.8302277810000005	2.8302277810000005
TypeSet	100	Classical	Scheme-examples/OPi/tree/tree_16.scm	false	ParAAM-L-SA-part	9	1.69542675586872e-05	5	294911	0	0	32768	1	Int	327676	0	10	711135.269678346	0.06619779713333333	0.414704505	0.01213960611065499	0.396803821	0.437365913	8.999755865169758	8.9987794582829	1.4372906690274254	1.4374466213445325	1.4372516809481486	0.04190684159253245	1.3622007488269896	1.501447674315616	0.9999728739077509	0.9998643842536556	0.15962642396019625	2.7755575615628914e-17	0.15962642396019625	0.15962642396019625	1.6161626367276907e-05	8.080813183638453e-05	3.1365603707999994	4.440892098500626e-16	3.1365603708	3.1365603708
TypeSet	100	Classical	Scheme-examples/OPi/tree/tree_16.scm	false	ParAAM-L-SA-part	10	1.69542675586872e-05	5	294911	0	0	32768	1	Int	327676	0	10	719566.0605109915	0.05957801742	0.40984562250000006	0.009865900310751114	0.395904738	0.430531657	9.999694832496948	9.99847434871642	1.45413258331655	1.4543100849203725	1.4540882079155941	0.034677082228194184	1.383824312366419	1.50485739880183	0.9999694832496948	0.9998474348716418	0.14536697270690008	2.7755575615628914e-17	0.1453669727069001	0.1453669727069001	1.8181829663186518e-05	9.09091483159326e-05	3.5026760508000008	0.0	3.5026760508000008	3.5026760508000008
TypeSet	100	Classical	Scheme-examples/OPi/tree/tree_16.scm	false	ParAAM-L-SA-part	12	1.69542675586872e-05	5	294911	0	0	32768	1	Int	327676	0	10	726247.2997675305	0.049648347849999996	0.40607517590000003	0.00967451406929663	0.391576896	0.430211184	11.99955242403076	11.997762453977746	1.4676314950142961	1.4678504538772519	1.4675767552985572	0.03413068751437595	1.3848551510460032	1.521489598303573	0.9999627020025634	0.9998135378314789	0.12226393238631848	2.7755575615628914e-17	0.1222639323863185	0.1222639323863185	2.2222236255005744e-05	0.00011111118127502873	4.2771219365999995	8.881784197001252e-16	4.2771219366	4.2771219366
TypeSet	100	Classical	Scheme-examples/OPi/tree/tree_16.scm	false	ParAAM-L-SA-part	14	1.69542675586872e-05	5	294911	0	0	32768	1	Int	327676	0	10	726886.0000734248	0.04255572672857143	0.4057183657	0.039056376123990294	0.371794211	0.495161468	13.999382891863666	13.996915003254502	1.4748038622146977	1.4750638946326602	1.474738854110207	0.12572417206821557	1.2032038288568931	1.602446075202607	0.9999559208474047	0.9997796430896073	0.10488982093563484	1.3877787807814457e-17	0.10488982093563486	0.10488982093563486	2.6262642846824973e-05	0.00013131321423412486	5.084276945600002	8.881784197001252e-16	5.084276945600001	5.084276945600001
TypeSet	100	Classical	Scheme-examples/OPi/tree/tree_16.scm	false	ParAAM-L-SA-part	16	1.69542675586872e-05	5	294911	0	0	32768	1	Int	327676	0	10	745049.6395401384	0.0372362608875	0.3958273172	0.03007552411360222	0.355916811	0.45261608	15.999186236547473	15.995932010332695	1.5094015683976756	1.5097086423555628	1.5093247999082038	0.10799983621222979	1.3163035970794497	1.6739309742803914	0.9999491397842171	0.9997457506457934	0.09407198358845355	1.3877787807814457e-17	0.09407198358845356	0.09407198358845356	3.03030494386442e-05	0.00015151524719322099	5.737456901000001	8.881784197001252e-16	5.737456901	5.737456901
TypeSet	100	Classical	Scheme-examples/OPi/tree/tree_16.scm	false	ParAAM-L-SA-part	24	1.69542675586872e-05	5	294911	0	0	32768	1	Int	327676	0	10	759581.7062556263	0.024824173924999998	0.3882544794999999	0.03205400735446207	0.35425922	0.478919585	23.99812839482732	23.990644892314577	1.539360971631527	1.5398411509577155	1.53924092679998	0.10978627075158652	1.2440087915803235	1.6817633545289237	0.9999220164511382	0.9996102038464406	0.06393789443709431	1.3877787807814457e-17	0.06393789443709433	0.06393789443709433	4.6464675805921106e-05	0.00023232337902960554	8.722327333799997	0.0	8.722327333799997	8.722327333799997
TypeSet	100	Classical	Scheme-examples/OPi/tree/tree_16.scm	false	ParAAM-L-SA-part	32	1.69542675586872e-05	5	294911	0	0	32768	1	Int	327676	0	10	793554.3597648371	0.01861813044375	0.3716330159	0.011395395736410494	0.354815284	0.397475649	31.99663662686223	31.983190201514237	1.6040548049225731	1.6047291842778715	1.6038862100837485	0.04838024892790526	1.498909872086277	1.679127706911295	0.9998948945894447	0.9994746937973199	0.05009816040876146	6.938893903907228e-18	0.050098160408761465	0.050098160408761465	6.262630217319801e-05	0.00031313151086599005	11.2964763346	0.0	11.2964763346	11.2964763346
TypeSet	100	Classical	Scheme-examples/OPi/tree/tree_16.scm	false	ParAAM-C-S-state	2	1.69542675586872e-05	5	294911	0	0	32768	1	Int	327676	0	10	7639.250212914114	0.2978900871	38.604704883400004	3.1422838734281715	34.061433405	44.648348578	1.9999932183159723	1.9999660920397673	0.01548306815413217	0.015483278156684174	0.01548301565349417	0.0012263905158895682	0.0133438345017214	0.017491341809254074	0.9999966091579862	0.9999830460198836	0.007716419229203651	0.0	0.007716419229203654	0.007716419229203654	2.0202032959096134e-06	1.0101016479548066e-05	76.61362959259999	1.4210854715202004e-14	76.6136295926	76.6136295926
TypeSet	100	Classical	Scheme-examples/OPi/tree/tree_16.scm	false	ParAAM-C-S-state	3	1.69542675586872e-05	5	294911	0	0	32768	1	Int	327676	0	10	7328.579841281295	0.19859339139999999	40.24122086229999	6.65602445886459	33.653471488	54.407684911	2.999979655016903	2.999898277843897	0.014992806392294819	0.014993213096818316	0.014992704716163943	0.0022061015535496	0.010950294525021166	0.017703379409534037	0.9999932183389678	0.9999660926146324	0.004935073716564406	8.673617379884035e-19	0.0049350737165644075	0.0049350737165644075	4.040406591819227e-06	2.0202032959096133e-05	120.12788241269996	0.0	120.12788241269996	120.12788241269996
TypeSet	100	Classical	Scheme-examples/OPi/tree/tree_16.scm	false	ParAAM-C-S-state	4	1.69542675586872e-05	5	294911	0	0	32768	1	Int	327676	0	10	5419.445901551793	0.14894504355	54.4171868042	5.9003808715069095	46.149071148	63.145768886	3.999959310171779	3.9997965591368683	0.011014063463516318	0.011014511623866666	0.011013951423428732	0.0012245379218116127	0.009434997541570674	0.012909906080001782	0.9999898275429447	0.9999491397842171	0.0027370956180796935	4.336808689942018e-19	0.0027370956180796943	0.0027370956180796943	6.06060988772884e-06	3.03030494386442e-05	217.07296704259994	5.684341886080802e-14	217.0729670426	217.0729670426
TypeSet	100	Classical	Scheme-examples/OPi/tree/tree_16.scm	false	ParAAM-C-S-state	5	1.69542675586872e-05	5	294911	0	0	32768	1	Int	327676	0	10	5628.573826776572	0.11915603484	52.39533300550001	6.578008698069613	44.649518752	68.32161552	4.999932183849584	4.999660937643042	0.011453266631791277	0.011453888004953405	0.011453111288500746	0.0012700074523112816	0.00872022960325924	0.013343484786682342	0.9999864367699167	0.9999321875286084	0.0022741726792249225	4.336808689942018e-19	0.0022741726792249234	0.0022741726792249234	8.080813183638453e-06	4.0404065918192266e-05	261.38088485329996	5.684341886080802e-14	261.3808848533	261.3808848533
TypeSet	100	Classical	Scheme-examples/OPi/tree/tree_16.scm	false	ParAAM-C-S-state	6	1.69542675586872e-05	5	294911	0	0	32768	1	Int	327676	0	10	5758.626170669704	0.09929669569999999	51.212041077100004	6.081803689232554	41.201027317	62.772234016	5.999898276119302	5.999491415086663	0.011714387296356807	0.011715181718313998	0.01171418869086751	0.0013646611973435936	0.009491141800818205	0.014460323273399897	0.9999830460198836	0.9999152358477772	0.001938932594983048	0.0	0.0019389325949830487	0.0019389325949830487	1.0101016479548066e-05	5.050508239774033e-05	306.6764662884001	5.684341886080802e-14	306.67646628840004	306.67646628840004
TypeSet	100	Classical	Scheme-examples/OPi/tree/tree_16.scm	false	ParAAM-C-S-state	7	1.69542675586872e-05	5	294911	0	0	32768	1	Int	327676	0	10	5951.223895519578	0.08511145345714285	49.554680714	1.3691735037497568	47.251375252	51.530278927	6.999857587049916	6.999287993191858	0.012027529763159404	0.012028508549442719	0.012027285066588577	0.00033382429437691616	0.01156174945305473	0.0126087372277018	0.9999796552928452	0.9998982847416941	0.001717526018346385	0.0	0.0017175260183463856	0.0017175260183463856	1.212121977545768e-05	6.06060988772884e-05	346.2869848238	5.684341886080802e-14	346.28698482379997	346.28698482379997
TypeSet	100	Classical	Scheme-examples/OPi/tree/tree_16.scm	false	ParAAM-C-S-state	8	1.69542675586872e-05	5	294911	0	0	32768	1	Int	327676	0	10	5142.700542866619	0.074472521775	57.345551727499995	8.313469617915501	43.453440805	72.316800117	7.999810116710408	7.99905067368264	0.010500312827177415	0.010501309744148101	0.010500063597934742	0.0015625446421769537	0.008238475336797236	0.013710770957669389	0.999976264588801	0.99988133421033	0.0012986625733219122	2.168404344971009e-19	0.0012986625733219126	0.0012986625733219126	1.4141423071367292e-05	7.070711535683647e-05	458.16863364579996	0.0	458.16863364579996	458.16863364579996
TypeSet	100	Classical	Scheme-examples/OPi/tree/tree_16.scm	false	ParAAM-C-S-state	9	1.69542675586872e-05	5	294911	0	0	32768	1	Int	327676	0	10	5128.677228533775	0.06619779713333333	57.5023513586	9.658741619507747	46.689836807	73.415332678	8.999755865169758	8.9987794582829	0.01050127131809885	0.01050241075191688	0.010500986459644344	0.0016413013272938764	0.008115200905144632	0.012760382450312555	0.9999728739077509	0.9998643842536556	0.0011512189600822787	2.168404344971009e-19	0.0011512189600822792	0.0011512189600822792	1.6161626367276907e-05	8.080813183638453e-05	516.9253820532002	1.1368683772161603e-13	516.9253820532001	516.9253820532001
TypeSet	100	Classical	Scheme-examples/OPi/tree/tree_16.scm	false	ParAAM-C-S-state	10	1.69542675586872e-05	5	294911	0	0	32768	1	Int	327676	0	10	5513.993335445172	0.05957801742	53.48410526799999	4.763567849724601	47.272908426	61.122243526	9.999694832496948	9.99847434871642	0.011183350703148413	0.011184715821232344	0.011183009423627429	0.0009760475440830574	0.009747354479005155	0.012602993850751145	0.9999694832496948	0.9998474348716418	0.0011139387509889976	2.168404344971009e-19	0.001113938750988998	0.001113938750988998	1.8181829663186518e-05	9.09091483159326e-05	534.2452725058	0.0	534.2452725058	534.2452725058
TypeSet	100	Classical	Scheme-examples/OPi/tree/tree_16.scm	false	ParAAM-C-S-state	12	1.69542675586872e-05	5	294911	0	0	32768	1	Int	327676	0	10	5284.556804072959	0.049648347849999996	55.806193581399995	8.166226671749133	49.070750429	76.996950441	11.99955242403076	11.997762453977746	0.010777778079385146	0.010779386037541857	0.01077737608984597	0.0013280325386478987	0.007737711309183926	0.012141248482882458	0.9999627020025634	0.9998135378314789	0.0008896565894174798	1.0842021724855044e-19	0.0008896565894174802	0.0008896565894174802	2.2222236255005744e-05	0.00011111118127502873	669.0785428026	1.1368683772161603e-13	669.0785428025999	669.0785428025999
TypeSet	100	Classical	Scheme-examples/OPi/tree/tree_16.scm	false	ParAAM-C-S-state	14	1.69542675586872e-05	5	294911	0	0	32768	1	Int	327676	0	10	5626.745130477521	0.04255572672857143	52.412361527200005	6.046774150498396	46.116441622	63.98243001	13.999382891863666	13.996915003254502	0.01143886737468371	0.011440884237005811	0.011438363159103184	0.0012018043900873104	0.009311621551524126	0.012919040438622676	0.9999559208474047	0.9997796430896073	0.0008119406469881465	0.0	0.0008119406469881468	0.0008119406469881468	2.6262642846824973e-05	0.00013131321423412486	733.1772812066001	0.0	733.1772812066001	733.1772812066001
TypeSet	100	Classical	Scheme-examples/OPi/tree/tree_16.scm	false	ParAAM-C-S-state	16	1.69542675586872e-05	5	294911	0	0	32768	1	Int	327676	0	10	5407.403582126528	0.0372362608875	54.5383741977	4.1458741939414	49.225804131	62.766767594	15.999186236547473	15.995932010332695	0.010955422232564946	0.01095765101311991	0.010954865037426204	0.0008036615209463417	0.00949196839406705	0.012103005419972546	0.9999491397842171	0.9997457506457934	0.000682753408682841	0.0	0.0006827534086828413	0.0006827534086828413	3.03030494386442e-05	0.00015151524719322099	872.018206989	1.1368683772161603e-13	872.0182069890001	872.0182069890001
TypeSet	100	Classical	Scheme-examples/OPi/tree/tree_16.scm	false	ParAAM-C-S-state	24	1.69542675586872e-05	5	294911	0	0	32768	1	Int	327676	0	10	5353.1507415356555	0.024824173924999998	55.091106946000004	7.204733989142887	41.823506875	63.715752046	23.99812839482732	23.990644892314577	0.01091560173619278	0.01091900668563818	0.010914750498831432	0.0016100633564766105	0.009350594712746584	0.014245103261680993	0.9999220164511382	0.9996102038464406	0.00045060219881463823	1.0842021724855044e-19	0.0004506021988146384	0.0004506021988146384	4.6464675805921106e-05	0.00023232337902960554	1321.5907865298	2.2737367544323206e-13	1321.5907865298002	1321.5907865298002
TypeSet	100	Classical	Scheme-examples/OPi/tree/tree_16.scm	false	ParAAM-C-S-state	32	1.69542675586872e-05	5	294911	0	0	32768	1	Int	327676	0	10	6092.547756772998	0.01861813044375	48.4052012021	3.27047902304119	39.689780446	51.291061723	31.99663662686223	31.983190201514237	0.012340196118869358	0.012345384204386986	0.012338899097489952	0.0009557063118477565	0.011615672481446012	0.015010921388456399	0.9998948945894447	0.9994746937973199	0.0003846307830849852	5.421010862427522e-20	0.0003846307830849854	0.0003846307830849854	6.262630217319801e-05	0.00031313151086599005	1548.3706582930004	2.2737367544323206e-13	1548.3706582930001	1548.3706582930001
TypeSet	100	Classical	Scheme-examples/OPi/tree/tree_16.scm	false	ParAAM-C-S-set	2	1.69542675586872e-05	5	294911	0	0	32768	1	Int	327676	0	10	136127.73839605413	0.2978900871	2.1664284111	0.02246747955405686	2.120630261	2.194544083	1.9999932183159723	1.9999660920397673	0.2750214730435152	0.2750252032609773	0.2750205404891497	0.0028655632591582676	0.2714824362906179	0.28094486113720507	0.9999966091579862	0.9999830460198836	0.13750285288621505	2.7755575615628914e-17	0.13750285288621508	0.13750285288621508	2.0202032959096134e-06	1.0101016479548066e-05	3.7370766479999995	8.881784197001252e-16	3.7370766480000004	3.7370766480000004
TypeSet	100	Classical	Scheme-examples/OPi/tree/tree_16.scm	false	ParAAM-C-S-set	3	1.69542675586872e-05	5	294911	0	0	32768	1	Int	327676	0	10	55018.697842185815	0.19859339139999999	5.360195925499999	0.1346756713194676	5.091534816	5.627794279	2.999979655016903	2.999898277843897	0.11118480809414007	0.11118782416486177	0.11118405407645963	0.0027973953658538726	0.10586388639384733	0.11701386629583246	0.9999932183389678	0.9999660926146324	0.03704965157247963	0.0	0.037049651572479636	0.037049651572479636	4.040406591819227e-06	2.0202032959096133e-05	15.484807602299998	1.7763568394002505e-15	15.484807602299997	15.484807602299997
TypeSet	100	Classical	Scheme-examples/OPi/tree/tree_16.scm	false	ParAAM-C-S-set	4	1.69542675586872e-05	5	294911	0	0	32768	1	Int	327676	0	10	33733.208557404	0.14894504355	8.742453286000002	0.3933191493848091	8.152887862	9.541623958	3.999959310171779	3.9997965591368683	0.06821660147654737	0.06821937719834328	0.0682159075460984	0.0030045925306447603	0.06244012306736097	0.07307596820715354	0.9999898275429447	0.9999491397842171	0.017036984777318482	3.469446951953614e-18	0.017036984777318485	0.017036984777318485	6.06060988772884e-06	3.03030494386442e-05	34.374032969800005	0.0	34.374032969800005	34.374032969800005
TypeSet	100	Classical	Scheme-examples/OPi/tree/tree_16.scm	false	ParAAM-C-S-set	5	1.69542675586872e-05	5	294911	0	0	32768	1	Int	327676	0	10	29961.921995183755	0.11915603484	9.8428598822	0.5180490146507167	8.838271644	10.791809659	4.999932183849584	4.999660937643042	0.06061424141391542	0.0606175299135259	0.06061341928901281	0.003220142778005744	0.05520669776668454	0.06740912682905087	0.9999864367699167	0.9999321875286084	0.012105834713291387	1.734723475976807e-18	0.01210583471329139	0.01210583471329139	8.080813183638453e-06	4.0404065918192266e-05	48.618519236800005	0.0	48.618519236800005	48.618519236800005
TypeSet	100	Classical	Scheme-examples/OPi/tree/tree_16.scm	false	ParAAM-C-S-set	6	1.69542675586872e-05	5	294911	0	0	32768	1	Int	327676	0	10	29150.110492473203	0.09929669569999999	10.116977089200002	0.3324718168261712	9.587529954	10.761891483	5.999898276119302	5.999491415086663	0.05892170924176953	0.05892570507171716	0.05892071028428262	0.0019154124630637551	0.055360172990140524	0.06214115387993498	0.9999830460198836	0.9999152358477772	0.00981485821550396	1.734723475976807e-18	0.009814858215503961	0.009814858215503961	1.0101016479548066e-05	5.050508239774033e-05	60.10608236100002	7.105427357601002e-15	60.10608236100001	60.10608236100001
TypeSet	100	Classical	Scheme-examples/OPi/tree/tree_16.scm	false	ParAAM-C-S-set	7	1.69542675586872e-05	5	294911	0	0	32768	1	Int	327676	0	10	28618.027253509732	0.08511145345714285	10.305077893299998	0.36484262618505214	9.572190811	10.922981098	6.999857587049916	6.999287993191858	0.05785182497377107	0.05785653288752094	0.057850647995333605	0.0020653724121135995	0.05454373388131995	0.062240733178380844	0.9999796552928452	0.9998982847416941	0.008259176139995926	1.734723475976807e-18	0.008259176139995928	0.008259176139995928	1.212121977545768e-05	6.06060988772884e-05	71.5397650789	1.4210854715202004e-14	71.53976507889999	71.53976507889999
TypeSet	100	Classical	Scheme-examples/OPi/tree/tree_16.scm	false	ParAAM-C-S-set	8	1.69542675586872e-05	5	294911	0	0	32768	1	Int	327676	0	10	28600.923659922086	0.074472521775	10.3112404168	0.2384802415376702	9.802913706	10.712582345	7.999810116710408	7.99905067368264	0.057796593570773255	0.05780208087443048	0.057795221744858946	0.0013488319537074188	0.055614991326351386	0.06077582564409855	0.999976264588801	0.99988133421033	0.007222460030479228	8.673617379884035e-19	0.007222460030479229	0.007222460030479229	1.4141423071367292e-05	7.070711535683647e-05	81.89414316019999	1.4210854715202004e-14	81.8941431602	81.8941431602
TypeSet	100	Classical	Scheme-examples/OPi/tree/tree_16.scm	false	ParAAM-C-S-set	9	1.69542675586872e-05	5	294911	0	0	32768	1	Int	327676	0	10	28507.71430520538	0.06619779713333333	10.3449542409	0.325308003763158	9.704435954	10.991953019	8.999755865169758	8.9987794582829	0.0576214366262314	0.05762768880385319	0.05761987358182596	0.001815794692753648	0.054201484774377376	0.06139256078602175	0.9999728739077509	0.9998643842536556	0.006399042044247281	8.673617379884035e-19	0.006399042044247283	0.006399042044247283	1.6161626367276907e-05	8.080813183638453e-05	92.50880799389998	1.4210854715202004e-14	92.50880799389999	92.50880799389999
TypeSet	100	Classical	Scheme-examples/OPi/tree/tree_16.scm	false	ParAAM-C-S-set	10	1.69542675586872e-05	5	294911	0	0	32768	1	Int	327676	0	10	28584.974586277935	0.05957801742	10.3169936048	0.31216888744841215	9.967006907	10.972668757	9.999694832496948	9.99847434871642	0.05777526195489642	0.05778231440786799	0.05777349884165353	0.0017091009216496085	0.05429674287943148	0.05977523440678799	0.9999694832496948	0.9998474348716418	0.00577474598726912	8.673617379884035e-19	0.005774745987269122	0.005774745987269122	1.8181829663186518e-05	9.09091483159326e-05	102.57415587380001	0.0	102.57415587380001	102.57415587380001
TypeSet	100	Classical	Scheme-examples/OPi/tree/tree_16.scm	false	ParAAM-C-S-set	12	1.69542675586872e-05	5	294911	0	0	32768	1	Int	327676	0	10	27944.97207118774	0.049648347849999996	10.553275889800002	0.21783427248676362	10.254953549	11.023675971	11.99955242403076	11.997762453977746	0.05646856617229063	0.05647699083003601	0.05646646000785428	0.00115254629950684	0.05404550857330347	0.05809681841592513	0.9999627020025634	0.9998135378314789	0.004704543723526296	8.673617379884035e-19	0.004704543723526297	0.004704543723526297	2.2222236255005744e-05	0.00011111118127502873	126.04353050340004	1.4210854715202004e-14	126.04353050340002	126.04353050340002
TypeSet	100	Classical	Scheme-examples/OPi/tree/tree_16.scm	false	ParAAM-C-S-set	14	1.69542675586872e-05	5	294911	0	0	32768	1	Int	327676	0	10	27441.00235266048	0.04255572672857143	10.7470928434	0.3524316734896797	10.26556026	11.533356033	13.999382891863666	13.996915003254502	0.055468164843017954	0.05547794480182713	0.05546571985331566	0.0017748628378795358	0.05165713886706648	0.058036790892112486	0.9999559208474047	0.9997796430896073	0.003959743099707724	8.673617379884035e-19	0.003959743099707725	0.003959743099707725	2.6262642846824973e-05	0.00013131321423412486	149.86351963340005	2.842170943040401e-14	149.86351963340002	149.86351963340002
TypeSet	100	Classical	Scheme-examples/OPi/tree/tree_16.scm	false	ParAAM-C-S-set	16	1.69542675586872e-05	5	294911	0	0	32768	1	Int	327676	0	10	27579.778444359206	0.0372362608875	10.6930155583	0.2753729991367609	10.310849509	11.383952401	15.999186236547473	15.995932010332695	0.055737714485459174	0.05574905381420309	0.055734879653273194	0.0013949957227329414	0.052335090064823606	0.05778187080317321	0.9999491397842171	0.9997457506457934	0.0034822974571094597	0.0	0.003482297457109461	0.003482297457109461	3.03030494386442e-05	0.00015151524719322099	170.49246875859998	2.842170943040401e-14	170.4924687586	170.4924687586
TypeSet	100	Classical	Scheme-examples/OPi/tree/tree_16.scm	false	ParAAM-C-S-set	24	1.69542675586872e-05	5	294911	0	0	32768	1	Int	327676	0	10	32314.09668510644	0.024824173924999998	9.1263884884	0.2204812164575233	8.645624376	9.453855793	23.99812839482732	23.990644892314577	0.06530537327456881	0.06532574425363959	0.06530028052980112	0.0016013627542658811	0.06301980771074787	0.06891117960824995	0.9999220164511382	0.9996102038464406	0.0027200435261497463	0.0	0.002720043526149747	0.002720043526149747	4.6464675805921106e-05	0.00023232337902960554	218.43754354740003	2.842170943040401e-14	218.4375435474	218.4375435474
TypeSet	100	Classical	Scheme-examples/OPi/tree/tree_16.scm	false	ParAAM-C-S-set	32	1.69542675586872e-05	5	294911	0	0	32768	1	Int	327676	0	10	50357.34392991026	0.01861813044375	5.856365268399999	0.19702924002756345	5.565081151	6.232128011	31.99663662686223	31.983190201514237	0.10180006655399888	0.10184286550515774	0.10178936681620916	0.003400700396159229	0.0955981926475868	0.10705687087652677	0.9998948945894447	0.9994746937973199	0.0031791272556393325	4.336808689942018e-19	0.0031791272556393334	0.0031791272556393334	6.262630217319801e-05	0.00031313151086599005	186.80790841459998	0.0	186.80790841459998	186.80790841459998
TypeSet	100	Classical	Scheme-examples/OPi/tree/tree_16.scm	false	ParAAM-C-S-part	2	1.69542675586872e-05	5	294911	0	0	32768	1	Int	327676	0	10	364840.87763657974	0.2978900871	0.8083277342999999	0.07011040304844926	0.732858017	0.919947181	1.9999932183159723	1.9999660920397673	0.7397418666759096	0.7397519000671134	0.7397393583281087	0.06104291681993553	0.6476243272492836	0.8129544337099064	0.9999966091579862	0.9999830460198836	0.36852637174198716	0.0	0.36852637174198716	0.36852637174198716	2.0202032959096134e-06	1.0101016479548066e-05	1.0208752944	0.0	1.0208752944	1.0208752944
TypeSet	100	Classical	Scheme-examples/OPi/tree/tree_16.scm	false	ParAAM-C-S-part	3	1.69542675586872e-05	5	294911	0	0	32768	1	Int	327676	0	10	484814.67198391154	0.19859339139999999	0.6082963594999999	0.02047713211547951	0.577309314	0.648168278	2.999979655016903	2.999898277843897	0.9799796217638261	0.9800062053222792	0.9799729758742127	0.03245140870302676	0.9191751500680506	1.031994737919645	0.9999932183389678	0.9999660926146324	0.32647473274907873	5.551115123125783e-17	0.32647473274907873	0.32647473274907873	4.040406591819227e-06	2.0202032959096133e-05	1.2291089043	2.220446049250313e-16	1.2291089042999999	1.2291089042999999
TypeSet	100	Classical	Scheme-examples/OPi/tree/tree_16.scm	false	ParAAM-C-S-part	4	1.69542675586872e-05	5	294911	0	0	32768	1	Int	327676	0	10	614118.0074362336	0.14894504355	0.4802187795	0.021746139488344217	0.443115744	0.52017151	3.999959310171779	3.9997965591368683	1.2419274413722685	1.2419779751865212	1.2419148079187055	0.056244274258344155	1.1453533358641652	1.3445249514763349	0.9999898275429447	0.9999491397842171	0.31016080567503085	0.0	0.31016080567503085	0.31016080567503085	6.06060988772884e-06	3.03030494386442e-05	1.3250949438000001	0.0	1.3250949438000001	1.3250949438000001
TypeSet	100	Classical	Scheme-examples/OPi/tree/tree_16.scm	false	ParAAM-C-S-part	5	1.69542675586872e-05	5	294911	0	0	32768	1	Int	327676	0	10	678479.5674651221	0.11915603484	0.43466452659999993	0.010427804093967628	0.419152103	0.450666236	4.999932183849584	4.999660937643042	1.371079001830066	1.3711533868699226	1.371060405570102	0.03280636207169493	1.32199869128869	1.421393737346941	0.9999864367699167	0.9999321875286084	0.2741333316800737	5.551115123125783e-17	0.2741333316800737	0.2741333316800737	8.080813183638453e-06	4.0404065918192266e-05	1.5775424587999998	0.0	1.5775424587999998	1.5775424587999998
TypeSet	100	Classical	Scheme-examples/OPi/tree/tree_16.scm	false	ParAAM-C-S-part	6	1.69542675586872e-05	5	294911	0	0	32768	1	Int	327676	0	10	680630.1280099582	0.09929669569999999	0.4332911340000001	0.02336251777770844	0.408474016	0.498830908	5.999898276119302	5.999491415086663	1.3769044626468179	1.3769978386903454	1.376881118635936	0.06729175141311876	1.1943529653940368	1.4585509747577186	0.9999830460198836	0.9999152358477772	0.22916853798351655	0.0	0.22916853798351658	0.22916853798351658	1.0101016479548066e-05	5.050508239774033e-05	2.0039666298000007	0.0	2.0039666298000007	2.0039666298000007
TypeSet	100	Classical	Scheme-examples/OPi/tree/tree_16.scm	false	ParAAM-C-S-part	7	1.69542675586872e-05	5	294911	0	0	32768	1	Int	327676	0	10	679089.6778632392	0.08511145345714285	0.43427401360000006	0.016013574509314482	0.412181724	0.466490724	6.999857587049916	6.999287993191858	1.372846864642531	1.3729585853122497	1.3728189344751012	0.04957772591051415	1.2771533141996623	1.4454308367151183	0.9999796552928452	0.9998982847416941	0.19598560077678762	2.7755575615628914e-17	0.19598560077678764	0.19598560077678764	1.212121977545768e-05	6.06060988772884e-05	2.444137921	4.440892098500626e-16	2.4441379210000003	2.4441379210000003
TypeSet	100	Classical	Scheme-examples/OPi/tree/tree_16.scm	false	ParAAM-C-S-part	8	1.69542675586872e-05	5	294911	0	0	32768	1	Int	327676	0	10	652500.0803060683	0.074472521775	0.4519708256	0.033882158439238606	0.419666351	0.535941472	7.999810116710408	7.99905067368264	1.3217076566312334	1.3218331417300937	1.3216762853565183	0.09091265543542298	1.1116515614600544	1.4196519992140135	0.999976264588801	0.99988133421033	0.1647728516019508	2.7755575615628914e-17	0.16477285160195082	0.16477285160195082	1.4141423071367292e-05	7.070711535683647e-05	3.0199864306	4.440892098500626e-16	3.0199864306000004	3.0199864306000004
TypeSet	100	Classical	Scheme-examples/OPi/tree/tree_16.scm	false	ParAAM-C-S-part	9	1.69542675586872e-05	5	294911	0	0	32768	1	Int	327676	0	10	605192.9045975658	0.06619779713333333	0.48730082220000004	0.0296594072864584	0.462161065	0.569561628	8.999755865169758	8.9987794582829	1.2247512107891945	1.2248841016464986	1.2247179880748684	0.06692583261656755	1.0460328521288655	1.2891180571431304	0.9999728739077509	0.9998643842536556	0.13584585561434606	0.0	0.13584585561434606	0.13584585561434606	1.6161626367276907e-05	8.080813183638453e-05	3.7899272256000005	0.0	3.7899272256000005	3.7899272256000005
TypeSet	100	Classical	Scheme-examples/OPi/tree/tree_16.scm	false	ParAAM-C-S-part	10	1.69542675586872e-05	5	294911	0	0	32768	1	Int	327676	0	10	537571.6972814737	0.05957801742	0.5485984502	0.025809676602044116	0.51859723	0.606137808	9.999694832496948	9.99847434871642	1.0871951767840986	1.08732788743907	1.0871619991203556	0.04836603008992614	0.9829120809438108	1.148830228422161	0.9999694832496948	0.9998474348716418	0.10860041146357578	0.0	0.1086004114635758	0.1086004114635758	1.8181829663186518e-05	9.09091483159326e-05	4.8902043278	0.0	4.8902043278	4.8902043278
TypeSet	100	Classical	Scheme-examples/OPi/tree/tree_16.scm	false	ParAAM-C-S-part	12	1.69542675586872e-05	5	294911	0	0	32768	1	Int	327676	0	10	529425.030704896	0.049648347849999996	0.5570401528000001	0.029616102313687668	0.532071158	0.619321944	11.99955242403076	11.997762453977746	1.0710322482081285	1.0711920376403214	1.0709923008500803	0.05323767914538016	0.9619878319699907	1.1197377742471053	0.9999627020025634	0.9998135378314789	0.0891288493305899	1.3877787807814457e-17	0.08912884933058991	0.08912884933058991	2.2222236255005744e-05	0.00011111118127502873	6.088701659400002	0.0	6.088701659400002	6.088701659400002
TypeSet	100	Classical	Scheme-examples/OPi/tree/tree_16.scm	false	ParAAM-C-S-part	14	1.69542675586872e-05	5	294911	0	0	32768	1	Int	327676	0	10	528487.826339163	0.04255572672857143	0.558027991	0.030891606066271355	0.528840642	0.631514233	13.999382891863666	13.996915003254502	1.0692583857341074	1.0694469137483014	1.069211253730559	0.055030392855774886	0.9434152756458934	1.1265778892235743	0.9999559208474047	0.9997796430896073	0.07626091775846316	1.3877787807814457e-17	0.07626091775846318	0.07626091775846318	2.6262642846824973e-05	0.00013131321423412486	7.2166116998	8.881784197001252e-16	7.2166116998000005	7.2166116998000005
TypeSet	100	Classical	Scheme-examples/OPi/tree/tree_16.scm	false	ParAAM-C-S-part	16	1.69542675586872e-05	5	294911	0	0	32768	1	Int	327676	0	10	521969.4662674711	0.0372362608875	0.5649966503	0.029397205062770843	0.523049307	0.617425002	15.999186236547473	15.995932010332695	1.0559533397377492	1.0561681637966123	1.0558996337230335	0.054256244252806604	0.9649433895130797	1.1390516462341858	0.9999491397842171	0.9997457506457934	0.06590527725735791	1.3877787807814457e-17	0.06590527725735792	0.06590527725735792	3.03030494386442e-05	0.00015151524719322099	8.444166230600002	1.7763568394002505e-15	8.4441662306	8.4441662306
TypeSet	100	Classical	Scheme-examples/OPi/tree/tree_16.scm	false	ParAAM-C-S-part	24	1.69542675586872e-05	5	294911	0	0	32768	1	Int	327676	0	10	489318.95196819305	0.024824173924999998	0.6026968684	0.040077149499278375	0.556925321	0.673631316	23.99812839482732	23.990644892314577	0.9907361218238575	0.991045166298919	0.9906588607050922	0.06353538592277812	0.8844306374260069	1.0697667204827987	0.9999220164511382	0.9996102038464406	0.04118848997988255	0.0	0.04118848997988256	0.04118848997988256	4.6464675805921106e-05	0.00023232337902960554	13.868944667400001	0.0	13.868944667400001	13.868944667400001
TypeSet	100	Classical	Scheme-examples/OPi/tree/tree_16.scm	false	ParAAM-C-S-part	32	1.69542675586872e-05	5	294911	0	0	32768	1	Int	327676	0	10	533906.0323384407	0.01861813044375	0.5523649895999999	0.01870365112266707	0.528551872	0.594445906	31.99663662686223	31.983190201514237	1.0793220286897993	1.0797757990295866	1.0792085861048526	0.03581780423571654	1.0022445578084274	1.127193385855608	0.9998948945894447	0.9994746937973199	0.033706210194879446	0.0	0.03370621019487945	0.03370621019487945	6.262630217319801e-05	0.00031313151086599005	17.079899492999996	0.0	17.079899492999996	17.079899492999996
TypeSet	100	Classical	Scheme-examples/OPi/tree/tree_16.scm	false	ParAAM-C-state	1	1.69542675586872e-05	5	294911	0	0	32768	1	Int	327676	0	10	504176.56373735715	0.5957801742	0.5849359554	0.030600768521895708	0.532721194	0.631570831	1.0	1.0	1.019958509907566	1.019958509907566	1.019958509907566	0.05484869671935134	0.9433307318146236	1.1183714500384605	1.0	1.0	1.0185391557825922	2.220446049250313e-16	1.0185391557825922	1.0185391557825922	0.0	0.0	-0.010844218799999972	0.0	-0.010844218799999972	-0.010844218799999972
TypeSet	100	Classical	Scheme-examples/OPi/tree/tree_16.scm	false	ParAAM-C-state	2	1.69542675586872e-05	5	294911	0	0	32768	1	Int	327676	0	10	450521.35724036803	0.2978900871	0.6545993775	0.022948481164821403	0.607716897	0.695217977	1.9999932183159723	1.9999660920397673	0.9107129095124731	0.9107252618468578	0.9107098214288769	0.0324530297814062	0.8569688844510417	0.9803580863738925	0.9999966091579862	0.9999830460198836	0.4550723653873318	1.1102230246251565e-16	0.45507236538733187	0.45507236538733187	2.0202032959096134e-06	1.0101016479548066e-05	0.7134185808	0.0	0.7134185808	0.7134185808
TypeSet	100	Classical	Scheme-examples/OPi/tree/tree_16.scm	false	ParAAM-C-state	3	1.69542675586872e-05	5	294911	0	0	32768	1	Int	327676	0	10	283979.1558862408	0.19859339139999999	1.0384952342	0.025825301763709858	1.008327137	1.100065405	2.999979655016903	2.999898277843897	0.5738733681186361	0.573888935377268	0.573869476303978	0.013847981168741004	0.541586137962406	0.5908600020153975	0.9999932183389678	0.9999660926146324	0.19123187556367116	2.7755575615628914e-17	0.1912318755636712	0.1912318755636712	4.040406591819227e-06	2.0202032959096133e-05	2.5197055284	4.440892098500626e-16	2.5197055284000003	2.5197055284000003
TypeSet	100	Classical	Scheme-examples/OPi/tree/tree_16.scm	false	ParAAM-C-state	4	1.69542675586872e-05	5	294911	0	0	32768	1	Int	327676	0	10	263241.8416562519	0.14894504355	1.1203044248	0.027224078974212532	1.074637782	1.15671946	3.999959310171779	3.9997965591368683	0.531966046264707	0.531987691871749	0.5319606348629465	0.013121528157998956	0.5150602153784116	0.5544009192485287	0.9999898275429447	0.9999491397842171	0.13295050903381914	2.7755575615628914e-17	0.13295050903381916	0.13295050903381916	6.06060988772884e-06	3.03030494386442e-05	3.8854375250000004	0.0	3.8854375250000004	3.8854375250000004
TypeSet	100	Classical	Scheme-examples/OPi/tree/tree_16.scm	false	ParAAM-C-state	5	1.69542675586872e-05	5	294911	0	0	32768	1	Int	327676	0	10	267372.38618166064	0.11915603484	1.102997225	0.028048088723301754	1.057955918	1.141006468	4.999932183849584	4.999660937643042	0.5403287229384877	0.5403580373496468	0.5403213943356978	0.013760472623187843	0.5221531962428805	0.5631427208482235	0.9999864367699167	0.9999321875286084	0.10802931515988173	1.3877787807814457e-17	0.10802931515988175	0.10802931515988175	8.080813183638453e-06	4.0404065918192266e-05	4.9192059507999994	8.881784197001252e-16	4.9192059508	4.9192059508
TypeSet	100	Classical	Scheme-examples/OPi/tree/tree_16.scm	false	ParAAM-C-state	6	1.69542675586872e-05	5	294911	0	0	32768	1	Int	327676	0	10	288177.6023697748	0.09929669569999999	1.023365444	0.014965451441890558	1.002248881	1.048771397	5.999898276119302	5.999491415086663	0.5822493708261629	0.582288856603186	0.5822394993819072	0.00849522806884557	0.5680743924788787	0.5944433418629079	0.9999830460198836	0.9999152358477772	0.0970295570191248	1.3877787807814457e-17	0.09702955701912482	0.09702955701912482	1.0101016479548066e-05	5.050508239774033e-05	5.544412489800001	8.881784197001252e-16	5.5444124898	5.5444124898
TypeSet	100	Classical	Scheme-examples/OPi/tree/tree_16.scm	false	ParAAM-C-state	7	1.69542675586872e-05	5	294911	0	0	32768	1	Int	327676	0	10	294791.6907866964	0.08511145345714285	1.0004047238	0.020073872811460967	0.967072809	1.034172065	6.999857587049916	6.999287993191858	0.5956715801684536	0.5957200552238897	0.5956594614045945	0.012016754279709864	0.5760938574568827	0.616065479926031	0.9999796552928452	0.9998982847416941	0.08507702076200736	1.3877787807814457e-17	0.08507702076200738	0.08507702076200738	1.212121977545768e-05	6.06060988772884e-05	6.407052892400001	8.881784197001252e-16	6.4070528924	6.4070528924
TypeSet	100	Classical	Scheme-examples/OPi/tree/tree_16.scm	false	ParAAM-C-state	8	1.69542675586872e-05	5	294911	0	0	32768	1	Int	327676	0	10	298681.3818736375	0.074472521775	0.9873765755000001	0.02537444060492271	0.938042892	1.019318999	7.999810116710408	7.99905067368264	0.6036133029528385	0.6036706109926417	0.6035989759428877	0.01581871616779084	0.5844884425626211	0.6351310577384557	0.999976264588801	0.99988133421033	0.07542463901099503	0.0	0.07542463901099504	0.07542463901099504	1.4141423071367292e-05	7.070711535683647e-05	7.303232429800003	1.7763568394002505e-15	7.303232429800001	7.303232429800001
TypeSet	100	Classical	Scheme-examples/OPi/tree/tree_16.scm	false	ParAAM-C-state	9	1.69542675586872e-05	5	294911	0	0	32768	1	Int	327676	0	10	301506.5664317976	0.06619779713333333	0.9781246342000001	0.029646589423047084	0.909411122	1.017344897	8.999755865169758	8.9987794582829	0.6094072324691032	0.609473355816324	0.6093907016322979	0.01911213497132894	0.5856226103427341	0.655127433332622	0.9999728739077509	0.9998643842536556	0.06767828436043423	1.3877787807814457e-17	0.06767828436043424	0.06767828436043424	1.6161626367276907e-05	8.080813183638453e-05	8.207341533600001	0.0	8.207341533600001	8.207341533600001
TypeSet	100	Classical	Scheme-examples/OPi/tree/tree_16.scm	false	ParAAM-C-state	10	1.69542675586872e-05	5	294911	0	0	32768	1	Int	327676	0	10	306023.4488525404	0.05957801742	0.9636875903000002	0.013227553478425202	0.945337808	0.990523773	9.999694832496948	9.99847434871642	0.6183064666405171	0.6183819414567352	0.6182875979364625	0.008438922711827158	0.6014799345961784	0.6302299232699259	0.9999694832496948	0.9998474348716418	0.061822957999752896	0.0	0.0618229579997529	0.0618229579997529	1.8181829663186518e-05	9.09091483159326e-05	9.041095728800002	0.0	9.041095728800002	9.041095728800002
TypeSet	100	Classical	Scheme-examples/OPi/tree/tree_16.scm	false	ParAAM-C-state	12	1.69542675586872e-05	5	294911	0	0	32768	1	Int	327676	0	10	303205.6793686709	0.049648347849999996	0.9726433905	0.01820008124111257	0.947419299	1.005651807	11.99955242403076	11.997762453977746	0.6126664559271113	0.6127578608547221	0.6126436046952087	0.011345428970121566	0.5924318636460223	0.6288453009442021	0.9999627020025634	0.9998135378314789	0.05104475939992519	0.0	0.0510447593999252	0.0510447593999252	2.2222236255005744e-05	0.00011111118127502873	11.0759405118	0.0	11.0759405118	11.0759405118
TypeSet	100	Classical	Scheme-examples/OPi/tree/tree_16.scm	false	ParAAM-C-state	14	1.69542675586872e-05	5	294911	0	0	32768	1	Int	327676	0	10	308715.3155136908	0.04255572672857143	0.9552846430999999	0.014928789186021058	0.936879183	0.982177803	13.999382891863666	13.996915003254502	0.6237709915260334	0.6238809727129132	0.6237434962293134	0.00967860215723547	0.6065909577473927	0.6359199617310741	0.9999559208474047	0.9997796430896073	0.044547692707038164	0.0	0.04454769270703817	0.04454769270703817	2.6262642846824973e-05	0.00013131321423412486	12.778204829200002	1.7763568394002505e-15	12.7782048292	12.7782048292
TypeSet	100	Classical	Scheme-examples/OPi/tree/tree_16.scm	false	ParAAM-C-state	16	1.69542675586872e-05	5	294911	0	0	32768	1	Int	327676	0	10	308027.9882620843	0.0372362608875	0.9574162453999999	0.02398350627274773	0.936714912	1.017655619	15.999186236547473	15.995932010332695	0.6225015872422593	0.6226282295024688	0.622469926677207	0.015063413591005001	0.5854438014948945	0.6360314825435383	0.9999491397842171	0.9997457506457934	0.03889244731996689	6.938893903907228e-18	0.0388924473199669	0.0388924473199669	3.03030494386442e-05	0.00015151524719322099	14.722879752199997	1.7763568394002505e-15	14.722879752199999	14.722879752199999
TypeSet	100	Classical	Scheme-examples/OPi/tree/tree_16.scm	false	ParAAM-C-state	24	1.69542675586872e-05	5	294911	0	0	32768	1	Int	327676	0	10	324680.81867730455	0.024824173924999998	0.90831051	0.0379384131328365	0.822794698	0.959627664	23.99812839482732	23.990644892314577	0.6565604888847602	0.6567652925526227	0.6565092879677945	0.028595770653528904	0.620845142913679	0.7240933560318104	0.9999220164511382	0.9996102038464406	0.027330052500438417	3.469446951953614e-18	0.027330052500438424	0.027330052500438424	4.6464675805921106e-05	0.00023232337902960554	21.203672065799996	3.552713678800501e-15	21.2036720658	21.2036720658
TypeSet	100	Classical	Scheme-examples/OPi/tree/tree_16.scm	false	ParAAM-C-state	32	1.69542675586872e-05	5	294911	0	0	32768	1	Int	327676	0	10	373968.32171943795	0.01861813044375	0.7885988809000002	0.03142817776542192	0.748164388	0.84900495	31.99663662686223	31.983190201514237	0.7561653378391919	0.756483246112317	0.7560858607709107	0.029674970959213832	0.7017393410957145	0.7963225512412387	0.9998948945894447	0.9994746937973199	0.02360912612823109	0.0	0.023609126128231097	0.023609126128231097	6.262630217319801e-05	0.00031313151086599005	24.639384014600008	3.552713678800501e-15	24.639384014600004	24.639384014600004
TypeSet	100	Classical	Scheme-examples/OPi/tree/tree_16.scm	false	ParAAM-C-set	1	1.69542675586872e-05	5	294911	0	0	32768	1	Int	327676	0	10	465770.63016618014	0.5957801742	0.6331678747	0.035042164895239716	0.596201642	0.716499509	1.0	1.0	0.9423419531222395	0.9423419531222395	0.9423419531222395	0.049497008126533765	0.8315151185958453	0.9992930784313404	1.0	1.0	0.9409513621996146	0.0	0.9409513621996146	0.9409513621996146	0.0	0.0	0.037387700500000065	0.0	0.037387700500000065	0.037387700500000065
TypeSet	100	Classical	Scheme-examples/OPi/tree/tree_16.scm	false	ParAAM-C-set	2	1.69542675586872e-05	5	294911	0	0	32768	1	Int	327676	0	10	469669.2427437474	0.2978900871	0.6279120988999999	0.057746593671834164	0.493638839	0.704540879	1.9999932183159723	1.9999660920397673	0.9531605769433591	0.9531735050110803	0.9531573449264289	0.0988224513492042	0.8456289648453458	1.2069151110696943	0.9999966091579862	0.9999830460198836	0.4744136760891454	0.0	0.4744136760891454	0.4744136760891454	2.0202032959096134e-06	1.0101016479548066e-05	0.6600440235999997	1.1102230246251565e-16	0.6600440235999998	0.6600440235999998
TypeSet	100	Classical	Scheme-examples/OPi/tree/tree_16.scm	false	ParAAM-C-set	3	1.69542675586872e-05	5	294911	0	0	32768	1	Int	327676	0	10	384650.6127403029	0.19859339139999999	0.7666983757000001	0.023025267715299214	0.73614514	0.80155543	2.999979655016903	2.999898277843897	0.7774274553251533	0.77744854432307	0.7774221830756741	0.023275822952290158	0.7432800676055553	0.809324332698848	0.9999932183389678	0.9999660926146324	0.2590241452105374	5.551115123125783e-17	0.2590241452105374	0.2590241452105374	4.040406591819227e-06	2.0202032959096133e-05	1.7043149529000003	2.220446049250313e-16	1.7043149529000006	1.7043149529000006
TypeSet	100	Classical	Scheme-examples/OPi/tree/tree_16.scm	false	ParAAM-C-set	4	1.69542675586872e-05	5	294911	0	0	32768	1	Int	327676	0	10	306049.12917274184	0.14894504355	0.9636067280999999	0.020774758938915446	0.926438885	0.995446187	3.999959310171779	3.9997965591368683	0.618432165789944	0.6184573296885364	0.6184258748152959	0.013434639417801772	0.5985056570416096	0.6430863210151201	0.9999898275429447	0.9999491397842171	0.15457036486626	0.0	0.15457036486626	0.15457036486626	6.06060988772884e-06	3.03030494386442e-05	3.2586467381999995	0.0	3.2586467381999995	3.2586467381999995
TypeSet	100	Classical	Scheme-examples/OPi/tree/tree_16.scm	false	ParAAM-C-set	5	1.69542675586872e-05	5	294911	0	0	32768	1	Int	327676	0	10	288504.1421808252	0.11915603484	1.0222071606	0.011077250539677218	0.996031187	1.034724552	4.999932183849584	4.999660937643042	0.5828794510115568	0.5829110739239763	0.582871545283452	0.0064010692589424175	0.5757862544659131	0.5981541361114027	0.9999864367699167	0.9999321875286084	0.11656740378345572	0.0	0.11656740378345573	0.11656740378345573	8.080813183638453e-06	4.0404065918192266e-05	4.515255628799999	8.881784197001252e-16	4.5152556288	4.5152556288
TypeSet	100	Classical	Scheme-examples/OPi/tree/tree_16.scm	false	ParAAM-C-set	6	1.69542675586872e-05	5	294911	0	0	32768	1	Int	327676	0	10	295296.04974853015	0.09929669569999999	0.9986960551999999	0.01407381586084247	0.976266032	1.023180159	5.999898276119302	5.999491415086663	0.5966274130108655	0.5966678738480539	0.5966172978015685	0.00840989280988331	0.5822827670762133	0.6102641643481865	0.9999830460198836	0.9999152358477772	0.09942634216184495	0.0	0.09942634216184497	0.09942634216184497	1.0101016479548066e-05	5.050508239774033e-05	5.396396156999999	8.881784197001252e-16	5.396396157	5.396396157
TypeSet	100	Classical	Scheme-examples/OPi/tree/tree_16.scm	false	ParAAM-C-set	7	1.69542675586872e-05	5	294911	0	0	32768	1	Int	327676	0	10	305489.79935789504	0.08511145345714285	0.9653710226000001	0.011526462376756195	0.948628732	0.990678531	6.999857587049916	6.999287993191858	0.6172078333994424	0.6172580610499393	0.6171952764868182	0.007316077978955994	0.6013859749222726	0.6280435686824632	0.9999796552928452	0.9998982847416941	0.08816449993279799	1.3877787807814457e-17	0.088164499932798	0.088164499932798	1.212121977545768e-05	6.06060988772884e-05	6.161816984	8.881784197001252e-16	6.1618169840000006	6.1618169840000006
TypeSet	100	Classical	Scheme-examples/OPi/tree/tree_16.scm	false	ParAAM-C-set	8	1.69542675586872e-05	5	294911	0	0	32768	1	Int	327676	0	10	329892.23530306405	0.074472521775	0.8939616288	0.03657878943887832	0.852020928	0.945681317	7.999810116710408	7.99905067368264	0.6670212802823237	0.6670846083797877	0.6670054482579576	0.027138437700821312	0.6300009987402553	0.6992553288550208	0.999976264588801	0.99988133421033	0.08330617263177995	0.0	0.08330617263177996	0.08330617263177996	1.4141423071367292e-05	7.070711535683647e-05	6.555912856200001	8.881784197001252e-16	6.5559128562	6.5559128562
TypeSet	100	Classical	Scheme-examples/OPi/tree/tree_16.scm	false	ParAAM-C-set	9	1.69542675586872e-05	5	294911	0	0	32768	1	Int	327676	0	10	343481.95814196946	0.06619779713333333	0.8585924035000001	0.03560143501344185	0.813503975	0.905594136	8.999755865169758	8.9987794582829	0.6945200518651173	0.6945954103251002	0.6945012122501216	0.028869929919616476	0.6578887279808975	0.7323629539732733	0.9999728739077509	0.9998643842536556	0.07710037599154382	0.0	0.07710037599154383	0.07710037599154383	1.6161626367276907e-05	8.080813183638453e-05	7.131551457300001	0.0	7.131551457300001	7.131551457300001
TypeSet	100	Classical	Scheme-examples/OPi/tree/tree_16.scm	false	ParAAM-C-set	10	1.69542675586872e-05	5	294911	0	0	32768	1	Int	327676	0	10	349497.96229033306	0.05957801742	0.8438132172999999	0.04340663564197648	0.792563986	0.895943428	9.999694832496948	9.99847434871642	0.7070140725602247	0.7071003756478829	0.7069924967883101	0.03639598592126258	0.6649752156003313	0.7517123976410404	0.9999694832496948	0.9998474348716418	0.07060569353326245	1.3877787807814457e-17	0.07060569353326246	0.07060569353326246	1.8181829663186518e-05	9.09091483159326e-05	7.8423519988	0.0	7.8423519988	7.8423519988
TypeSet	100	Classical	Scheme-examples/OPi/tree/tree_16.scm	false	ParAAM-C-set	12	1.69542675586872e-05	5	294911	0	0	32768	1	Int	327676	0	10	359062.1728510802	0.049648347849999996	0.8213368667	0.04009858344547563	0.773309292	0.888476408	11.99955242403076	11.997762453977746	0.726267552610923	0.7263759059121853	0.7262404642856073	0.03527418490624932	0.6705638651015254	0.770429348726874	0.9999627020025634	0.9998135378314789	0.06044821541918495	0.0	0.06044821541918496	0.06044821541918496	2.2222236255005744e-05	0.00011111118127502873	9.2602622262	0.0	9.2602622262	9.2602622262
TypeSet	100	Classical	Scheme-examples/OPi/tree/tree_16.scm	false	ParAAM-C-set	14	1.69542675586872e-05	5	294911	0	0	32768	1	Int	327676	0	10	356699.2828457087	0.04255572672857143	0.8267776645000001	0.03503151925332247	0.777215118	0.882875018	13.999382891863666	13.996915003254502	0.7212868903134407	0.721414065173053	0.7212550965985376	0.030777746715736368	0.6748182495294027	0.7665576240116317	0.9999559208474047	0.9997796430896073	0.05147179048953543	6.938893903907228e-18	0.051471790489535436	0.051471790489535436	2.6262642846824973e-05	0.00013131321423412486	10.9791071288	1.7763568394002505e-15	10.979107128800003	10.979107128800003
TypeSet	100	Classical	Scheme-examples/OPi/tree/tree_16.scm	false	ParAAM-C-set	16	1.69542675586872e-05	5	294911	0	0	32768	1	Int	327676	0	10	372544.60882478027	0.0372362608875	0.7916125828	0.04227271770805815	0.743537328	0.862570909	15.999186236547473	15.995932010332695	0.7537096396861954	0.7538629750258439	0.7536713058512833	0.039219254042096564	0.6907028372782741	0.8012780956170097	0.9999491397842171	0.9997457506457934	0.047038490413823665	6.938893903907228e-18	0.04703849041382367	0.04703849041382367	3.03030494386442e-05	0.00015151524719322099	12.0700211506	0.0	12.0700211506	12.0700211506
TypeSet	100	Classical	Scheme-examples/OPi/tree/tree_16.scm	false	ParAAM-C-set	24	1.69542675586872e-05	5	294911	0	0	32768	1	Int	327676	0	10	386458.19435204065	0.024824173924999998	0.7631122960000001	0.04031171306256404	0.708772768	0.83816713	23.99812839482732	23.990644892314577	0.7818513977055568	0.7820952838922592	0.7817904261588812	0.03998311481153351	0.7108130978603276	0.8405799447983305	0.9999220164511382	0.9996102038464406	0.03253017158171959	6.938893903907228e-18	0.0325301715817196	0.0325301715817196	4.6464675805921106e-05	0.00023232337902960554	17.718914929800004	3.552713678800501e-15	17.7189149298	17.7189149298
TypeSet	100	Classical	Scheme-examples/OPi/tree/tree_16.scm	false	ParAAM-C-set	32	1.69542675586872e-05	5	294911	0	0	32768	1	Int	327676	0	10	428809.5506177241	0.01861813044375	0.6877435439	0.006430850291290825	0.677714454	0.696981804	31.99663662686223	31.983190201514237	0.8664114238124996	0.8667756819261381	0.86632035928409	0.008107046675983273	0.8548001838509975	0.879102062356191	0.9998948945894447	0.9994746937973199	0.027071327108607695	6.938893903907228e-18	0.0270713271086077	0.0270713271086077	6.262630217319801e-05	0.00031313151086599005	21.4120132306	0.0	21.4120132306	21.4120132306
TypeSet	100	Classical	Scheme-examples/OPi/tree/tree_16.scm	false	ParAAM-C-part	1	1.69542675586872e-05	5	294911	0	0	32768	1	Int	327676	0	10	429645.7991864317	0.5957801742	0.6864049422999999	0.08620062156726792	0.617589947	0.849044305	1.0	1.0	0.8744182736491233	0.8744182736491233	0.8744182736491233	0.09975610090462401	0.7017068139924688	0.9646856738748047	1.0	1.0	0.8679718595901491	0.0	0.8679718595901491	0.8679718595901491	0.0	0.0	0.09062476809999997	0.0	0.09062476809999997	0.09062476809999997
TypeSet	100	Classical	Scheme-examples/OPi/tree/tree_16.scm	false	ParAAM-C-part	2	1.69542675586872e-05	5	294911	0	0	32768	1	Int	327676	0	10	537782.9362904155	0.2978900871	0.5483829629000001	0.02623747363936836	0.509433122	0.594343569	1.9999932183159723	1.9999660920397673	1.0876637042498436	1.0876784566329851	1.0876600161540584	0.05114564806367156	1.0024171292076351	1.1694963449981566	0.9999966091579862	0.9999830460198836	0.5432154301889234	1.1102230246251565e-16	0.5432154301889234	0.5432154301889234	2.0202032959096134e-06	1.0101016479548066e-05	0.5009857516000001	1.1102230246251565e-16	0.5009857516000003	0.5009857516000003
TypeSet	100	Classical	Scheme-examples/OPi/tree/tree_16.scm	false	ParAAM-C-part	3	1.69542675586872e-05	5	294911	0	0	32768	1	Int	327676	0	10	635440.4601203878	0.19859339139999999	0.4641048509	0.030762067680898297	0.41311956	0.513474908	2.999979655016903	2.999898277843897	1.2866034376084055	1.2866383388419924	1.2865947123000085	0.08784762199658448	1.1602907268060703	1.4421495176844203	0.9999932183389678	0.9999660926146324	0.42790630396317625	5.551115123125783e-17	0.42790630396317625	0.42790630396317625	4.040406591819227e-06	2.0202032959096133e-05	0.7965343784999998	1.1102230246251565e-16	0.7965343784999999	0.7965343784999999
TypeSet	100	Classical	Scheme-examples/OPi/tree/tree_16.scm	false	ParAAM-C-part	4	1.69542675586872e-05	5	294911	0	0	32768	1	Int	327676	0	10	646634.3032488215	0.14894504355	0.45607076290000004	0.027774375084058337	0.388100057	0.487420707	3.999959310171779	3.9997965591368683	1.3089113540371615	1.3089646134153141	1.3088980391926235	0.08709070740713754	1.2223119897120003	1.535120037872089	0.9999898275429447	0.9999491397842171	0.32658318766787137	0.0	0.32658318766787137	0.32658318766787137	6.06060988772884e-06	3.03030494386442e-05	1.2285028774000002	0.0	1.2285028774000002	1.2285028774000002
TypeSet	100	Classical	Scheme-examples/OPi/tree/tree_16.scm	false	ParAAM-C-part	5	1.69542675586872e-05	5	294911	0	0	32768	1	Int	327676	0	10	708713.1516442973	0.11915603484	0.4161218108	0.013814694744838847	0.394852166	0.439185588	4.999932183849584	4.999660937643042	1.4325531138268062	1.4326308340167633	1.4325336837793168	0.04756560705022928	1.3565567506737037	1.5088689527411632	0.9999864367699167	0.9999321875286084	0.2863489289612598	0.0	0.2863489289612598	0.2863489289612598	8.080813183638453e-06	4.0404065918192266e-05	1.4848288798	0.0	1.4848288798	1.4848288798
TypeSet	100	Classical	Scheme-examples/OPi/tree/tree_16.scm	false	ParAAM-C-part	6	1.69542675586872e-05	5	294911	0	0	32768	1	Int	327676	0	10	696759.548655414	0.09929669569999999	0.42326079429999997	0.018799304879777566	0.398192736	0.456142243	5.999898276119302	5.999491415086663	1.4090042408757277	1.4090997937952625	1.408980352645844	0.0623069604001862	1.3061280408532563	1.4962105541774624	0.9999830460198836	0.9999152358477772	0.23459932277502693	2.7755575615628914e-17	0.23459932277502696	0.23459932277502696	1.0101016479548066e-05	5.050508239774033e-05	1.9437845915999996	2.220446049250313e-16	1.9437845915999998	1.9437845915999998
TypeSet	100	Classical	Scheme-examples/OPi/tree/tree_16.scm	false	ParAAM-C-part	7	1.69542675586872e-05	5	294911	0	0	32768	1	Int	327676	0	10	701156.6905446241	0.08511145345714285	0.4206064122	0.01744806327247744	0.3925531	0.451587346	6.999857587049916	6.999287993191858	1.417715800306526	1.4178311723576704	1.4176869572937398	0.05804711838903322	1.319302189215904	1.517705946533093	0.9999796552928452	0.9998982847416941	0.20235415102676085	2.7755575615628914e-17	0.20235415102676088	0.20235415102676088	1.212121977545768e-05	6.06060988772884e-05	2.3484647112000006	4.440892098500626e-16	2.3484647112	2.3484647112
TypeSet	100	Classical	Scheme-examples/OPi/tree/tree_16.scm	false	ParAAM-C-part	8	1.69542675586872e-05	5	294911	0	0	32768	1	Int	327676	0	10	695673.1141163025	0.074472521775	0.42392180180000005	0.012475062031884905	0.403303947	0.44559282	7.999810116710408	7.99905067368264	1.406042755529776	1.4061762475416397	1.40600938252681	0.04135401286983336	1.3370506602866714	1.4772485581451549	0.999976264588801	0.99988133421033	0.1756751397516823	2.7755575615628914e-17	0.17567513975168234	0.17567513975168234	1.4141423071367292e-05	7.070711535683647e-05	2.7955942402000002	4.440892098500626e-16	2.7955942402000007	2.7955942402000007
TypeSet	100	Classical	Scheme-examples/OPi/tree/tree_16.scm	false	ParAAM-C-part	9	1.69542675586872e-05	5	294911	0	0	32768	1	Int	327676	0	10	645974.7202121157	0.06619779713333333	0.45653644140000005	0.020537292032782765	0.438640982	0.508969921	8.999755865169758	8.9987794582829	1.3062989106819638	1.306440649820988	1.3062634758972078	0.05501180761573084	1.1705606748419224	1.3582410186196416	0.9999728739077509	0.9998643842536556	0.14500002876075627	0.0	0.14500002876075627	0.14500002876075627	1.6161626367276907e-05	8.080813183638453e-05	3.5130477984000015	8.881784197001252e-16	3.5130477984000006	3.5130477984000006
TypeSet	100	Classical	Scheme-examples/OPi/tree/tree_16.scm	false	ParAAM-C-part	10	1.69542675586872e-05	5	294911	0	0	32768	1	Int	327676	0	10	637774.9708041715	0.05957801742	0.4624060421	0.014148413424662448	0.446902301	0.498946291	9.999694832496948	9.99847434871642	1.2890612816702827	1.2892186335153257	1.2890219437090218	0.03788294642927703	1.1940767672727324	1.3331329305462671	0.9999694832496948	0.9998474348716418	0.12884350980672443	0.0	0.12884350980672446	0.12884350980672446	1.8181829663186518e-05	9.09091483159326e-05	4.0282802468000005	0.0	4.0282802468000005	4.0282802468000005
TypeSet	100	Classical	Scheme-examples/OPi/tree/tree_16.scm	false	ParAAM-C-part	12	1.69542675586872e-05	5	294911	0	0	32768	1	Int	327676	0	10	622487.7831999579	0.049648347849999996	0.4737619082	0.021229797104248677	0.442795547	0.506248716	11.99955242403076	11.997762453977746	1.2588694099178213	1.2590572231499177	1.258822456609797	0.05693029906875998	1.1768527116619887	1.3454972125092304	0.9999627020025634	0.9998135378314789	0.10479598927366865	1.3877787807814457e-17	0.10479598927366866	0.10479598927366866	2.2222236255005744e-05	0.00011111118127502873	5.089362724200001	0.0	5.089362724200001	5.089362724200001
TypeSet	100	Classical	Scheme-examples/OPi/tree/tree_16.scm	false	ParAAM-C-part	14	1.69542675586872e-05	5	294911	0	0	32768	1	Int	327676	0	10	643668.7967700616	0.04255572672857143	0.45817196900000007	0.0154820877249423	0.421317933	0.474950307	13.999382891863666	13.996915003254502	1.3011636550042223	1.3013930717694235	1.301106300812922	0.04596462264150333	1.254405282866782	1.4140869104662583	0.9999559208474047	0.9997796430896073	0.09288155890778951	1.3877787807814457e-17	0.09288155890778953	0.09288155890778953	2.6262642846824973e-05	0.00013131321423412486	5.818627391800001	8.881784197001252e-16	5.8186273918000015	5.8186273918000015
TypeSet	100	Classical	Scheme-examples/OPi/tree/tree_16.scm	false	ParAAM-C-part	16	1.69542675586872e-05	5	294911	0	0	32768	1	Int	327676	0	10	628670.2586836217	0.0372362608875	0.46910283399999997	0.02850993140214274	0.442917439	0.548256932	15.999186236547473	15.995932010332695	1.272289285759682	1.2725481213901302	1.27222457685207	0.06955481274135737	1.0866806043411776	1.3451269282716138	0.9999491397842171	0.9997457506457934	0.07937760803956259	0.0	0.0793776080395626	0.0793776080395626	3.03030494386442e-05	0.00015151524719322099	6.9098651698	0.0	6.9098651698	6.9098651698
TypeSet	100	Classical	Scheme-examples/OPi/tree/tree_16.scm	false	ParAAM-C-part	24	1.69542675586872e-05	5	294911	0	0	32768	1	Int	327676	0	10	627190.9510575384	0.024824173924999998	0.4702092712	0.03448001093685943	0.439713236	0.566690055	23.99812839482732	23.990644892314577	1.2702751233242469	1.2706713655728374	1.2701760627620993	0.08198952751097727	1.051333385760581	1.3549289068933097	0.9999220164511382	0.9996102038464406	0.052793884437130165	6.938893903907228e-18	0.05279388443713017	0.05279388443713017	4.6464675805921106e-05	0.00023232337902960554	10.6892423346	1.7763568394002505e-15	10.689242334600001	10.689242334600001
TypeSet	100	Classical	Scheme-examples/OPi/tree/tree_16.scm	false	ParAAM-C-part	32	1.69542675586872e-05	5	294911	0	0	32768	1	Int	327676	0	10	650173.9918324018	0.01861813044375	0.45358781449999996	0.015655542901344334	0.42778493	0.475578794	31.99663662686223	31.983190201514237	1.314409804016272	1.314962410344628	1.3142716524341829	0.045853770776001765	1.2527475609015484	1.3927095893723977	0.9998948945894447	0.9994746937973199	0.041046363787954	0.0	0.04104636378795401	0.04104636378795401	6.262630217319801e-05	0.00031313151086599005	13.919029889799997	1.7763568394002505e-15	13.919029889799999	13.919029889799999
