%!PS-Adobe-3.0 EPSF-3.0
%%Creator: graphviz version 2.38.0 (20140413.2041)
%%Title: Scala-Par-AM Scheme-examples/OPi/factorial_iter.scm
%%Pages: 1
%%BoundingBox: 36 36 1139 1366
%%EndComments
save
%%BeginProlog
/DotDict 200 dict def
DotDict begin

/setupLatin1 {
mark
/EncodingVector 256 array def
 EncodingVector 0

ISOLatin1Encoding 0 255 getinterval putinterval
EncodingVector 45 /hyphen put

% Set up ISO Latin 1 character encoding
/starnetISO {
        dup dup findfont dup length dict begin
        { 1 index /FID ne { def }{ pop pop } ifelse
        } forall
        /Encoding EncodingVector def
        currentdict end definefont
} def
/Times-Roman starnetISO def
/Times-Italic starnetISO def
/Times-Bold starnetISO def
/Times-BoldItalic starnetISO def
/Helvetica starnetISO def
/Helvetica-Oblique starnetISO def
/Helvetica-Bold starnetISO def
/Helvetica-BoldOblique starnetISO def
/Courier starnetISO def
/Courier-Oblique starnetISO def
/Courier-Bold starnetISO def
/Courier-BoldOblique starnetISO def
cleartomark
} bind def

%%BeginResource: procset graphviz 0 0
/coord-font-family /Times-Roman def
/default-font-family /Times-Roman def
/coordfont coord-font-family findfont 8 scalefont def

/InvScaleFactor 1.0 def
/set_scale {
       dup 1 exch div /InvScaleFactor exch def
       scale
} bind def

% styles
/solid { [] 0 setdash } bind def
/dashed { [9 InvScaleFactor mul dup ] 0 setdash } bind def
/dotted { [1 InvScaleFactor mul 6 InvScaleFactor mul] 0 setdash } bind def
/invis {/fill {newpath} def /stroke {newpath} def /show {pop newpath} def} bind def
/bold { 2 setlinewidth } bind def
/filled { } bind def
/unfilled { } bind def
/rounded { } bind def
/diagonals { } bind def
/tapered { } bind def

% hooks for setting color 
/nodecolor { sethsbcolor } bind def
/edgecolor { sethsbcolor } bind def
/graphcolor { sethsbcolor } bind def
/nopcolor {pop pop pop} bind def

/beginpage {	% i j npages
	/npages exch def
	/j exch def
	/i exch def
	/str 10 string def
	npages 1 gt {
		gsave
			coordfont setfont
			0 0 moveto
			(\() show i str cvs show (,) show j str cvs show (\)) show
		grestore
	} if
} bind def

/set_font {
	findfont exch
	scalefont setfont
} def

% draw text fitted to its expected width
/alignedtext {			% width text
	/text exch def
	/width exch def
	gsave
		width 0 gt {
			[] 0 setdash
			text stringwidth pop width exch sub text length div 0 text ashow
		} if
	grestore
} def

/boxprim {				% xcorner ycorner xsize ysize
		4 2 roll
		moveto
		2 copy
		exch 0 rlineto
		0 exch rlineto
		pop neg 0 rlineto
		closepath
} bind def

/ellipse_path {
	/ry exch def
	/rx exch def
	/y exch def
	/x exch def
	matrix currentmatrix
	newpath
	x y translate
	rx ry scale
	0 0 1 0 360 arc
	setmatrix
} bind def

/endpage { showpage } bind def
/showpage { } def

/layercolorseq
	[	% layer color sequence - darkest to lightest
		[0 0 0]
		[.2 .8 .8]
		[.4 .8 .8]
		[.6 .8 .8]
		[.8 .8 .8]
	]
def

/layerlen layercolorseq length def

/setlayer {/maxlayer exch def /curlayer exch def
	layercolorseq curlayer 1 sub layerlen mod get
	aload pop sethsbcolor
	/nodecolor {nopcolor} def
	/edgecolor {nopcolor} def
	/graphcolor {nopcolor} def
} bind def

/onlayer { curlayer ne {invis} if } def

/onlayers {
	/myupper exch def
	/mylower exch def
	curlayer mylower lt
	curlayer myupper gt
	or
	{invis} if
} def

/curlayer 0 def

%%EndResource
%%EndProlog
%%BeginSetup
14 default-font-family set_font
1 setmiterlimit
% /arrowlength 10 def
% /arrowwidth 5 def

% make sure pdfmark is harmless for PS-interpreters other than Distiller
/pdfmark where {pop} {userdict /pdfmark /cleartomark load put} ifelse
% make '<<' and '>>' safe on PS Level 1 devices
/languagelevel where {pop languagelevel}{1} ifelse
2 lt {
    userdict (<<) cvn ([) cvn load put
    userdict (>>) cvn ([) cvn load put
} if

%%EndSetup
setupLatin1
%%Page: 1 1
%%PageBoundingBox: 36 36 1139 1366
%%PageOrientation: Portrait
0 0 1 beginpage
gsave
36 36 1103 1330 boxprim clip newpath
1 1 set_scale 0 rotate 40 40 translate
% stats
gsave
1 setlinewidth
0 0 0 nodecolor
newpath 150 1322 moveto
150 1322 12 1322 12 1322 curveto
6 1322 0 1316 0 1310 curveto
0 1310 0 1236 0 1236 curveto
0 1230 6 1224 12 1224 curveto
12 1224 150 1224 150 1224 curveto
156 1224 162 1230 162 1236 curveto
162 1236 162 1310 162 1310 curveto
162 1316 156 1322 150 1322 curveto
stroke
0 0 0 nodecolor
14 /Times-Roman set_font
8 1306.8 moveto 67 (# nodes: 22) alignedtext
0 0 0 nodecolor
14 /Times-Roman set_font
8 1291.8 moveto 67 (# edges: 22) alignedtext
0 0 0 nodecolor
14 /Times-Roman set_font
8 1276.8 moveto 118 (graph density: 0.048) alignedtext
0 0 0 nodecolor
14 /Times-Roman set_font
8 1261.8 moveto 146 (outdegree positive min: 1) alignedtext
0 0 0 nodecolor
14 /Times-Roman set_font
8 1246.8 moveto 100 (outdegree max: 2) alignedtext
0 0 0 nodecolor
14 /Times-Roman set_font
8 1231.8 moveto 122 (outdegree avg: 1.000) alignedtext
grestore
% config
gsave
1 setlinewidth
0 0 0 nodecolor
newpath 285.5 1314.5 moveto
285.5 1314.5 192.5 1314.5 192.5 1314.5 curveto
186.5 1314.5 180.5 1308.5 180.5 1302.5 curveto
180.5 1302.5 180.5 1243.5 180.5 1243.5 curveto
180.5 1237.5 186.5 1231.5 192.5 1231.5 curveto
192.5 1231.5 285.5 1231.5 285.5 1231.5 curveto
291.5 1231.5 297.5 1237.5 297.5 1243.5 curveto
297.5 1243.5 297.5 1302.5 297.5 1302.5 curveto
297.5 1308.5 291.5 1314.5 285.5 1314.5 curveto
stroke
0 0 0 nodecolor
14 /Times-Roman set_font
188.5 1299.3 moveto 91 (lattice: TypeSet) alignedtext
0 0 0 nodecolor
14 /Times-Roman set_font
188.5 1284.3 moveto 65 (bound: 100) alignedtext
0 0 0 nodecolor
14 /Times-Roman set_font
188.5 1269.3 moveto 101 (address: Classical) alignedtext
0 0 0 nodecolor
14 /Times-Roman set_font
188.5 1254.3 moveto 23 (step) alignedtext
0 0 0 nodecolor
14 /Times-Roman set_font
188.5 1239.3 moveto 90 (machine: AAM) alignedtext
grestore
% 0
gsave
0.33333 0.33333 1 nodecolor
newpath 1094.5 1291 moveto
315.5 1291 lineto
315.5 1255 lineto
1094.5 1255 lineto
closepath fill
1 setlinewidth
filled
0 0 0 nodecolor
newpath 1094.5 1291 moveto
315.5 1291 lineto
315.5 1255 lineto
1094.5 1255 lineto
closepath stroke
0 0 0 nodecolor
14 /Times-Roman set_font
323.5 1269.3 moveto 763 (ev\(\(letrec \(\(factorial \(lambda \(n\) \(letrec \(\(loop \(lambda \(n acc\) \(if \(= n 0\) acc \(loop \(- n 1\) \(* acc n\)\)\)\)\)\) \(loop n 1\)\)\)\)\) \(factorial 10\)\)\)) alignedtext
0 0 0 nodecolor
14 /Times-Roman set_font
307.5 1294.8 moveto 8 (0) alignedtext
grestore
% 1
gsave
0.33333 0.13333 1 nodecolor
newpath 762 1188 moveto
648 1188 lineto
648 1152 lineto
762 1152 lineto
closepath fill
1 setlinewidth
filled
0 0 0 nodecolor
newpath 762 1188 moveto
648 1188 lineto
648 1152 lineto
762 1152 lineto
closepath stroke
0 0 0 nodecolor
14 /Times-Roman set_font
656 1166.3 moveto 98 (ev\(\(factorial 10\)\)) alignedtext
0 0 0 nodecolor
14 /Times-Roman set_font
641 1191.8 moveto 7 (1) alignedtext
grestore
% 0->1
gsave
1 setlinewidth
0 0 0 edgecolor
newpath 705 1254.87 moveto
705 1239.41 705 1216.42 705 1198.41 curveto
stroke
0 0 0 edgecolor
newpath 708.5 1198.22 moveto
705 1188.22 lineto
701.5 1198.22 lineto
closepath fill
1 setlinewidth
solid
0 0 0 edgecolor
newpath 708.5 1198.22 moveto
705 1188.22 lineto
701.5 1198.22 lineto
closepath stroke
grestore
% 2
gsave
0.33333 0.13333 1 nodecolor
newpath 960 1116 moveto
450 1116 lineto
450 1080 lineto
960 1080 lineto
closepath fill
1 setlinewidth
filled
0 0 0 nodecolor
newpath 960 1116 moveto
450 1116 lineto
450 1080 lineto
960 1080 lineto
closepath stroke
0 0 0 nodecolor
14 /Times-Roman set_font
458 1094.3 moveto 494 (ev\(\(letrec \(\(loop \(lambda \(n acc\) \(if \(= n 0\) acc \(loop \(- n 1\) \(* acc n\)\)\)\)\)\) \(loop n 1\)\)\)) alignedtext
0 0 0 nodecolor
14 /Times-Roman set_font
443 1119.8 moveto 7 (2) alignedtext
grestore
% 1->2
gsave
1 setlinewidth
0 0 0 edgecolor
newpath 705 1151.7 moveto
705 1143.98 705 1134.71 705 1126.11 curveto
stroke
0 0 0 edgecolor
newpath 708.5 1126.1 moveto
705 1116.1 lineto
701.5 1126.1 lineto
closepath fill
1 setlinewidth
solid
0 0 0 edgecolor
newpath 708.5 1126.1 moveto
705 1116.1 lineto
701.5 1126.1 lineto
closepath stroke
grestore
% 3
gsave
0.33333 0.13333 1 nodecolor
newpath 753 1044 moveto
657 1044 lineto
657 1008 lineto
753 1008 lineto
closepath fill
1 setlinewidth
filled
0 0 0 nodecolor
newpath 753 1044 moveto
657 1044 lineto
657 1008 lineto
753 1008 lineto
closepath stroke
0 0 0 nodecolor
14 /Times-Roman set_font
665 1022.3 moveto 80 (ev\(\(loop n 1\)\)) alignedtext
0 0 0 nodecolor
14 /Times-Roman set_font
650 1047.8 moveto 7 (3) alignedtext
grestore
% 2->3
gsave
1 setlinewidth
0 0 0 edgecolor
newpath 705 1079.7 moveto
705 1071.98 705 1062.71 705 1054.11 curveto
stroke
0 0 0 edgecolor
newpath 708.5 1054.1 moveto
705 1044.1 lineto
701.5 1054.1 lineto
closepath fill
1 setlinewidth
solid
0 0 0 edgecolor
newpath 708.5 1054.1 moveto
705 1044.1 lineto
701.5 1054.1 lineto
closepath stroke
grestore
% 4
gsave
0.33333 0.13333 1 nodecolor
newpath 833.5 972 moveto
576.5 972 lineto
576.5 936 lineto
833.5 936 lineto
closepath fill
1 setlinewidth
filled
0 0 0 nodecolor
newpath 833.5 972 moveto
576.5 972 lineto
576.5 936 lineto
833.5 936 lineto
closepath stroke
0 0 0 nodecolor
14 /Times-Roman set_font
584.5 950.3 moveto 241 (ev\(\(if \(= n 0\) acc \(loop \(- n 1\) \(* acc n\)\)\)\)) alignedtext
0 0 0 nodecolor
14 /Times-Roman set_font
567.5 975.8 moveto 9 (4) alignedtext
grestore
% 3->4
gsave
1 setlinewidth
0 0 0 edgecolor
newpath 705 1007.7 moveto
705 999.98 705 990.71 705 982.11 curveto
stroke
0 0 0 edgecolor
newpath 708.5 982.1 moveto
705 972.1 lineto
701.5 982.1 lineto
closepath fill
1 setlinewidth
solid
0 0 0 edgecolor
newpath 708.5 982.1 moveto
705 972.1 lineto
701.5 982.1 lineto
closepath stroke
grestore
% 5
gsave
0.33333 0.13333 1 nodecolor
newpath 745 900 moveto
665 900 lineto
665 864 lineto
745 864 lineto
closepath fill
1 setlinewidth
filled
0 0 0 nodecolor
newpath 745 900 moveto
665 900 lineto
665 864 lineto
745 864 lineto
closepath stroke
0 0 0 nodecolor
14 /Times-Roman set_font
673 878.3 moveto 64 (ev\(\(= n 0\)\)) alignedtext
0 0 0 nodecolor
14 /Times-Roman set_font
657 903.8 moveto 8 (5) alignedtext
grestore
% 4->5
gsave
1 setlinewidth
0 0 0 edgecolor
newpath 705 935.7 moveto
705 927.98 705 918.71 705 910.11 curveto
stroke
0 0 0 edgecolor
newpath 708.5 910.1 moveto
705 900.1 lineto
701.5 910.1 lineto
closepath fill
1 setlinewidth
solid
0 0 0 edgecolor
newpath 708.5 910.1 moveto
705 900.1 lineto
701.5 910.1 lineto
closepath stroke
grestore
% 6
gsave
0.66667 0.13333 1 nodecolor
newpath 746.5 828 moveto
663.5 828 lineto
663.5 792 lineto
746.5 792 lineto
closepath fill
1 setlinewidth
filled
0 0 0 nodecolor
newpath 746.5 828 moveto
663.5 828 lineto
663.5 792 lineto
746.5 792 lineto
closepath stroke
0 0 0 nodecolor
14 /Times-Roman set_font
671.5 806.3 moveto 67 (ko\({#f,#t}\)) alignedtext
0 0 0 nodecolor
14 /Times-Roman set_font
655.5 831.8 moveto 8 (6) alignedtext
grestore
% 5->6
gsave
1 setlinewidth
0 0 0 edgecolor
newpath 705 863.7 moveto
705 855.98 705 846.71 705 838.11 curveto
stroke
0 0 0 edgecolor
newpath 708.5 838.1 moveto
705 828.1 lineto
701.5 838.1 lineto
closepath fill
1 setlinewidth
solid
0 0 0 edgecolor
newpath 708.5 838.1 moveto
705 828.1 lineto
701.5 838.1 lineto
closepath stroke
grestore
% 7
gsave
0.33333 0.13333 1 nodecolor
newpath 668.5 756 moveto
609.5 756 lineto
609.5 720 lineto
668.5 720 lineto
closepath fill
1 setlinewidth
filled
0 0 0 nodecolor
newpath 668.5 756 moveto
609.5 756 lineto
609.5 720 lineto
668.5 720 lineto
closepath stroke
0 0 0 nodecolor
14 /Times-Roman set_font
617.5 734.3 moveto 43 (ev\(acc\)) alignedtext
0 0 0 nodecolor
14 /Times-Roman set_font
602.5 759.8 moveto 7 (7) alignedtext
grestore
% 6->7
gsave
1 setlinewidth
0 0 0 edgecolor
newpath 688.69 791.7 moveto
680.69 783.22 670.93 772.86 662.18 763.58 curveto
stroke
0 0 0 edgecolor
newpath 664.53 760.98 moveto
655.13 756.1 lineto
659.44 765.78 lineto
closepath fill
1 setlinewidth
solid
0 0 0 edgecolor
newpath 664.53 760.98 moveto
655.13 756.1 lineto
659.44 765.78 lineto
closepath stroke
grestore
% 8
gsave
0.33333 0.13333 1 nodecolor
newpath 855.5 756 moveto
686.5 756 lineto
686.5 720 lineto
855.5 720 lineto
closepath fill
1 setlinewidth
filled
0 0 0 nodecolor
newpath 855.5 756 moveto
686.5 756 lineto
686.5 720 lineto
855.5 720 lineto
closepath stroke
0 0 0 nodecolor
14 /Times-Roman set_font
694.5 734.3 moveto 153 (ev\(\(loop \(- n 1\) \(* acc n\)\)\)) alignedtext
0 0 0 nodecolor
14 /Times-Roman set_font
679.5 759.8 moveto 7 (8) alignedtext
grestore
% 6->8
gsave
1 setlinewidth
0 0 0 edgecolor
newpath 721.31 791.7 moveto
729.31 783.22 739.07 772.86 747.82 763.58 curveto
stroke
0 0 0 edgecolor
newpath 750.56 765.78 moveto
754.87 756.1 lineto
745.47 760.98 lineto
closepath fill
1 setlinewidth
solid
0 0 0 edgecolor
newpath 750.56 765.78 moveto
754.87 756.1 lineto
745.47 760.98 lineto
closepath stroke
grestore
% 9
gsave
0.16667 0.33333 1 nodecolor
newpath 667 684 moveto
611 684 lineto
611 648 lineto
667 648 lineto
closepath fill
1 setlinewidth
filled
0 0 0 nodecolor
newpath 667 684 moveto
611 684 lineto
611 648 lineto
667 648 lineto
closepath stroke
0 0 0 nodecolor
14 /Times-Roman set_font
619 662.3 moveto 40 (ko\(Int\)) alignedtext
0 0 0 nodecolor
14 /Times-Roman set_font
603 687.8 moveto 8 (9) alignedtext
grestore
% 7->9
gsave
1 setlinewidth
0 0 0 edgecolor
newpath 639 719.7 moveto
639 711.98 639 702.71 639 694.11 curveto
stroke
0 0 0 edgecolor
newpath 642.5 694.1 moveto
639 684.1 lineto
635.5 694.1 lineto
closepath fill
1 setlinewidth
solid
0 0 0 edgecolor
newpath 642.5 694.1 moveto
639 684.1 lineto
635.5 694.1 lineto
closepath stroke
grestore
% 10
gsave
0.33333 0.13333 1 nodecolor
newpath 809 684 moveto
733 684 lineto
733 648 lineto
809 648 lineto
closepath fill
1 setlinewidth
filled
0 0 0 nodecolor
newpath 809 684 moveto
733 684 lineto
733 648 lineto
809 648 lineto
closepath stroke
0 0 0 nodecolor
14 /Times-Roman set_font
741 662.3 moveto 60 (ev\(\(- n 1\)\)) alignedtext
0 0 0 nodecolor
14 /Times-Roman set_font
718 687.8 moveto 15 (10) alignedtext
grestore
% 8->10
gsave
1 setlinewidth
0 0 0 edgecolor
newpath 771 719.7 moveto
771 711.98 771 702.71 771 694.11 curveto
stroke
0 0 0 edgecolor
newpath 774.5 694.1 moveto
771 684.1 lineto
767.5 694.1 lineto
closepath fill
1 setlinewidth
solid
0 0 0 edgecolor
newpath 774.5 694.1 moveto
771 684.1 lineto
767.5 694.1 lineto
closepath stroke
grestore
% 11
gsave
0.66667 0.13333 1 nodecolor
newpath 799 612 moveto
743 612 lineto
743 576 lineto
799 576 lineto
closepath fill
1 setlinewidth
filled
0 0 0 nodecolor
newpath 799 612 moveto
743 612 lineto
743 576 lineto
799 576 lineto
closepath stroke
0 0 0 nodecolor
14 /Times-Roman set_font
751 590.3 moveto 40 (ko\(Int\)) alignedtext
0 0 0 nodecolor
14 /Times-Roman set_font
729 615.8 moveto 14 (11) alignedtext
grestore
% 10->11
gsave
1 setlinewidth
0 0 0 edgecolor
newpath 771 647.7 moveto
771 639.98 771 630.71 771 622.11 curveto
stroke
0 0 0 edgecolor
newpath 774.5 622.1 moveto
771 612.1 lineto
767.5 622.1 lineto
closepath fill
1 setlinewidth
solid
0 0 0 edgecolor
newpath 774.5 622.1 moveto
771 612.1 lineto
767.5 622.1 lineto
closepath stroke
grestore
% 12
gsave
0.33333 0.13333 1 nodecolor
newpath 816 540 moveto
726 540 lineto
726 504 lineto
816 504 lineto
closepath fill
1 setlinewidth
filled
0 0 0 nodecolor
newpath 816 540 moveto
726 540 lineto
726 504 lineto
816 504 lineto
closepath stroke
0 0 0 nodecolor
14 /Times-Roman set_font
734 518.3 moveto 74 (ev\(\(* acc n\)\)) alignedtext
0 0 0 nodecolor
14 /Times-Roman set_font
712 543.8 moveto 14 (12) alignedtext
grestore
% 11->12
gsave
1 setlinewidth
0 0 0 edgecolor
newpath 771 575.7 moveto
771 567.98 771 558.71 771 550.11 curveto
stroke
0 0 0 edgecolor
newpath 774.5 550.1 moveto
771 540.1 lineto
767.5 550.1 lineto
closepath fill
1 setlinewidth
solid
0 0 0 edgecolor
newpath 774.5 550.1 moveto
771 540.1 lineto
767.5 550.1 lineto
closepath stroke
grestore
% 13
gsave
0.66667 0.13333 1 nodecolor
newpath 721 468 moveto
665 468 lineto
665 432 lineto
721 432 lineto
closepath fill
1 setlinewidth
filled
0 0 0 nodecolor
newpath 721 468 moveto
665 468 lineto
665 432 lineto
721 432 lineto
closepath stroke
0 0 0 nodecolor
14 /Times-Roman set_font
673 446.3 moveto 40 (ko\(Int\)) alignedtext
0 0 0 nodecolor
14 /Times-Roman set_font
651 471.8 moveto 14 (13) alignedtext
grestore
% 12->13
gsave
1 setlinewidth
0 0 0 edgecolor
newpath 751.72 503.7 moveto
742.08 495.05 730.27 484.45 719.77 475.03 curveto
stroke
0 0 0 edgecolor
newpath 721.84 472.18 moveto
712.06 468.1 lineto
717.16 477.39 lineto
closepath fill
1 setlinewidth
solid
0 0 0 edgecolor
newpath 721.84 472.18 moveto
712.06 468.1 lineto
717.16 477.39 lineto
closepath stroke
grestore
% 14
gsave
0.33333 0.13333 1 nodecolor
newpath 782.5 396 moveto
525.5 396 lineto
525.5 360 lineto
782.5 360 lineto
closepath fill
1 setlinewidth
filled
0 0 0 nodecolor
newpath 782.5 396 moveto
525.5 396 lineto
525.5 360 lineto
782.5 360 lineto
closepath stroke
0 0 0 nodecolor
14 /Times-Roman set_font
533.5 374.3 moveto 241 (ev\(\(if \(= n 0\) acc \(loop \(- n 1\) \(* acc n\)\)\)\)) alignedtext
0 0 0 nodecolor
14 /Times-Roman set_font
509.5 399.8 moveto 16 (14) alignedtext
grestore
% 13->14
gsave
1 setlinewidth
0 0 0 edgecolor
newpath 683.36 431.7 moveto
678.87 423.64 673.44 413.89 668.48 404.98 curveto
stroke
0 0 0 edgecolor
newpath 671.45 403.14 moveto
663.53 396.1 lineto
665.34 406.54 lineto
closepath fill
1 setlinewidth
solid
0 0 0 edgecolor
newpath 671.45 403.14 moveto
663.53 396.1 lineto
665.34 406.54 lineto
closepath stroke
grestore
% 15
gsave
0.33333 0.13333 1 nodecolor
newpath 694 324 moveto
614 324 lineto
614 288 lineto
694 288 lineto
closepath fill
1 setlinewidth
filled
0 0 0 nodecolor
newpath 694 324 moveto
614 324 lineto
614 288 lineto
694 288 lineto
closepath stroke
0 0 0 nodecolor
14 /Times-Roman set_font
622 302.3 moveto 64 (ev\(\(= n 0\)\)) alignedtext
0 0 0 nodecolor
14 /Times-Roman set_font
599 327.8 moveto 15 (15) alignedtext
grestore
% 14->15
gsave
1 setlinewidth
0 0 0 edgecolor
newpath 654 359.7 moveto
654 351.98 654 342.71 654 334.11 curveto
stroke
0 0 0 edgecolor
newpath 657.5 334.1 moveto
654 324.1 lineto
650.5 334.1 lineto
closepath fill
1 setlinewidth
solid
0 0 0 edgecolor
newpath 657.5 334.1 moveto
654 324.1 lineto
650.5 334.1 lineto
closepath stroke
grestore
% 16
gsave
0.66667 0.13333 1 nodecolor
newpath 695.5 252 moveto
612.5 252 lineto
612.5 216 lineto
695.5 216 lineto
closepath fill
1 setlinewidth
filled
0 0 0 nodecolor
newpath 695.5 252 moveto
612.5 252 lineto
612.5 216 lineto
695.5 216 lineto
closepath stroke
0 0 0 nodecolor
14 /Times-Roman set_font
620.5 230.3 moveto 67 (ko\({#f,#t}\)) alignedtext
0 0 0 nodecolor
14 /Times-Roman set_font
597.5 255.8 moveto 15 (16) alignedtext
grestore
% 15->16
gsave
1 setlinewidth
0 0 0 edgecolor
newpath 654 287.7 moveto
654 279.98 654 270.71 654 262.11 curveto
stroke
0 0 0 edgecolor
newpath 657.5 262.1 moveto
654 252.1 lineto
650.5 262.1 lineto
closepath fill
1 setlinewidth
solid
0 0 0 edgecolor
newpath 657.5 262.1 moveto
654 252.1 lineto
650.5 262.1 lineto
closepath stroke
grestore
% 17
gsave
0.33333 0.13333 1 nodecolor
newpath 596.5 180 moveto
537.5 180 lineto
537.5 144 lineto
596.5 144 lineto
closepath fill
1 setlinewidth
filled
0 0 0 nodecolor
newpath 596.5 180 moveto
537.5 180 lineto
537.5 144 lineto
596.5 144 lineto
closepath stroke
0 0 0 nodecolor
14 /Times-Roman set_font
545.5 158.3 moveto 43 (ev\(acc\)) alignedtext
0 0 0 nodecolor
14 /Times-Roman set_font
523.5 183.8 moveto 14 (17) alignedtext
grestore
% 16->17
gsave
1 setlinewidth
0 0 0 edgecolor
newpath 632.49 215.7 moveto
621.54 206.88 608.05 196.03 596.18 186.47 curveto
stroke
0 0 0 edgecolor
newpath 598.24 183.65 moveto
588.26 180.1 lineto
593.86 189.1 lineto
closepath fill
1 setlinewidth
solid
0 0 0 edgecolor
newpath 598.24 183.65 moveto
588.26 180.1 lineto
593.86 189.1 lineto
closepath stroke
grestore
% 18
gsave
0.33333 0.13333 1 nodecolor
newpath 783.5 180 moveto
614.5 180 lineto
614.5 144 lineto
783.5 144 lineto
closepath fill
1 setlinewidth
filled
0 0 0 nodecolor
newpath 783.5 180 moveto
614.5 180 lineto
614.5 144 lineto
783.5 144 lineto
closepath stroke
0 0 0 nodecolor
14 /Times-Roman set_font
622.5 158.3 moveto 153 (ev\(\(loop \(- n 1\) \(* acc n\)\)\)) alignedtext
0 0 0 nodecolor
14 /Times-Roman set_font
600.5 183.8 moveto 14 (18) alignedtext
grestore
% 16->18
gsave
1 setlinewidth
0 0 0 edgecolor
newpath 665.12 215.7 moveto
670.36 207.56 676.7 197.69 682.48 188.7 curveto
stroke
0 0 0 edgecolor
newpath 685.54 190.41 moveto
688 180.1 lineto
679.65 186.62 lineto
closepath fill
1 setlinewidth
solid
0 0 0 edgecolor
newpath 685.54 190.41 moveto
688 180.1 lineto
679.65 186.62 lineto
closepath stroke
grestore
% 19
gsave
0.16667 0.33333 1 nodecolor
newpath 595 108 moveto
539 108 lineto
539 72 lineto
595 72 lineto
closepath fill
1 setlinewidth
filled
0 0 0 nodecolor
newpath 595 108 moveto
539 108 lineto
539 72 lineto
595 72 lineto
closepath stroke
0 0 0 nodecolor
14 /Times-Roman set_font
547 86.3 moveto 40 (ko\(Int\)) alignedtext
0 0 0 nodecolor
14 /Times-Roman set_font
524 111.8 moveto 15 (19) alignedtext
grestore
% 17->19
gsave
1 setlinewidth
0 0 0 edgecolor
newpath 567 143.7 moveto
567 135.98 567 126.71 567 118.11 curveto
stroke
0 0 0 edgecolor
newpath 570.5 118.1 moveto
567 108.1 lineto
563.5 118.1 lineto
closepath fill
1 setlinewidth
solid
0 0 0 edgecolor
newpath 570.5 118.1 moveto
567 108.1 lineto
563.5 118.1 lineto
closepath stroke
grestore
% 20
gsave
0.33333 0.13333 1 nodecolor
newpath 760 108 moveto
684 108 lineto
684 72 lineto
760 72 lineto
closepath fill
1 setlinewidth
filled
0 0 0 nodecolor
newpath 760 108 moveto
684 108 lineto
684 72 lineto
760 72 lineto
closepath stroke
0 0 0 nodecolor
14 /Times-Roman set_font
692 86.3 moveto 60 (ev\(\(- n 1\)\)) alignedtext
0 0 0 nodecolor
14 /Times-Roman set_font
669 111.8 moveto 15 (20) alignedtext
grestore
% 18->20
gsave
1 setlinewidth
0 0 0 edgecolor
newpath 704.69 143.7 moveto
707.25 135.9 710.33 126.51 713.18 117.83 curveto
stroke
0 0 0 edgecolor
newpath 716.58 118.7 moveto
716.38 108.1 lineto
709.93 116.51 lineto
closepath fill
1 setlinewidth
solid
0 0 0 edgecolor
newpath 716.58 118.7 moveto
716.38 108.1 lineto
709.93 116.51 lineto
closepath stroke
grestore
% 21
gsave
0.66667 0.13333 1 nodecolor
newpath 794 36 moveto
738 36 lineto
738 0 lineto
794 0 lineto
closepath fill
1 setlinewidth
filled
0 0 0 nodecolor
newpath 794 36 moveto
738 36 lineto
738 0 lineto
794 0 lineto
closepath stroke
0 0 0 nodecolor
14 /Times-Roman set_font
746 14.3 moveto 40 (ko\(Int\)) alignedtext
0 0 0 nodecolor
14 /Times-Roman set_font
724 39.8 moveto 14 (21) alignedtext
grestore
% 20->21
gsave
1 setlinewidth
0 0 0 edgecolor
newpath 732.88 71.7 moveto
737.99 63.56 744.2 53.69 749.84 44.7 curveto
stroke
0 0 0 edgecolor
newpath 752.89 46.43 moveto
755.25 36.1 lineto
746.96 42.71 lineto
closepath fill
1 setlinewidth
solid
0 0 0 edgecolor
newpath 752.89 46.43 moveto
755.25 36.1 lineto
746.96 42.71 lineto
closepath stroke
grestore
% 21->12
gsave
1 setlinewidth
0 0 0 edgecolor
newpath 775.32 36.37 moveto
788.5 62.59 811 114.19 811 161 curveto
811 379 811 379 811 379 curveto
811 420.52 794.96 466.39 783.2 494.46 curveto
stroke
0 0 0 edgecolor
newpath 779.85 493.38 moveto
779.09 503.95 lineto
786.27 496.16 lineto
closepath fill
1 setlinewidth
solid
0 0 0 edgecolor
newpath 779.85 493.38 moveto
779.09 503.95 lineto
786.27 496.16 lineto
closepath stroke
grestore
endpage
showpage
grestore
%%PageTrailer
%%EndPage: 1
%%Trailer
end
restore
%%EOF
