%!PS-Adobe-3.0 EPSF-3.0
%%Creator: graphviz version 2.38.0 (20140413.2041)
%%Title: Scala-Par-AM Scheme-examples/OPi/abs.scm
%%Pages: 1
%%BoundingBox: 36 36 704 574
%%EndComments
save
%%BeginProlog
/DotDict 200 dict def
DotDict begin

/setupLatin1 {
mark
/EncodingVector 256 array def
 EncodingVector 0

ISOLatin1Encoding 0 255 getinterval putinterval
EncodingVector 45 /hyphen put

% Set up ISO Latin 1 character encoding
/starnetISO {
        dup dup findfont dup length dict begin
        { 1 index /FID ne { def }{ pop pop } ifelse
        } forall
        /Encoding EncodingVector def
        currentdict end definefont
} def
/Times-Roman starnetISO def
/Times-Italic starnetISO def
/Times-Bold starnetISO def
/Times-BoldItalic starnetISO def
/Helvetica starnetISO def
/Helvetica-Oblique starnetISO def
/Helvetica-Bold starnetISO def
/Helvetica-BoldOblique starnetISO def
/Courier starnetISO def
/Courier-Oblique starnetISO def
/Courier-Bold starnetISO def
/Courier-BoldOblique starnetISO def
cleartomark
} bind def

%%BeginResource: procset graphviz 0 0
/coord-font-family /Times-Roman def
/default-font-family /Times-Roman def
/coordfont coord-font-family findfont 8 scalefont def

/InvScaleFactor 1.0 def
/set_scale {
       dup 1 exch div /InvScaleFactor exch def
       scale
} bind def

% styles
/solid { [] 0 setdash } bind def
/dashed { [9 InvScaleFactor mul dup ] 0 setdash } bind def
/dotted { [1 InvScaleFactor mul 6 InvScaleFactor mul] 0 setdash } bind def
/invis {/fill {newpath} def /stroke {newpath} def /show {pop newpath} def} bind def
/bold { 2 setlinewidth } bind def
/filled { } bind def
/unfilled { } bind def
/rounded { } bind def
/diagonals { } bind def
/tapered { } bind def

% hooks for setting color 
/nodecolor { sethsbcolor } bind def
/edgecolor { sethsbcolor } bind def
/graphcolor { sethsbcolor } bind def
/nopcolor {pop pop pop} bind def

/beginpage {	% i j npages
	/npages exch def
	/j exch def
	/i exch def
	/str 10 string def
	npages 1 gt {
		gsave
			coordfont setfont
			0 0 moveto
			(\() show i str cvs show (,) show j str cvs show (\)) show
		grestore
	} if
} bind def

/set_font {
	findfont exch
	scalefont setfont
} def

% draw text fitted to its expected width
/alignedtext {			% width text
	/text exch def
	/width exch def
	gsave
		width 0 gt {
			[] 0 setdash
			text stringwidth pop width exch sub text length div 0 text ashow
		} if
	grestore
} def

/boxprim {				% xcorner ycorner xsize ysize
		4 2 roll
		moveto
		2 copy
		exch 0 rlineto
		0 exch rlineto
		pop neg 0 rlineto
		closepath
} bind def

/ellipse_path {
	/ry exch def
	/rx exch def
	/y exch def
	/x exch def
	matrix currentmatrix
	newpath
	x y translate
	rx ry scale
	0 0 1 0 360 arc
	setmatrix
} bind def

/endpage { showpage } bind def
/showpage { } def

/layercolorseq
	[	% layer color sequence - darkest to lightest
		[0 0 0]
		[.2 .8 .8]
		[.4 .8 .8]
		[.6 .8 .8]
		[.8 .8 .8]
	]
def

/layerlen layercolorseq length def

/setlayer {/maxlayer exch def /curlayer exch def
	layercolorseq curlayer 1 sub layerlen mod get
	aload pop sethsbcolor
	/nodecolor {nopcolor} def
	/edgecolor {nopcolor} def
	/graphcolor {nopcolor} def
} bind def

/onlayer { curlayer ne {invis} if } def

/onlayers {
	/myupper exch def
	/mylower exch def
	curlayer mylower lt
	curlayer myupper gt
	or
	{invis} if
} def

/curlayer 0 def

%%EndResource
%%EndProlog
%%BeginSetup
14 default-font-family set_font
1 setmiterlimit
% /arrowlength 10 def
% /arrowwidth 5 def

% make sure pdfmark is harmless for PS-interpreters other than Distiller
/pdfmark where {pop} {userdict /pdfmark /cleartomark load put} ifelse
% make '<<' and '>>' safe on PS Level 1 devices
/languagelevel where {pop languagelevel}{1} ifelse
2 lt {
    userdict (<<) cvn ([) cvn load put
    userdict (>>) cvn ([) cvn load put
} if

%%EndSetup
setupLatin1
%%Page: 1 1
%%PageBoundingBox: 36 36 704 574
%%PageOrientation: Portrait
0 0 1 beginpage
gsave
36 36 668 538 boxprim clip newpath
1 1 set_scale 0 rotate 40 40 translate
% stats
gsave
1 setlinewidth
0 0 0 nodecolor
newpath 150 530 moveto
150 530 12 530 12 530 curveto
6 530 0 524 0 518 curveto
0 518 0 444 0 444 curveto
0 438 6 432 12 432 curveto
12 432 150 432 150 432 curveto
156 432 162 438 162 444 curveto
162 444 162 518 162 518 curveto
162 524 156 530 150 530 curveto
stroke
0 0 0 nodecolor
14 /Times-Roman set_font
8 514.8 moveto 61 (# nodes: 8) alignedtext
0 0 0 nodecolor
14 /Times-Roman set_font
8 499.8 moveto 61 (# edges: 8) alignedtext
0 0 0 nodecolor
14 /Times-Roman set_font
8 484.8 moveto 117 (graph density: 0.143) alignedtext
0 0 0 nodecolor
14 /Times-Roman set_font
8 469.8 moveto 146 (outdegree positive min: 1) alignedtext
0 0 0 nodecolor
14 /Times-Roman set_font
8 454.8 moveto 100 (outdegree max: 2) alignedtext
0 0 0 nodecolor
14 /Times-Roman set_font
8 439.8 moveto 122 (outdegree avg: 1.000) alignedtext
grestore
% config
gsave
1 setlinewidth
0 0 0 nodecolor
newpath 285.5 522.5 moveto
285.5 522.5 192.5 522.5 192.5 522.5 curveto
186.5 522.5 180.5 516.5 180.5 510.5 curveto
180.5 510.5 180.5 451.5 180.5 451.5 curveto
180.5 445.5 186.5 439.5 192.5 439.5 curveto
192.5 439.5 285.5 439.5 285.5 439.5 curveto
291.5 439.5 297.5 445.5 297.5 451.5 curveto
297.5 451.5 297.5 510.5 297.5 510.5 curveto
297.5 516.5 291.5 522.5 285.5 522.5 curveto
stroke
0 0 0 nodecolor
14 /Times-Roman set_font
188.5 507.3 moveto 91 (lattice: TypeSet) alignedtext
0 0 0 nodecolor
14 /Times-Roman set_font
188.5 492.3 moveto 65 (bound: 100) alignedtext
0 0 0 nodecolor
14 /Times-Roman set_font
188.5 477.3 moveto 101 (address: Classical) alignedtext
0 0 0 nodecolor
14 /Times-Roman set_font
188.5 462.3 moveto 23 (step) alignedtext
0 0 0 nodecolor
14 /Times-Roman set_font
188.5 447.3 moveto 90 (machine: AAM) alignedtext
grestore
% 0
gsave
0.33333 0.33333 1 nodecolor
newpath 660 499 moveto
316 499 lineto
316 463 lineto
660 463 lineto
closepath fill
1 setlinewidth
filled
0 0 0 nodecolor
newpath 660 499 moveto
316 499 lineto
316 463 lineto
660 463 lineto
closepath stroke
0 0 0 nodecolor
14 /Times-Roman set_font
324 477.3 moveto 328 (\(letrec \(\(abs \(lambda \(x\) \(if \(>= x 0\) x \(- x\)\)\)\)\) \(abs -42\)\)) alignedtext
0 0 0 nodecolor
14 /Times-Roman set_font
308 502.8 moveto 8 (0) alignedtext
grestore
% 1
gsave
0.33333 0.13333 1 nodecolor
newpath 522 396 moveto
454 396 lineto
454 360 lineto
522 360 lineto
closepath fill
1 setlinewidth
filled
0 0 0 nodecolor
newpath 522 396 moveto
454 396 lineto
454 360 lineto
522 360 lineto
closepath stroke
0 0 0 nodecolor
14 /Times-Roman set_font
462 374.3 moveto 52 (\(abs -42\)) alignedtext
0 0 0 nodecolor
14 /Times-Roman set_font
447 399.8 moveto 7 (1) alignedtext
grestore
% 0->1
gsave
1 setlinewidth
0 0 0 edgecolor
newpath 488 462.87 moveto
488 447.41 488 424.42 488 406.41 curveto
stroke
0 0 0 edgecolor
newpath 491.5 406.22 moveto
488 396.22 lineto
484.5 406.22 lineto
closepath fill
1 setlinewidth
solid
0 0 0 edgecolor
newpath 491.5 406.22 moveto
488 396.22 lineto
484.5 406.22 lineto
closepath stroke
grestore
% 2
gsave
0.33333 0.13333 1 nodecolor
newpath 551 324 moveto
425 324 lineto
425 288 lineto
551 288 lineto
closepath fill
1 setlinewidth
filled
0 0 0 nodecolor
newpath 551 324 moveto
425 324 lineto
425 288 lineto
551 288 lineto
closepath stroke
0 0 0 nodecolor
14 /Times-Roman set_font
433 302.3 moveto 110 (\(if \(>= x 0\) x \(- x\)\)) alignedtext
0 0 0 nodecolor
14 /Times-Roman set_font
418 327.8 moveto 7 (2) alignedtext
grestore
% 1->2
gsave
1 setlinewidth
0 0 0 edgecolor
newpath 488 359.7 moveto
488 351.98 488 342.71 488 334.11 curveto
stroke
0 0 0 edgecolor
newpath 491.5 334.1 moveto
488 324.1 lineto
484.5 334.1 lineto
closepath fill
1 setlinewidth
solid
0 0 0 edgecolor
newpath 491.5 334.1 moveto
488 324.1 lineto
484.5 334.1 lineto
closepath stroke
grestore
% 3
gsave
0.33333 0.13333 1 nodecolor
newpath 520.5 252 moveto
455.5 252 lineto
455.5 216 lineto
520.5 216 lineto
closepath fill
1 setlinewidth
filled
0 0 0 nodecolor
newpath 520.5 252 moveto
455.5 252 lineto
455.5 216 lineto
520.5 216 lineto
closepath stroke
0 0 0 nodecolor
14 /Times-Roman set_font
463.5 230.3 moveto 49 (\(>= x 0\)) alignedtext
0 0 0 nodecolor
14 /Times-Roman set_font
448.5 255.8 moveto 7 (3) alignedtext
grestore
% 2->3
gsave
1 setlinewidth
0 0 0 edgecolor
newpath 488 287.7 moveto
488 279.98 488 270.71 488 262.11 curveto
stroke
0 0 0 edgecolor
newpath 491.5 262.1 moveto
488 252.1 lineto
484.5 262.1 lineto
closepath fill
1 setlinewidth
solid
0 0 0 edgecolor
newpath 491.5 262.1 moveto
488 252.1 lineto
484.5 262.1 lineto
closepath stroke
grestore
% 4
gsave
0.66667 0.13333 1 nodecolor
newpath 522.5 180 moveto
453.5 180 lineto
453.5 144 lineto
522.5 144 lineto
closepath fill
1 setlinewidth
filled
0 0 0 nodecolor
newpath 522.5 180 moveto
453.5 180 lineto
453.5 144 lineto
522.5 144 lineto
closepath stroke
0 0 0 nodecolor
14 /Times-Roman set_font
461.5 158.3 moveto 53 (ko\(Bool\)) alignedtext
0 0 0 nodecolor
14 /Times-Roman set_font
444.5 183.8 moveto 9 (4) alignedtext
grestore
% 3->4
gsave
1 setlinewidth
0 0 0 edgecolor
newpath 488 215.7 moveto
488 207.98 488 198.71 488 190.11 curveto
stroke
0 0 0 edgecolor
newpath 491.5 190.1 moveto
488 180.1 lineto
484.5 190.1 lineto
closepath fill
1 setlinewidth
solid
0 0 0 edgecolor
newpath 491.5 190.1 moveto
488 180.1 lineto
484.5 190.1 lineto
closepath stroke
grestore
% 5
gsave
0.33333 0.13333 1 nodecolor
newpath 479 108 moveto
425 108 lineto
425 72 lineto
479 72 lineto
closepath fill
1 setlinewidth
filled
0 0 0 nodecolor
newpath 479 108 moveto
425 108 lineto
425 72 lineto
479 72 lineto
closepath stroke
0 0 0 nodecolor
14 /Times-Roman set_font
448.5 86.3 moveto 7 (x) alignedtext
0 0 0 nodecolor
14 /Times-Roman set_font
417 111.8 moveto 8 (5) alignedtext
grestore
% 4->5
gsave
1 setlinewidth
0 0 0 edgecolor
newpath 479.1 143.7 moveto
475 135.73 470.05 126.1 465.51 117.26 curveto
stroke
0 0 0 edgecolor
newpath 468.48 115.4 moveto
460.8 108.1 lineto
462.26 118.6 lineto
closepath fill
1 setlinewidth
solid
0 0 0 edgecolor
newpath 468.48 115.4 moveto
460.8 108.1 lineto
462.26 118.6 lineto
closepath stroke
grestore
% 6
gsave
0.33333 0.13333 1 nodecolor
newpath 551 108 moveto
497 108 lineto
497 72 lineto
551 72 lineto
closepath fill
1 setlinewidth
filled
0 0 0 nodecolor
newpath 551 108 moveto
497 108 lineto
497 72 lineto
551 72 lineto
closepath stroke
0 0 0 nodecolor
14 /Times-Roman set_font
511 86.3 moveto 26 (\(- x\)) alignedtext
0 0 0 nodecolor
14 /Times-Roman set_font
489 111.8 moveto 8 (6) alignedtext
grestore
% 4->6
gsave
1 setlinewidth
0 0 0 edgecolor
newpath 496.9 143.7 moveto
501 135.73 505.95 126.1 510.49 117.26 curveto
stroke
0 0 0 edgecolor
newpath 513.74 118.6 moveto
515.2 108.1 lineto
507.52 115.4 lineto
closepath fill
1 setlinewidth
solid
0 0 0 edgecolor
newpath 513.74 118.6 moveto
515.2 108.1 lineto
507.52 115.4 lineto
closepath stroke
grestore
% 7
gsave
0.16667 0.33333 1 nodecolor
newpath 516 36 moveto
460 36 lineto
460 0 lineto
516 0 lineto
closepath fill
1 setlinewidth
filled
0 0 0 nodecolor
newpath 516 36 moveto
460 36 lineto
460 0 lineto
516 0 lineto
closepath stroke
0 0 0 nodecolor
14 /Times-Roman set_font
468 14.3 moveto 40 (ko\(Int\)) alignedtext
0 0 0 nodecolor
14 /Times-Roman set_font
453 39.8 moveto 7 (7) alignedtext
grestore
% 5->7
gsave
1 setlinewidth
0 0 0 edgecolor
newpath 460.9 71.7 moveto
465 63.73 469.95 54.1 474.49 45.26 curveto
stroke
0 0 0 edgecolor
newpath 477.74 46.6 moveto
479.2 36.1 lineto
471.52 43.4 lineto
closepath fill
1 setlinewidth
solid
0 0 0 edgecolor
newpath 477.74 46.6 moveto
479.2 36.1 lineto
471.52 43.4 lineto
closepath stroke
grestore
% 6->7
gsave
1 setlinewidth
0 0 0 edgecolor
newpath 515.1 71.7 moveto
511 63.73 506.05 54.1 501.51 45.26 curveto
stroke
0 0 0 edgecolor
newpath 504.48 43.4 moveto
496.8 36.1 lineto
498.26 46.6 lineto
closepath fill
1 setlinewidth
solid
0 0 0 edgecolor
newpath 504.48 43.4 moveto
496.8 36.1 lineto
498.26 46.6 lineto
closepath stroke
grestore
endpage
showpage
grestore
%%PageTrailer
%%EndPage: 1
%%Trailer
end
restore
%%EOF
