%!PS-Adobe-3.0 EPSF-3.0
%%Creator: graphviz version 2.38.0 (20140413.2041)
%%Title: Scala-Par-AM Scheme-examples/OPi/collatz.scm
%%Pages: 1
%%BoundingBox: 36 36 921 862
%%EndComments
save
%%BeginProlog
/DotDict 200 dict def
DotDict begin

/setupLatin1 {
mark
/EncodingVector 256 array def
 EncodingVector 0

ISOLatin1Encoding 0 255 getinterval putinterval
EncodingVector 45 /hyphen put

% Set up ISO Latin 1 character encoding
/starnetISO {
        dup dup findfont dup length dict begin
        { 1 index /FID ne { def }{ pop pop } ifelse
        } forall
        /Encoding EncodingVector def
        currentdict end definefont
} def
/Times-Roman starnetISO def
/Times-Italic starnetISO def
/Times-Bold starnetISO def
/Times-BoldItalic starnetISO def
/Helvetica starnetISO def
/Helvetica-Oblique starnetISO def
/Helvetica-Bold starnetISO def
/Helvetica-BoldOblique starnetISO def
/Courier starnetISO def
/Courier-Oblique starnetISO def
/Courier-Bold starnetISO def
/Courier-BoldOblique starnetISO def
cleartomark
} bind def

%%BeginResource: procset graphviz 0 0
/coord-font-family /Times-Roman def
/default-font-family /Times-Roman def
/coordfont coord-font-family findfont 8 scalefont def

/InvScaleFactor 1.0 def
/set_scale {
       dup 1 exch div /InvScaleFactor exch def
       scale
} bind def

% styles
/solid { [] 0 setdash } bind def
/dashed { [9 InvScaleFactor mul dup ] 0 setdash } bind def
/dotted { [1 InvScaleFactor mul 6 InvScaleFactor mul] 0 setdash } bind def
/invis {/fill {newpath} def /stroke {newpath} def /show {pop newpath} def} bind def
/bold { 2 setlinewidth } bind def
/filled { } bind def
/unfilled { } bind def
/rounded { } bind def
/diagonals { } bind def
/tapered { } bind def

% hooks for setting color 
/nodecolor { sethsbcolor } bind def
/edgecolor { sethsbcolor } bind def
/graphcolor { sethsbcolor } bind def
/nopcolor {pop pop pop} bind def

/beginpage {	% i j npages
	/npages exch def
	/j exch def
	/i exch def
	/str 10 string def
	npages 1 gt {
		gsave
			coordfont setfont
			0 0 moveto
			(\() show i str cvs show (,) show j str cvs show (\)) show
		grestore
	} if
} bind def

/set_font {
	findfont exch
	scalefont setfont
} def

% draw text fitted to its expected width
/alignedtext {			% width text
	/text exch def
	/width exch def
	gsave
		width 0 gt {
			[] 0 setdash
			text stringwidth pop width exch sub text length div 0 text ashow
		} if
	grestore
} def

/boxprim {				% xcorner ycorner xsize ysize
		4 2 roll
		moveto
		2 copy
		exch 0 rlineto
		0 exch rlineto
		pop neg 0 rlineto
		closepath
} bind def

/ellipse_path {
	/ry exch def
	/rx exch def
	/y exch def
	/x exch def
	matrix currentmatrix
	newpath
	x y translate
	rx ry scale
	0 0 1 0 360 arc
	setmatrix
} bind def

/endpage { showpage } bind def
/showpage { } def

/layercolorseq
	[	% layer color sequence - darkest to lightest
		[0 0 0]
		[.2 .8 .8]
		[.4 .8 .8]
		[.6 .8 .8]
		[.8 .8 .8]
	]
def

/layerlen layercolorseq length def

/setlayer {/maxlayer exch def /curlayer exch def
	layercolorseq curlayer 1 sub layerlen mod get
	aload pop sethsbcolor
	/nodecolor {nopcolor} def
	/edgecolor {nopcolor} def
	/graphcolor {nopcolor} def
} bind def

/onlayer { curlayer ne {invis} if } def

/onlayers {
	/myupper exch def
	/mylower exch def
	curlayer mylower lt
	curlayer myupper gt
	or
	{invis} if
} def

/curlayer 0 def

%%EndResource
%%EndProlog
%%BeginSetup
14 default-font-family set_font
1 setmiterlimit
% /arrowlength 10 def
% /arrowwidth 5 def

% make sure pdfmark is harmless for PS-interpreters other than Distiller
/pdfmark where {pop} {userdict /pdfmark /cleartomark load put} ifelse
% make '<<' and '>>' safe on PS Level 1 devices
/languagelevel where {pop languagelevel}{1} ifelse
2 lt {
    userdict (<<) cvn ([) cvn load put
    userdict (>>) cvn ([) cvn load put
} if

%%EndSetup
setupLatin1
%%Page: 1 1
%%PageBoundingBox: 36 36 921 862
%%PageOrientation: Portrait
0 0 1 beginpage
gsave
36 36 885 826 boxprim clip newpath
1 1 set_scale 0 rotate 40 40 translate
% stats
gsave
1 setlinewidth
0 0 0 nodecolor
newpath 150 818 moveto
150 818 12 818 12 818 curveto
6 818 0 812 0 806 curveto
0 806 0 732 0 732 curveto
0 726 6 720 12 720 curveto
12 720 150 720 150 720 curveto
156 720 162 726 162 732 curveto
162 732 162 806 162 806 curveto
162 812 156 818 150 818 curveto
stroke
0 0 0 nodecolor
14 /Times-Roman set_font
8 802.8 moveto 67 (# nodes: 13) alignedtext
0 0 0 nodecolor
14 /Times-Roman set_font
8 787.8 moveto 67 (# edges: 12) alignedtext
0 0 0 nodecolor
14 /Times-Roman set_font
8 772.8 moveto 116 (graph density: 0.077) alignedtext
0 0 0 nodecolor
14 /Times-Roman set_font
8 757.8 moveto 146 (outdegree positive min: 1) alignedtext
0 0 0 nodecolor
14 /Times-Roman set_font
8 742.8 moveto 100 (outdegree max: 2) alignedtext
0 0 0 nodecolor
14 /Times-Roman set_font
8 727.8 moveto 121 (outdegree avg: 0.923) alignedtext
grestore
% config
gsave
1 setlinewidth
0 0 0 nodecolor
newpath 285.5 810.5 moveto
285.5 810.5 192.5 810.5 192.5 810.5 curveto
186.5 810.5 180.5 804.5 180.5 798.5 curveto
180.5 798.5 180.5 739.5 180.5 739.5 curveto
180.5 733.5 186.5 727.5 192.5 727.5 curveto
192.5 727.5 285.5 727.5 285.5 727.5 curveto
291.5 727.5 297.5 733.5 297.5 739.5 curveto
297.5 739.5 297.5 798.5 297.5 798.5 curveto
297.5 804.5 291.5 810.5 285.5 810.5 curveto
stroke
0 0 0 nodecolor
14 /Times-Roman set_font
188.5 795.3 moveto 91 (lattice: TypeSet) alignedtext
0 0 0 nodecolor
14 /Times-Roman set_font
188.5 780.3 moveto 65 (bound: 100) alignedtext
0 0 0 nodecolor
14 /Times-Roman set_font
188.5 765.3 moveto 101 (address: Classical) alignedtext
0 0 0 nodecolor
14 /Times-Roman set_font
188.5 750.3 moveto 23 (step) alignedtext
0 0 0 nodecolor
14 /Times-Roman set_font
188.5 735.3 moveto 90 (machine: AAM) alignedtext
grestore
% 0
gsave
0.33333 0.33333 1 nodecolor
newpath 876.5 787 moveto
315.5 787 lineto
315.5 751 lineto
876.5 751 lineto
closepath fill
1 setlinewidth
filled
0 0 0 nodecolor
newpath 876.5 787 moveto
315.5 787 lineto
315.5 751 lineto
876.5 751 lineto
closepath stroke
0 0 0 nodecolor
14 /Times-Roman set_font
323.5 765.3 moveto 545 (\(letrec \(\(collatz \(lambda \(n\) \(if \(even? n\) \(quotient n 2\) \(quotient \(+ \(* n 3\) 1\) 2\)\)\)\)\) \(collatz 7\)\)) alignedtext
0 0 0 nodecolor
14 /Times-Roman set_font
307.5 790.8 moveto 8 (0) alignedtext
grestore
% 1
gsave
0.33333 0.13333 1 nodecolor
newpath 633.5 684 moveto
558.5 684 lineto
558.5 648 lineto
633.5 648 lineto
closepath fill
1 setlinewidth
filled
0 0 0 nodecolor
newpath 633.5 684 moveto
558.5 684 lineto
558.5 648 lineto
633.5 648 lineto
closepath stroke
0 0 0 nodecolor
14 /Times-Roman set_font
566.5 662.3 moveto 59 (\(collatz 7\)) alignedtext
0 0 0 nodecolor
14 /Times-Roman set_font
551.5 687.8 moveto 7 (1) alignedtext
grestore
% 0->1
gsave
1 setlinewidth
0 0 0 edgecolor
newpath 596 750.87 moveto
596 735.41 596 712.42 596 694.41 curveto
stroke
0 0 0 edgecolor
newpath 599.5 694.22 moveto
596 684.22 lineto
592.5 694.22 lineto
closepath fill
1 setlinewidth
solid
0 0 0 edgecolor
newpath 599.5 694.22 moveto
596 684.22 lineto
592.5 694.22 lineto
closepath stroke
grestore
% 2
gsave
0.33333 0.13333 1 nodecolor
newpath 754.5 612 moveto
437.5 612 lineto
437.5 576 lineto
754.5 576 lineto
closepath fill
1 setlinewidth
filled
0 0 0 nodecolor
newpath 754.5 612 moveto
437.5 612 lineto
437.5 576 lineto
754.5 576 lineto
closepath stroke
0 0 0 nodecolor
14 /Times-Roman set_font
445.5 590.3 moveto 301 (\(if \(even? n\) \(quotient n 2\) \(quotient \(+ \(* n 3\) 1\) 2\)\)) alignedtext
0 0 0 nodecolor
14 /Times-Roman set_font
430.5 615.8 moveto 7 (2) alignedtext
grestore
% 1->2
gsave
1 setlinewidth
0 0 0 edgecolor
newpath 596 647.7 moveto
596 639.98 596 630.71 596 622.11 curveto
stroke
0 0 0 edgecolor
newpath 599.5 622.1 moveto
596 612.1 lineto
592.5 622.1 lineto
closepath fill
1 setlinewidth
solid
0 0 0 edgecolor
newpath 599.5 622.1 moveto
596 612.1 lineto
592.5 622.1 lineto
closepath stroke
grestore
% 3
gsave
0.33333 0.13333 1 nodecolor
newpath 631 540 moveto
561 540 lineto
561 504 lineto
631 504 lineto
closepath fill
1 setlinewidth
filled
0 0 0 nodecolor
newpath 631 540 moveto
561 540 lineto
561 504 lineto
631 504 lineto
closepath stroke
0 0 0 nodecolor
14 /Times-Roman set_font
569 518.3 moveto 54 (\(even? n\)) alignedtext
0 0 0 nodecolor
14 /Times-Roman set_font
554 543.8 moveto 7 (3) alignedtext
grestore
% 2->3
gsave
1 setlinewidth
0 0 0 edgecolor
newpath 596 575.7 moveto
596 567.98 596 558.71 596 550.11 curveto
stroke
0 0 0 edgecolor
newpath 599.5 550.1 moveto
596 540.1 lineto
592.5 550.1 lineto
closepath fill
1 setlinewidth
solid
0 0 0 edgecolor
newpath 599.5 550.1 moveto
596 540.1 lineto
592.5 550.1 lineto
closepath stroke
grestore
% 4
gsave
0.66667 0.13333 1 nodecolor
newpath 630.5 468 moveto
561.5 468 lineto
561.5 432 lineto
630.5 432 lineto
closepath fill
1 setlinewidth
filled
0 0 0 nodecolor
newpath 630.5 468 moveto
561.5 468 lineto
561.5 432 lineto
630.5 432 lineto
closepath stroke
0 0 0 nodecolor
14 /Times-Roman set_font
569.5 446.3 moveto 53 (ko\(Bool\)) alignedtext
0 0 0 nodecolor
14 /Times-Roman set_font
552.5 471.8 moveto 9 (4) alignedtext
grestore
% 3->4
gsave
1 setlinewidth
0 0 0 edgecolor
newpath 596 503.7 moveto
596 495.98 596 486.71 596 478.11 curveto
stroke
0 0 0 edgecolor
newpath 599.5 478.1 moveto
596 468.1 lineto
592.5 478.1 lineto
closepath fill
1 setlinewidth
solid
0 0 0 edgecolor
newpath 599.5 478.1 moveto
596 468.1 lineto
592.5 478.1 lineto
closepath stroke
grestore
% 5
gsave
0.33333 0.13333 1 nodecolor
newpath 571 396 moveto
477 396 lineto
477 360 lineto
571 360 lineto
closepath fill
1 setlinewidth
filled
0 0 0 nodecolor
newpath 571 396 moveto
477 396 lineto
477 360 lineto
571 360 lineto
closepath stroke
0 0 0 nodecolor
14 /Times-Roman set_font
485 374.3 moveto 78 (\(quotient n 2\)) alignedtext
0 0 0 nodecolor
14 /Times-Roman set_font
469 399.8 moveto 8 (5) alignedtext
grestore
% 4->5
gsave
1 setlinewidth
0 0 0 edgecolor
newpath 578.2 431.7 moveto
569.4 423.14 558.62 412.66 549 403.3 curveto
stroke
0 0 0 edgecolor
newpath 551.2 400.57 moveto
541.59 396.1 lineto
546.32 405.58 lineto
closepath fill
1 setlinewidth
solid
0 0 0 edgecolor
newpath 551.2 400.57 moveto
541.59 396.1 lineto
546.32 405.58 lineto
closepath stroke
grestore
% 6
gsave
0.33333 0.13333 1 nodecolor
newpath 746.5 396 moveto
589.5 396 lineto
589.5 360 lineto
746.5 360 lineto
closepath fill
1 setlinewidth
filled
0 0 0 nodecolor
newpath 746.5 396 moveto
589.5 396 lineto
589.5 360 lineto
746.5 360 lineto
closepath stroke
0 0 0 nodecolor
14 /Times-Roman set_font
597.5 374.3 moveto 141 (\(quotient \(+ \(* n 3\) 1\) 2\)) alignedtext
0 0 0 nodecolor
14 /Times-Roman set_font
581.5 399.8 moveto 8 (6) alignedtext
grestore
% 4->6
gsave
1 setlinewidth
0 0 0 edgecolor
newpath 613.8 431.7 moveto
622.6 423.14 633.38 412.66 643 403.3 curveto
stroke
0 0 0 edgecolor
newpath 645.68 405.58 moveto
650.41 396.1 lineto
640.8 400.57 lineto
closepath fill
1 setlinewidth
solid
0 0 0 edgecolor
newpath 645.68 405.58 moveto
650.41 396.1 lineto
640.8 400.57 lineto
closepath stroke
grestore
% 7
gsave
0.16667 0.33333 1 nodecolor
newpath 552 324 moveto
496 324 lineto
496 288 lineto
552 288 lineto
closepath fill
1 setlinewidth
filled
0 0 0 nodecolor
newpath 552 324 moveto
496 324 lineto
496 288 lineto
552 288 lineto
closepath stroke
0 0 0 nodecolor
14 /Times-Roman set_font
504 302.3 moveto 40 (ko\(Int\)) alignedtext
0 0 0 nodecolor
14 /Times-Roman set_font
489 327.8 moveto 7 (7) alignedtext
grestore
% 5->7
gsave
1 setlinewidth
0 0 0 edgecolor
newpath 524 359.7 moveto
524 351.98 524 342.71 524 334.11 curveto
stroke
0 0 0 edgecolor
newpath 527.5 334.1 moveto
524 324.1 lineto
520.5 334.1 lineto
closepath fill
1 setlinewidth
solid
0 0 0 edgecolor
newpath 527.5 334.1 moveto
524 324.1 lineto
520.5 334.1 lineto
closepath stroke
grestore
% 8
gsave
0.33333 0.13333 1 nodecolor
newpath 711 324 moveto
625 324 lineto
625 288 lineto
711 288 lineto
closepath fill
1 setlinewidth
filled
0 0 0 nodecolor
newpath 711 324 moveto
625 324 lineto
625 288 lineto
711 288 lineto
closepath stroke
0 0 0 nodecolor
14 /Times-Roman set_font
633 302.3 moveto 70 (\(+ \(* n 3\) 1\)) alignedtext
0 0 0 nodecolor
14 /Times-Roman set_font
618 327.8 moveto 7 (8) alignedtext
grestore
% 6->8
gsave
1 setlinewidth
0 0 0 edgecolor
newpath 668 359.7 moveto
668 351.98 668 342.71 668 334.11 curveto
stroke
0 0 0 edgecolor
newpath 671.5 334.1 moveto
668 324.1 lineto
664.5 334.1 lineto
closepath fill
1 setlinewidth
solid
0 0 0 edgecolor
newpath 671.5 334.1 moveto
668 324.1 lineto
664.5 334.1 lineto
closepath stroke
grestore
% 9
gsave
0.33333 0.13333 1 nodecolor
newpath 695 252 moveto
641 252 lineto
641 216 lineto
695 216 lineto
closepath fill
1 setlinewidth
filled
0 0 0 nodecolor
newpath 695 252 moveto
641 252 lineto
641 216 lineto
695 216 lineto
closepath stroke
0 0 0 nodecolor
14 /Times-Roman set_font
649 230.3 moveto 38 (\(* n 3\)) alignedtext
0 0 0 nodecolor
14 /Times-Roman set_font
633 255.8 moveto 8 (9) alignedtext
grestore
% 8->9
gsave
1 setlinewidth
0 0 0 edgecolor
newpath 668 287.7 moveto
668 279.98 668 270.71 668 262.11 curveto
stroke
0 0 0 edgecolor
newpath 671.5 262.1 moveto
668 252.1 lineto
664.5 262.1 lineto
closepath fill
1 setlinewidth
solid
0 0 0 edgecolor
newpath 671.5 262.1 moveto
668 252.1 lineto
664.5 262.1 lineto
closepath stroke
grestore
% 10
gsave
0.66667 0.13333 1 nodecolor
newpath 696 180 moveto
640 180 lineto
640 144 lineto
696 144 lineto
closepath fill
1 setlinewidth
filled
0 0 0 nodecolor
newpath 696 180 moveto
640 180 lineto
640 144 lineto
696 144 lineto
closepath stroke
0 0 0 nodecolor
14 /Times-Roman set_font
648 158.3 moveto 40 (ko\(Int\)) alignedtext
0 0 0 nodecolor
14 /Times-Roman set_font
625 183.8 moveto 15 (10) alignedtext
grestore
% 9->10
gsave
1 setlinewidth
0 0 0 edgecolor
newpath 668 215.7 moveto
668 207.98 668 198.71 668 190.11 curveto
stroke
0 0 0 edgecolor
newpath 671.5 190.1 moveto
668 180.1 lineto
664.5 190.1 lineto
closepath fill
1 setlinewidth
solid
0 0 0 edgecolor
newpath 671.5 190.1 moveto
668 180.1 lineto
664.5 190.1 lineto
closepath stroke
grestore
% 11
gsave
0.66667 0.13333 1 nodecolor
newpath 696 108 moveto
640 108 lineto
640 72 lineto
696 72 lineto
closepath fill
1 setlinewidth
filled
0 0 0 nodecolor
newpath 696 108 moveto
640 108 lineto
640 72 lineto
696 72 lineto
closepath stroke
0 0 0 nodecolor
14 /Times-Roman set_font
648 86.3 moveto 40 (ko\(Int\)) alignedtext
0 0 0 nodecolor
14 /Times-Roman set_font
626 111.8 moveto 14 (11) alignedtext
grestore
% 10->11
gsave
1 setlinewidth
0 0 0 edgecolor
newpath 668 143.7 moveto
668 135.98 668 126.71 668 118.11 curveto
stroke
0 0 0 edgecolor
newpath 671.5 118.1 moveto
668 108.1 lineto
664.5 118.1 lineto
closepath fill
1 setlinewidth
solid
0 0 0 edgecolor
newpath 671.5 118.1 moveto
668 108.1 lineto
664.5 118.1 lineto
closepath stroke
grestore
% 12
gsave
0.16667 0.33333 1 nodecolor
newpath 696 36 moveto
640 36 lineto
640 0 lineto
696 0 lineto
closepath fill
1 setlinewidth
filled
0 0 0 nodecolor
newpath 696 36 moveto
640 36 lineto
640 0 lineto
696 0 lineto
closepath stroke
0 0 0 nodecolor
14 /Times-Roman set_font
648 14.3 moveto 40 (ko\(Int\)) alignedtext
0 0 0 nodecolor
14 /Times-Roman set_font
626 39.8 moveto 14 (12) alignedtext
grestore
% 11->12
gsave
1 setlinewidth
0 0 0 edgecolor
newpath 668 71.7 moveto
668 63.98 668 54.71 668 46.11 curveto
stroke
0 0 0 edgecolor
newpath 671.5 46.1 moveto
668 36.1 lineto
664.5 46.1 lineto
closepath fill
1 setlinewidth
solid
0 0 0 edgecolor
newpath 671.5 46.1 moveto
668 36.1 lineto
664.5 46.1 lineto
closepath stroke
grestore
endpage
showpage
grestore
%%PageTrailer
%%EndPage: 1
%%Trailer
end
restore
%%EOF
