%!PS-Adobe-3.0 EPSF-3.0
%%Creator: graphviz version 2.38.0 (20140413.2041)
%%Title: Scala-Par-AM Scheme-examples/OPi/fibonacci_mutable_iter.scm
%%Pages: 1
%%BoundingBox: 36 36 1483 2158
%%EndComments
save
%%BeginProlog
/DotDict 200 dict def
DotDict begin

/setupLatin1 {
mark
/EncodingVector 256 array def
 EncodingVector 0

ISOLatin1Encoding 0 255 getinterval putinterval
EncodingVector 45 /hyphen put

% Set up ISO Latin 1 character encoding
/starnetISO {
        dup dup findfont dup length dict begin
        { 1 index /FID ne { def }{ pop pop } ifelse
        } forall
        /Encoding EncodingVector def
        currentdict end definefont
} def
/Times-Roman starnetISO def
/Times-Italic starnetISO def
/Times-Bold starnetISO def
/Times-BoldItalic starnetISO def
/Helvetica starnetISO def
/Helvetica-Oblique starnetISO def
/Helvetica-Bold starnetISO def
/Helvetica-BoldOblique starnetISO def
/Courier starnetISO def
/Courier-Oblique starnetISO def
/Courier-Bold starnetISO def
/Courier-BoldOblique starnetISO def
cleartomark
} bind def

%%BeginResource: procset graphviz 0 0
/coord-font-family /Times-Roman def
/default-font-family /Times-Roman def
/coordfont coord-font-family findfont 8 scalefont def

/InvScaleFactor 1.0 def
/set_scale {
       dup 1 exch div /InvScaleFactor exch def
       scale
} bind def

% styles
/solid { [] 0 setdash } bind def
/dashed { [9 InvScaleFactor mul dup ] 0 setdash } bind def
/dotted { [1 InvScaleFactor mul 6 InvScaleFactor mul] 0 setdash } bind def
/invis {/fill {newpath} def /stroke {newpath} def /show {pop newpath} def} bind def
/bold { 2 setlinewidth } bind def
/filled { } bind def
/unfilled { } bind def
/rounded { } bind def
/diagonals { } bind def
/tapered { } bind def

% hooks for setting color 
/nodecolor { sethsbcolor } bind def
/edgecolor { sethsbcolor } bind def
/graphcolor { sethsbcolor } bind def
/nopcolor {pop pop pop} bind def

/beginpage {	% i j npages
	/npages exch def
	/j exch def
	/i exch def
	/str 10 string def
	npages 1 gt {
		gsave
			coordfont setfont
			0 0 moveto
			(\() show i str cvs show (,) show j str cvs show (\)) show
		grestore
	} if
} bind def

/set_font {
	findfont exch
	scalefont setfont
} def

% draw text fitted to its expected width
/alignedtext {			% width text
	/text exch def
	/width exch def
	gsave
		width 0 gt {
			[] 0 setdash
			text stringwidth pop width exch sub text length div 0 text ashow
		} if
	grestore
} def

/boxprim {				% xcorner ycorner xsize ysize
		4 2 roll
		moveto
		2 copy
		exch 0 rlineto
		0 exch rlineto
		pop neg 0 rlineto
		closepath
} bind def

/ellipse_path {
	/ry exch def
	/rx exch def
	/y exch def
	/x exch def
	matrix currentmatrix
	newpath
	x y translate
	rx ry scale
	0 0 1 0 360 arc
	setmatrix
} bind def

/endpage { showpage } bind def
/showpage { } def

/layercolorseq
	[	% layer color sequence - darkest to lightest
		[0 0 0]
		[.2 .8 .8]
		[.4 .8 .8]
		[.6 .8 .8]
		[.8 .8 .8]
	]
def

/layerlen layercolorseq length def

/setlayer {/maxlayer exch def /curlayer exch def
	layercolorseq curlayer 1 sub layerlen mod get
	aload pop sethsbcolor
	/nodecolor {nopcolor} def
	/edgecolor {nopcolor} def
	/graphcolor {nopcolor} def
} bind def

/onlayer { curlayer ne {invis} if } def

/onlayers {
	/myupper exch def
	/mylower exch def
	curlayer mylower lt
	curlayer myupper gt
	or
	{invis} if
} def

/curlayer 0 def

%%EndResource
%%EndProlog
%%BeginSetup
14 default-font-family set_font
1 setmiterlimit
% /arrowlength 10 def
% /arrowwidth 5 def

% make sure pdfmark is harmless for PS-interpreters other than Distiller
/pdfmark where {pop} {userdict /pdfmark /cleartomark load put} ifelse
% make '<<' and '>>' safe on PS Level 1 devices
/languagelevel where {pop languagelevel}{1} ifelse
2 lt {
    userdict (<<) cvn ([) cvn load put
    userdict (>>) cvn ([) cvn load put
} if

%%EndSetup
setupLatin1
%%Page: 1 1
%%PageBoundingBox: 36 36 1483 2158
%%PageOrientation: Portrait
0 0 1 beginpage
gsave
36 36 1447 2122 boxprim clip newpath
1 1 set_scale 0 rotate 40 40 translate
% stats
gsave
1 setlinewidth
0 0 0 nodecolor
newpath 150 2114 moveto
150 2114 12 2114 12 2114 curveto
6 2114 0 2108 0 2102 curveto
0 2102 0 2028 0 2028 curveto
0 2022 6 2016 12 2016 curveto
12 2016 150 2016 150 2016 curveto
156 2016 162 2022 162 2028 curveto
162 2028 162 2102 162 2102 curveto
162 2108 156 2114 150 2114 curveto
stroke
0 0 0 nodecolor
14 /Times-Roman set_font
8 2098.8 moveto 67 (# nodes: 37) alignedtext
0 0 0 nodecolor
14 /Times-Roman set_font
8 2083.8 moveto 67 (# edges: 37) alignedtext
0 0 0 nodecolor
14 /Times-Roman set_font
8 2068.8 moveto 116 (graph density: 0.028) alignedtext
0 0 0 nodecolor
14 /Times-Roman set_font
8 2053.8 moveto 146 (outdegree positive min: 1) alignedtext
0 0 0 nodecolor
14 /Times-Roman set_font
8 2038.8 moveto 100 (outdegree max: 2) alignedtext
0 0 0 nodecolor
14 /Times-Roman set_font
8 2023.8 moveto 122 (outdegree avg: 1.000) alignedtext
grestore
% config
gsave
1 setlinewidth
0 0 0 nodecolor
newpath 285.5 2106.5 moveto
285.5 2106.5 192.5 2106.5 192.5 2106.5 curveto
186.5 2106.5 180.5 2100.5 180.5 2094.5 curveto
180.5 2094.5 180.5 2035.5 180.5 2035.5 curveto
180.5 2029.5 186.5 2023.5 192.5 2023.5 curveto
192.5 2023.5 285.5 2023.5 285.5 2023.5 curveto
291.5 2023.5 297.5 2029.5 297.5 2035.5 curveto
297.5 2035.5 297.5 2094.5 297.5 2094.5 curveto
297.5 2100.5 291.5 2106.5 285.5 2106.5 curveto
stroke
0 0 0 nodecolor
14 /Times-Roman set_font
188.5 2091.3 moveto 91 (lattice: TypeSet) alignedtext
0 0 0 nodecolor
14 /Times-Roman set_font
188.5 2076.3 moveto 65 (bound: 100) alignedtext
0 0 0 nodecolor
14 /Times-Roman set_font
188.5 2061.3 moveto 101 (address: Classical) alignedtext
0 0 0 nodecolor
14 /Times-Roman set_font
188.5 2046.3 moveto 23 (step) alignedtext
0 0 0 nodecolor
14 /Times-Roman set_font
188.5 2031.3 moveto 90 (machine: AAM) alignedtext
grestore
% 0
gsave
0.33333 0.33333 1 nodecolor
newpath 1438.5 2083 moveto
315.5 2083 lineto
315.5 2047 lineto
1438.5 2047 lineto
closepath fill
1 setlinewidth
filled
0 0 0 nodecolor
newpath 1438.5 2083 moveto
315.5 2083 lineto
315.5 2047 lineto
1438.5 2047 lineto
closepath stroke
0 0 0 nodecolor
14 /Times-Roman set_font
323.5 2061.3 moveto 1107 (ev\(\(letrec \(\(fibonacci \(lambda \(n\) \(let \(\(fn_1 1\) \(fn 0\)\) \(letrec \(\(loop \(lambda \(n\) \(if \(> n 0\) \(let \(\(tmp fn\)\) \(set! fn \(+ fn fn_1\)\) \(set! fn_1 tmp\) \(loop \(- n 1\)\)\) #f\)\)\)\) \(loop n\) fn\)\)\)\)\) \(fibonacci 10\)\)\)) alignedtext
0 0 0 nodecolor
14 /Times-Roman set_font
307.5 2086.8 moveto 8 (0) alignedtext
grestore
% 1
gsave
0.33333 0.13333 1 nodecolor
newpath 937 1980 moveto
817 1980 lineto
817 1944 lineto
937 1944 lineto
closepath fill
1 setlinewidth
filled
0 0 0 nodecolor
newpath 937 1980 moveto
817 1980 lineto
817 1944 lineto
937 1944 lineto
closepath stroke
0 0 0 nodecolor
14 /Times-Roman set_font
825 1958.3 moveto 104 (ev\(\(fibonacci 10\)\)) alignedtext
0 0 0 nodecolor
14 /Times-Roman set_font
810 1983.8 moveto 7 (1) alignedtext
grestore
% 0->1
gsave
1 setlinewidth
0 0 0 edgecolor
newpath 877 2046.87 moveto
877 2031.41 877 2008.42 877 1990.41 curveto
stroke
0 0 0 edgecolor
newpath 880.5 1990.22 moveto
877 1980.22 lineto
873.5 1990.22 lineto
closepath fill
1 setlinewidth
solid
0 0 0 edgecolor
newpath 880.5 1990.22 moveto
877 1980.22 lineto
873.5 1990.22 lineto
closepath stroke
grestore
% 2
gsave
0.33333 0.13333 1 nodecolor
newpath 1298 1908 moveto
456 1908 lineto
456 1872 lineto
1298 1872 lineto
closepath fill
1 setlinewidth
filled
0 0 0 nodecolor
newpath 1298 1908 moveto
456 1908 lineto
456 1872 lineto
1298 1872 lineto
closepath stroke
0 0 0 nodecolor
14 /Times-Roman set_font
464 1886.3 moveto 826 (ev\(\(let \(\(fn_1 1\) \(fn 0\)\) \(letrec \(\(loop \(lambda \(n\) \(if \(> n 0\) \(let \(\(tmp fn\)\) \(set! fn \(+ fn fn_1\)\) \(set! fn_1 tmp\) \(loop \(- n 1\)\)\) #f\)\)\)\) \(loop n\) fn\)\)\)) alignedtext
0 0 0 nodecolor
14 /Times-Roman set_font
449 1911.8 moveto 7 (2) alignedtext
grestore
% 1->2
gsave
1 setlinewidth
0 0 0 edgecolor
newpath 877 1943.7 moveto
877 1935.98 877 1926.71 877 1918.11 curveto
stroke
0 0 0 edgecolor
newpath 880.5 1918.1 moveto
877 1908.1 lineto
873.5 1918.1 lineto
closepath fill
1 setlinewidth
solid
0 0 0 edgecolor
newpath 880.5 1918.1 moveto
877 1908.1 lineto
873.5 1918.1 lineto
closepath stroke
grestore
% 3
gsave
0.33333 0.13333 1 nodecolor
newpath 1237 1836 moveto
517 1836 lineto
517 1800 lineto
1237 1800 lineto
closepath fill
1 setlinewidth
filled
0 0 0 nodecolor
newpath 1237 1836 moveto
517 1836 lineto
517 1800 lineto
1237 1800 lineto
closepath stroke
0 0 0 nodecolor
14 /Times-Roman set_font
525 1814.3 moveto 704 (ev\(\(letrec \(\(loop \(lambda \(n\) \(if \(> n 0\) \(let \(\(tmp fn\)\) \(set! fn \(+ fn fn_1\)\) \(set! fn_1 tmp\) \(loop \(- n 1\)\)\) #f\)\)\)\) \(loop n\) fn\)\)) alignedtext
0 0 0 nodecolor
14 /Times-Roman set_font
510 1839.8 moveto 7 (3) alignedtext
grestore
% 2->3
gsave
1 setlinewidth
0 0 0 edgecolor
newpath 877 1871.7 moveto
877 1863.98 877 1854.71 877 1846.11 curveto
stroke
0 0 0 edgecolor
newpath 880.5 1846.1 moveto
877 1836.1 lineto
873.5 1846.1 lineto
closepath fill
1 setlinewidth
solid
0 0 0 edgecolor
newpath 880.5 1846.1 moveto
877 1836.1 lineto
873.5 1846.1 lineto
closepath stroke
grestore
% 4
gsave
0.33333 0.13333 1 nodecolor
newpath 920 1764 moveto
834 1764 lineto
834 1728 lineto
920 1728 lineto
closepath fill
1 setlinewidth
filled
0 0 0 nodecolor
newpath 920 1764 moveto
834 1764 lineto
834 1728 lineto
920 1728 lineto
closepath stroke
0 0 0 nodecolor
14 /Times-Roman set_font
842 1742.3 moveto 70 (ev\(\(loop n\)\)) alignedtext
0 0 0 nodecolor
14 /Times-Roman set_font
825 1767.8 moveto 9 (4) alignedtext
grestore
% 3->4
gsave
1 setlinewidth
0 0 0 edgecolor
newpath 877 1799.7 moveto
877 1791.98 877 1782.71 877 1774.11 curveto
stroke
0 0 0 edgecolor
newpath 880.5 1774.1 moveto
877 1764.1 lineto
873.5 1774.1 lineto
closepath fill
1 setlinewidth
solid
0 0 0 edgecolor
newpath 880.5 1774.1 moveto
877 1764.1 lineto
873.5 1774.1 lineto
closepath stroke
grestore
% 5
gsave
0.33333 0.13333 1 nodecolor
newpath 1120 1692 moveto
634 1692 lineto
634 1656 lineto
1120 1656 lineto
closepath fill
1 setlinewidth
filled
0 0 0 nodecolor
newpath 1120 1692 moveto
634 1692 lineto
634 1656 lineto
1120 1656 lineto
closepath stroke
0 0 0 nodecolor
14 /Times-Roman set_font
642 1670.3 moveto 470 (ev\(\(if \(> n 0\) \(let \(\(tmp fn\)\) \(set! fn \(+ fn fn_1\)\) \(set! fn_1 tmp\) \(loop \(- n 1\)\)\) #f\)\)) alignedtext
0 0 0 nodecolor
14 /Times-Roman set_font
626 1695.8 moveto 8 (5) alignedtext
grestore
% 4->5
gsave
1 setlinewidth
0 0 0 edgecolor
newpath 877 1727.7 moveto
877 1719.98 877 1710.71 877 1702.11 curveto
stroke
0 0 0 edgecolor
newpath 880.5 1702.1 moveto
877 1692.1 lineto
873.5 1702.1 lineto
closepath fill
1 setlinewidth
solid
0 0 0 edgecolor
newpath 880.5 1702.1 moveto
877 1692.1 lineto
873.5 1702.1 lineto
closepath stroke
grestore
% 6
gsave
0.33333 0.13333 1 nodecolor
newpath 917 1620 moveto
837 1620 lineto
837 1584 lineto
917 1584 lineto
closepath fill
1 setlinewidth
filled
0 0 0 nodecolor
newpath 917 1620 moveto
837 1620 lineto
837 1584 lineto
917 1584 lineto
closepath stroke
0 0 0 nodecolor
14 /Times-Roman set_font
845 1598.3 moveto 64 (ev\(\(> n 0\)\)) alignedtext
0 0 0 nodecolor
14 /Times-Roman set_font
829 1623.8 moveto 8 (6) alignedtext
grestore
% 5->6
gsave
1 setlinewidth
0 0 0 edgecolor
newpath 877 1655.7 moveto
877 1647.98 877 1638.71 877 1630.11 curveto
stroke
0 0 0 edgecolor
newpath 880.5 1630.1 moveto
877 1620.1 lineto
873.5 1630.1 lineto
closepath fill
1 setlinewidth
solid
0 0 0 edgecolor
newpath 880.5 1630.1 moveto
877 1620.1 lineto
873.5 1630.1 lineto
closepath stroke
grestore
% 7
gsave
0.66667 0.13333 1 nodecolor
newpath 911.5 1548 moveto
842.5 1548 lineto
842.5 1512 lineto
911.5 1512 lineto
closepath fill
1 setlinewidth
filled
0 0 0 nodecolor
newpath 911.5 1548 moveto
842.5 1548 lineto
842.5 1512 lineto
911.5 1512 lineto
closepath stroke
0 0 0 nodecolor
14 /Times-Roman set_font
850.5 1526.3 moveto 53 (ko\(Bool\)) alignedtext
0 0 0 nodecolor
14 /Times-Roman set_font
835.5 1551.8 moveto 7 (7) alignedtext
grestore
% 6->7
gsave
1 setlinewidth
0 0 0 edgecolor
newpath 877 1583.7 moveto
877 1575.98 877 1566.71 877 1558.11 curveto
stroke
0 0 0 edgecolor
newpath 880.5 1558.1 moveto
877 1548.1 lineto
873.5 1558.1 lineto
closepath fill
1 setlinewidth
solid
0 0 0 edgecolor
newpath 880.5 1558.1 moveto
877 1548.1 lineto
873.5 1558.1 lineto
closepath stroke
grestore
% 8
gsave
0.33333 0.13333 1 nodecolor
newpath 956 1476 moveto
552 1476 lineto
552 1440 lineto
956 1440 lineto
closepath fill
1 setlinewidth
filled
0 0 0 nodecolor
newpath 956 1476 moveto
552 1476 lineto
552 1440 lineto
956 1440 lineto
closepath stroke
0 0 0 nodecolor
14 /Times-Roman set_font
560 1454.3 moveto 388 (ev\(\(let \(\(tmp fn\)\) \(set! fn \(+ fn fn_1\)\) \(set! fn_1 tmp\) \(loop \(- n 1\)\)\)\)) alignedtext
0 0 0 nodecolor
14 /Times-Roman set_font
545 1479.8 moveto 7 (8) alignedtext
grestore
% 7->8
gsave
1 setlinewidth
0 0 0 edgecolor
newpath 846.91 1511.88 moveto
830.68 1502.64 810.46 1491.13 793.03 1481.21 curveto
stroke
0 0 0 edgecolor
newpath 794.63 1478.09 moveto
784.2 1476.19 lineto
791.16 1484.18 lineto
closepath fill
1 setlinewidth
solid
0 0 0 edgecolor
newpath 794.63 1478.09 moveto
784.2 1476.19 lineto
791.16 1484.18 lineto
closepath stroke
grestore
% 9
gsave
0.33333 0.13333 1 nodecolor
newpath 1028 1476 moveto
974 1476 lineto
974 1440 lineto
1028 1440 lineto
closepath fill
1 setlinewidth
filled
0 0 0 nodecolor
newpath 1028 1476 moveto
974 1476 lineto
974 1440 lineto
1028 1440 lineto
closepath stroke
0 0 0 nodecolor
14 /Times-Roman set_font
982.5 1454.3 moveto 37 (ev\(#f\)) alignedtext
0 0 0 nodecolor
14 /Times-Roman set_font
966 1479.8 moveto 8 (9) alignedtext
grestore
% 7->9
gsave
1 setlinewidth
0 0 0 edgecolor
newpath 907.33 1511.88 moveto
924.75 1502.04 946.73 1489.64 965.02 1479.31 curveto
stroke
0 0 0 edgecolor
newpath 966.95 1482.24 moveto
973.93 1474.28 lineto
963.5 1476.15 lineto
closepath fill
1 setlinewidth
solid
0 0 0 edgecolor
newpath 966.95 1482.24 moveto
973.93 1474.28 lineto
963.5 1476.15 lineto
closepath stroke
grestore
% 10
gsave
0.33333 0.13333 1 nodecolor
newpath 829 1404 moveto
679 1404 lineto
679 1368 lineto
829 1368 lineto
closepath fill
1 setlinewidth
filled
0 0 0 nodecolor
newpath 829 1404 moveto
679 1404 lineto
679 1368 lineto
829 1368 lineto
closepath stroke
0 0 0 nodecolor
14 /Times-Roman set_font
687 1382.3 moveto 134 (ev\(\(set! fn \(+ fn fn_1\)\)\)) alignedtext
0 0 0 nodecolor
14 /Times-Roman set_font
664 1407.8 moveto 15 (10) alignedtext
grestore
% 8->10
gsave
1 setlinewidth
0 0 0 edgecolor
newpath 754 1439.7 moveto
754 1431.98 754 1422.71 754 1414.11 curveto
stroke
0 0 0 edgecolor
newpath 757.5 1414.1 moveto
754 1404.1 lineto
750.5 1414.1 lineto
closepath fill
1 setlinewidth
solid
0 0 0 edgecolor
newpath 757.5 1414.1 moveto
754 1404.1 lineto
750.5 1414.1 lineto
closepath stroke
grestore
% 11
gsave
0.66667 0.13333 1 nodecolor
newpath 1028 1404 moveto
974 1404 lineto
974 1368 lineto
1028 1368 lineto
closepath fill
1 setlinewidth
filled
0 0 0 nodecolor
newpath 1028 1404 moveto
974 1404 lineto
974 1368 lineto
1028 1368 lineto
closepath stroke
0 0 0 nodecolor
14 /Times-Roman set_font
982 1382.3 moveto 38 (ko\(#f\)) alignedtext
0 0 0 nodecolor
14 /Times-Roman set_font
960 1407.8 moveto 14 (11) alignedtext
grestore
% 9->11
gsave
1 setlinewidth
0 0 0 edgecolor
newpath 1001 1439.7 moveto
1001 1431.98 1001 1422.71 1001 1414.11 curveto
stroke
0 0 0 edgecolor
newpath 1004.5 1414.1 moveto
1001 1404.1 lineto
997.5 1414.1 lineto
closepath fill
1 setlinewidth
solid
0 0 0 edgecolor
newpath 1004.5 1414.1 moveto
1001 1404.1 lineto
997.5 1414.1 lineto
closepath stroke
grestore
% 13
gsave
0.33333 0.13333 1 nodecolor
newpath 804.5 1332 moveto
703.5 1332 lineto
703.5 1296 lineto
804.5 1296 lineto
closepath fill
1 setlinewidth
filled
0 0 0 nodecolor
newpath 804.5 1332 moveto
703.5 1332 lineto
703.5 1296 lineto
804.5 1296 lineto
closepath stroke
0 0 0 nodecolor
14 /Times-Roman set_font
711.5 1310.3 moveto 85 (ev\(\(+ fn fn_1\)\)) alignedtext
0 0 0 nodecolor
14 /Times-Roman set_font
689.5 1335.8 moveto 14 (13) alignedtext
grestore
% 10->13
gsave
1 setlinewidth
0 0 0 edgecolor
newpath 754 1367.7 moveto
754 1359.98 754 1350.71 754 1342.11 curveto
stroke
0 0 0 edgecolor
newpath 757.5 1342.1 moveto
754 1332.1 lineto
750.5 1342.1 lineto
closepath fill
1 setlinewidth
solid
0 0 0 edgecolor
newpath 757.5 1342.1 moveto
754 1332.1 lineto
750.5 1342.1 lineto
closepath stroke
grestore
% 12
gsave
0.33333 0.13333 1 nodecolor
newpath 1028 1332 moveto
974 1332 lineto
974 1296 lineto
1028 1296 lineto
closepath fill
1 setlinewidth
filled
0 0 0 nodecolor
newpath 1028 1332 moveto
974 1332 lineto
974 1296 lineto
1028 1296 lineto
closepath stroke
0 0 0 nodecolor
14 /Times-Roman set_font
983.5 1310.3 moveto 35 (ev\(fn\)) alignedtext
0 0 0 nodecolor
14 /Times-Roman set_font
960 1335.8 moveto 14 (12) alignedtext
grestore
% 11->12
gsave
1 setlinewidth
0 0 0 edgecolor
newpath 1001 1367.7 moveto
1001 1359.98 1001 1350.71 1001 1342.11 curveto
stroke
0 0 0 edgecolor
newpath 1004.5 1342.1 moveto
1001 1332.1 lineto
997.5 1342.1 lineto
closepath fill
1 setlinewidth
solid
0 0 0 edgecolor
newpath 1004.5 1342.1 moveto
1001 1332.1 lineto
997.5 1342.1 lineto
closepath stroke
grestore
% 15
gsave
0.16667 0.33333 1 nodecolor
newpath 1029 1260 moveto
973 1260 lineto
973 1224 lineto
1029 1224 lineto
closepath fill
1 setlinewidth
filled
0 0 0 nodecolor
newpath 1029 1260 moveto
973 1260 lineto
973 1224 lineto
1029 1224 lineto
closepath stroke
0 0 0 nodecolor
14 /Times-Roman set_font
981 1238.3 moveto 40 (ko\(Int\)) alignedtext
0 0 0 nodecolor
14 /Times-Roman set_font
958 1263.8 moveto 15 (15) alignedtext
grestore
% 12->15
gsave
1 setlinewidth
0 0 0 edgecolor
newpath 1001 1295.7 moveto
1001 1287.98 1001 1278.71 1001 1270.11 curveto
stroke
0 0 0 edgecolor
newpath 1004.5 1270.1 moveto
1001 1260.1 lineto
997.5 1270.1 lineto
closepath fill
1 setlinewidth
solid
0 0 0 edgecolor
newpath 1004.5 1270.1 moveto
1001 1260.1 lineto
997.5 1270.1 lineto
closepath stroke
grestore
% 14
gsave
0.66667 0.13333 1 nodecolor
newpath 782 1260 moveto
726 1260 lineto
726 1224 lineto
782 1224 lineto
closepath fill
1 setlinewidth
filled
0 0 0 nodecolor
newpath 782 1260 moveto
726 1260 lineto
726 1224 lineto
782 1224 lineto
closepath stroke
0 0 0 nodecolor
14 /Times-Roman set_font
734 1238.3 moveto 40 (ko\(Int\)) alignedtext
0 0 0 nodecolor
14 /Times-Roman set_font
710 1263.8 moveto 16 (14) alignedtext
grestore
% 13->14
gsave
1 setlinewidth
0 0 0 edgecolor
newpath 754 1295.7 moveto
754 1287.98 754 1278.71 754 1270.11 curveto
stroke
0 0 0 edgecolor
newpath 757.5 1270.1 moveto
754 1260.1 lineto
750.5 1270.1 lineto
closepath fill
1 setlinewidth
solid
0 0 0 edgecolor
newpath 757.5 1270.1 moveto
754 1260.1 lineto
750.5 1270.1 lineto
closepath stroke
grestore
% 16
gsave
0.66667 0.13333 1 nodecolor
newpath 781 1188 moveto
727 1188 lineto
727 1152 lineto
781 1152 lineto
closepath fill
1 setlinewidth
filled
0 0 0 nodecolor
newpath 781 1188 moveto
727 1188 lineto
727 1152 lineto
781 1152 lineto
closepath stroke
0 0 0 nodecolor
14 /Times-Roman set_font
735 1166.3 moveto 38 (ko\(#f\)) alignedtext
0 0 0 nodecolor
14 /Times-Roman set_font
712 1191.8 moveto 15 (16) alignedtext
grestore
% 14->16
gsave
1 setlinewidth
0 0 0 edgecolor
newpath 754 1223.7 moveto
754 1215.98 754 1206.71 754 1198.11 curveto
stroke
0 0 0 edgecolor
newpath 757.5 1198.1 moveto
754 1188.1 lineto
750.5 1198.1 lineto
closepath fill
1 setlinewidth
solid
0 0 0 edgecolor
newpath 757.5 1198.1 moveto
754 1188.1 lineto
750.5 1198.1 lineto
closepath stroke
grestore
% 17
gsave
0.33333 0.13333 1 nodecolor
newpath 816 1116 moveto
692 1116 lineto
692 1080 lineto
816 1080 lineto
closepath fill
1 setlinewidth
filled
0 0 0 nodecolor
newpath 816 1116 moveto
692 1116 lineto
692 1080 lineto
816 1080 lineto
closepath stroke
0 0 0 nodecolor
14 /Times-Roman set_font
700 1094.3 moveto 108 (ev\(\(set! fn_1 tmp\)\)) alignedtext
0 0 0 nodecolor
14 /Times-Roman set_font
678 1119.8 moveto 14 (17) alignedtext
grestore
% 16->17
gsave
1 setlinewidth
0 0 0 edgecolor
newpath 754 1151.7 moveto
754 1143.98 754 1134.71 754 1126.11 curveto
stroke
0 0 0 edgecolor
newpath 757.5 1126.1 moveto
754 1116.1 lineto
750.5 1126.1 lineto
closepath fill
1 setlinewidth
solid
0 0 0 edgecolor
newpath 757.5 1126.1 moveto
754 1116.1 lineto
750.5 1126.1 lineto
closepath stroke
grestore
% 18
gsave
0.66667 0.13333 1 nodecolor
newpath 781 1044 moveto
727 1044 lineto
727 1008 lineto
781 1008 lineto
closepath fill
1 setlinewidth
filled
0 0 0 nodecolor
newpath 781 1044 moveto
727 1044 lineto
727 1008 lineto
781 1008 lineto
closepath stroke
0 0 0 nodecolor
14 /Times-Roman set_font
735 1022.3 moveto 38 (ko\(#f\)) alignedtext
0 0 0 nodecolor
14 /Times-Roman set_font
713 1047.8 moveto 14 (18) alignedtext
grestore
% 17->18
gsave
1 setlinewidth
0 0 0 edgecolor
newpath 754 1079.7 moveto
754 1071.98 754 1062.71 754 1054.11 curveto
stroke
0 0 0 edgecolor
newpath 757.5 1054.1 moveto
754 1044.1 lineto
750.5 1054.1 lineto
closepath fill
1 setlinewidth
solid
0 0 0 edgecolor
newpath 757.5 1054.1 moveto
754 1044.1 lineto
750.5 1054.1 lineto
closepath stroke
grestore
% 19
gsave
0.33333 0.13333 1 nodecolor
newpath 811.5 972 moveto
696.5 972 lineto
696.5 936 lineto
811.5 936 lineto
closepath fill
1 setlinewidth
filled
0 0 0 nodecolor
newpath 811.5 972 moveto
696.5 972 lineto
696.5 936 lineto
811.5 936 lineto
closepath stroke
0 0 0 nodecolor
14 /Times-Roman set_font
704.5 950.3 moveto 99 (ev\(\(loop \(- n 1\)\)\)) alignedtext
0 0 0 nodecolor
14 /Times-Roman set_font
681.5 975.8 moveto 15 (19) alignedtext
grestore
% 18->19
gsave
1 setlinewidth
0 0 0 edgecolor
newpath 754 1007.7 moveto
754 999.98 754 990.71 754 982.11 curveto
stroke
0 0 0 edgecolor
newpath 757.5 982.1 moveto
754 972.1 lineto
750.5 982.1 lineto
closepath fill
1 setlinewidth
solid
0 0 0 edgecolor
newpath 757.5 982.1 moveto
754 972.1 lineto
750.5 982.1 lineto
closepath stroke
grestore
% 20
gsave
0.33333 0.13333 1 nodecolor
newpath 792 900 moveto
716 900 lineto
716 864 lineto
792 864 lineto
closepath fill
1 setlinewidth
filled
0 0 0 nodecolor
newpath 792 900 moveto
716 900 lineto
716 864 lineto
792 864 lineto
closepath stroke
0 0 0 nodecolor
14 /Times-Roman set_font
724 878.3 moveto 60 (ev\(\(- n 1\)\)) alignedtext
0 0 0 nodecolor
14 /Times-Roman set_font
701 903.8 moveto 15 (20) alignedtext
grestore
% 19->20
gsave
1 setlinewidth
0 0 0 edgecolor
newpath 754 935.7 moveto
754 927.98 754 918.71 754 910.11 curveto
stroke
0 0 0 edgecolor
newpath 757.5 910.1 moveto
754 900.1 lineto
750.5 910.1 lineto
closepath fill
1 setlinewidth
solid
0 0 0 edgecolor
newpath 757.5 910.1 moveto
754 900.1 lineto
750.5 910.1 lineto
closepath stroke
grestore
% 21
gsave
0.66667 0.13333 1 nodecolor
newpath 647 828 moveto
591 828 lineto
591 792 lineto
647 792 lineto
closepath fill
1 setlinewidth
filled
0 0 0 nodecolor
newpath 647 828 moveto
591 828 lineto
591 792 lineto
647 792 lineto
closepath stroke
0 0 0 nodecolor
14 /Times-Roman set_font
599 806.3 moveto 40 (ko\(Int\)) alignedtext
0 0 0 nodecolor
14 /Times-Roman set_font
577 831.8 moveto 14 (21) alignedtext
grestore
% 20->21
gsave
1 setlinewidth
0 0 0 edgecolor
newpath 720.98 863.88 moveto
701.34 853.7 676.4 840.76 656.09 830.23 curveto
stroke
0 0 0 edgecolor
newpath 657.61 827.08 moveto
647.12 825.58 lineto
654.39 833.29 lineto
closepath fill
1 setlinewidth
solid
0 0 0 edgecolor
newpath 657.61 827.08 moveto
647.12 825.58 lineto
654.39 833.29 lineto
closepath stroke
grestore
% 22
gsave
0.33333 0.13333 1 nodecolor
newpath 794 756 moveto
308 756 lineto
308 720 lineto
794 720 lineto
closepath fill
1 setlinewidth
filled
0 0 0 nodecolor
newpath 794 756 moveto
308 756 lineto
308 720 lineto
794 720 lineto
closepath stroke
0 0 0 nodecolor
14 /Times-Roman set_font
316 734.3 moveto 470 (ev\(\(if \(> n 0\) \(let \(\(tmp fn\)\) \(set! fn \(+ fn fn_1\)\) \(set! fn_1 tmp\) \(loop \(- n 1\)\)\) #f\)\)) alignedtext
0 0 0 nodecolor
14 /Times-Roman set_font
294 759.8 moveto 14 (22) alignedtext
grestore
% 21->22
gsave
1 setlinewidth
0 0 0 edgecolor
newpath 602.19 791.7 moveto
593.87 783.14 583.69 772.66 574.61 763.3 curveto
stroke
0 0 0 edgecolor
newpath 577.09 760.84 moveto
567.62 756.1 lineto
572.07 765.72 lineto
closepath fill
1 setlinewidth
solid
0 0 0 edgecolor
newpath 577.09 760.84 moveto
567.62 756.1 lineto
572.07 765.72 lineto
closepath stroke
grestore
% 23
gsave
0.33333 0.13333 1 nodecolor
newpath 591 684 moveto
511 684 lineto
511 648 lineto
591 648 lineto
closepath fill
1 setlinewidth
filled
0 0 0 nodecolor
newpath 591 684 moveto
511 684 lineto
511 648 lineto
591 648 lineto
closepath stroke
0 0 0 nodecolor
14 /Times-Roman set_font
519 662.3 moveto 64 (ev\(\(> n 0\)\)) alignedtext
0 0 0 nodecolor
14 /Times-Roman set_font
497 687.8 moveto 14 (23) alignedtext
grestore
% 22->23
gsave
1 setlinewidth
0 0 0 edgecolor
newpath 551 719.7 moveto
551 711.98 551 702.71 551 694.11 curveto
stroke
0 0 0 edgecolor
newpath 554.5 694.1 moveto
551 684.1 lineto
547.5 694.1 lineto
closepath fill
1 setlinewidth
solid
0 0 0 edgecolor
newpath 554.5 694.1 moveto
551 684.1 lineto
547.5 694.1 lineto
closepath stroke
grestore
% 24
gsave
0.66667 0.13333 1 nodecolor
newpath 585.5 612 moveto
516.5 612 lineto
516.5 576 lineto
585.5 576 lineto
closepath fill
1 setlinewidth
filled
0 0 0 nodecolor
newpath 585.5 612 moveto
516.5 612 lineto
516.5 576 lineto
585.5 576 lineto
closepath stroke
0 0 0 nodecolor
14 /Times-Roman set_font
524.5 590.3 moveto 53 (ko\(Bool\)) alignedtext
0 0 0 nodecolor
14 /Times-Roman set_font
500.5 615.8 moveto 16 (24) alignedtext
grestore
% 23->24
gsave
1 setlinewidth
0 0 0 edgecolor
newpath 551 647.7 moveto
551 639.98 551 630.71 551 622.11 curveto
stroke
0 0 0 edgecolor
newpath 554.5 622.1 moveto
551 612.1 lineto
547.5 622.1 lineto
closepath fill
1 setlinewidth
solid
0 0 0 edgecolor
newpath 554.5 622.1 moveto
551 612.1 lineto
547.5 622.1 lineto
closepath stroke
grestore
% 25
gsave
0.33333 0.13333 1 nodecolor
newpath 722 540 moveto
318 540 lineto
318 504 lineto
722 504 lineto
closepath fill
1 setlinewidth
filled
0 0 0 nodecolor
newpath 722 540 moveto
318 540 lineto
318 504 lineto
722 504 lineto
closepath stroke
0 0 0 nodecolor
14 /Times-Roman set_font
326 518.3 moveto 388 (ev\(\(let \(\(tmp fn\)\) \(set! fn \(+ fn fn_1\)\) \(set! fn_1 tmp\) \(loop \(- n 1\)\)\)\)) alignedtext
0 0 0 nodecolor
14 /Times-Roman set_font
303 543.8 moveto 15 (25) alignedtext
grestore
% 24->25
gsave
1 setlinewidth
0 0 0 edgecolor
newpath 543.34 575.7 moveto
539.81 567.73 535.54 558.1 531.63 549.26 curveto
stroke
0 0 0 edgecolor
newpath 534.82 547.83 moveto
527.57 540.1 lineto
528.42 550.67 lineto
closepath fill
1 setlinewidth
solid
0 0 0 edgecolor
newpath 534.82 547.83 moveto
527.57 540.1 lineto
528.42 550.67 lineto
closepath stroke
grestore
% 26
gsave
0.33333 0.13333 1 nodecolor
newpath 794 540 moveto
740 540 lineto
740 504 lineto
794 504 lineto
closepath fill
1 setlinewidth
filled
0 0 0 nodecolor
newpath 794 540 moveto
740 540 lineto
740 504 lineto
794 504 lineto
closepath stroke
0 0 0 nodecolor
14 /Times-Roman set_font
748.5 518.3 moveto 37 (ev\(#f\)) alignedtext
0 0 0 nodecolor
14 /Times-Roman set_font
725 543.8 moveto 15 (26) alignedtext
grestore
% 24->26
gsave
1 setlinewidth
0 0 0 edgecolor
newpath 585.7 584.49 moveto
620.33 575.63 675.12 560.59 730.13 540.06 curveto
stroke
0 0 0 edgecolor
newpath 731.56 543.26 moveto
739.67 536.44 lineto
729.08 536.71 lineto
closepath fill
1 setlinewidth
solid
0 0 0 edgecolor
newpath 731.56 543.26 moveto
739.67 536.44 lineto
729.08 536.71 lineto
closepath stroke
grestore
% 27
gsave
0.33333 0.13333 1 nodecolor
newpath 659 468 moveto
509 468 lineto
509 432 lineto
659 432 lineto
closepath fill
1 setlinewidth
filled
0 0 0 nodecolor
newpath 659 468 moveto
509 468 lineto
509 432 lineto
659 432 lineto
closepath stroke
0 0 0 nodecolor
14 /Times-Roman set_font
517 446.3 moveto 134 (ev\(\(set! fn \(+ fn fn_1\)\)\)) alignedtext
0 0 0 nodecolor
14 /Times-Roman set_font
495 471.8 moveto 14 (27) alignedtext
grestore
% 25->27
gsave
1 setlinewidth
0 0 0 edgecolor
newpath 535.82 503.7 moveto
543.57 495.22 553.04 484.86 561.52 475.58 curveto
stroke
0 0 0 edgecolor
newpath 564.2 477.85 moveto
568.36 468.1 lineto
559.03 473.12 lineto
closepath fill
1 setlinewidth
solid
0 0 0 edgecolor
newpath 564.2 477.85 moveto
568.36 468.1 lineto
559.03 473.12 lineto
closepath stroke
grestore
% 28
gsave
0.66667 0.13333 1 nodecolor
newpath 794 468 moveto
740 468 lineto
740 432 lineto
794 432 lineto
closepath fill
1 setlinewidth
filled
0 0 0 nodecolor
newpath 794 468 moveto
740 468 lineto
740 432 lineto
794 432 lineto
closepath stroke
0 0 0 nodecolor
14 /Times-Roman set_font
748 446.3 moveto 38 (ko\(#f\)) alignedtext
0 0 0 nodecolor
14 /Times-Roman set_font
726 471.8 moveto 14 (28) alignedtext
grestore
% 26->28
gsave
1 setlinewidth
0 0 0 edgecolor
newpath 767 503.7 moveto
767 495.98 767 486.71 767 478.11 curveto
stroke
0 0 0 edgecolor
newpath 770.5 478.1 moveto
767 468.1 lineto
763.5 478.1 lineto
closepath fill
1 setlinewidth
solid
0 0 0 edgecolor
newpath 770.5 478.1 moveto
767 468.1 lineto
763.5 478.1 lineto
closepath stroke
grestore
% 30
gsave
0.33333 0.13333 1 nodecolor
newpath 678.5 396 moveto
577.5 396 lineto
577.5 360 lineto
678.5 360 lineto
closepath fill
1 setlinewidth
filled
0 0 0 nodecolor
newpath 678.5 396 moveto
577.5 396 lineto
577.5 360 lineto
678.5 360 lineto
closepath stroke
0 0 0 nodecolor
14 /Times-Roman set_font
585.5 374.3 moveto 85 (ev\(\(+ fn fn_1\)\)) alignedtext
0 0 0 nodecolor
14 /Times-Roman set_font
562.5 399.8 moveto 15 (30) alignedtext
grestore
% 27->30
gsave
1 setlinewidth
0 0 0 edgecolor
newpath 594.88 431.7 moveto
599.99 423.56 606.2 413.69 611.84 404.7 curveto
stroke
0 0 0 edgecolor
newpath 614.89 406.43 moveto
617.25 396.1 lineto
608.96 402.71 lineto
closepath fill
1 setlinewidth
solid
0 0 0 edgecolor
newpath 614.89 406.43 moveto
617.25 396.1 lineto
608.96 402.71 lineto
closepath stroke
grestore
% 29
gsave
0.33333 0.13333 1 nodecolor
newpath 794 396 moveto
740 396 lineto
740 360 lineto
794 360 lineto
closepath fill
1 setlinewidth
filled
0 0 0 nodecolor
newpath 794 396 moveto
740 396 lineto
740 360 lineto
794 360 lineto
closepath stroke
0 0 0 nodecolor
14 /Times-Roman set_font
749.5 374.3 moveto 35 (ev\(fn\)) alignedtext
0 0 0 nodecolor
14 /Times-Roman set_font
725 399.8 moveto 15 (29) alignedtext
grestore
% 28->29
gsave
1 setlinewidth
0 0 0 edgecolor
newpath 767 431.7 moveto
767 423.98 767 414.71 767 406.11 curveto
stroke
0 0 0 edgecolor
newpath 770.5 406.1 moveto
767 396.1 lineto
763.5 406.1 lineto
closepath fill
1 setlinewidth
solid
0 0 0 edgecolor
newpath 770.5 406.1 moveto
767 396.1 lineto
763.5 406.1 lineto
closepath stroke
grestore
% 32
gsave
0.16667 0.33333 1 nodecolor
newpath 794 324 moveto
738 324 lineto
738 288 lineto
794 288 lineto
closepath fill
1 setlinewidth
filled
0 0 0 nodecolor
newpath 794 324 moveto
738 324 lineto
738 288 lineto
794 288 lineto
closepath stroke
0 0 0 nodecolor
14 /Times-Roman set_font
746 302.3 moveto 40 (ko\(Int\)) alignedtext
0 0 0 nodecolor
14 /Times-Roman set_font
724 327.8 moveto 14 (32) alignedtext
grestore
% 29->32
gsave
1 setlinewidth
0 0 0 edgecolor
newpath 766.75 359.7 moveto
766.64 351.98 766.51 342.71 766.39 334.11 curveto
stroke
0 0 0 edgecolor
newpath 769.89 334.05 moveto
766.24 324.1 lineto
762.89 334.15 lineto
closepath fill
1 setlinewidth
solid
0 0 0 edgecolor
newpath 769.89 334.05 moveto
766.24 324.1 lineto
762.89 334.15 lineto
closepath stroke
grestore
% 31
gsave
0.66667 0.13333 1 nodecolor
newpath 688 324 moveto
632 324 lineto
632 288 lineto
688 288 lineto
closepath fill
1 setlinewidth
filled
0 0 0 nodecolor
newpath 688 324 moveto
632 324 lineto
632 288 lineto
688 288 lineto
closepath stroke
0 0 0 nodecolor
14 /Times-Roman set_font
640 302.3 moveto 40 (ko\(Int\)) alignedtext
0 0 0 nodecolor
14 /Times-Roman set_font
618 327.8 moveto 14 (31) alignedtext
grestore
% 30->31
gsave
1 setlinewidth
0 0 0 edgecolor
newpath 635.91 359.7 moveto
639.55 351.73 643.95 342.1 647.99 333.26 curveto
stroke
0 0 0 edgecolor
newpath 651.21 334.65 moveto
652.18 324.1 lineto
644.84 331.74 lineto
closepath fill
1 setlinewidth
solid
0 0 0 edgecolor
newpath 651.21 334.65 moveto
652.18 324.1 lineto
644.84 331.74 lineto
closepath stroke
grestore
% 33
gsave
0.66667 0.13333 1 nodecolor
newpath 705 252 moveto
651 252 lineto
651 216 lineto
705 216 lineto
closepath fill
1 setlinewidth
filled
0 0 0 nodecolor
newpath 705 252 moveto
651 252 lineto
651 216 lineto
705 216 lineto
closepath stroke
0 0 0 nodecolor
14 /Times-Roman set_font
659 230.3 moveto 38 (ko\(#f\)) alignedtext
0 0 0 nodecolor
14 /Times-Roman set_font
637 255.8 moveto 14 (33) alignedtext
grestore
% 31->33
gsave
1 setlinewidth
0 0 0 edgecolor
newpath 664.45 287.7 moveto
666.45 279.9 668.87 270.51 671.1 261.83 curveto
stroke
0 0 0 edgecolor
newpath 674.5 262.66 moveto
673.6 252.1 lineto
667.72 260.92 lineto
closepath fill
1 setlinewidth
solid
0 0 0 edgecolor
newpath 674.5 262.66 moveto
673.6 252.1 lineto
667.72 260.92 lineto
closepath stroke
grestore
% 34
gsave
0.33333 0.13333 1 nodecolor
newpath 776 180 moveto
652 180 lineto
652 144 lineto
776 144 lineto
closepath fill
1 setlinewidth
filled
0 0 0 nodecolor
newpath 776 180 moveto
652 180 lineto
652 144 lineto
776 144 lineto
closepath stroke
0 0 0 nodecolor
14 /Times-Roman set_font
660 158.3 moveto 108 (ev\(\(set! fn_1 tmp\)\)) alignedtext
0 0 0 nodecolor
14 /Times-Roman set_font
636 183.8 moveto 16 (34) alignedtext
grestore
% 33->34
gsave
1 setlinewidth
0 0 0 edgecolor
newpath 686.9 215.7 moveto
691 207.73 695.95 198.1 700.49 189.26 curveto
stroke
0 0 0 edgecolor
newpath 703.74 190.6 moveto
705.2 180.1 lineto
697.52 187.4 lineto
closepath fill
1 setlinewidth
solid
0 0 0 edgecolor
newpath 703.74 190.6 moveto
705.2 180.1 lineto
697.52 187.4 lineto
closepath stroke
grestore
% 35
gsave
0.66667 0.13333 1 nodecolor
newpath 768 108 moveto
714 108 lineto
714 72 lineto
768 72 lineto
closepath fill
1 setlinewidth
filled
0 0 0 nodecolor
newpath 768 108 moveto
714 108 lineto
714 72 lineto
768 72 lineto
closepath stroke
0 0 0 nodecolor
14 /Times-Roman set_font
722 86.3 moveto 38 (ko\(#f\)) alignedtext
0 0 0 nodecolor
14 /Times-Roman set_font
699 111.8 moveto 15 (35) alignedtext
grestore
% 34->35
gsave
1 setlinewidth
0 0 0 edgecolor
newpath 720.67 143.7 moveto
723.71 135.81 727.38 126.3 730.76 117.55 curveto
stroke
0 0 0 edgecolor
newpath 734.07 118.69 moveto
734.4 108.1 lineto
727.54 116.17 lineto
closepath fill
1 setlinewidth
solid
0 0 0 edgecolor
newpath 734.07 118.69 moveto
734.4 108.1 lineto
727.54 116.17 lineto
closepath stroke
grestore
% 36
gsave
0.33333 0.13333 1 nodecolor
newpath 838.5 36 moveto
723.5 36 lineto
723.5 0 lineto
838.5 0 lineto
closepath fill
1 setlinewidth
filled
0 0 0 nodecolor
newpath 838.5 36 moveto
723.5 36 lineto
723.5 0 lineto
838.5 0 lineto
closepath stroke
0 0 0 nodecolor
14 /Times-Roman set_font
731.5 14.3 moveto 99 (ev\(\(loop \(- n 1\)\)\)) alignedtext
0 0 0 nodecolor
14 /Times-Roman set_font
708.5 39.8 moveto 15 (36) alignedtext
grestore
% 35->36
gsave
1 setlinewidth
0 0 0 edgecolor
newpath 750.89 71.7 moveto
755.49 63.64 761.06 53.89 766.15 44.98 curveto
stroke
0 0 0 edgecolor
newpath 769.3 46.52 moveto
771.23 36.1 lineto
763.23 43.05 lineto
closepath fill
1 setlinewidth
solid
0 0 0 edgecolor
newpath 769.3 46.52 moveto
771.23 36.1 lineto
763.23 43.05 lineto
closepath stroke
grestore
% 36->20
gsave
1 setlinewidth
0 0 0 edgecolor
newpath 789.3 36.03 moveto
801.28 62.23 822 114.3 822 161 curveto
822 739 822 739 822 739 curveto
822 783.4 794.63 828.62 774.62 855.75 curveto
stroke
0 0 0 edgecolor
newpath 771.69 853.82 moveto
768.42 863.89 lineto
777.26 858.05 lineto
closepath fill
1 setlinewidth
solid
0 0 0 edgecolor
newpath 771.69 853.82 moveto
768.42 863.89 lineto
777.26 858.05 lineto
closepath stroke
grestore
endpage
showpage
grestore
%%PageTrailer
%%EndPage: 1
%%Trailer
end
restore
%%EOF
