%!PS-Adobe-3.0 EPSF-3.0
%%Creator: graphviz version 2.38.0 (20140413.2041)
%%Title: Scala-Par-AM Scheme-examples/OPi/linear_10.scm
%%Pages: 1
%%BoundingBox: 36 36 1007 2302
%%EndComments
save
%%BeginProlog
/DotDict 200 dict def
DotDict begin

/setupLatin1 {
mark
/EncodingVector 256 array def
 EncodingVector 0

ISOLatin1Encoding 0 255 getinterval putinterval
EncodingVector 45 /hyphen put

% Set up ISO Latin 1 character encoding
/starnetISO {
        dup dup findfont dup length dict begin
        { 1 index /FID ne { def }{ pop pop } ifelse
        } forall
        /Encoding EncodingVector def
        currentdict end definefont
} def
/Times-Roman starnetISO def
/Times-Italic starnetISO def
/Times-Bold starnetISO def
/Times-BoldItalic starnetISO def
/Helvetica starnetISO def
/Helvetica-Oblique starnetISO def
/Helvetica-Bold starnetISO def
/Helvetica-BoldOblique starnetISO def
/Courier starnetISO def
/Courier-Oblique starnetISO def
/Courier-Bold starnetISO def
/Courier-BoldOblique starnetISO def
cleartomark
} bind def

%%BeginResource: procset graphviz 0 0
/coord-font-family /Times-Roman def
/default-font-family /Times-Roman def
/coordfont coord-font-family findfont 8 scalefont def

/InvScaleFactor 1.0 def
/set_scale {
       dup 1 exch div /InvScaleFactor exch def
       scale
} bind def

% styles
/solid { [] 0 setdash } bind def
/dashed { [9 InvScaleFactor mul dup ] 0 setdash } bind def
/dotted { [1 InvScaleFactor mul 6 InvScaleFactor mul] 0 setdash } bind def
/invis {/fill {newpath} def /stroke {newpath} def /show {pop newpath} def} bind def
/bold { 2 setlinewidth } bind def
/filled { } bind def
/unfilled { } bind def
/rounded { } bind def
/diagonals { } bind def
/tapered { } bind def

% hooks for setting color 
/nodecolor { sethsbcolor } bind def
/edgecolor { sethsbcolor } bind def
/graphcolor { sethsbcolor } bind def
/nopcolor {pop pop pop} bind def

/beginpage {	% i j npages
	/npages exch def
	/j exch def
	/i exch def
	/str 10 string def
	npages 1 gt {
		gsave
			coordfont setfont
			0 0 moveto
			(\() show i str cvs show (,) show j str cvs show (\)) show
		grestore
	} if
} bind def

/set_font {
	findfont exch
	scalefont setfont
} def

% draw text fitted to its expected width
/alignedtext {			% width text
	/text exch def
	/width exch def
	gsave
		width 0 gt {
			[] 0 setdash
			text stringwidth pop width exch sub text length div 0 text ashow
		} if
	grestore
} def

/boxprim {				% xcorner ycorner xsize ysize
		4 2 roll
		moveto
		2 copy
		exch 0 rlineto
		0 exch rlineto
		pop neg 0 rlineto
		closepath
} bind def

/ellipse_path {
	/ry exch def
	/rx exch def
	/y exch def
	/x exch def
	matrix currentmatrix
	newpath
	x y translate
	rx ry scale
	0 0 1 0 360 arc
	setmatrix
} bind def

/endpage { showpage } bind def
/showpage { } def

/layercolorseq
	[	% layer color sequence - darkest to lightest
		[0 0 0]
		[.2 .8 .8]
		[.4 .8 .8]
		[.6 .8 .8]
		[.8 .8 .8]
	]
def

/layerlen layercolorseq length def

/setlayer {/maxlayer exch def /curlayer exch def
	layercolorseq curlayer 1 sub layerlen mod get
	aload pop sethsbcolor
	/nodecolor {nopcolor} def
	/edgecolor {nopcolor} def
	/graphcolor {nopcolor} def
} bind def

/onlayer { curlayer ne {invis} if } def

/onlayers {
	/myupper exch def
	/mylower exch def
	curlayer mylower lt
	curlayer myupper gt
	or
	{invis} if
} def

/curlayer 0 def

%%EndResource
%%EndProlog
%%BeginSetup
14 default-font-family set_font
1 setmiterlimit
% /arrowlength 10 def
% /arrowwidth 5 def

% make sure pdfmark is harmless for PS-interpreters other than Distiller
/pdfmark where {pop} {userdict /pdfmark /cleartomark load put} ifelse
% make '<<' and '>>' safe on PS Level 1 devices
/languagelevel where {pop languagelevel}{1} ifelse
2 lt {
    userdict (<<) cvn ([) cvn load put
    userdict (>>) cvn ([) cvn load put
} if

%%EndSetup
setupLatin1
%%Page: 1 1
%%PageBoundingBox: 36 36 1007 2302
%%PageOrientation: Portrait
0 0 1 beginpage
gsave
36 36 971 2266 boxprim clip newpath
1 1 set_scale 0 rotate 40 40 translate
% stats
gsave
1 setlinewidth
0 0 0 nodecolor
newpath 150 2258 moveto
150 2258 12 2258 12 2258 curveto
6 2258 0 2252 0 2246 curveto
0 2246 0 2172 0 2172 curveto
0 2166 6 2160 12 2160 curveto
12 2160 150 2160 150 2160 curveto
156 2160 162 2166 162 2172 curveto
162 2172 162 2246 162 2246 curveto
162 2252 156 2258 150 2258 curveto
stroke
0 0 0 nodecolor
14 /Times-Roman set_font
8 2242.8 moveto 67 (# nodes: 31) alignedtext
0 0 0 nodecolor
14 /Times-Roman set_font
8 2227.8 moveto 68 (# edges: 30) alignedtext
0 0 0 nodecolor
14 /Times-Roman set_font
8 2212.8 moveto 116 (graph density: 0.032) alignedtext
0 0 0 nodecolor
14 /Times-Roman set_font
8 2197.8 moveto 146 (outdegree positive min: 1) alignedtext
0 0 0 nodecolor
14 /Times-Roman set_font
8 2182.8 moveto 100 (outdegree max: 1) alignedtext
0 0 0 nodecolor
14 /Times-Roman set_font
8 2167.8 moveto 122 (outdegree avg: 0.968) alignedtext
grestore
% config
gsave
1 setlinewidth
0 0 0 nodecolor
newpath 285.5 2250.5 moveto
285.5 2250.5 192.5 2250.5 192.5 2250.5 curveto
186.5 2250.5 180.5 2244.5 180.5 2238.5 curveto
180.5 2238.5 180.5 2179.5 180.5 2179.5 curveto
180.5 2173.5 186.5 2167.5 192.5 2167.5 curveto
192.5 2167.5 285.5 2167.5 285.5 2167.5 curveto
291.5 2167.5 297.5 2173.5 297.5 2179.5 curveto
297.5 2179.5 297.5 2238.5 297.5 2238.5 curveto
297.5 2244.5 291.5 2250.5 285.5 2250.5 curveto
stroke
0 0 0 nodecolor
14 /Times-Roman set_font
188.5 2235.3 moveto 91 (lattice: TypeSet) alignedtext
0 0 0 nodecolor
14 /Times-Roman set_font
188.5 2220.3 moveto 65 (bound: 100) alignedtext
0 0 0 nodecolor
14 /Times-Roman set_font
188.5 2205.3 moveto 101 (address: Classical) alignedtext
0 0 0 nodecolor
14 /Times-Roman set_font
188.5 2190.3 moveto 23 (step) alignedtext
0 0 0 nodecolor
14 /Times-Roman set_font
188.5 2175.3 moveto 90 (machine: AAM) alignedtext
grestore
% 0
gsave
0.33333 0.33333 1 nodecolor
newpath 962.5 2227 moveto
315.5 2227 lineto
315.5 2191 lineto
962.5 2191 lineto
closepath fill
1 setlinewidth
filled
0 0 0 nodecolor
newpath 962.5 2227 moveto
315.5 2227 lineto
315.5 2191 lineto
962.5 2191 lineto
closepath stroke
0 0 0 nodecolor
14 /Times-Roman set_font
323.5 2205.3 moveto 631 (ev\(\(begin \(begin 1\) \(begin 2\) \(begin 3\) \(begin 4\) \(begin 5\) \(begin 6\) \(begin 7\) \(begin 8\) \(begin 9\) \(begin 10\)\)\)) alignedtext
0 0 0 nodecolor
14 /Times-Roman set_font
307.5 2230.8 moveto 8 (0) alignedtext
grestore
% 1
gsave
0.33333 0.13333 1 nodecolor
newpath 685 2124 moveto
593 2124 lineto
593 2088 lineto
685 2088 lineto
closepath fill
1 setlinewidth
filled
0 0 0 nodecolor
newpath 685 2124 moveto
593 2124 lineto
593 2088 lineto
685 2088 lineto
closepath stroke
0 0 0 nodecolor
14 /Times-Roman set_font
601 2102.3 moveto 76 (ev\(\(begin 1\)\)) alignedtext
0 0 0 nodecolor
14 /Times-Roman set_font
586 2127.8 moveto 7 (1) alignedtext
grestore
% 0->1
gsave
1 setlinewidth
0 0 0 edgecolor
newpath 639 2190.87 moveto
639 2175.41 639 2152.42 639 2134.41 curveto
stroke
0 0 0 edgecolor
newpath 642.5 2134.22 moveto
639 2124.22 lineto
635.5 2134.22 lineto
closepath fill
1 setlinewidth
solid
0 0 0 edgecolor
newpath 642.5 2134.22 moveto
639 2124.22 lineto
635.5 2134.22 lineto
closepath stroke
grestore
% 2
gsave
0.33333 0.13333 1 nodecolor
newpath 666 2052 moveto
612 2052 lineto
612 2016 lineto
666 2016 lineto
closepath fill
1 setlinewidth
filled
0 0 0 nodecolor
newpath 666 2052 moveto
612 2052 lineto
612 2016 lineto
666 2016 lineto
closepath stroke
0 0 0 nodecolor
14 /Times-Roman set_font
623.5 2030.3 moveto 31 (ev\(1\)) alignedtext
0 0 0 nodecolor
14 /Times-Roman set_font
605 2055.8 moveto 7 (2) alignedtext
grestore
% 1->2
gsave
1 setlinewidth
0 0 0 edgecolor
newpath 639 2087.7 moveto
639 2079.98 639 2070.71 639 2062.11 curveto
stroke
0 0 0 edgecolor
newpath 642.5 2062.1 moveto
639 2052.1 lineto
635.5 2062.1 lineto
closepath fill
1 setlinewidth
solid
0 0 0 edgecolor
newpath 642.5 2062.1 moveto
639 2052.1 lineto
635.5 2062.1 lineto
closepath stroke
grestore
% 3
gsave
0.66667 0.13333 1 nodecolor
newpath 667 1980 moveto
611 1980 lineto
611 1944 lineto
667 1944 lineto
closepath fill
1 setlinewidth
filled
0 0 0 nodecolor
newpath 667 1980 moveto
611 1980 lineto
611 1944 lineto
667 1944 lineto
closepath stroke
0 0 0 nodecolor
14 /Times-Roman set_font
619 1958.3 moveto 40 (ko\(Int\)) alignedtext
0 0 0 nodecolor
14 /Times-Roman set_font
604 1983.8 moveto 7 (3) alignedtext
grestore
% 2->3
gsave
1 setlinewidth
0 0 0 edgecolor
newpath 639 2015.7 moveto
639 2007.98 639 1998.71 639 1990.11 curveto
stroke
0 0 0 edgecolor
newpath 642.5 1990.1 moveto
639 1980.1 lineto
635.5 1990.1 lineto
closepath fill
1 setlinewidth
solid
0 0 0 edgecolor
newpath 642.5 1990.1 moveto
639 1980.1 lineto
635.5 1990.1 lineto
closepath stroke
grestore
% 4
gsave
0.33333 0.13333 1 nodecolor
newpath 685 1908 moveto
593 1908 lineto
593 1872 lineto
685 1872 lineto
closepath fill
1 setlinewidth
filled
0 0 0 nodecolor
newpath 685 1908 moveto
593 1908 lineto
593 1872 lineto
685 1872 lineto
closepath stroke
0 0 0 nodecolor
14 /Times-Roman set_font
601 1886.3 moveto 76 (ev\(\(begin 2\)\)) alignedtext
0 0 0 nodecolor
14 /Times-Roman set_font
584 1911.8 moveto 9 (4) alignedtext
grestore
% 3->4
gsave
1 setlinewidth
0 0 0 edgecolor
newpath 639 1943.7 moveto
639 1935.98 639 1926.71 639 1918.11 curveto
stroke
0 0 0 edgecolor
newpath 642.5 1918.1 moveto
639 1908.1 lineto
635.5 1918.1 lineto
closepath fill
1 setlinewidth
solid
0 0 0 edgecolor
newpath 642.5 1918.1 moveto
639 1908.1 lineto
635.5 1918.1 lineto
closepath stroke
grestore
% 5
gsave
0.33333 0.13333 1 nodecolor
newpath 666 1836 moveto
612 1836 lineto
612 1800 lineto
666 1800 lineto
closepath fill
1 setlinewidth
filled
0 0 0 nodecolor
newpath 666 1836 moveto
612 1836 lineto
612 1800 lineto
666 1800 lineto
closepath stroke
0 0 0 nodecolor
14 /Times-Roman set_font
623.5 1814.3 moveto 31 (ev\(2\)) alignedtext
0 0 0 nodecolor
14 /Times-Roman set_font
604 1839.8 moveto 8 (5) alignedtext
grestore
% 4->5
gsave
1 setlinewidth
0 0 0 edgecolor
newpath 639 1871.7 moveto
639 1863.98 639 1854.71 639 1846.11 curveto
stroke
0 0 0 edgecolor
newpath 642.5 1846.1 moveto
639 1836.1 lineto
635.5 1846.1 lineto
closepath fill
1 setlinewidth
solid
0 0 0 edgecolor
newpath 642.5 1846.1 moveto
639 1836.1 lineto
635.5 1846.1 lineto
closepath stroke
grestore
% 6
gsave
0.66667 0.13333 1 nodecolor
newpath 667 1764 moveto
611 1764 lineto
611 1728 lineto
667 1728 lineto
closepath fill
1 setlinewidth
filled
0 0 0 nodecolor
newpath 667 1764 moveto
611 1764 lineto
611 1728 lineto
667 1728 lineto
closepath stroke
0 0 0 nodecolor
14 /Times-Roman set_font
619 1742.3 moveto 40 (ko\(Int\)) alignedtext
0 0 0 nodecolor
14 /Times-Roman set_font
603 1767.8 moveto 8 (6) alignedtext
grestore
% 5->6
gsave
1 setlinewidth
0 0 0 edgecolor
newpath 639 1799.7 moveto
639 1791.98 639 1782.71 639 1774.11 curveto
stroke
0 0 0 edgecolor
newpath 642.5 1774.1 moveto
639 1764.1 lineto
635.5 1774.1 lineto
closepath fill
1 setlinewidth
solid
0 0 0 edgecolor
newpath 642.5 1774.1 moveto
639 1764.1 lineto
635.5 1774.1 lineto
closepath stroke
grestore
% 7
gsave
0.33333 0.13333 1 nodecolor
newpath 685 1692 moveto
593 1692 lineto
593 1656 lineto
685 1656 lineto
closepath fill
1 setlinewidth
filled
0 0 0 nodecolor
newpath 685 1692 moveto
593 1692 lineto
593 1656 lineto
685 1656 lineto
closepath stroke
0 0 0 nodecolor
14 /Times-Roman set_font
601 1670.3 moveto 76 (ev\(\(begin 3\)\)) alignedtext
0 0 0 nodecolor
14 /Times-Roman set_font
586 1695.8 moveto 7 (7) alignedtext
grestore
% 6->7
gsave
1 setlinewidth
0 0 0 edgecolor
newpath 639 1727.7 moveto
639 1719.98 639 1710.71 639 1702.11 curveto
stroke
0 0 0 edgecolor
newpath 642.5 1702.1 moveto
639 1692.1 lineto
635.5 1702.1 lineto
closepath fill
1 setlinewidth
solid
0 0 0 edgecolor
newpath 642.5 1702.1 moveto
639 1692.1 lineto
635.5 1702.1 lineto
closepath stroke
grestore
% 8
gsave
0.33333 0.13333 1 nodecolor
newpath 666 1620 moveto
612 1620 lineto
612 1584 lineto
666 1584 lineto
closepath fill
1 setlinewidth
filled
0 0 0 nodecolor
newpath 666 1620 moveto
612 1620 lineto
612 1584 lineto
666 1584 lineto
closepath stroke
0 0 0 nodecolor
14 /Times-Roman set_font
623.5 1598.3 moveto 31 (ev\(3\)) alignedtext
0 0 0 nodecolor
14 /Times-Roman set_font
605 1623.8 moveto 7 (8) alignedtext
grestore
% 7->8
gsave
1 setlinewidth
0 0 0 edgecolor
newpath 639 1655.7 moveto
639 1647.98 639 1638.71 639 1630.11 curveto
stroke
0 0 0 edgecolor
newpath 642.5 1630.1 moveto
639 1620.1 lineto
635.5 1630.1 lineto
closepath fill
1 setlinewidth
solid
0 0 0 edgecolor
newpath 642.5 1630.1 moveto
639 1620.1 lineto
635.5 1630.1 lineto
closepath stroke
grestore
% 9
gsave
0.66667 0.13333 1 nodecolor
newpath 667 1548 moveto
611 1548 lineto
611 1512 lineto
667 1512 lineto
closepath fill
1 setlinewidth
filled
0 0 0 nodecolor
newpath 667 1548 moveto
611 1548 lineto
611 1512 lineto
667 1512 lineto
closepath stroke
0 0 0 nodecolor
14 /Times-Roman set_font
619 1526.3 moveto 40 (ko\(Int\)) alignedtext
0 0 0 nodecolor
14 /Times-Roman set_font
603 1551.8 moveto 8 (9) alignedtext
grestore
% 8->9
gsave
1 setlinewidth
0 0 0 edgecolor
newpath 639 1583.7 moveto
639 1575.98 639 1566.71 639 1558.11 curveto
stroke
0 0 0 edgecolor
newpath 642.5 1558.1 moveto
639 1548.1 lineto
635.5 1558.1 lineto
closepath fill
1 setlinewidth
solid
0 0 0 edgecolor
newpath 642.5 1558.1 moveto
639 1548.1 lineto
635.5 1558.1 lineto
closepath stroke
grestore
% 10
gsave
0.33333 0.13333 1 nodecolor
newpath 685.5 1476 moveto
592.5 1476 lineto
592.5 1440 lineto
685.5 1440 lineto
closepath fill
1 setlinewidth
filled
0 0 0 nodecolor
newpath 685.5 1476 moveto
592.5 1476 lineto
592.5 1440 lineto
685.5 1440 lineto
closepath stroke
0 0 0 nodecolor
14 /Times-Roman set_font
600.5 1454.3 moveto 77 (ev\(\(begin 4\)\)) alignedtext
0 0 0 nodecolor
14 /Times-Roman set_font
577.5 1479.8 moveto 15 (10) alignedtext
grestore
% 9->10
gsave
1 setlinewidth
0 0 0 edgecolor
newpath 639 1511.7 moveto
639 1503.98 639 1494.71 639 1486.11 curveto
stroke
0 0 0 edgecolor
newpath 642.5 1486.1 moveto
639 1476.1 lineto
635.5 1486.1 lineto
closepath fill
1 setlinewidth
solid
0 0 0 edgecolor
newpath 642.5 1486.1 moveto
639 1476.1 lineto
635.5 1486.1 lineto
closepath stroke
grestore
% 11
gsave
0.33333 0.13333 1 nodecolor
newpath 666 1404 moveto
612 1404 lineto
612 1368 lineto
666 1368 lineto
closepath fill
1 setlinewidth
filled
0 0 0 nodecolor
newpath 666 1404 moveto
612 1404 lineto
612 1368 lineto
666 1368 lineto
closepath stroke
0 0 0 nodecolor
14 /Times-Roman set_font
623 1382.3 moveto 32 (ev\(4\)) alignedtext
0 0 0 nodecolor
14 /Times-Roman set_font
598 1407.8 moveto 14 (11) alignedtext
grestore
% 10->11
gsave
1 setlinewidth
0 0 0 edgecolor
newpath 639 1439.7 moveto
639 1431.98 639 1422.71 639 1414.11 curveto
stroke
0 0 0 edgecolor
newpath 642.5 1414.1 moveto
639 1404.1 lineto
635.5 1414.1 lineto
closepath fill
1 setlinewidth
solid
0 0 0 edgecolor
newpath 642.5 1414.1 moveto
639 1404.1 lineto
635.5 1414.1 lineto
closepath stroke
grestore
% 12
gsave
0.66667 0.13333 1 nodecolor
newpath 667 1332 moveto
611 1332 lineto
611 1296 lineto
667 1296 lineto
closepath fill
1 setlinewidth
filled
0 0 0 nodecolor
newpath 667 1332 moveto
611 1332 lineto
611 1296 lineto
667 1296 lineto
closepath stroke
0 0 0 nodecolor
14 /Times-Roman set_font
619 1310.3 moveto 40 (ko\(Int\)) alignedtext
0 0 0 nodecolor
14 /Times-Roman set_font
597 1335.8 moveto 14 (12) alignedtext
grestore
% 11->12
gsave
1 setlinewidth
0 0 0 edgecolor
newpath 639 1367.7 moveto
639 1359.98 639 1350.71 639 1342.11 curveto
stroke
0 0 0 edgecolor
newpath 642.5 1342.1 moveto
639 1332.1 lineto
635.5 1342.1 lineto
closepath fill
1 setlinewidth
solid
0 0 0 edgecolor
newpath 642.5 1342.1 moveto
639 1332.1 lineto
635.5 1342.1 lineto
closepath stroke
grestore
% 13
gsave
0.33333 0.13333 1 nodecolor
newpath 685 1260 moveto
593 1260 lineto
593 1224 lineto
685 1224 lineto
closepath fill
1 setlinewidth
filled
0 0 0 nodecolor
newpath 685 1260 moveto
593 1260 lineto
593 1224 lineto
685 1224 lineto
closepath stroke
0 0 0 nodecolor
14 /Times-Roman set_font
601 1238.3 moveto 76 (ev\(\(begin 5\)\)) alignedtext
0 0 0 nodecolor
14 /Times-Roman set_font
579 1263.8 moveto 14 (13) alignedtext
grestore
% 12->13
gsave
1 setlinewidth
0 0 0 edgecolor
newpath 639 1295.7 moveto
639 1287.98 639 1278.71 639 1270.11 curveto
stroke
0 0 0 edgecolor
newpath 642.5 1270.1 moveto
639 1260.1 lineto
635.5 1270.1 lineto
closepath fill
1 setlinewidth
solid
0 0 0 edgecolor
newpath 642.5 1270.1 moveto
639 1260.1 lineto
635.5 1270.1 lineto
closepath stroke
grestore
% 14
gsave
0.33333 0.13333 1 nodecolor
newpath 666 1188 moveto
612 1188 lineto
612 1152 lineto
666 1152 lineto
closepath fill
1 setlinewidth
filled
0 0 0 nodecolor
newpath 666 1188 moveto
612 1188 lineto
612 1152 lineto
666 1152 lineto
closepath stroke
0 0 0 nodecolor
14 /Times-Roman set_font
623.5 1166.3 moveto 31 (ev\(5\)) alignedtext
0 0 0 nodecolor
14 /Times-Roman set_font
596 1191.8 moveto 16 (14) alignedtext
grestore
% 13->14
gsave
1 setlinewidth
0 0 0 edgecolor
newpath 639 1223.7 moveto
639 1215.98 639 1206.71 639 1198.11 curveto
stroke
0 0 0 edgecolor
newpath 642.5 1198.1 moveto
639 1188.1 lineto
635.5 1198.1 lineto
closepath fill
1 setlinewidth
solid
0 0 0 edgecolor
newpath 642.5 1198.1 moveto
639 1188.1 lineto
635.5 1198.1 lineto
closepath stroke
grestore
% 15
gsave
0.66667 0.13333 1 nodecolor
newpath 667 1116 moveto
611 1116 lineto
611 1080 lineto
667 1080 lineto
closepath fill
1 setlinewidth
filled
0 0 0 nodecolor
newpath 667 1116 moveto
611 1116 lineto
611 1080 lineto
667 1080 lineto
closepath stroke
0 0 0 nodecolor
14 /Times-Roman set_font
619 1094.3 moveto 40 (ko\(Int\)) alignedtext
0 0 0 nodecolor
14 /Times-Roman set_font
596 1119.8 moveto 15 (15) alignedtext
grestore
% 14->15
gsave
1 setlinewidth
0 0 0 edgecolor
newpath 639 1151.7 moveto
639 1143.98 639 1134.71 639 1126.11 curveto
stroke
0 0 0 edgecolor
newpath 642.5 1126.1 moveto
639 1116.1 lineto
635.5 1126.1 lineto
closepath fill
1 setlinewidth
solid
0 0 0 edgecolor
newpath 642.5 1126.1 moveto
639 1116.1 lineto
635.5 1126.1 lineto
closepath stroke
grestore
% 16
gsave
0.33333 0.13333 1 nodecolor
newpath 685 1044 moveto
593 1044 lineto
593 1008 lineto
685 1008 lineto
closepath fill
1 setlinewidth
filled
0 0 0 nodecolor
newpath 685 1044 moveto
593 1044 lineto
593 1008 lineto
685 1008 lineto
closepath stroke
0 0 0 nodecolor
14 /Times-Roman set_font
601 1022.3 moveto 76 (ev\(\(begin 6\)\)) alignedtext
0 0 0 nodecolor
14 /Times-Roman set_font
578 1047.8 moveto 15 (16) alignedtext
grestore
% 15->16
gsave
1 setlinewidth
0 0 0 edgecolor
newpath 639 1079.7 moveto
639 1071.98 639 1062.71 639 1054.11 curveto
stroke
0 0 0 edgecolor
newpath 642.5 1054.1 moveto
639 1044.1 lineto
635.5 1054.1 lineto
closepath fill
1 setlinewidth
solid
0 0 0 edgecolor
newpath 642.5 1054.1 moveto
639 1044.1 lineto
635.5 1054.1 lineto
closepath stroke
grestore
% 17
gsave
0.33333 0.13333 1 nodecolor
newpath 666 972 moveto
612 972 lineto
612 936 lineto
666 936 lineto
closepath fill
1 setlinewidth
filled
0 0 0 nodecolor
newpath 666 972 moveto
612 972 lineto
612 936 lineto
666 936 lineto
closepath stroke
0 0 0 nodecolor
14 /Times-Roman set_font
623.5 950.3 moveto 31 (ev\(6\)) alignedtext
0 0 0 nodecolor
14 /Times-Roman set_font
598 975.8 moveto 14 (17) alignedtext
grestore
% 16->17
gsave
1 setlinewidth
0 0 0 edgecolor
newpath 639 1007.7 moveto
639 999.98 639 990.71 639 982.11 curveto
stroke
0 0 0 edgecolor
newpath 642.5 982.1 moveto
639 972.1 lineto
635.5 982.1 lineto
closepath fill
1 setlinewidth
solid
0 0 0 edgecolor
newpath 642.5 982.1 moveto
639 972.1 lineto
635.5 982.1 lineto
closepath stroke
grestore
% 18
gsave
0.66667 0.13333 1 nodecolor
newpath 667 900 moveto
611 900 lineto
611 864 lineto
667 864 lineto
closepath fill
1 setlinewidth
filled
0 0 0 nodecolor
newpath 667 900 moveto
611 900 lineto
611 864 lineto
667 864 lineto
closepath stroke
0 0 0 nodecolor
14 /Times-Roman set_font
619 878.3 moveto 40 (ko\(Int\)) alignedtext
0 0 0 nodecolor
14 /Times-Roman set_font
597 903.8 moveto 14 (18) alignedtext
grestore
% 17->18
gsave
1 setlinewidth
0 0 0 edgecolor
newpath 639 935.7 moveto
639 927.98 639 918.71 639 910.11 curveto
stroke
0 0 0 edgecolor
newpath 642.5 910.1 moveto
639 900.1 lineto
635.5 910.1 lineto
closepath fill
1 setlinewidth
solid
0 0 0 edgecolor
newpath 642.5 910.1 moveto
639 900.1 lineto
635.5 910.1 lineto
closepath stroke
grestore
% 19
gsave
0.33333 0.13333 1 nodecolor
newpath 685 828 moveto
593 828 lineto
593 792 lineto
685 792 lineto
closepath fill
1 setlinewidth
filled
0 0 0 nodecolor
newpath 685 828 moveto
593 828 lineto
593 792 lineto
685 792 lineto
closepath stroke
0 0 0 nodecolor
14 /Times-Roman set_font
601 806.3 moveto 76 (ev\(\(begin 7\)\)) alignedtext
0 0 0 nodecolor
14 /Times-Roman set_font
578 831.8 moveto 15 (19) alignedtext
grestore
% 18->19
gsave
1 setlinewidth
0 0 0 edgecolor
newpath 639 863.7 moveto
639 855.98 639 846.71 639 838.11 curveto
stroke
0 0 0 edgecolor
newpath 642.5 838.1 moveto
639 828.1 lineto
635.5 838.1 lineto
closepath fill
1 setlinewidth
solid
0 0 0 edgecolor
newpath 642.5 838.1 moveto
639 828.1 lineto
635.5 838.1 lineto
closepath stroke
grestore
% 20
gsave
0.33333 0.13333 1 nodecolor
newpath 666 756 moveto
612 756 lineto
612 720 lineto
666 720 lineto
closepath fill
1 setlinewidth
filled
0 0 0 nodecolor
newpath 666 756 moveto
612 756 lineto
612 720 lineto
666 720 lineto
closepath stroke
0 0 0 nodecolor
14 /Times-Roman set_font
623.5 734.3 moveto 31 (ev\(7\)) alignedtext
0 0 0 nodecolor
14 /Times-Roman set_font
597 759.8 moveto 15 (20) alignedtext
grestore
% 19->20
gsave
1 setlinewidth
0 0 0 edgecolor
newpath 639 791.7 moveto
639 783.98 639 774.71 639 766.11 curveto
stroke
0 0 0 edgecolor
newpath 642.5 766.1 moveto
639 756.1 lineto
635.5 766.1 lineto
closepath fill
1 setlinewidth
solid
0 0 0 edgecolor
newpath 642.5 766.1 moveto
639 756.1 lineto
635.5 766.1 lineto
closepath stroke
grestore
% 21
gsave
0.66667 0.13333 1 nodecolor
newpath 667 684 moveto
611 684 lineto
611 648 lineto
667 648 lineto
closepath fill
1 setlinewidth
filled
0 0 0 nodecolor
newpath 667 684 moveto
611 684 lineto
611 648 lineto
667 648 lineto
closepath stroke
0 0 0 nodecolor
14 /Times-Roman set_font
619 662.3 moveto 40 (ko\(Int\)) alignedtext
0 0 0 nodecolor
14 /Times-Roman set_font
597 687.8 moveto 14 (21) alignedtext
grestore
% 20->21
gsave
1 setlinewidth
0 0 0 edgecolor
newpath 639 719.7 moveto
639 711.98 639 702.71 639 694.11 curveto
stroke
0 0 0 edgecolor
newpath 642.5 694.1 moveto
639 684.1 lineto
635.5 694.1 lineto
closepath fill
1 setlinewidth
solid
0 0 0 edgecolor
newpath 642.5 694.1 moveto
639 684.1 lineto
635.5 694.1 lineto
closepath stroke
grestore
% 22
gsave
0.33333 0.13333 1 nodecolor
newpath 685 612 moveto
593 612 lineto
593 576 lineto
685 576 lineto
closepath fill
1 setlinewidth
filled
0 0 0 nodecolor
newpath 685 612 moveto
593 612 lineto
593 576 lineto
685 576 lineto
closepath stroke
0 0 0 nodecolor
14 /Times-Roman set_font
601 590.3 moveto 76 (ev\(\(begin 8\)\)) alignedtext
0 0 0 nodecolor
14 /Times-Roman set_font
579 615.8 moveto 14 (22) alignedtext
grestore
% 21->22
gsave
1 setlinewidth
0 0 0 edgecolor
newpath 639 647.7 moveto
639 639.98 639 630.71 639 622.11 curveto
stroke
0 0 0 edgecolor
newpath 642.5 622.1 moveto
639 612.1 lineto
635.5 622.1 lineto
closepath fill
1 setlinewidth
solid
0 0 0 edgecolor
newpath 642.5 622.1 moveto
639 612.1 lineto
635.5 622.1 lineto
closepath stroke
grestore
% 23
gsave
0.33333 0.13333 1 nodecolor
newpath 666 540 moveto
612 540 lineto
612 504 lineto
666 504 lineto
closepath fill
1 setlinewidth
filled
0 0 0 nodecolor
newpath 666 540 moveto
612 540 lineto
612 504 lineto
666 504 lineto
closepath stroke
0 0 0 nodecolor
14 /Times-Roman set_font
623.5 518.3 moveto 31 (ev\(8\)) alignedtext
0 0 0 nodecolor
14 /Times-Roman set_font
598 543.8 moveto 14 (23) alignedtext
grestore
% 22->23
gsave
1 setlinewidth
0 0 0 edgecolor
newpath 639 575.7 moveto
639 567.98 639 558.71 639 550.11 curveto
stroke
0 0 0 edgecolor
newpath 642.5 550.1 moveto
639 540.1 lineto
635.5 550.1 lineto
closepath fill
1 setlinewidth
solid
0 0 0 edgecolor
newpath 642.5 550.1 moveto
639 540.1 lineto
635.5 550.1 lineto
closepath stroke
grestore
% 24
gsave
0.66667 0.13333 1 nodecolor
newpath 667 468 moveto
611 468 lineto
611 432 lineto
667 432 lineto
closepath fill
1 setlinewidth
filled
0 0 0 nodecolor
newpath 667 468 moveto
611 468 lineto
611 432 lineto
667 432 lineto
closepath stroke
0 0 0 nodecolor
14 /Times-Roman set_font
619 446.3 moveto 40 (ko\(Int\)) alignedtext
0 0 0 nodecolor
14 /Times-Roman set_font
595 471.8 moveto 16 (24) alignedtext
grestore
% 23->24
gsave
1 setlinewidth
0 0 0 edgecolor
newpath 639 503.7 moveto
639 495.98 639 486.71 639 478.11 curveto
stroke
0 0 0 edgecolor
newpath 642.5 478.1 moveto
639 468.1 lineto
635.5 478.1 lineto
closepath fill
1 setlinewidth
solid
0 0 0 edgecolor
newpath 642.5 478.1 moveto
639 468.1 lineto
635.5 478.1 lineto
closepath stroke
grestore
% 25
gsave
0.33333 0.13333 1 nodecolor
newpath 685 396 moveto
593 396 lineto
593 360 lineto
685 360 lineto
closepath fill
1 setlinewidth
filled
0 0 0 nodecolor
newpath 685 396 moveto
593 396 lineto
593 360 lineto
685 360 lineto
closepath stroke
0 0 0 nodecolor
14 /Times-Roman set_font
601 374.3 moveto 76 (ev\(\(begin 9\)\)) alignedtext
0 0 0 nodecolor
14 /Times-Roman set_font
578 399.8 moveto 15 (25) alignedtext
grestore
% 24->25
gsave
1 setlinewidth
0 0 0 edgecolor
newpath 639 431.7 moveto
639 423.98 639 414.71 639 406.11 curveto
stroke
0 0 0 edgecolor
newpath 642.5 406.1 moveto
639 396.1 lineto
635.5 406.1 lineto
closepath fill
1 setlinewidth
solid
0 0 0 edgecolor
newpath 642.5 406.1 moveto
639 396.1 lineto
635.5 406.1 lineto
closepath stroke
grestore
% 26
gsave
0.33333 0.13333 1 nodecolor
newpath 666 324 moveto
612 324 lineto
612 288 lineto
666 288 lineto
closepath fill
1 setlinewidth
filled
0 0 0 nodecolor
newpath 666 324 moveto
612 324 lineto
612 288 lineto
666 288 lineto
closepath stroke
0 0 0 nodecolor
14 /Times-Roman set_font
623.5 302.3 moveto 31 (ev\(9\)) alignedtext
0 0 0 nodecolor
14 /Times-Roman set_font
597 327.8 moveto 15 (26) alignedtext
grestore
% 25->26
gsave
1 setlinewidth
0 0 0 edgecolor
newpath 639 359.7 moveto
639 351.98 639 342.71 639 334.11 curveto
stroke
0 0 0 edgecolor
newpath 642.5 334.1 moveto
639 324.1 lineto
635.5 334.1 lineto
closepath fill
1 setlinewidth
solid
0 0 0 edgecolor
newpath 642.5 334.1 moveto
639 324.1 lineto
635.5 334.1 lineto
closepath stroke
grestore
% 27
gsave
0.66667 0.13333 1 nodecolor
newpath 667 252 moveto
611 252 lineto
611 216 lineto
667 216 lineto
closepath fill
1 setlinewidth
filled
0 0 0 nodecolor
newpath 667 252 moveto
611 252 lineto
611 216 lineto
667 216 lineto
closepath stroke
0 0 0 nodecolor
14 /Times-Roman set_font
619 230.3 moveto 40 (ko\(Int\)) alignedtext
0 0 0 nodecolor
14 /Times-Roman set_font
597 255.8 moveto 14 (27) alignedtext
grestore
% 26->27
gsave
1 setlinewidth
0 0 0 edgecolor
newpath 639 287.7 moveto
639 279.98 639 270.71 639 262.11 curveto
stroke
0 0 0 edgecolor
newpath 642.5 262.1 moveto
639 252.1 lineto
635.5 262.1 lineto
closepath fill
1 setlinewidth
solid
0 0 0 edgecolor
newpath 642.5 262.1 moveto
639 252.1 lineto
635.5 262.1 lineto
closepath stroke
grestore
% 28
gsave
0.33333 0.13333 1 nodecolor
newpath 688.5 180 moveto
589.5 180 lineto
589.5 144 lineto
688.5 144 lineto
closepath fill
1 setlinewidth
filled
0 0 0 nodecolor
newpath 688.5 180 moveto
589.5 180 lineto
589.5 144 lineto
688.5 144 lineto
closepath stroke
0 0 0 nodecolor
14 /Times-Roman set_font
597.5 158.3 moveto 83 (ev\(\(begin 10\)\)) alignedtext
0 0 0 nodecolor
14 /Times-Roman set_font
575.5 183.8 moveto 14 (28) alignedtext
grestore
% 27->28
gsave
1 setlinewidth
0 0 0 edgecolor
newpath 639 215.7 moveto
639 207.98 639 198.71 639 190.11 curveto
stroke
0 0 0 edgecolor
newpath 642.5 190.1 moveto
639 180.1 lineto
635.5 190.1 lineto
closepath fill
1 setlinewidth
solid
0 0 0 edgecolor
newpath 642.5 190.1 moveto
639 180.1 lineto
635.5 190.1 lineto
closepath stroke
grestore
% 29
gsave
0.33333 0.13333 1 nodecolor
newpath 666 108 moveto
612 108 lineto
612 72 lineto
666 72 lineto
closepath fill
1 setlinewidth
filled
0 0 0 nodecolor
newpath 666 108 moveto
612 108 lineto
612 72 lineto
666 72 lineto
closepath stroke
0 0 0 nodecolor
14 /Times-Roman set_font
620 86.3 moveto 38 (ev\(10\)) alignedtext
0 0 0 nodecolor
14 /Times-Roman set_font
597 111.8 moveto 15 (29) alignedtext
grestore
% 28->29
gsave
1 setlinewidth
0 0 0 edgecolor
newpath 639 143.7 moveto
639 135.98 639 126.71 639 118.11 curveto
stroke
0 0 0 edgecolor
newpath 642.5 118.1 moveto
639 108.1 lineto
635.5 118.1 lineto
closepath fill
1 setlinewidth
solid
0 0 0 edgecolor
newpath 642.5 118.1 moveto
639 108.1 lineto
635.5 118.1 lineto
closepath stroke
grestore
% 30
gsave
0.16667 0.33333 1 nodecolor
newpath 667 36 moveto
611 36 lineto
611 0 lineto
667 0 lineto
closepath fill
1 setlinewidth
filled
0 0 0 nodecolor
newpath 667 36 moveto
611 36 lineto
611 0 lineto
667 0 lineto
closepath stroke
0 0 0 nodecolor
14 /Times-Roman set_font
619 14.3 moveto 40 (ko\(Int\)) alignedtext
0 0 0 nodecolor
14 /Times-Roman set_font
596 39.8 moveto 15 (30) alignedtext
grestore
% 29->30
gsave
1 setlinewidth
0 0 0 edgecolor
newpath 639 71.7 moveto
639 63.98 639 54.71 639 46.11 curveto
stroke
0 0 0 edgecolor
newpath 642.5 46.1 moveto
639 36.1 lineto
635.5 46.1 lineto
closepath fill
1 setlinewidth
solid
0 0 0 edgecolor
newpath 642.5 46.1 moveto
639 36.1 lineto
635.5 46.1 lineto
closepath stroke
grestore
endpage
showpage
grestore
%%PageTrailer
%%EndPage: 1
%%Trailer
end
restore
%%EOF
