%!PS-Adobe-3.0 EPSF-3.0
%%Creator: graphviz version 2.38.0 (20140413.2041)
%%Title: Scala-Par-AM Scheme-examples/OPi/linear_1.scm
%%Pages: 1
%%BoundingBox: 36 36 452 286
%%EndComments
save
%%BeginProlog
/DotDict 200 dict def
DotDict begin

/setupLatin1 {
mark
/EncodingVector 256 array def
 EncodingVector 0

ISOLatin1Encoding 0 255 getinterval putinterval
EncodingVector 45 /hyphen put

% Set up ISO Latin 1 character encoding
/starnetISO {
        dup dup findfont dup length dict begin
        { 1 index /FID ne { def }{ pop pop } ifelse
        } forall
        /Encoding EncodingVector def
        currentdict end definefont
} def
/Times-Roman starnetISO def
/Times-Italic starnetISO def
/Times-Bold starnetISO def
/Times-BoldItalic starnetISO def
/Helvetica starnetISO def
/Helvetica-Oblique starnetISO def
/Helvetica-Bold starnetISO def
/Helvetica-BoldOblique starnetISO def
/Courier starnetISO def
/Courier-Oblique starnetISO def
/Courier-Bold starnetISO def
/Courier-BoldOblique starnetISO def
cleartomark
} bind def

%%BeginResource: procset graphviz 0 0
/coord-font-family /Times-Roman def
/default-font-family /Times-Roman def
/coordfont coord-font-family findfont 8 scalefont def

/InvScaleFactor 1.0 def
/set_scale {
       dup 1 exch div /InvScaleFactor exch def
       scale
} bind def

% styles
/solid { [] 0 setdash } bind def
/dashed { [9 InvScaleFactor mul dup ] 0 setdash } bind def
/dotted { [1 InvScaleFactor mul 6 InvScaleFactor mul] 0 setdash } bind def
/invis {/fill {newpath} def /stroke {newpath} def /show {pop newpath} def} bind def
/bold { 2 setlinewidth } bind def
/filled { } bind def
/unfilled { } bind def
/rounded { } bind def
/diagonals { } bind def
/tapered { } bind def

% hooks for setting color 
/nodecolor { sethsbcolor } bind def
/edgecolor { sethsbcolor } bind def
/graphcolor { sethsbcolor } bind def
/nopcolor {pop pop pop} bind def

/beginpage {	% i j npages
	/npages exch def
	/j exch def
	/i exch def
	/str 10 string def
	npages 1 gt {
		gsave
			coordfont setfont
			0 0 moveto
			(\() show i str cvs show (,) show j str cvs show (\)) show
		grestore
	} if
} bind def

/set_font {
	findfont exch
	scalefont setfont
} def

% draw text fitted to its expected width
/alignedtext {			% width text
	/text exch def
	/width exch def
	gsave
		width 0 gt {
			[] 0 setdash
			text stringwidth pop width exch sub text length div 0 text ashow
		} if
	grestore
} def

/boxprim {				% xcorner ycorner xsize ysize
		4 2 roll
		moveto
		2 copy
		exch 0 rlineto
		0 exch rlineto
		pop neg 0 rlineto
		closepath
} bind def

/ellipse_path {
	/ry exch def
	/rx exch def
	/y exch def
	/x exch def
	matrix currentmatrix
	newpath
	x y translate
	rx ry scale
	0 0 1 0 360 arc
	setmatrix
} bind def

/endpage { showpage } bind def
/showpage { } def

/layercolorseq
	[	% layer color sequence - darkest to lightest
		[0 0 0]
		[.2 .8 .8]
		[.4 .8 .8]
		[.6 .8 .8]
		[.8 .8 .8]
	]
def

/layerlen layercolorseq length def

/setlayer {/maxlayer exch def /curlayer exch def
	layercolorseq curlayer 1 sub layerlen mod get
	aload pop sethsbcolor
	/nodecolor {nopcolor} def
	/edgecolor {nopcolor} def
	/graphcolor {nopcolor} def
} bind def

/onlayer { curlayer ne {invis} if } def

/onlayers {
	/myupper exch def
	/mylower exch def
	curlayer mylower lt
	curlayer myupper gt
	or
	{invis} if
} def

/curlayer 0 def

%%EndResource
%%EndProlog
%%BeginSetup
14 default-font-family set_font
1 setmiterlimit
% /arrowlength 10 def
% /arrowwidth 5 def

% make sure pdfmark is harmless for PS-interpreters other than Distiller
/pdfmark where {pop} {userdict /pdfmark /cleartomark load put} ifelse
% make '<<' and '>>' safe on PS Level 1 devices
/languagelevel where {pop languagelevel}{1} ifelse
2 lt {
    userdict (<<) cvn ([) cvn load put
    userdict (>>) cvn ([) cvn load put
} if

%%EndSetup
setupLatin1
%%Page: 1 1
%%PageBoundingBox: 36 36 452 286
%%PageOrientation: Portrait
0 0 1 beginpage
gsave
36 36 416 250 boxprim clip newpath
1 1 set_scale 0 rotate 40 40 translate
% stats
gsave
1 setlinewidth
0 0 0 nodecolor
newpath 150 242 moveto
150 242 12 242 12 242 curveto
6 242 0 236 0 230 curveto
0 230 0 156 0 156 curveto
0 150 6 144 12 144 curveto
12 144 150 144 150 144 curveto
156 144 162 150 162 156 curveto
162 156 162 230 162 230 curveto
162 236 156 242 150 242 curveto
stroke
0 0 0 nodecolor
14 /Times-Roman set_font
8 226.8 moveto 61 (# nodes: 3) alignedtext
0 0 0 nodecolor
14 /Times-Roman set_font
8 211.8 moveto 61 (# edges: 2) alignedtext
0 0 0 nodecolor
14 /Times-Roman set_font
8 196.8 moveto 115 (graph density: 0.333) alignedtext
0 0 0 nodecolor
14 /Times-Roman set_font
8 181.8 moveto 146 (outdegree positive min: 1) alignedtext
0 0 0 nodecolor
14 /Times-Roman set_font
8 166.8 moveto 100 (outdegree max: 1) alignedtext
0 0 0 nodecolor
14 /Times-Roman set_font
8 151.8 moveto 122 (outdegree avg: 0.667) alignedtext
grestore
% config
gsave
1 setlinewidth
0 0 0 nodecolor
newpath 285.5 234.5 moveto
285.5 234.5 192.5 234.5 192.5 234.5 curveto
186.5 234.5 180.5 228.5 180.5 222.5 curveto
180.5 222.5 180.5 163.5 180.5 163.5 curveto
180.5 157.5 186.5 151.5 192.5 151.5 curveto
192.5 151.5 285.5 151.5 285.5 151.5 curveto
291.5 151.5 297.5 157.5 297.5 163.5 curveto
297.5 163.5 297.5 222.5 297.5 222.5 curveto
297.5 228.5 291.5 234.5 285.5 234.5 curveto
stroke
0 0 0 nodecolor
14 /Times-Roman set_font
188.5 219.3 moveto 91 (lattice: TypeSet) alignedtext
0 0 0 nodecolor
14 /Times-Roman set_font
188.5 204.3 moveto 65 (bound: 100) alignedtext
0 0 0 nodecolor
14 /Times-Roman set_font
188.5 189.3 moveto 101 (address: Classical) alignedtext
0 0 0 nodecolor
14 /Times-Roman set_font
188.5 174.3 moveto 23 (step) alignedtext
0 0 0 nodecolor
14 /Times-Roman set_font
188.5 159.3 moveto 90 (machine: AAM) alignedtext
grestore
% 0
gsave
0.33333 0.33333 1 nodecolor
newpath 408 211 moveto
316 211 lineto
316 175 lineto
408 175 lineto
closepath fill
1 setlinewidth
filled
0 0 0 nodecolor
newpath 408 211 moveto
316 211 lineto
316 175 lineto
408 175 lineto
closepath stroke
0 0 0 nodecolor
14 /Times-Roman set_font
324 189.3 moveto 76 (ev\(\(begin 1\)\)) alignedtext
0 0 0 nodecolor
14 /Times-Roman set_font
308 214.8 moveto 8 (0) alignedtext
grestore
% 1
gsave
0.33333 0.13333 1 nodecolor
newpath 389 108 moveto
335 108 lineto
335 72 lineto
389 72 lineto
closepath fill
1 setlinewidth
filled
0 0 0 nodecolor
newpath 389 108 moveto
335 108 lineto
335 72 lineto
389 72 lineto
closepath stroke
0 0 0 nodecolor
14 /Times-Roman set_font
346.5 86.3 moveto 31 (ev\(1\)) alignedtext
0 0 0 nodecolor
14 /Times-Roman set_font
328 111.8 moveto 7 (1) alignedtext
grestore
% 0->1
gsave
1 setlinewidth
0 0 0 edgecolor
newpath 362 174.87 moveto
362 159.41 362 136.42 362 118.41 curveto
stroke
0 0 0 edgecolor
newpath 365.5 118.22 moveto
362 108.22 lineto
358.5 118.22 lineto
closepath fill
1 setlinewidth
solid
0 0 0 edgecolor
newpath 365.5 118.22 moveto
362 108.22 lineto
358.5 118.22 lineto
closepath stroke
grestore
% 2
gsave
0.16667 0.33333 1 nodecolor
newpath 390 36 moveto
334 36 lineto
334 0 lineto
390 0 lineto
closepath fill
1 setlinewidth
filled
0 0 0 nodecolor
newpath 390 36 moveto
334 36 lineto
334 0 lineto
390 0 lineto
closepath stroke
0 0 0 nodecolor
14 /Times-Roman set_font
342 14.3 moveto 40 (ko\(Int\)) alignedtext
0 0 0 nodecolor
14 /Times-Roman set_font
327 39.8 moveto 7 (2) alignedtext
grestore
% 1->2
gsave
1 setlinewidth
0 0 0 edgecolor
newpath 362 71.7 moveto
362 63.98 362 54.71 362 46.11 curveto
stroke
0 0 0 edgecolor
newpath 365.5 46.1 moveto
362 36.1 lineto
358.5 46.1 lineto
closepath fill
1 setlinewidth
solid
0 0 0 edgecolor
newpath 365.5 46.1 moveto
362 36.1 lineto
358.5 46.1 lineto
closepath stroke
grestore
endpage
showpage
grestore
%%PageTrailer
%%EndPage: 1
%%Trailer
end
restore
%%EOF
