%!PS-Adobe-3.0 EPSF-3.0
%%Creator: graphviz version 2.38.0 (20140413.2041)
%%Title: Scala-Par-AM Scheme-examples/OPi/inc.scm
%%Pages: 1
%%BoundingBox: 36 36 641 358
%%EndComments
save
%%BeginProlog
/DotDict 200 dict def
DotDict begin

/setupLatin1 {
mark
/EncodingVector 256 array def
 EncodingVector 0

ISOLatin1Encoding 0 255 getinterval putinterval
EncodingVector 45 /hyphen put

% Set up ISO Latin 1 character encoding
/starnetISO {
        dup dup findfont dup length dict begin
        { 1 index /FID ne { def }{ pop pop } ifelse
        } forall
        /Encoding EncodingVector def
        currentdict end definefont
} def
/Times-Roman starnetISO def
/Times-Italic starnetISO def
/Times-Bold starnetISO def
/Times-BoldItalic starnetISO def
/Helvetica starnetISO def
/Helvetica-Oblique starnetISO def
/Helvetica-Bold starnetISO def
/Helvetica-BoldOblique starnetISO def
/Courier starnetISO def
/Courier-Oblique starnetISO def
/Courier-Bold starnetISO def
/Courier-BoldOblique starnetISO def
cleartomark
} bind def

%%BeginResource: procset graphviz 0 0
/coord-font-family /Times-Roman def
/default-font-family /Times-Roman def
/coordfont coord-font-family findfont 8 scalefont def

/InvScaleFactor 1.0 def
/set_scale {
       dup 1 exch div /InvScaleFactor exch def
       scale
} bind def

% styles
/solid { [] 0 setdash } bind def
/dashed { [9 InvScaleFactor mul dup ] 0 setdash } bind def
/dotted { [1 InvScaleFactor mul 6 InvScaleFactor mul] 0 setdash } bind def
/invis {/fill {newpath} def /stroke {newpath} def /show {pop newpath} def} bind def
/bold { 2 setlinewidth } bind def
/filled { } bind def
/unfilled { } bind def
/rounded { } bind def
/diagonals { } bind def
/tapered { } bind def

% hooks for setting color 
/nodecolor { sethsbcolor } bind def
/edgecolor { sethsbcolor } bind def
/graphcolor { sethsbcolor } bind def
/nopcolor {pop pop pop} bind def

/beginpage {	% i j npages
	/npages exch def
	/j exch def
	/i exch def
	/str 10 string def
	npages 1 gt {
		gsave
			coordfont setfont
			0 0 moveto
			(\() show i str cvs show (,) show j str cvs show (\)) show
		grestore
	} if
} bind def

/set_font {
	findfont exch
	scalefont setfont
} def

% draw text fitted to its expected width
/alignedtext {			% width text
	/text exch def
	/width exch def
	gsave
		width 0 gt {
			[] 0 setdash
			text stringwidth pop width exch sub text length div 0 text ashow
		} if
	grestore
} def

/boxprim {				% xcorner ycorner xsize ysize
		4 2 roll
		moveto
		2 copy
		exch 0 rlineto
		0 exch rlineto
		pop neg 0 rlineto
		closepath
} bind def

/ellipse_path {
	/ry exch def
	/rx exch def
	/y exch def
	/x exch def
	matrix currentmatrix
	newpath
	x y translate
	rx ry scale
	0 0 1 0 360 arc
	setmatrix
} bind def

/endpage { showpage } bind def
/showpage { } def

/layercolorseq
	[	% layer color sequence - darkest to lightest
		[0 0 0]
		[.2 .8 .8]
		[.4 .8 .8]
		[.6 .8 .8]
		[.8 .8 .8]
	]
def

/layerlen layercolorseq length def

/setlayer {/maxlayer exch def /curlayer exch def
	layercolorseq curlayer 1 sub layerlen mod get
	aload pop sethsbcolor
	/nodecolor {nopcolor} def
	/edgecolor {nopcolor} def
	/graphcolor {nopcolor} def
} bind def

/onlayer { curlayer ne {invis} if } def

/onlayers {
	/myupper exch def
	/mylower exch def
	curlayer mylower lt
	curlayer myupper gt
	or
	{invis} if
} def

/curlayer 0 def

%%EndResource
%%EndProlog
%%BeginSetup
14 default-font-family set_font
1 setmiterlimit
% /arrowlength 10 def
% /arrowwidth 5 def

% make sure pdfmark is harmless for PS-interpreters other than Distiller
/pdfmark where {pop} {userdict /pdfmark /cleartomark load put} ifelse
% make '<<' and '>>' safe on PS Level 1 devices
/languagelevel where {pop languagelevel}{1} ifelse
2 lt {
    userdict (<<) cvn ([) cvn load put
    userdict (>>) cvn ([) cvn load put
} if

%%EndSetup
setupLatin1
%%Page: 1 1
%%PageBoundingBox: 36 36 641 358
%%PageOrientation: Portrait
0 0 1 beginpage
gsave
36 36 605 322 boxprim clip newpath
1 1 set_scale 0 rotate 40 40 translate
% stats
gsave
1 setlinewidth
0 0 0 nodecolor
newpath 150 314 moveto
150 314 12 314 12 314 curveto
6 314 0 308 0 302 curveto
0 302 0 228 0 228 curveto
0 222 6 216 12 216 curveto
12 216 150 216 150 216 curveto
156 216 162 222 162 228 curveto
162 228 162 302 162 302 curveto
162 308 156 314 150 314 curveto
stroke
0 0 0 nodecolor
14 /Times-Roman set_font
8 298.8 moveto 62 (# nodes: 4) alignedtext
0 0 0 nodecolor
14 /Times-Roman set_font
8 283.8 moveto 61 (# edges: 3) alignedtext
0 0 0 nodecolor
14 /Times-Roman set_font
8 268.8 moveto 117 (graph density: 0.250) alignedtext
0 0 0 nodecolor
14 /Times-Roman set_font
8 253.8 moveto 146 (outdegree positive min: 1) alignedtext
0 0 0 nodecolor
14 /Times-Roman set_font
8 238.8 moveto 100 (outdegree max: 1) alignedtext
0 0 0 nodecolor
14 /Times-Roman set_font
8 223.8 moveto 122 (outdegree avg: 0.750) alignedtext
grestore
% config
gsave
1 setlinewidth
0 0 0 nodecolor
newpath 285.5 306.5 moveto
285.5 306.5 192.5 306.5 192.5 306.5 curveto
186.5 306.5 180.5 300.5 180.5 294.5 curveto
180.5 294.5 180.5 235.5 180.5 235.5 curveto
180.5 229.5 186.5 223.5 192.5 223.5 curveto
192.5 223.5 285.5 223.5 285.5 223.5 curveto
291.5 223.5 297.5 229.5 297.5 235.5 curveto
297.5 235.5 297.5 294.5 297.5 294.5 curveto
297.5 300.5 291.5 306.5 285.5 306.5 curveto
stroke
0 0 0 nodecolor
14 /Times-Roman set_font
188.5 291.3 moveto 91 (lattice: TypeSet) alignedtext
0 0 0 nodecolor
14 /Times-Roman set_font
188.5 276.3 moveto 65 (bound: 100) alignedtext
0 0 0 nodecolor
14 /Times-Roman set_font
188.5 261.3 moveto 101 (address: Classical) alignedtext
0 0 0 nodecolor
14 /Times-Roman set_font
188.5 246.3 moveto 23 (step) alignedtext
0 0 0 nodecolor
14 /Times-Roman set_font
188.5 231.3 moveto 90 (machine: AAM) alignedtext
grestore
% 0
gsave
0.33333 0.33333 1 nodecolor
newpath 596.5 283 moveto
315.5 283 lineto
315.5 247 lineto
596.5 247 lineto
closepath fill
1 setlinewidth
filled
0 0 0 nodecolor
newpath 596.5 283 moveto
315.5 283 lineto
315.5 247 lineto
596.5 247 lineto
closepath stroke
0 0 0 nodecolor
14 /Times-Roman set_font
323.5 261.3 moveto 265 (ev\(\(letrec \(\(inc \(lambda \(x\) \(+ x 1\)\)\)\) \(inc 2\)\)\)) alignedtext
0 0 0 nodecolor
14 /Times-Roman set_font
307.5 286.8 moveto 8 (0) alignedtext
grestore
% 1
gsave
0.33333 0.13333 1 nodecolor
newpath 494.5 180 moveto
417.5 180 lineto
417.5 144 lineto
494.5 144 lineto
closepath fill
1 setlinewidth
filled
0 0 0 nodecolor
newpath 494.5 180 moveto
417.5 180 lineto
417.5 144 lineto
494.5 144 lineto
closepath stroke
0 0 0 nodecolor
14 /Times-Roman set_font
425.5 158.3 moveto 61 (ev\(\(inc 2\)\)) alignedtext
0 0 0 nodecolor
14 /Times-Roman set_font
410.5 183.8 moveto 7 (1) alignedtext
grestore
% 0->1
gsave
1 setlinewidth
0 0 0 edgecolor
newpath 456 246.87 moveto
456 231.41 456 208.42 456 190.41 curveto
stroke
0 0 0 edgecolor
newpath 459.5 190.22 moveto
456 180.22 lineto
452.5 190.22 lineto
closepath fill
1 setlinewidth
solid
0 0 0 edgecolor
newpath 459.5 190.22 moveto
456 180.22 lineto
452.5 190.22 lineto
closepath stroke
grestore
% 2
gsave
0.33333 0.13333 1 nodecolor
newpath 495.5 108 moveto
416.5 108 lineto
416.5 72 lineto
495.5 72 lineto
closepath fill
1 setlinewidth
filled
0 0 0 nodecolor
newpath 495.5 108 moveto
416.5 108 lineto
416.5 72 lineto
495.5 72 lineto
closepath stroke
0 0 0 nodecolor
14 /Times-Roman set_font
424.5 86.3 moveto 63 (ev\(\(+ x 1\)\)) alignedtext
0 0 0 nodecolor
14 /Times-Roman set_font
409.5 111.8 moveto 7 (2) alignedtext
grestore
% 1->2
gsave
1 setlinewidth
0 0 0 edgecolor
newpath 456 143.7 moveto
456 135.98 456 126.71 456 118.11 curveto
stroke
0 0 0 edgecolor
newpath 459.5 118.1 moveto
456 108.1 lineto
452.5 118.1 lineto
closepath fill
1 setlinewidth
solid
0 0 0 edgecolor
newpath 459.5 118.1 moveto
456 108.1 lineto
452.5 118.1 lineto
closepath stroke
grestore
% 3
gsave
0.16667 0.33333 1 nodecolor
newpath 484 36 moveto
428 36 lineto
428 0 lineto
484 0 lineto
closepath fill
1 setlinewidth
filled
0 0 0 nodecolor
newpath 484 36 moveto
428 36 lineto
428 0 lineto
484 0 lineto
closepath stroke
0 0 0 nodecolor
14 /Times-Roman set_font
436 14.3 moveto 40 (ko\(Int\)) alignedtext
0 0 0 nodecolor
14 /Times-Roman set_font
421 39.8 moveto 7 (3) alignedtext
grestore
% 2->3
gsave
1 setlinewidth
0 0 0 edgecolor
newpath 456 71.7 moveto
456 63.98 456 54.71 456 46.11 curveto
stroke
0 0 0 edgecolor
newpath 459.5 46.1 moveto
456 36.1 lineto
452.5 46.1 lineto
closepath fill
1 setlinewidth
solid
0 0 0 edgecolor
newpath 459.5 46.1 moveto
456 36.1 lineto
452.5 46.1 lineto
closepath stroke
grestore
endpage
showpage
grestore
%%PageTrailer
%%EndPage: 1
%%Trailer
end
restore
%%EOF
