%!PS-Adobe-3.0 EPSF-3.0
%%Creator: graphviz version 2.38.0 (20140413.2041)
%%Title: Scala-Par-AM Scheme-examples/OPi/fibonacci_iter.scm
%%Pages: 1
%%BoundingBox: 36 36 1402 1438
%%EndComments
save
%%BeginProlog
/DotDict 200 dict def
DotDict begin

/setupLatin1 {
mark
/EncodingVector 256 array def
 EncodingVector 0

ISOLatin1Encoding 0 255 getinterval putinterval
EncodingVector 45 /hyphen put

% Set up ISO Latin 1 character encoding
/starnetISO {
        dup dup findfont dup length dict begin
        { 1 index /FID ne { def }{ pop pop } ifelse
        } forall
        /Encoding EncodingVector def
        currentdict end definefont
} def
/Times-Roman starnetISO def
/Times-Italic starnetISO def
/Times-Bold starnetISO def
/Times-BoldItalic starnetISO def
/Helvetica starnetISO def
/Helvetica-Oblique starnetISO def
/Helvetica-Bold starnetISO def
/Helvetica-BoldOblique starnetISO def
/Courier starnetISO def
/Courier-Oblique starnetISO def
/Courier-Bold starnetISO def
/Courier-BoldOblique starnetISO def
cleartomark
} bind def

%%BeginResource: procset graphviz 0 0
/coord-font-family /Times-Roman def
/default-font-family /Times-Roman def
/coordfont coord-font-family findfont 8 scalefont def

/InvScaleFactor 1.0 def
/set_scale {
       dup 1 exch div /InvScaleFactor exch def
       scale
} bind def

% styles
/solid { [] 0 setdash } bind def
/dashed { [9 InvScaleFactor mul dup ] 0 setdash } bind def
/dotted { [1 InvScaleFactor mul 6 InvScaleFactor mul] 0 setdash } bind def
/invis {/fill {newpath} def /stroke {newpath} def /show {pop newpath} def} bind def
/bold { 2 setlinewidth } bind def
/filled { } bind def
/unfilled { } bind def
/rounded { } bind def
/diagonals { } bind def
/tapered { } bind def

% hooks for setting color 
/nodecolor { sethsbcolor } bind def
/edgecolor { sethsbcolor } bind def
/graphcolor { sethsbcolor } bind def
/nopcolor {pop pop pop} bind def

/beginpage {	% i j npages
	/npages exch def
	/j exch def
	/i exch def
	/str 10 string def
	npages 1 gt {
		gsave
			coordfont setfont
			0 0 moveto
			(\() show i str cvs show (,) show j str cvs show (\)) show
		grestore
	} if
} bind def

/set_font {
	findfont exch
	scalefont setfont
} def

% draw text fitted to its expected width
/alignedtext {			% width text
	/text exch def
	/width exch def
	gsave
		width 0 gt {
			[] 0 setdash
			text stringwidth pop width exch sub text length div 0 text ashow
		} if
	grestore
} def

/boxprim {				% xcorner ycorner xsize ysize
		4 2 roll
		moveto
		2 copy
		exch 0 rlineto
		0 exch rlineto
		pop neg 0 rlineto
		closepath
} bind def

/ellipse_path {
	/ry exch def
	/rx exch def
	/y exch def
	/x exch def
	matrix currentmatrix
	newpath
	x y translate
	rx ry scale
	0 0 1 0 360 arc
	setmatrix
} bind def

/endpage { showpage } bind def
/showpage { } def

/layercolorseq
	[	% layer color sequence - darkest to lightest
		[0 0 0]
		[.2 .8 .8]
		[.4 .8 .8]
		[.6 .8 .8]
		[.8 .8 .8]
	]
def

/layerlen layercolorseq length def

/setlayer {/maxlayer exch def /curlayer exch def
	layercolorseq curlayer 1 sub layerlen mod get
	aload pop sethsbcolor
	/nodecolor {nopcolor} def
	/edgecolor {nopcolor} def
	/graphcolor {nopcolor} def
} bind def

/onlayer { curlayer ne {invis} if } def

/onlayers {
	/myupper exch def
	/mylower exch def
	curlayer mylower lt
	curlayer myupper gt
	or
	{invis} if
} def

/curlayer 0 def

%%EndResource
%%EndProlog
%%BeginSetup
14 default-font-family set_font
1 setmiterlimit
% /arrowlength 10 def
% /arrowwidth 5 def

% make sure pdfmark is harmless for PS-interpreters other than Distiller
/pdfmark where {pop} {userdict /pdfmark /cleartomark load put} ifelse
% make '<<' and '>>' safe on PS Level 1 devices
/languagelevel where {pop languagelevel}{1} ifelse
2 lt {
    userdict (<<) cvn ([) cvn load put
    userdict (>>) cvn ([) cvn load put
} if

%%EndSetup
setupLatin1
%%Page: 1 1
%%PageBoundingBox: 36 36 1402 1438
%%PageOrientation: Portrait
0 0 1 beginpage
gsave
36 36 1366 1402 boxprim clip newpath
1 1 set_scale 0 rotate 40 40 translate
% stats
gsave
1 setlinewidth
0 0 0 nodecolor
newpath 150 1394 moveto
150 1394 12 1394 12 1394 curveto
6 1394 0 1388 0 1382 curveto
0 1382 0 1308 0 1308 curveto
0 1302 6 1296 12 1296 curveto
12 1296 150 1296 150 1296 curveto
156 1296 162 1302 162 1308 curveto
162 1308 162 1382 162 1382 curveto
162 1388 156 1394 150 1394 curveto
stroke
0 0 0 nodecolor
14 /Times-Roman set_font
8 1378.8 moveto 68 (# nodes: 25) alignedtext
0 0 0 nodecolor
14 /Times-Roman set_font
8 1363.8 moveto 68 (# edges: 25) alignedtext
0 0 0 nodecolor
14 /Times-Roman set_font
8 1348.8 moveto 118 (graph density: 0.042) alignedtext
0 0 0 nodecolor
14 /Times-Roman set_font
8 1333.8 moveto 146 (outdegree positive min: 1) alignedtext
0 0 0 nodecolor
14 /Times-Roman set_font
8 1318.8 moveto 100 (outdegree max: 2) alignedtext
0 0 0 nodecolor
14 /Times-Roman set_font
8 1303.8 moveto 122 (outdegree avg: 1.000) alignedtext
grestore
% config
gsave
1 setlinewidth
0 0 0 nodecolor
newpath 285.5 1386.5 moveto
285.5 1386.5 192.5 1386.5 192.5 1386.5 curveto
186.5 1386.5 180.5 1380.5 180.5 1374.5 curveto
180.5 1374.5 180.5 1315.5 180.5 1315.5 curveto
180.5 1309.5 186.5 1303.5 192.5 1303.5 curveto
192.5 1303.5 285.5 1303.5 285.5 1303.5 curveto
291.5 1303.5 297.5 1309.5 297.5 1315.5 curveto
297.5 1315.5 297.5 1374.5 297.5 1374.5 curveto
297.5 1380.5 291.5 1386.5 285.5 1386.5 curveto
stroke
0 0 0 nodecolor
14 /Times-Roman set_font
188.5 1371.3 moveto 91 (lattice: TypeSet) alignedtext
0 0 0 nodecolor
14 /Times-Roman set_font
188.5 1356.3 moveto 65 (bound: 100) alignedtext
0 0 0 nodecolor
14 /Times-Roman set_font
188.5 1341.3 moveto 101 (address: Classical) alignedtext
0 0 0 nodecolor
14 /Times-Roman set_font
188.5 1326.3 moveto 23 (step) alignedtext
0 0 0 nodecolor
14 /Times-Roman set_font
188.5 1311.3 moveto 90 (machine: AAM) alignedtext
grestore
% 0
gsave
0.33333 0.33333 1 nodecolor
newpath 1358 1363 moveto
316 1363 lineto
316 1327 lineto
1358 1327 lineto
closepath fill
1 setlinewidth
filled
0 0 0 nodecolor
newpath 1358 1363 moveto
316 1363 lineto
316 1327 lineto
1358 1327 lineto
closepath stroke
0 0 0 nodecolor
14 /Times-Roman set_font
324 1341.3 moveto 1026 (ev\(\(letrec \(\(fibonacci \(lambda \(n\) \(letrec \(\(fibonacci2 \(lambda \(n fn_1 fn\) \(if \(= n 0\) \(cons fn_1 fn\) \(fibonacci2 \(- n 1\) fn \(+ fn fn_1\)\)\)\)\)\) \(cdr \(fibonacci2 n 1 0\)\)\)\)\)\) \(fibonacci 10\)\)\)) alignedtext
0 0 0 nodecolor
14 /Times-Roman set_font
308 1366.8 moveto 8 (0) alignedtext
grestore
% 1
gsave
0.33333 0.13333 1 nodecolor
newpath 897 1260 moveto
777 1260 lineto
777 1224 lineto
897 1224 lineto
closepath fill
1 setlinewidth
filled
0 0 0 nodecolor
newpath 897 1260 moveto
777 1260 lineto
777 1224 lineto
897 1224 lineto
closepath stroke
0 0 0 nodecolor
14 /Times-Roman set_font
785 1238.3 moveto 104 (ev\(\(fibonacci 10\)\)) alignedtext
0 0 0 nodecolor
14 /Times-Roman set_font
770 1263.8 moveto 7 (1) alignedtext
grestore
% 0->1
gsave
1 setlinewidth
0 0 0 edgecolor
newpath 837 1326.87 moveto
837 1311.41 837 1288.42 837 1270.41 curveto
stroke
0 0 0 edgecolor
newpath 840.5 1270.22 moveto
837 1260.22 lineto
833.5 1270.22 lineto
closepath fill
1 setlinewidth
solid
0 0 0 edgecolor
newpath 840.5 1270.22 moveto
837 1260.22 lineto
833.5 1270.22 lineto
closepath stroke
grestore
% 2
gsave
0.33333 0.13333 1 nodecolor
newpath 1217.5 1188 moveto
456.5 1188 lineto
456.5 1152 lineto
1217.5 1152 lineto
closepath fill
1 setlinewidth
filled
0 0 0 nodecolor
newpath 1217.5 1188 moveto
456.5 1188 lineto
456.5 1152 lineto
1217.5 1152 lineto
closepath stroke
0 0 0 nodecolor
14 /Times-Roman set_font
464.5 1166.3 moveto 745 (ev\(\(letrec \(\(fibonacci2 \(lambda \(n fn_1 fn\) \(if \(= n 0\) \(cons fn_1 fn\) \(fibonacci2 \(- n 1\) fn \(+ fn fn_1\)\)\)\)\)\) \(cdr \(fibonacci2 n 1 0\)\)\)\)) alignedtext
0 0 0 nodecolor
14 /Times-Roman set_font
449.5 1191.8 moveto 7 (2) alignedtext
grestore
% 1->2
gsave
1 setlinewidth
0 0 0 edgecolor
newpath 837 1223.7 moveto
837 1215.98 837 1206.71 837 1198.11 curveto
stroke
0 0 0 edgecolor
newpath 840.5 1198.1 moveto
837 1188.1 lineto
833.5 1198.1 lineto
closepath fill
1 setlinewidth
solid
0 0 0 edgecolor
newpath 840.5 1198.1 moveto
837 1188.1 lineto
833.5 1198.1 lineto
closepath stroke
grestore
% 3
gsave
0.33333 0.13333 1 nodecolor
newpath 923.5 1116 moveto
750.5 1116 lineto
750.5 1080 lineto
923.5 1080 lineto
closepath fill
1 setlinewidth
filled
0 0 0 nodecolor
newpath 923.5 1116 moveto
750.5 1116 lineto
750.5 1080 lineto
923.5 1080 lineto
closepath stroke
0 0 0 nodecolor
14 /Times-Roman set_font
758.5 1094.3 moveto 157 (ev\(\(cdr \(fibonacci2 n 1 0\)\)\)) alignedtext
0 0 0 nodecolor
14 /Times-Roman set_font
743.5 1119.8 moveto 7 (3) alignedtext
grestore
% 2->3
gsave
1 setlinewidth
0 0 0 edgecolor
newpath 837 1151.7 moveto
837 1143.98 837 1134.71 837 1126.11 curveto
stroke
0 0 0 edgecolor
newpath 840.5 1126.1 moveto
837 1116.1 lineto
833.5 1126.1 lineto
closepath fill
1 setlinewidth
solid
0 0 0 edgecolor
newpath 840.5 1126.1 moveto
837 1116.1 lineto
833.5 1126.1 lineto
closepath stroke
grestore
% 4
gsave
0.33333 0.13333 1 nodecolor
newpath 907.5 1044 moveto
766.5 1044 lineto
766.5 1008 lineto
907.5 1008 lineto
closepath fill
1 setlinewidth
filled
0 0 0 nodecolor
newpath 907.5 1044 moveto
766.5 1044 lineto
766.5 1008 lineto
907.5 1008 lineto
closepath stroke
0 0 0 nodecolor
14 /Times-Roman set_font
774.5 1022.3 moveto 125 (ev\(\(fibonacci2 n 1 0\)\)) alignedtext
0 0 0 nodecolor
14 /Times-Roman set_font
757.5 1047.8 moveto 9 (4) alignedtext
grestore
% 3->4
gsave
1 setlinewidth
0 0 0 edgecolor
newpath 837 1079.7 moveto
837 1071.98 837 1062.71 837 1054.11 curveto
stroke
0 0 0 edgecolor
newpath 840.5 1054.1 moveto
837 1044.1 lineto
833.5 1054.1 lineto
closepath fill
1 setlinewidth
solid
0 0 0 edgecolor
newpath 840.5 1054.1 moveto
837 1044.1 lineto
833.5 1054.1 lineto
closepath stroke
grestore
% 5
gsave
0.33333 0.13333 1 nodecolor
newpath 1025.5 972 moveto
648.5 972 lineto
648.5 936 lineto
1025.5 936 lineto
closepath fill
1 setlinewidth
filled
0 0 0 nodecolor
newpath 1025.5 972 moveto
648.5 972 lineto
648.5 936 lineto
1025.5 936 lineto
closepath stroke
0 0 0 nodecolor
14 /Times-Roman set_font
656.5 950.3 moveto 361 (ev\(\(if \(= n 0\) \(cons fn_1 fn\) \(fibonacci2 \(- n 1\) fn \(+ fn fn_1\)\)\)\)) alignedtext
0 0 0 nodecolor
14 /Times-Roman set_font
640.5 975.8 moveto 8 (5) alignedtext
grestore
% 4->5
gsave
1 setlinewidth
0 0 0 edgecolor
newpath 837 1007.7 moveto
837 999.98 837 990.71 837 982.11 curveto
stroke
0 0 0 edgecolor
newpath 840.5 982.1 moveto
837 972.1 lineto
833.5 982.1 lineto
closepath fill
1 setlinewidth
solid
0 0 0 edgecolor
newpath 840.5 982.1 moveto
837 972.1 lineto
833.5 982.1 lineto
closepath stroke
grestore
% 6
gsave
0.33333 0.13333 1 nodecolor
newpath 877 900 moveto
797 900 lineto
797 864 lineto
877 864 lineto
closepath fill
1 setlinewidth
filled
0 0 0 nodecolor
newpath 877 900 moveto
797 900 lineto
797 864 lineto
877 864 lineto
closepath stroke
0 0 0 nodecolor
14 /Times-Roman set_font
805 878.3 moveto 64 (ev\(\(= n 0\)\)) alignedtext
0 0 0 nodecolor
14 /Times-Roman set_font
789 903.8 moveto 8 (6) alignedtext
grestore
% 5->6
gsave
1 setlinewidth
0 0 0 edgecolor
newpath 837 935.7 moveto
837 927.98 837 918.71 837 910.11 curveto
stroke
0 0 0 edgecolor
newpath 840.5 910.1 moveto
837 900.1 lineto
833.5 910.1 lineto
closepath fill
1 setlinewidth
solid
0 0 0 edgecolor
newpath 840.5 910.1 moveto
837 900.1 lineto
833.5 910.1 lineto
closepath stroke
grestore
% 7
gsave
0.66667 0.13333 1 nodecolor
newpath 878.5 828 moveto
795.5 828 lineto
795.5 792 lineto
878.5 792 lineto
closepath fill
1 setlinewidth
filled
0 0 0 nodecolor
newpath 878.5 828 moveto
795.5 828 lineto
795.5 792 lineto
878.5 792 lineto
closepath stroke
0 0 0 nodecolor
14 /Times-Roman set_font
803.5 806.3 moveto 67 (ko\({#f,#t}\)) alignedtext
0 0 0 nodecolor
14 /Times-Roman set_font
788.5 831.8 moveto 7 (7) alignedtext
grestore
% 6->7
gsave
1 setlinewidth
0 0 0 edgecolor
newpath 837 863.7 moveto
837 855.98 837 846.71 837 838.11 curveto
stroke
0 0 0 edgecolor
newpath 840.5 838.1 moveto
837 828.1 lineto
833.5 838.1 lineto
closepath fill
1 setlinewidth
solid
0 0 0 edgecolor
newpath 840.5 838.1 moveto
837 828.1 lineto
833.5 838.1 lineto
closepath stroke
grestore
% 8
gsave
0.33333 0.13333 1 nodecolor
newpath 800.5 756 moveto
681.5 756 lineto
681.5 720 lineto
800.5 720 lineto
closepath fill
1 setlinewidth
filled
0 0 0 nodecolor
newpath 800.5 756 moveto
681.5 756 lineto
681.5 720 lineto
800.5 720 lineto
closepath stroke
0 0 0 nodecolor
14 /Times-Roman set_font
689.5 734.3 moveto 103 (ev\(\(cons fn_1 fn\)\)) alignedtext
0 0 0 nodecolor
14 /Times-Roman set_font
674.5 759.8 moveto 7 (8) alignedtext
grestore
% 7->8
gsave
1 setlinewidth
0 0 0 edgecolor
newpath 813.27 791.7 moveto
801.06 782.8 786.01 771.82 772.82 762.2 curveto
stroke
0 0 0 edgecolor
newpath 774.6 759.17 moveto
764.46 756.1 lineto
770.48 764.82 lineto
closepath fill
1 setlinewidth
solid
0 0 0 edgecolor
newpath 774.6 759.17 moveto
764.46 756.1 lineto
770.48 764.82 lineto
closepath stroke
grestore
% 9
gsave
0.33333 0.13333 1 nodecolor
newpath 1047.5 756 moveto
818.5 756 lineto
818.5 720 lineto
1047.5 720 lineto
closepath fill
1 setlinewidth
filled
0 0 0 nodecolor
newpath 1047.5 756 moveto
818.5 756 lineto
818.5 720 lineto
1047.5 720 lineto
closepath stroke
0 0 0 nodecolor
14 /Times-Roman set_font
826.5 734.3 moveto 213 (ev\(\(fibonacci2 \(- n 1\) fn \(+ fn fn_1\)\)\)) alignedtext
0 0 0 nodecolor
14 /Times-Roman set_font
810.5 759.8 moveto 8 (9) alignedtext
grestore
% 7->9
gsave
1 setlinewidth
0 0 0 edgecolor
newpath 860.73 791.7 moveto
872.94 782.8 887.99 771.82 901.18 762.2 curveto
stroke
0 0 0 edgecolor
newpath 903.52 764.82 moveto
909.54 756.1 lineto
899.4 759.17 lineto
closepath fill
1 setlinewidth
solid
0 0 0 edgecolor
newpath 903.52 764.82 moveto
909.54 756.1 lineto
899.4 759.17 lineto
closepath stroke
grestore
% 10
gsave
0.66667 0.13333 1 nodecolor
newpath 859.5 684 moveto
622.5 684 lineto
622.5 648 lineto
859.5 648 lineto
closepath fill
1 setlinewidth
filled
0 0 0 nodecolor
newpath 859.5 684 moveto
622.5 684 lineto
622.5 648 lineto
859.5 648 lineto
closepath stroke
0 0 0 nodecolor
14 /Times-Roman set_font
630.5 662.3 moveto 221 (ko\(Cons\(@fn_1-Time\(\),@fn-Time\(\)\)\)) alignedtext
0 0 0 nodecolor
14 /Times-Roman set_font
607.5 687.8 moveto 15 (10) alignedtext
grestore
% 8->10
gsave
1 setlinewidth
0 0 0 edgecolor
newpath 741 719.7 moveto
741 711.98 741 702.71 741 694.11 curveto
stroke
0 0 0 edgecolor
newpath 744.5 694.1 moveto
741 684.1 lineto
737.5 694.1 lineto
closepath fill
1 setlinewidth
solid
0 0 0 edgecolor
newpath 744.5 694.1 moveto
741 684.1 lineto
737.5 694.1 lineto
closepath stroke
grestore
% 11
gsave
0.33333 0.13333 1 nodecolor
newpath 971 684 moveto
895 684 lineto
895 648 lineto
971 648 lineto
closepath fill
1 setlinewidth
filled
0 0 0 nodecolor
newpath 971 684 moveto
895 684 lineto
895 648 lineto
971 648 lineto
closepath stroke
0 0 0 nodecolor
14 /Times-Roman set_font
903 662.3 moveto 60 (ev\(\(- n 1\)\)) alignedtext
0 0 0 nodecolor
14 /Times-Roman set_font
881 687.8 moveto 14 (11) alignedtext
grestore
% 9->11
gsave
1 setlinewidth
0 0 0 edgecolor
newpath 933 719.7 moveto
933 711.98 933 702.71 933 694.11 curveto
stroke
0 0 0 edgecolor
newpath 936.5 694.1 moveto
933 684.1 lineto
929.5 694.1 lineto
closepath fill
1 setlinewidth
solid
0 0 0 edgecolor
newpath 936.5 694.1 moveto
933 684.1 lineto
929.5 694.1 lineto
closepath stroke
grestore
% 13
gsave
0.16667 0.33333 1 nodecolor
newpath 769 612 moveto
713 612 lineto
713 576 lineto
769 576 lineto
closepath fill
1 setlinewidth
filled
0 0 0 nodecolor
newpath 769 612 moveto
713 612 lineto
713 576 lineto
769 576 lineto
closepath stroke
0 0 0 nodecolor
14 /Times-Roman set_font
721 590.3 moveto 40 (ko\(Int\)) alignedtext
0 0 0 nodecolor
14 /Times-Roman set_font
699 615.8 moveto 14 (13) alignedtext
grestore
% 10->13
gsave
1 setlinewidth
0 0 0 edgecolor
newpath 741 647.7 moveto
741 639.98 741 630.71 741 622.11 curveto
stroke
0 0 0 edgecolor
newpath 744.5 622.1 moveto
741 612.1 lineto
737.5 622.1 lineto
closepath fill
1 setlinewidth
solid
0 0 0 edgecolor
newpath 744.5 622.1 moveto
741 612.1 lineto
737.5 622.1 lineto
closepath stroke
grestore
% 12
gsave
0.66667 0.13333 1 nodecolor
newpath 961 612 moveto
905 612 lineto
905 576 lineto
961 576 lineto
closepath fill
1 setlinewidth
filled
0 0 0 nodecolor
newpath 961 612 moveto
905 612 lineto
905 576 lineto
961 576 lineto
closepath stroke
0 0 0 nodecolor
14 /Times-Roman set_font
913 590.3 moveto 40 (ko\(Int\)) alignedtext
0 0 0 nodecolor
14 /Times-Roman set_font
891 615.8 moveto 14 (12) alignedtext
grestore
% 11->12
gsave
1 setlinewidth
0 0 0 edgecolor
newpath 933 647.7 moveto
933 639.98 933 630.71 933 622.11 curveto
stroke
0 0 0 edgecolor
newpath 936.5 622.1 moveto
933 612.1 lineto
929.5 622.1 lineto
closepath fill
1 setlinewidth
solid
0 0 0 edgecolor
newpath 936.5 622.1 moveto
933 612.1 lineto
929.5 622.1 lineto
closepath stroke
grestore
% 14
gsave
0.33333 0.13333 1 nodecolor
newpath 983.5 540 moveto
882.5 540 lineto
882.5 504 lineto
983.5 504 lineto
closepath fill
1 setlinewidth
filled
0 0 0 nodecolor
newpath 983.5 540 moveto
882.5 540 lineto
882.5 504 lineto
983.5 504 lineto
closepath stroke
0 0 0 nodecolor
14 /Times-Roman set_font
890.5 518.3 moveto 85 (ev\(\(+ fn fn_1\)\)) alignedtext
0 0 0 nodecolor
14 /Times-Roman set_font
866.5 543.8 moveto 16 (14) alignedtext
grestore
% 12->14
gsave
1 setlinewidth
0 0 0 edgecolor
newpath 933 575.7 moveto
933 567.98 933 558.71 933 550.11 curveto
stroke
0 0 0 edgecolor
newpath 936.5 550.1 moveto
933 540.1 lineto
929.5 550.1 lineto
closepath fill
1 setlinewidth
solid
0 0 0 edgecolor
newpath 936.5 550.1 moveto
933 540.1 lineto
929.5 550.1 lineto
closepath stroke
grestore
% 15
gsave
0.66667 0.13333 1 nodecolor
newpath 853 468 moveto
797 468 lineto
797 432 lineto
853 432 lineto
closepath fill
1 setlinewidth
filled
0 0 0 nodecolor
newpath 853 468 moveto
797 468 lineto
797 432 lineto
853 432 lineto
closepath stroke
0 0 0 nodecolor
14 /Times-Roman set_font
805 446.3 moveto 40 (ko\(Int\)) alignedtext
0 0 0 nodecolor
14 /Times-Roman set_font
782 471.8 moveto 15 (15) alignedtext
grestore
% 14->15
gsave
1 setlinewidth
0 0 0 edgecolor
newpath 906.58 503.88 moveto
892.59 494.81 875.22 483.55 860.11 473.76 curveto
stroke
0 0 0 edgecolor
newpath 861.82 470.69 moveto
851.52 468.19 lineto
858.01 476.57 lineto
closepath fill
1 setlinewidth
solid
0 0 0 edgecolor
newpath 861.82 470.69 moveto
851.52 468.19 lineto
858.01 476.57 lineto
closepath stroke
grestore
% 16
gsave
0.33333 0.13333 1 nodecolor
newpath 959.5 396 moveto
582.5 396 lineto
582.5 360 lineto
959.5 360 lineto
closepath fill
1 setlinewidth
filled
0 0 0 nodecolor
newpath 959.5 396 moveto
582.5 396 lineto
582.5 360 lineto
959.5 360 lineto
closepath stroke
0 0 0 nodecolor
14 /Times-Roman set_font
590.5 374.3 moveto 361 (ev\(\(if \(= n 0\) \(cons fn_1 fn\) \(fibonacci2 \(- n 1\) fn \(+ fn fn_1\)\)\)\)) alignedtext
0 0 0 nodecolor
14 /Times-Roman set_font
567.5 399.8 moveto 15 (16) alignedtext
grestore
% 15->16
gsave
1 setlinewidth
0 0 0 edgecolor
newpath 811.65 431.7 moveto
805.24 423.39 797.44 413.28 790.39 404.14 curveto
stroke
0 0 0 edgecolor
newpath 793.07 401.88 moveto
784.19 396.1 lineto
787.53 406.16 lineto
closepath fill
1 setlinewidth
solid
0 0 0 edgecolor
newpath 793.07 401.88 moveto
784.19 396.1 lineto
787.53 406.16 lineto
closepath stroke
grestore
% 17
gsave
0.33333 0.13333 1 nodecolor
newpath 811 324 moveto
731 324 lineto
731 288 lineto
811 288 lineto
closepath fill
1 setlinewidth
filled
0 0 0 nodecolor
newpath 811 324 moveto
731 324 lineto
731 288 lineto
811 288 lineto
closepath stroke
0 0 0 nodecolor
14 /Times-Roman set_font
739 302.3 moveto 64 (ev\(\(= n 0\)\)) alignedtext
0 0 0 nodecolor
14 /Times-Roman set_font
717 327.8 moveto 14 (17) alignedtext
grestore
% 16->17
gsave
1 setlinewidth
0 0 0 edgecolor
newpath 771 359.7 moveto
771 351.98 771 342.71 771 334.11 curveto
stroke
0 0 0 edgecolor
newpath 774.5 334.1 moveto
771 324.1 lineto
767.5 334.1 lineto
closepath fill
1 setlinewidth
solid
0 0 0 edgecolor
newpath 774.5 334.1 moveto
771 324.1 lineto
767.5 334.1 lineto
closepath stroke
grestore
% 18
gsave
0.66667 0.13333 1 nodecolor
newpath 812.5 252 moveto
729.5 252 lineto
729.5 216 lineto
812.5 216 lineto
closepath fill
1 setlinewidth
filled
0 0 0 nodecolor
newpath 812.5 252 moveto
729.5 252 lineto
729.5 216 lineto
812.5 216 lineto
closepath stroke
0 0 0 nodecolor
14 /Times-Roman set_font
737.5 230.3 moveto 67 (ko\({#f,#t}\)) alignedtext
0 0 0 nodecolor
14 /Times-Roman set_font
715.5 255.8 moveto 14 (18) alignedtext
grestore
% 17->18
gsave
1 setlinewidth
0 0 0 edgecolor
newpath 771 287.7 moveto
771 279.98 771 270.71 771 262.11 curveto
stroke
0 0 0 edgecolor
newpath 774.5 262.1 moveto
771 252.1 lineto
767.5 262.1 lineto
closepath fill
1 setlinewidth
solid
0 0 0 edgecolor
newpath 774.5 262.1 moveto
771 252.1 lineto
767.5 262.1 lineto
closepath stroke
grestore
% 19
gsave
0.33333 0.13333 1 nodecolor
newpath 712.5 180 moveto
593.5 180 lineto
593.5 144 lineto
712.5 144 lineto
closepath fill
1 setlinewidth
filled
0 0 0 nodecolor
newpath 712.5 180 moveto
593.5 180 lineto
593.5 144 lineto
712.5 144 lineto
closepath stroke
0 0 0 nodecolor
14 /Times-Roman set_font
601.5 158.3 moveto 103 (ev\(\(cons fn_1 fn\)\)) alignedtext
0 0 0 nodecolor
14 /Times-Roman set_font
578.5 183.8 moveto 15 (19) alignedtext
grestore
% 18->19
gsave
1 setlinewidth
0 0 0 edgecolor
newpath 742.13 215.88 moveto
726.71 206.72 707.52 195.34 690.9 185.48 curveto
stroke
0 0 0 edgecolor
newpath 692.36 182.28 moveto
681.98 180.19 lineto
688.79 188.3 lineto
closepath fill
1 setlinewidth
solid
0 0 0 edgecolor
newpath 692.36 182.28 moveto
681.98 180.19 lineto
688.79 188.3 lineto
closepath stroke
grestore
% 20
gsave
0.33333 0.13333 1 nodecolor
newpath 959.5 180 moveto
730.5 180 lineto
730.5 144 lineto
959.5 144 lineto
closepath fill
1 setlinewidth
filled
0 0 0 nodecolor
newpath 959.5 180 moveto
730.5 180 lineto
730.5 144 lineto
959.5 144 lineto
closepath stroke
0 0 0 nodecolor
14 /Times-Roman set_font
738.5 158.3 moveto 213 (ev\(\(fibonacci2 \(- n 1\) fn \(+ fn fn_1\)\)\)) alignedtext
0 0 0 nodecolor
14 /Times-Roman set_font
715.5 183.8 moveto 15 (20) alignedtext
grestore
% 18->20
gsave
1 setlinewidth
0 0 0 edgecolor
newpath 789.29 215.7 moveto
798.43 207.05 809.64 196.45 819.6 187.03 curveto
stroke
0 0 0 edgecolor
newpath 822.06 189.52 moveto
826.92 180.1 lineto
817.25 184.43 lineto
closepath fill
1 setlinewidth
solid
0 0 0 edgecolor
newpath 822.06 189.52 moveto
826.92 180.1 lineto
817.25 184.43 lineto
closepath stroke
grestore
% 21
gsave
0.66667 0.13333 1 nodecolor
newpath 771.5 108 moveto
534.5 108 lineto
534.5 72 lineto
771.5 72 lineto
closepath fill
1 setlinewidth
filled
0 0 0 nodecolor
newpath 771.5 108 moveto
534.5 108 lineto
534.5 72 lineto
771.5 72 lineto
closepath stroke
0 0 0 nodecolor
14 /Times-Roman set_font
542.5 86.3 moveto 221 (ko\(Cons\(@fn_1-Time\(\),@fn-Time\(\)\)\)) alignedtext
0 0 0 nodecolor
14 /Times-Roman set_font
520.5 111.8 moveto 14 (21) alignedtext
grestore
% 19->21
gsave
1 setlinewidth
0 0 0 edgecolor
newpath 653 143.7 moveto
653 135.98 653 126.71 653 118.11 curveto
stroke
0 0 0 edgecolor
newpath 656.5 118.1 moveto
653 108.1 lineto
649.5 118.1 lineto
closepath fill
1 setlinewidth
solid
0 0 0 edgecolor
newpath 656.5 118.1 moveto
653 108.1 lineto
649.5 118.1 lineto
closepath stroke
grestore
% 22
gsave
0.33333 0.13333 1 nodecolor
newpath 921 108 moveto
845 108 lineto
845 72 lineto
921 72 lineto
closepath fill
1 setlinewidth
filled
0 0 0 nodecolor
newpath 921 108 moveto
845 108 lineto
845 72 lineto
921 72 lineto
closepath stroke
0 0 0 nodecolor
14 /Times-Roman set_font
853 86.3 moveto 60 (ev\(\(- n 1\)\)) alignedtext
0 0 0 nodecolor
14 /Times-Roman set_font
831 111.8 moveto 14 (22) alignedtext
grestore
% 20->22
gsave
1 setlinewidth
0 0 0 edgecolor
newpath 854.39 143.7 moveto
858.76 135.64 864.06 125.89 868.9 116.98 curveto
stroke
0 0 0 edgecolor
newpath 872.02 118.56 moveto
873.71 108.1 lineto
865.87 115.22 lineto
closepath fill
1 setlinewidth
solid
0 0 0 edgecolor
newpath 872.02 118.56 moveto
873.71 108.1 lineto
865.87 115.22 lineto
closepath stroke
grestore
% 24
gsave
0.16667 0.33333 1 nodecolor
newpath 681 36 moveto
625 36 lineto
625 0 lineto
681 0 lineto
closepath fill
1 setlinewidth
filled
0 0 0 nodecolor
newpath 681 36 moveto
625 36 lineto
625 0 lineto
681 0 lineto
closepath stroke
0 0 0 nodecolor
14 /Times-Roman set_font
633 14.3 moveto 40 (ko\(Int\)) alignedtext
0 0 0 nodecolor
14 /Times-Roman set_font
609 39.8 moveto 16 (24) alignedtext
grestore
% 21->24
gsave
1 setlinewidth
0 0 0 edgecolor
newpath 653 71.7 moveto
653 63.98 653 54.71 653 46.11 curveto
stroke
0 0 0 edgecolor
newpath 656.5 46.1 moveto
653 36.1 lineto
649.5 46.1 lineto
closepath fill
1 setlinewidth
solid
0 0 0 edgecolor
newpath 656.5 46.1 moveto
653 36.1 lineto
649.5 46.1 lineto
closepath stroke
grestore
% 23
gsave
0.66667 0.13333 1 nodecolor
newpath 963 36 moveto
907 36 lineto
907 0 lineto
963 0 lineto
closepath fill
1 setlinewidth
filled
0 0 0 nodecolor
newpath 963 36 moveto
907 36 lineto
907 0 lineto
963 0 lineto
closepath stroke
0 0 0 nodecolor
14 /Times-Roman set_font
915 14.3 moveto 40 (ko\(Int\)) alignedtext
0 0 0 nodecolor
14 /Times-Roman set_font
893 39.8 moveto 14 (23) alignedtext
grestore
% 22->23
gsave
1 setlinewidth
0 0 0 edgecolor
newpath 895.85 71.7 moveto
902.03 63.39 909.54 53.28 916.32 44.14 curveto
stroke
0 0 0 edgecolor
newpath 919.14 46.22 moveto
922.29 36.1 lineto
913.52 42.04 lineto
closepath fill
1 setlinewidth
solid
0 0 0 edgecolor
newpath 919.14 46.22 moveto
922.29 36.1 lineto
913.52 42.04 lineto
closepath stroke
grestore
% 23->14
gsave
1 setlinewidth
0 0 0 edgecolor
newpath 945.98 36.16 moveto
961.51 62.11 988 113.37 988 161 curveto
988 379 988 379 988 379 curveto
988 421.99 965.81 467.66 949.62 495.26 curveto
stroke
0 0 0 edgecolor
newpath 946.57 493.53 moveto
944.4 503.9 lineto
952.56 497.15 lineto
closepath fill
1 setlinewidth
solid
0 0 0 edgecolor
newpath 946.57 493.53 moveto
944.4 503.9 lineto
952.56 497.15 lineto
closepath stroke
grestore
endpage
showpage
grestore
%%PageTrailer
%%EndPage: 1
%%Trailer
end
restore
%%EOF
