%!PS-Adobe-3.0 EPSF-3.0
%%Creator: graphviz version 2.38.0 (20140413.2041)
%%Title: Scala-Par-AM Scheme-examples/OPi/factorial_recur.scm
%%Pages: 1
%%BoundingBox: 36 36 878 1654
%%EndComments
save
%%BeginProlog
/DotDict 200 dict def
DotDict begin

/setupLatin1 {
mark
/EncodingVector 256 array def
 EncodingVector 0

ISOLatin1Encoding 0 255 getinterval putinterval
EncodingVector 45 /hyphen put

% Set up ISO Latin 1 character encoding
/starnetISO {
        dup dup findfont dup length dict begin
        { 1 index /FID ne { def }{ pop pop } ifelse
        } forall
        /Encoding EncodingVector def
        currentdict end definefont
} def
/Times-Roman starnetISO def
/Times-Italic starnetISO def
/Times-Bold starnetISO def
/Times-BoldItalic starnetISO def
/Helvetica starnetISO def
/Helvetica-Oblique starnetISO def
/Helvetica-Bold starnetISO def
/Helvetica-BoldOblique starnetISO def
/Courier starnetISO def
/Courier-Oblique starnetISO def
/Courier-Bold starnetISO def
/Courier-BoldOblique starnetISO def
cleartomark
} bind def

%%BeginResource: procset graphviz 0 0
/coord-font-family /Times-Roman def
/default-font-family /Times-Roman def
/coordfont coord-font-family findfont 8 scalefont def

/InvScaleFactor 1.0 def
/set_scale {
       dup 1 exch div /InvScaleFactor exch def
       scale
} bind def

% styles
/solid { [] 0 setdash } bind def
/dashed { [9 InvScaleFactor mul dup ] 0 setdash } bind def
/dotted { [1 InvScaleFactor mul 6 InvScaleFactor mul] 0 setdash } bind def
/invis {/fill {newpath} def /stroke {newpath} def /show {pop newpath} def} bind def
/bold { 2 setlinewidth } bind def
/filled { } bind def
/unfilled { } bind def
/rounded { } bind def
/diagonals { } bind def
/tapered { } bind def

% hooks for setting color 
/nodecolor { sethsbcolor } bind def
/edgecolor { sethsbcolor } bind def
/graphcolor { sethsbcolor } bind def
/nopcolor {pop pop pop} bind def

/beginpage {	% i j npages
	/npages exch def
	/j exch def
	/i exch def
	/str 10 string def
	npages 1 gt {
		gsave
			coordfont setfont
			0 0 moveto
			(\() show i str cvs show (,) show j str cvs show (\)) show
		grestore
	} if
} bind def

/set_font {
	findfont exch
	scalefont setfont
} def

% draw text fitted to its expected width
/alignedtext {			% width text
	/text exch def
	/width exch def
	gsave
		width 0 gt {
			[] 0 setdash
			text stringwidth pop width exch sub text length div 0 text ashow
		} if
	grestore
} def

/boxprim {				% xcorner ycorner xsize ysize
		4 2 roll
		moveto
		2 copy
		exch 0 rlineto
		0 exch rlineto
		pop neg 0 rlineto
		closepath
} bind def

/ellipse_path {
	/ry exch def
	/rx exch def
	/y exch def
	/x exch def
	matrix currentmatrix
	newpath
	x y translate
	rx ry scale
	0 0 1 0 360 arc
	setmatrix
} bind def

/endpage { showpage } bind def
/showpage { } def

/layercolorseq
	[	% layer color sequence - darkest to lightest
		[0 0 0]
		[.2 .8 .8]
		[.4 .8 .8]
		[.6 .8 .8]
		[.8 .8 .8]
	]
def

/layerlen layercolorseq length def

/setlayer {/maxlayer exch def /curlayer exch def
	layercolorseq curlayer 1 sub layerlen mod get
	aload pop sethsbcolor
	/nodecolor {nopcolor} def
	/edgecolor {nopcolor} def
	/graphcolor {nopcolor} def
} bind def

/onlayer { curlayer ne {invis} if } def

/onlayers {
	/myupper exch def
	/mylower exch def
	curlayer mylower lt
	curlayer myupper gt
	or
	{invis} if
} def

/curlayer 0 def

%%EndResource
%%EndProlog
%%BeginSetup
14 default-font-family set_font
1 setmiterlimit
% /arrowlength 10 def
% /arrowwidth 5 def

% make sure pdfmark is harmless for PS-interpreters other than Distiller
/pdfmark where {pop} {userdict /pdfmark /cleartomark load put} ifelse
% make '<<' and '>>' safe on PS Level 1 devices
/languagelevel where {pop languagelevel}{1} ifelse
2 lt {
    userdict (<<) cvn ([) cvn load put
    userdict (>>) cvn ([) cvn load put
} if

%%EndSetup
setupLatin1
%%Page: 1 1
%%PageBoundingBox: 36 36 878 1654
%%PageOrientation: Portrait
0 0 1 beginpage
gsave
36 36 842 1618 boxprim clip newpath
1 1 set_scale 0 rotate 40 40 translate
% stats
gsave
1 setlinewidth
0 0 0 nodecolor
newpath 150 1610 moveto
150 1610 12 1610 12 1610 curveto
6 1610 0 1604 0 1598 curveto
0 1598 0 1524 0 1524 curveto
0 1518 6 1512 12 1512 curveto
12 1512 150 1512 150 1512 curveto
156 1512 162 1518 162 1524 curveto
162 1524 162 1598 162 1598 curveto
162 1604 156 1610 150 1610 curveto
stroke
0 0 0 nodecolor
14 /Times-Roman set_font
8 1594.8 moveto 68 (# nodes: 36) alignedtext
0 0 0 nodecolor
14 /Times-Roman set_font
8 1579.8 moveto 69 (# edges: 41) alignedtext
0 0 0 nodecolor
14 /Times-Roman set_font
8 1564.8 moveto 116 (graph density: 0.033) alignedtext
0 0 0 nodecolor
14 /Times-Roman set_font
8 1549.8 moveto 146 (outdegree positive min: 1) alignedtext
0 0 0 nodecolor
14 /Times-Roman set_font
8 1534.8 moveto 102 (outdegree max: 4) alignedtext
0 0 0 nodecolor
14 /Times-Roman set_font
8 1519.8 moveto 121 (outdegree avg: 1.139) alignedtext
grestore
% config
gsave
1 setlinewidth
0 0 0 nodecolor
newpath 285.5 1602.5 moveto
285.5 1602.5 192.5 1602.5 192.5 1602.5 curveto
186.5 1602.5 180.5 1596.5 180.5 1590.5 curveto
180.5 1590.5 180.5 1531.5 180.5 1531.5 curveto
180.5 1525.5 186.5 1519.5 192.5 1519.5 curveto
192.5 1519.5 285.5 1519.5 285.5 1519.5 curveto
291.5 1519.5 297.5 1525.5 297.5 1531.5 curveto
297.5 1531.5 297.5 1590.5 297.5 1590.5 curveto
297.5 1596.5 291.5 1602.5 285.5 1602.5 curveto
stroke
0 0 0 nodecolor
14 /Times-Roman set_font
188.5 1587.3 moveto 91 (lattice: TypeSet) alignedtext
0 0 0 nodecolor
14 /Times-Roman set_font
188.5 1572.3 moveto 65 (bound: 100) alignedtext
0 0 0 nodecolor
14 /Times-Roman set_font
188.5 1557.3 moveto 101 (address: Classical) alignedtext
0 0 0 nodecolor
14 /Times-Roman set_font
188.5 1542.3 moveto 23 (step) alignedtext
0 0 0 nodecolor
14 /Times-Roman set_font
188.5 1527.3 moveto 90 (machine: AAM) alignedtext
grestore
% 0
gsave
0.33333 0.33333 1 nodecolor
newpath 834 1579 moveto
316 1579 lineto
316 1543 lineto
834 1543 lineto
closepath fill
1 setlinewidth
filled
0 0 0 nodecolor
newpath 834 1579 moveto
316 1579 lineto
316 1543 lineto
834 1543 lineto
closepath stroke
0 0 0 nodecolor
14 /Times-Roman set_font
324 1557.3 moveto 502 (ev\(\(letrec \(\(factorial \(lambda \(n\) \(if \(<= n 1\) 1 \(* \(factorial \(- n 1\)\) n\)\)\)\)\) \(factorial 10\)\)\)) alignedtext
0 0 0 nodecolor
14 /Times-Roman set_font
308 1582.8 moveto 8 (0) alignedtext
grestore
% 1
gsave
0.33333 0.13333 1 nodecolor
newpath 632 1476 moveto
518 1476 lineto
518 1440 lineto
632 1440 lineto
closepath fill
1 setlinewidth
filled
0 0 0 nodecolor
newpath 632 1476 moveto
518 1476 lineto
518 1440 lineto
632 1440 lineto
closepath stroke
0 0 0 nodecolor
14 /Times-Roman set_font
526 1454.3 moveto 98 (ev\(\(factorial 10\)\)) alignedtext
0 0 0 nodecolor
14 /Times-Roman set_font
511 1479.8 moveto 7 (1) alignedtext
grestore
% 0->1
gsave
1 setlinewidth
0 0 0 edgecolor
newpath 575 1542.87 moveto
575 1527.41 575 1504.42 575 1486.41 curveto
stroke
0 0 0 edgecolor
newpath 578.5 1486.22 moveto
575 1476.22 lineto
571.5 1486.22 lineto
closepath fill
1 setlinewidth
solid
0 0 0 edgecolor
newpath 578.5 1486.22 moveto
575 1476.22 lineto
571.5 1486.22 lineto
closepath stroke
grestore
% 2
gsave
0.33333 0.13333 1 nodecolor
newpath 700 1404 moveto
450 1404 lineto
450 1368 lineto
700 1368 lineto
closepath fill
1 setlinewidth
filled
0 0 0 nodecolor
newpath 700 1404 moveto
450 1404 lineto
450 1368 lineto
700 1368 lineto
closepath stroke
0 0 0 nodecolor
14 /Times-Roman set_font
458 1382.3 moveto 234 (ev\(\(if \(<= n 1\) 1 \(* \(factorial \(- n 1\)\) n\)\)\)) alignedtext
0 0 0 nodecolor
14 /Times-Roman set_font
443 1407.8 moveto 7 (2) alignedtext
grestore
% 1->2
gsave
1 setlinewidth
0 0 0 edgecolor
newpath 575 1439.7 moveto
575 1431.98 575 1422.71 575 1414.11 curveto
stroke
0 0 0 edgecolor
newpath 578.5 1414.1 moveto
575 1404.1 lineto
571.5 1414.1 lineto
closepath fill
1 setlinewidth
solid
0 0 0 edgecolor
newpath 578.5 1414.1 moveto
575 1404.1 lineto
571.5 1414.1 lineto
closepath stroke
grestore
% 3
gsave
0.33333 0.13333 1 nodecolor
newpath 618.5 1332 moveto
531.5 1332 lineto
531.5 1296 lineto
618.5 1296 lineto
closepath fill
1 setlinewidth
filled
0 0 0 nodecolor
newpath 618.5 1332 moveto
531.5 1332 lineto
531.5 1296 lineto
618.5 1296 lineto
closepath stroke
0 0 0 nodecolor
14 /Times-Roman set_font
539.5 1310.3 moveto 71 (ev\(\(<= n 1\)\)) alignedtext
0 0 0 nodecolor
14 /Times-Roman set_font
524.5 1335.8 moveto 7 (3) alignedtext
grestore
% 2->3
gsave
1 setlinewidth
0 0 0 edgecolor
newpath 575 1367.7 moveto
575 1359.98 575 1350.71 575 1342.11 curveto
stroke
0 0 0 edgecolor
newpath 578.5 1342.1 moveto
575 1332.1 lineto
571.5 1342.1 lineto
closepath fill
1 setlinewidth
solid
0 0 0 edgecolor
newpath 578.5 1342.1 moveto
575 1332.1 lineto
571.5 1342.1 lineto
closepath stroke
grestore
% 4
gsave
0.66667 0.13333 1 nodecolor
newpath 609.5 1260 moveto
540.5 1260 lineto
540.5 1224 lineto
609.5 1224 lineto
closepath fill
1 setlinewidth
filled
0 0 0 nodecolor
newpath 609.5 1260 moveto
540.5 1260 lineto
540.5 1224 lineto
609.5 1224 lineto
closepath stroke
0 0 0 nodecolor
14 /Times-Roman set_font
548.5 1238.3 moveto 53 (ko\(Bool\)) alignedtext
0 0 0 nodecolor
14 /Times-Roman set_font
531.5 1263.8 moveto 9 (4) alignedtext
grestore
% 3->4
gsave
1 setlinewidth
0 0 0 edgecolor
newpath 575 1295.7 moveto
575 1287.98 575 1278.71 575 1270.11 curveto
stroke
0 0 0 edgecolor
newpath 578.5 1270.1 moveto
575 1260.1 lineto
571.5 1270.1 lineto
closepath fill
1 setlinewidth
solid
0 0 0 edgecolor
newpath 578.5 1270.1 moveto
575 1260.1 lineto
571.5 1270.1 lineto
closepath stroke
grestore
% 5
gsave
0.33333 0.13333 1 nodecolor
newpath 538 1188 moveto
484 1188 lineto
484 1152 lineto
538 1152 lineto
closepath fill
1 setlinewidth
filled
0 0 0 nodecolor
newpath 538 1188 moveto
484 1188 lineto
484 1152 lineto
538 1152 lineto
closepath stroke
0 0 0 nodecolor
14 /Times-Roman set_font
495.5 1166.3 moveto 31 (ev\(1\)) alignedtext
0 0 0 nodecolor
14 /Times-Roman set_font
476 1191.8 moveto 8 (5) alignedtext
grestore
% 4->5
gsave
1 setlinewidth
0 0 0 edgecolor
newpath 559.18 1223.7 moveto
551.43 1215.22 541.96 1204.86 533.48 1195.58 curveto
stroke
0 0 0 edgecolor
newpath 535.97 1193.12 moveto
526.64 1188.1 lineto
530.8 1197.85 lineto
closepath fill
1 setlinewidth
solid
0 0 0 edgecolor
newpath 535.97 1193.12 moveto
526.64 1188.1 lineto
530.8 1197.85 lineto
closepath stroke
grestore
% 6
gsave
0.33333 0.13333 1 nodecolor
newpath 723.5 1188 moveto
556.5 1188 lineto
556.5 1152 lineto
723.5 1152 lineto
closepath fill
1 setlinewidth
filled
0 0 0 nodecolor
newpath 723.5 1188 moveto
556.5 1188 lineto
556.5 1152 lineto
723.5 1152 lineto
closepath stroke
0 0 0 nodecolor
14 /Times-Roman set_font
564.5 1166.3 moveto 151 (ev\(\(* \(factorial \(- n 1\)\) n\)\)) alignedtext
0 0 0 nodecolor
14 /Times-Roman set_font
548.5 1191.8 moveto 8 (6) alignedtext
grestore
% 4->6
gsave
1 setlinewidth
0 0 0 edgecolor
newpath 591.07 1223.7 moveto
598.94 1215.22 608.56 1204.86 617.17 1195.58 curveto
stroke
0 0 0 edgecolor
newpath 619.88 1197.81 moveto
624.12 1188.1 lineto
614.75 1193.05 lineto
closepath fill
1 setlinewidth
solid
0 0 0 edgecolor
newpath 619.88 1197.81 moveto
624.12 1188.1 lineto
614.75 1193.05 lineto
closepath stroke
grestore
% 7
gsave
0.16667 0.33333 1 nodecolor
newpath 539 1116 moveto
483 1116 lineto
483 1080 lineto
539 1080 lineto
closepath fill
1 setlinewidth
filled
0 0 0 nodecolor
newpath 539 1116 moveto
483 1116 lineto
483 1080 lineto
539 1080 lineto
closepath stroke
0 0 0 nodecolor
14 /Times-Roman set_font
491 1094.3 moveto 40 (ko\(Int\)) alignedtext
0 0 0 nodecolor
14 /Times-Roman set_font
476 1119.8 moveto 7 (7) alignedtext
grestore
% 5->7
gsave
1 setlinewidth
0 0 0 edgecolor
newpath 511 1151.7 moveto
511 1143.98 511 1134.71 511 1126.11 curveto
stroke
0 0 0 edgecolor
newpath 514.5 1126.1 moveto
511 1116.1 lineto
507.5 1126.1 lineto
closepath fill
1 setlinewidth
solid
0 0 0 edgecolor
newpath 514.5 1126.1 moveto
511 1116.1 lineto
507.5 1126.1 lineto
closepath stroke
grestore
% 8
gsave
0.33333 0.13333 1 nodecolor
newpath 708 1116 moveto
572 1116 lineto
572 1080 lineto
708 1080 lineto
closepath fill
1 setlinewidth
filled
0 0 0 nodecolor
newpath 708 1116 moveto
572 1116 lineto
572 1080 lineto
708 1080 lineto
closepath stroke
0 0 0 nodecolor
14 /Times-Roman set_font
580 1094.3 moveto 120 (ev\(\(factorial \(- n 1\)\)\)) alignedtext
0 0 0 nodecolor
14 /Times-Roman set_font
565 1119.8 moveto 7 (8) alignedtext
grestore
% 6->8
gsave
1 setlinewidth
0 0 0 edgecolor
newpath 640 1151.7 moveto
640 1143.98 640 1134.71 640 1126.11 curveto
stroke
0 0 0 edgecolor
newpath 643.5 1126.1 moveto
640 1116.1 lineto
636.5 1126.1 lineto
closepath fill
1 setlinewidth
solid
0 0 0 edgecolor
newpath 643.5 1126.1 moveto
640 1116.1 lineto
636.5 1126.1 lineto
closepath stroke
grestore
% 9
gsave
0.33333 0.13333 1 nodecolor
newpath 678 1044 moveto
602 1044 lineto
602 1008 lineto
678 1008 lineto
closepath fill
1 setlinewidth
filled
0 0 0 nodecolor
newpath 678 1044 moveto
602 1044 lineto
602 1008 lineto
678 1008 lineto
closepath stroke
0 0 0 nodecolor
14 /Times-Roman set_font
610 1022.3 moveto 60 (ev\(\(- n 1\)\)) alignedtext
0 0 0 nodecolor
14 /Times-Roman set_font
594 1047.8 moveto 8 (9) alignedtext
grestore
% 8->9
gsave
1 setlinewidth
0 0 0 edgecolor
newpath 640 1079.7 moveto
640 1071.98 640 1062.71 640 1054.11 curveto
stroke
0 0 0 edgecolor
newpath 643.5 1054.1 moveto
640 1044.1 lineto
636.5 1054.1 lineto
closepath fill
1 setlinewidth
solid
0 0 0 edgecolor
newpath 643.5 1054.1 moveto
640 1044.1 lineto
636.5 1054.1 lineto
closepath stroke
grestore
% 10
gsave
0.66667 0.13333 1 nodecolor
newpath 668 972 moveto
612 972 lineto
612 936 lineto
668 936 lineto
closepath fill
1 setlinewidth
filled
0 0 0 nodecolor
newpath 668 972 moveto
612 972 lineto
612 936 lineto
668 936 lineto
closepath stroke
0 0 0 nodecolor
14 /Times-Roman set_font
620 950.3 moveto 40 (ko\(Int\)) alignedtext
0 0 0 nodecolor
14 /Times-Roman set_font
597 975.8 moveto 15 (10) alignedtext
grestore
% 9->10
gsave
1 setlinewidth
0 0 0 edgecolor
newpath 640 1007.7 moveto
640 999.98 640 990.71 640 982.11 curveto
stroke
0 0 0 edgecolor
newpath 643.5 982.1 moveto
640 972.1 lineto
636.5 982.1 lineto
closepath fill
1 setlinewidth
solid
0 0 0 edgecolor
newpath 643.5 982.1 moveto
640 972.1 lineto
636.5 982.1 lineto
closepath stroke
grestore
% 11
gsave
0.33333 0.13333 1 nodecolor
newpath 765 900 moveto
515 900 lineto
515 864 lineto
765 864 lineto
closepath fill
1 setlinewidth
filled
0 0 0 nodecolor
newpath 765 900 moveto
515 900 lineto
515 864 lineto
765 864 lineto
closepath stroke
0 0 0 nodecolor
14 /Times-Roman set_font
523 878.3 moveto 234 (ev\(\(if \(<= n 1\) 1 \(* \(factorial \(- n 1\)\) n\)\)\)) alignedtext
0 0 0 nodecolor
14 /Times-Roman set_font
501 903.8 moveto 14 (11) alignedtext
grestore
% 10->11
gsave
1 setlinewidth
0 0 0 edgecolor
newpath 640 935.7 moveto
640 927.98 640 918.71 640 910.11 curveto
stroke
0 0 0 edgecolor
newpath 643.5 910.1 moveto
640 900.1 lineto
636.5 910.1 lineto
closepath fill
1 setlinewidth
solid
0 0 0 edgecolor
newpath 643.5 910.1 moveto
640 900.1 lineto
636.5 910.1 lineto
closepath stroke
grestore
% 12
gsave
0.33333 0.13333 1 nodecolor
newpath 683.5 828 moveto
596.5 828 lineto
596.5 792 lineto
683.5 792 lineto
closepath fill
1 setlinewidth
filled
0 0 0 nodecolor
newpath 683.5 828 moveto
596.5 828 lineto
596.5 792 lineto
683.5 792 lineto
closepath stroke
0 0 0 nodecolor
14 /Times-Roman set_font
604.5 806.3 moveto 71 (ev\(\(<= n 1\)\)) alignedtext
0 0 0 nodecolor
14 /Times-Roman set_font
582.5 831.8 moveto 14 (12) alignedtext
grestore
% 11->12
gsave
1 setlinewidth
0 0 0 edgecolor
newpath 640 863.7 moveto
640 855.98 640 846.71 640 838.11 curveto
stroke
0 0 0 edgecolor
newpath 643.5 838.1 moveto
640 828.1 lineto
636.5 838.1 lineto
closepath fill
1 setlinewidth
solid
0 0 0 edgecolor
newpath 643.5 838.1 moveto
640 828.1 lineto
636.5 838.1 lineto
closepath stroke
grestore
% 13
gsave
0.66667 0.13333 1 nodecolor
newpath 563.5 756 moveto
494.5 756 lineto
494.5 720 lineto
563.5 720 lineto
closepath fill
1 setlinewidth
filled
0 0 0 nodecolor
newpath 563.5 756 moveto
494.5 756 lineto
494.5 720 lineto
563.5 720 lineto
closepath stroke
0 0 0 nodecolor
14 /Times-Roman set_font
502.5 734.3 moveto 53 (ko\(Bool\)) alignedtext
0 0 0 nodecolor
14 /Times-Roman set_font
480.5 759.8 moveto 14 (13) alignedtext
grestore
% 12->13
gsave
1 setlinewidth
0 0 0 edgecolor
newpath 612.85 791.88 moveto
598.47 782.81 580.62 771.55 565.09 761.76 curveto
stroke
0 0 0 edgecolor
newpath 566.58 758.56 moveto
556.26 756.19 lineto
562.85 764.48 lineto
closepath fill
1 setlinewidth
solid
0 0 0 edgecolor
newpath 566.58 758.56 moveto
556.26 756.19 lineto
562.85 764.48 lineto
closepath stroke
grestore
% 14
gsave
0.33333 0.13333 1 nodecolor
newpath 569 612 moveto
515 612 lineto
515 576 lineto
569 576 lineto
closepath fill
1 setlinewidth
filled
0 0 0 nodecolor
newpath 569 612 moveto
515 612 lineto
515 576 lineto
569 576 lineto
closepath stroke
0 0 0 nodecolor
14 /Times-Roman set_font
526.5 590.3 moveto 31 (ev\(1\)) alignedtext
0 0 0 nodecolor
14 /Times-Roman set_font
499 615.8 moveto 16 (14) alignedtext
grestore
% 13->14
gsave
1 setlinewidth
0 0 0 edgecolor
newpath 530.57 719.87 moveto
532.78 695.67 536.85 651.21 539.49 622.39 curveto
stroke
0 0 0 edgecolor
newpath 543 622.47 moveto
540.43 612.19 lineto
536.03 621.83 lineto
closepath fill
1 setlinewidth
solid
0 0 0 edgecolor
newpath 543 622.47 moveto
540.43 612.19 lineto
536.03 621.83 lineto
closepath stroke
grestore
% 15
gsave
0.33333 0.13333 1 nodecolor
newpath 723.5 684 moveto
556.5 684 lineto
556.5 648 lineto
723.5 648 lineto
closepath fill
1 setlinewidth
filled
0 0 0 nodecolor
newpath 723.5 684 moveto
556.5 684 lineto
556.5 648 lineto
723.5 648 lineto
closepath stroke
0 0 0 nodecolor
14 /Times-Roman set_font
564.5 662.3 moveto 151 (ev\(\(* \(factorial \(- n 1\)\) n\)\)) alignedtext
0 0 0 nodecolor
14 /Times-Roman set_font
541.5 687.8 moveto 15 (15) alignedtext
grestore
% 13->15
gsave
1 setlinewidth
0 0 0 edgecolor
newpath 556.15 719.88 moveto
570.53 710.81 588.38 699.55 603.91 689.76 curveto
stroke
0 0 0 edgecolor
newpath 606.15 692.48 moveto
612.74 684.19 lineto
602.42 686.56 lineto
closepath fill
1 setlinewidth
solid
0 0 0 edgecolor
newpath 606.15 692.48 moveto
612.74 684.19 lineto
602.42 686.56 lineto
closepath stroke
grestore
% 16
gsave
0.33333 0.13333 1 nodecolor
newpath 500 684 moveto
446 684 lineto
446 648 lineto
500 648 lineto
closepath fill
1 setlinewidth
filled
0 0 0 nodecolor
newpath 500 684 moveto
446 684 lineto
446 648 lineto
500 648 lineto
closepath stroke
0 0 0 nodecolor
14 /Times-Roman set_font
457.5 662.3 moveto 31 (ev\(1\)) alignedtext
0 0 0 nodecolor
14 /Times-Roman set_font
431 687.8 moveto 15 (16) alignedtext
grestore
% 13->16
gsave
1 setlinewidth
0 0 0 edgecolor
newpath 515.16 719.7 moveto
508.51 711.39 500.42 701.28 493.11 692.14 curveto
stroke
0 0 0 edgecolor
newpath 495.66 689.73 moveto
486.68 684.1 lineto
490.2 694.1 lineto
closepath fill
1 setlinewidth
solid
0 0 0 edgecolor
newpath 495.66 689.73 moveto
486.68 684.1 lineto
490.2 694.1 lineto
closepath stroke
grestore
% 17
gsave
0.33333 0.13333 1 nodecolor
newpath 424.5 684 moveto
257.5 684 lineto
257.5 648 lineto
424.5 648 lineto
closepath fill
1 setlinewidth
filled
0 0 0 nodecolor
newpath 424.5 684 moveto
257.5 684 lineto
257.5 648 lineto
424.5 648 lineto
closepath stroke
0 0 0 nodecolor
14 /Times-Roman set_font
265.5 662.3 moveto 151 (ev\(\(* \(factorial \(- n 1\)\) n\)\)) alignedtext
0 0 0 nodecolor
14 /Times-Roman set_font
243.5 687.8 moveto 14 (17) alignedtext
grestore
% 13->17
gsave
1 setlinewidth
0 0 0 edgecolor
newpath 494.08 724 moveto
466.65 713.79 427.94 699.37 396.31 687.59 curveto
stroke
0 0 0 edgecolor
newpath 397.34 684.24 moveto
386.74 684.03 lineto
394.89 690.8 lineto
closepath fill
1 setlinewidth
solid
0 0 0 edgecolor
newpath 397.34 684.24 moveto
386.74 684.03 lineto
394.89 690.8 lineto
closepath stroke
grestore
% 18
gsave
0.16667 0.33333 1 nodecolor
newpath 570 540 moveto
514 540 lineto
514 504 lineto
570 504 lineto
closepath fill
1 setlinewidth
filled
0 0 0 nodecolor
newpath 570 540 moveto
514 540 lineto
514 504 lineto
570 504 lineto
closepath stroke
0 0 0 nodecolor
14 /Times-Roman set_font
522 518.3 moveto 40 (ko\(Int\)) alignedtext
0 0 0 nodecolor
14 /Times-Roman set_font
500 543.8 moveto 14 (18) alignedtext
grestore
% 14->18
gsave
1 setlinewidth
0 0 0 edgecolor
newpath 542 575.7 moveto
542 567.98 542 558.71 542 550.11 curveto
stroke
0 0 0 edgecolor
newpath 545.5 550.1 moveto
542 540.1 lineto
538.5 550.1 lineto
closepath fill
1 setlinewidth
solid
0 0 0 edgecolor
newpath 545.5 550.1 moveto
542 540.1 lineto
538.5 550.1 lineto
closepath stroke
grestore
% 19
gsave
0.33333 0.13333 1 nodecolor
newpath 723 612 moveto
587 612 lineto
587 576 lineto
723 576 lineto
closepath fill
1 setlinewidth
filled
0 0 0 nodecolor
newpath 723 612 moveto
587 612 lineto
587 576 lineto
723 576 lineto
closepath stroke
0 0 0 nodecolor
14 /Times-Roman set_font
595 590.3 moveto 120 (ev\(\(factorial \(- n 1\)\)\)) alignedtext
0 0 0 nodecolor
14 /Times-Roman set_font
572 615.8 moveto 15 (19) alignedtext
grestore
% 15->19
gsave
1 setlinewidth
0 0 0 edgecolor
newpath 643.71 647.7 moveto
645.36 639.98 647.35 630.71 649.19 622.11 curveto
stroke
0 0 0 edgecolor
newpath 652.66 622.62 moveto
651.33 612.1 lineto
645.82 621.15 lineto
closepath fill
1 setlinewidth
solid
0 0 0 edgecolor
newpath 652.66 622.62 moveto
651.33 612.1 lineto
645.82 621.15 lineto
closepath stroke
grestore
% 20
gsave
0.66667 0.13333 1 nodecolor
newpath 497 612 moveto
441 612 lineto
441 576 lineto
497 576 lineto
closepath fill
1 setlinewidth
filled
0 0 0 nodecolor
newpath 497 612 moveto
441 612 lineto
441 576 lineto
497 576 lineto
closepath stroke
0 0 0 nodecolor
14 /Times-Roman set_font
449 590.3 moveto 40 (ko\(Int\)) alignedtext
0 0 0 nodecolor
14 /Times-Roman set_font
426 615.8 moveto 15 (20) alignedtext
grestore
% 16->20
gsave
1 setlinewidth
0 0 0 edgecolor
newpath 472.01 647.7 moveto
471.57 639.98 471.04 630.71 470.55 622.11 curveto
stroke
0 0 0 edgecolor
newpath 474.04 621.89 moveto
469.98 612.1 lineto
467.05 622.29 lineto
closepath fill
1 setlinewidth
solid
0 0 0 edgecolor
newpath 474.04 621.89 moveto
469.98 612.1 lineto
467.05 622.29 lineto
closepath stroke
grestore
% 21
gsave
0.33333 0.13333 1 nodecolor
newpath 403 612 moveto
267 612 lineto
267 576 lineto
403 576 lineto
closepath fill
1 setlinewidth
filled
0 0 0 nodecolor
newpath 403 612 moveto
267 612 lineto
267 576 lineto
403 576 lineto
closepath stroke
0 0 0 nodecolor
14 /Times-Roman set_font
275 590.3 moveto 120 (ev\(\(factorial \(- n 1\)\)\)) alignedtext
0 0 0 nodecolor
14 /Times-Roman set_font
253 615.8 moveto 14 (21) alignedtext
grestore
% 17->21
gsave
1 setlinewidth
0 0 0 edgecolor
newpath 339.52 647.7 moveto
338.86 639.98 338.06 630.71 337.32 622.11 curveto
stroke
0 0 0 edgecolor
newpath 340.81 621.77 moveto
336.47 612.1 lineto
333.83 622.37 lineto
closepath fill
1 setlinewidth
solid
0 0 0 edgecolor
newpath 340.81 621.77 moveto
336.47 612.1 lineto
333.83 622.37 lineto
closepath stroke
grestore
% 23
gsave
0.33333 0.13333 1 nodecolor
newpath 708 540 moveto
632 540 lineto
632 504 lineto
708 504 lineto
closepath fill
1 setlinewidth
filled
0 0 0 nodecolor
newpath 708 540 moveto
632 540 lineto
632 504 lineto
708 504 lineto
closepath stroke
0 0 0 nodecolor
14 /Times-Roman set_font
640 518.3 moveto 60 (ev\(\(- n 1\)\)) alignedtext
0 0 0 nodecolor
14 /Times-Roman set_font
618 543.8 moveto 14 (23) alignedtext
grestore
% 19->23
gsave
1 setlinewidth
0 0 0 edgecolor
newpath 658.71 575.7 moveto
660.36 567.98 662.35 558.71 664.19 550.11 curveto
stroke
0 0 0 edgecolor
newpath 667.66 550.62 moveto
666.33 540.1 lineto
660.82 549.15 lineto
closepath fill
1 setlinewidth
solid
0 0 0 edgecolor
newpath 667.66 550.62 moveto
666.33 540.1 lineto
660.82 549.15 lineto
closepath stroke
grestore
% 20->18
gsave
1 setlinewidth
0 0 0 edgecolor
newpath 487.04 575.7 moveto
496.06 567.05 507.12 556.45 516.94 547.03 curveto
stroke
0 0 0 edgecolor
newpath 519.37 549.55 moveto
524.16 540.1 lineto
514.52 544.5 lineto
closepath fill
1 setlinewidth
solid
0 0 0 edgecolor
newpath 519.37 549.55 moveto
524.16 540.1 lineto
514.52 544.5 lineto
closepath stroke
grestore
% 22
gsave
0.33333 0.13333 1 nodecolor
newpath 372 540 moveto
296 540 lineto
296 504 lineto
372 504 lineto
closepath fill
1 setlinewidth
filled
0 0 0 nodecolor
newpath 372 540 moveto
296 540 lineto
296 504 lineto
372 504 lineto
closepath stroke
0 0 0 nodecolor
14 /Times-Roman set_font
304 518.3 moveto 60 (ev\(\(- n 1\)\)) alignedtext
0 0 0 nodecolor
14 /Times-Roman set_font
282 543.8 moveto 14 (22) alignedtext
grestore
% 21->22
gsave
1 setlinewidth
0 0 0 edgecolor
newpath 334.75 575.7 moveto
334.64 567.98 334.51 558.71 334.39 550.11 curveto
stroke
0 0 0 edgecolor
newpath 337.89 550.05 moveto
334.24 540.1 lineto
330.89 550.15 lineto
closepath fill
1 setlinewidth
solid
0 0 0 edgecolor
newpath 337.89 550.05 moveto
334.24 540.1 lineto
330.89 550.15 lineto
closepath stroke
grestore
% 25
gsave
0.66667 0.13333 1 nodecolor
newpath 361 468 moveto
305 468 lineto
305 432 lineto
361 432 lineto
closepath fill
1 setlinewidth
filled
0 0 0 nodecolor
newpath 361 468 moveto
305 468 lineto
305 432 lineto
361 432 lineto
closepath stroke
0 0 0 nodecolor
14 /Times-Roman set_font
313 446.3 moveto 40 (ko\(Int\)) alignedtext
0 0 0 nodecolor
14 /Times-Roman set_font
290 471.8 moveto 15 (25) alignedtext
grestore
% 22->25
gsave
1 setlinewidth
0 0 0 edgecolor
newpath 333.75 503.7 moveto
333.64 495.98 333.51 486.71 333.39 478.11 curveto
stroke
0 0 0 edgecolor
newpath 336.89 478.05 moveto
333.24 468.1 lineto
329.89 478.15 lineto
closepath fill
1 setlinewidth
solid
0 0 0 edgecolor
newpath 336.89 478.05 moveto
333.24 468.1 lineto
329.89 478.15 lineto
closepath stroke
grestore
% 24
gsave
0.66667 0.13333 1 nodecolor
newpath 703 468 moveto
647 468 lineto
647 432 lineto
703 432 lineto
closepath fill
1 setlinewidth
filled
0 0 0 nodecolor
newpath 703 468 moveto
647 468 lineto
647 432 lineto
703 432 lineto
closepath stroke
0 0 0 nodecolor
14 /Times-Roman set_font
655 446.3 moveto 40 (ko\(Int\)) alignedtext
0 0 0 nodecolor
14 /Times-Roman set_font
631 471.8 moveto 16 (24) alignedtext
grestore
% 23->24
gsave
1 setlinewidth
0 0 0 edgecolor
newpath 671.24 503.7 moveto
671.79 495.98 672.45 486.71 673.06 478.11 curveto
stroke
0 0 0 edgecolor
newpath 676.56 478.33 moveto
673.78 468.1 lineto
669.57 477.83 lineto
closepath fill
1 setlinewidth
solid
0 0 0 edgecolor
newpath 676.56 478.33 moveto
673.78 468.1 lineto
669.57 477.83 lineto
closepath stroke
grestore
% 27
gsave
0.33333 0.13333 1 nodecolor
newpath 830 396 moveto
580 396 lineto
580 360 lineto
830 360 lineto
closepath fill
1 setlinewidth
filled
0 0 0 nodecolor
newpath 830 396 moveto
580 396 lineto
580 360 lineto
830 360 lineto
closepath stroke
0 0 0 nodecolor
14 /Times-Roman set_font
588 374.3 moveto 234 (ev\(\(if \(<= n 1\) 1 \(* \(factorial \(- n 1\)\) n\)\)\)) alignedtext
0 0 0 nodecolor
14 /Times-Roman set_font
566 399.8 moveto 14 (27) alignedtext
grestore
% 24->27
gsave
1 setlinewidth
0 0 0 edgecolor
newpath 682.42 431.7 moveto
685.79 423.81 689.87 414.3 693.62 405.55 curveto
stroke
0 0 0 edgecolor
newpath 696.95 406.67 moveto
697.67 396.1 lineto
690.51 403.92 lineto
closepath fill
1 setlinewidth
solid
0 0 0 edgecolor
newpath 696.95 406.67 moveto
697.67 396.1 lineto
690.51 403.92 lineto
closepath stroke
grestore
% 26
gsave
0.33333 0.13333 1 nodecolor
newpath 458 396 moveto
208 396 lineto
208 360 lineto
458 360 lineto
closepath fill
1 setlinewidth
filled
0 0 0 nodecolor
newpath 458 396 moveto
208 396 lineto
208 360 lineto
458 360 lineto
closepath stroke
0 0 0 nodecolor
14 /Times-Roman set_font
216 374.3 moveto 234 (ev\(\(if \(<= n 1\) 1 \(* \(factorial \(- n 1\)\) n\)\)\)) alignedtext
0 0 0 nodecolor
14 /Times-Roman set_font
193 399.8 moveto 15 (26) alignedtext
grestore
% 25->26
gsave
1 setlinewidth
0 0 0 edgecolor
newpath 333 431.7 moveto
333 423.98 333 414.71 333 406.11 curveto
stroke
0 0 0 edgecolor
newpath 336.5 406.1 moveto
333 396.1 lineto
329.5 406.1 lineto
closepath fill
1 setlinewidth
solid
0 0 0 edgecolor
newpath 336.5 406.1 moveto
333 396.1 lineto
329.5 406.1 lineto
closepath stroke
grestore
% 28
gsave
0.33333 0.13333 1 nodecolor
newpath 376.5 324 moveto
289.5 324 lineto
289.5 288 lineto
376.5 288 lineto
closepath fill
1 setlinewidth
filled
0 0 0 nodecolor
newpath 376.5 324 moveto
289.5 324 lineto
289.5 288 lineto
376.5 288 lineto
closepath stroke
0 0 0 nodecolor
14 /Times-Roman set_font
297.5 302.3 moveto 71 (ev\(\(<= n 1\)\)) alignedtext
0 0 0 nodecolor
14 /Times-Roman set_font
275.5 327.8 moveto 14 (28) alignedtext
grestore
% 26->28
gsave
1 setlinewidth
0 0 0 edgecolor
newpath 333 359.7 moveto
333 351.98 333 342.71 333 334.11 curveto
stroke
0 0 0 edgecolor
newpath 336.5 334.1 moveto
333 324.1 lineto
329.5 334.1 lineto
closepath fill
1 setlinewidth
solid
0 0 0 edgecolor
newpath 336.5 334.1 moveto
333 324.1 lineto
329.5 334.1 lineto
closepath stroke
grestore
% 27->12
gsave
1 setlinewidth
0 0 0 edgecolor
newpath 714.53 396.34 moveto
728 422.53 751 474.1 751 521 curveto
751 667 751 667 751 667 curveto
751 717.41 707.04 760.61 674.45 785.71 curveto
stroke
0 0 0 edgecolor
newpath 671.95 783.21 moveto
666.02 792 lineto
676.13 788.82 lineto
closepath fill
1 setlinewidth
solid
0 0 0 edgecolor
newpath 671.95 783.21 moveto
666.02 792 lineto
676.13 788.82 lineto
closepath stroke
grestore
% 29
gsave
0.66667 0.13333 1 nodecolor
newpath 367.5 252 moveto
298.5 252 lineto
298.5 216 lineto
367.5 216 lineto
closepath fill
1 setlinewidth
filled
0 0 0 nodecolor
newpath 367.5 252 moveto
298.5 252 lineto
298.5 216 lineto
367.5 216 lineto
closepath stroke
0 0 0 nodecolor
14 /Times-Roman set_font
306.5 230.3 moveto 53 (ko\(Bool\)) alignedtext
0 0 0 nodecolor
14 /Times-Roman set_font
283.5 255.8 moveto 15 (29) alignedtext
grestore
% 28->29
gsave
1 setlinewidth
0 0 0 edgecolor
newpath 333 287.7 moveto
333 279.98 333 270.71 333 262.11 curveto
stroke
0 0 0 edgecolor
newpath 336.5 262.1 moveto
333 252.1 lineto
329.5 262.1 lineto
closepath fill
1 setlinewidth
solid
0 0 0 edgecolor
newpath 336.5 262.1 moveto
333 252.1 lineto
329.5 262.1 lineto
closepath stroke
grestore
% 30
gsave
0.33333 0.13333 1 nodecolor
newpath 418 108 moveto
364 108 lineto
364 72 lineto
418 72 lineto
closepath fill
1 setlinewidth
filled
0 0 0 nodecolor
newpath 418 108 moveto
364 108 lineto
364 72 lineto
418 72 lineto
closepath stroke
0 0 0 nodecolor
14 /Times-Roman set_font
375.5 86.3 moveto 31 (ev\(1\)) alignedtext
0 0 0 nodecolor
14 /Times-Roman set_font
349 111.8 moveto 15 (30) alignedtext
grestore
% 29->30
gsave
1 setlinewidth
0 0 0 edgecolor
newpath 340 215.87 moveto
349.97 191.46 368.36 146.43 380.12 117.64 curveto
stroke
0 0 0 edgecolor
newpath 383.44 118.77 moveto
383.98 108.19 lineto
376.96 116.12 lineto
closepath fill
1 setlinewidth
solid
0 0 0 edgecolor
newpath 383.44 118.77 moveto
383.98 108.19 lineto
376.96 116.12 lineto
closepath stroke
grestore
% 31
gsave
0.33333 0.13333 1 nodecolor
newpath 268.5 180 moveto
101.5 180 lineto
101.5 144 lineto
268.5 144 lineto
closepath fill
1 setlinewidth
filled
0 0 0 nodecolor
newpath 268.5 180 moveto
101.5 180 lineto
101.5 144 lineto
268.5 144 lineto
closepath stroke
0 0 0 nodecolor
14 /Times-Roman set_font
109.5 158.3 moveto 151 (ev\(\(* \(factorial \(- n 1\)\) n\)\)) alignedtext
0 0 0 nodecolor
14 /Times-Roman set_font
87.5 183.8 moveto 14 (31) alignedtext
grestore
% 29->31
gsave
1 setlinewidth
0 0 0 edgecolor
newpath 298.3 216.59 moveto
277.97 206.97 252.05 194.72 230.14 184.35 curveto
stroke
0 0 0 edgecolor
newpath 231.56 181.15 moveto
221.03 180.04 lineto
228.57 187.48 lineto
closepath fill
1 setlinewidth
solid
0 0 0 edgecolor
newpath 231.56 181.15 moveto
221.03 180.04 lineto
228.57 187.48 lineto
closepath stroke
grestore
% 32
gsave
0.33333 0.13333 1 nodecolor
newpath 344 180 moveto
290 180 lineto
290 144 lineto
344 144 lineto
closepath fill
1 setlinewidth
filled
0 0 0 nodecolor
newpath 344 180 moveto
290 180 lineto
290 144 lineto
344 144 lineto
closepath stroke
0 0 0 nodecolor
14 /Times-Roman set_font
301.5 158.3 moveto 31 (ev\(1\)) alignedtext
0 0 0 nodecolor
14 /Times-Roman set_font
276 183.8 moveto 14 (32) alignedtext
grestore
% 29->32
gsave
1 setlinewidth
0 0 0 edgecolor
newpath 329.04 215.7 moveto
327.28 207.98 325.16 198.71 323.2 190.11 curveto
stroke
0 0 0 edgecolor
newpath 326.55 189.07 moveto
320.91 180.1 lineto
319.73 190.63 lineto
closepath fill
1 setlinewidth
solid
0 0 0 edgecolor
newpath 326.55 189.07 moveto
320.91 180.1 lineto
319.73 190.63 lineto
closepath stroke
grestore
% 33
gsave
0.33333 0.13333 1 nodecolor
newpath 568.5 180 moveto
401.5 180 lineto
401.5 144 lineto
568.5 144 lineto
closepath fill
1 setlinewidth
filled
0 0 0 nodecolor
newpath 568.5 180 moveto
401.5 180 lineto
401.5 144 lineto
568.5 144 lineto
closepath stroke
0 0 0 nodecolor
14 /Times-Roman set_font
409.5 158.3 moveto 151 (ev\(\(* \(factorial \(- n 1\)\) n\)\)) alignedtext
0 0 0 nodecolor
14 /Times-Roman set_font
387.5 183.8 moveto 14 (33) alignedtext
grestore
% 29->33
gsave
1 setlinewidth
0 0 0 edgecolor
newpath 367.87 216.94 moveto
388.9 207.26 415.94 194.8 438.75 184.3 curveto
stroke
0 0 0 edgecolor
newpath 440.28 187.45 moveto
447.9 180.08 lineto
437.36 181.09 lineto
closepath fill
1 setlinewidth
solid
0 0 0 edgecolor
newpath 440.28 187.45 moveto
447.9 180.08 lineto
437.36 181.09 lineto
closepath stroke
grestore
% 34
gsave
0.16667 0.33333 1 nodecolor
newpath 373 36 moveto
317 36 lineto
317 0 lineto
373 0 lineto
closepath fill
1 setlinewidth
filled
0 0 0 nodecolor
newpath 373 36 moveto
317 36 lineto
317 0 lineto
373 0 lineto
closepath stroke
0 0 0 nodecolor
14 /Times-Roman set_font
325 14.3 moveto 40 (ko\(Int\)) alignedtext
0 0 0 nodecolor
14 /Times-Roman set_font
301 39.8 moveto 16 (34) alignedtext
grestore
% 30->34
gsave
1 setlinewidth
0 0 0 edgecolor
newpath 379.63 71.7 moveto
374.28 63.56 367.8 53.69 361.89 44.7 curveto
stroke
0 0 0 edgecolor
newpath 364.66 42.54 moveto
356.24 36.1 lineto
358.81 46.38 lineto
closepath fill
1 setlinewidth
solid
0 0 0 edgecolor
newpath 364.66 42.54 moveto
356.24 36.1 lineto
358.81 46.38 lineto
closepath stroke
grestore
% 31->21
gsave
1 setlinewidth
0 0 0 edgecolor
newpath 184.01 180.04 moveto
182.56 206.69 180 259.86 180 305 curveto
180 451 180 451 180 451 curveto
180 508.36 238.43 548.81 283.54 571.5 curveto
stroke
0 0 0 edgecolor
newpath 282.12 574.7 moveto
292.65 575.93 lineto
285.19 568.41 lineto
closepath fill
1 setlinewidth
solid
0 0 0 edgecolor
newpath 282.12 574.7 moveto
292.65 575.93 lineto
285.19 568.41 lineto
closepath stroke
grestore
% 35
gsave
0.66667 0.13333 1 nodecolor
newpath 328 108 moveto
272 108 lineto
272 72 lineto
328 72 lineto
closepath fill
1 setlinewidth
filled
0 0 0 nodecolor
newpath 328 108 moveto
272 108 lineto
272 72 lineto
328 72 lineto
closepath stroke
0 0 0 nodecolor
14 /Times-Roman set_font
280 86.3 moveto 40 (ko\(Int\)) alignedtext
0 0 0 nodecolor
14 /Times-Roman set_font
257 111.8 moveto 15 (35) alignedtext
grestore
% 32->35
gsave
1 setlinewidth
0 0 0 edgecolor
newpath 312.8 143.7 moveto
310.9 135.9 308.62 126.51 306.52 117.83 curveto
stroke
0 0 0 edgecolor
newpath 309.92 117 moveto
304.15 108.1 lineto
303.11 118.65 lineto
closepath fill
1 setlinewidth
solid
0 0 0 edgecolor
newpath 309.92 117 moveto
304.15 108.1 lineto
303.11 118.65 lineto
closepath stroke
grestore
% 33->21
gsave
1 setlinewidth
0 0 0 edgecolor
newpath 485.2 180.05 moveto
485.49 206.71 486 259.88 486 305 curveto
486 451 486 451 486 451 curveto
486 507.61 428.98 548.27 385.02 571.2 curveto
stroke
0 0 0 edgecolor
newpath 383.21 568.19 moveto
375.86 575.82 lineto
386.37 574.44 lineto
closepath fill
1 setlinewidth
solid
0 0 0 edgecolor
newpath 383.21 568.19 moveto
375.86 575.82 lineto
386.37 574.44 lineto
closepath stroke
grestore
% 35->34
gsave
1 setlinewidth
0 0 0 edgecolor
newpath 311.12 71.7 moveto
316.36 63.56 322.7 53.69 328.48 44.7 curveto
stroke
0 0 0 edgecolor
newpath 331.54 46.41 moveto
334 36.1 lineto
325.65 42.62 lineto
closepath fill
1 setlinewidth
solid
0 0 0 edgecolor
newpath 331.54 46.41 moveto
334 36.1 lineto
325.65 42.62 lineto
closepath stroke
grestore
% 35->35
gsave
1 setlinewidth
0 0 0 edgecolor
newpath 328.3 103.5 moveto
338.09 103.64 346 99.14 346 90 curveto
346 84.29 342.91 80.39 338.2 78.3 curveto
stroke
0 0 0 edgecolor
newpath 338.76 74.85 moveto
328.3 76.5 lineto
337.51 81.73 lineto
closepath fill
1 setlinewidth
solid
0 0 0 edgecolor
newpath 338.76 74.85 moveto
328.3 76.5 lineto
337.51 81.73 lineto
closepath stroke
grestore
endpage
showpage
grestore
%%PageTrailer
%%EndPage: 1
%%Trailer
end
restore
%%EOF
