digraph "Scala-Par-AM Scheme-examples/OPi/inc.scm" {
  node[shape=box, style=filled, fillcolor=<#DDFFDD>];

stats[style=rounded, label="# nodes: 4\l# edges: 3\lgraph density: 0.250\loutdegree positive min: 1\loutdegree max: 1\loutdegree avg: 0.750\l"];
config[style=rounded, label="lattice: TypeSet\lbound: 100\laddress: Classical\lstep\lmachine: SeqAAMLS\l"]

0[xlabel=0, label=<(letrec ((inc (lambda (x) (+ x 1)))) (inc 2))>, fillcolor=<#AAFFAA>];
1[xlabel=1, label=<(inc 2)>];
2[xlabel=2, label=<(+ x 1)>];
3[xlabel=3, label=<ko(Int)>, fillcolor=<#FFFFAA>];

0 -> 1;
1 -> 2;
2 -> 3;
}
