digraph "Scala-Par-AM Scheme-examples/other/bound-precision.scm" {
  node[shape=box, style=filled, fillcolor=<#DDFFDD>];

stats[style=rounded, label="# nodes: 45\l# edges: 47\lgraph density: 0.024\loutdegree positive min: 1\loutdegree max: 4\loutdegree avg: 1.044\l"];
config[style=rounded, label="lattice: TypeSet\lbound: 100\laddress: Classical\lstep\lmachine: SeqAAMLS\l"]

0[xlabel=0, label=<(letrec ((f (lambda (x) (if (&lt; x 100) f 1))) (f2 (f 5))) (eq? (f2 2) f))>, fillcolor=<#AAFFAA>];
1[xlabel=1, label=<(f 5)>];
2[xlabel=2, label=<(if (&lt; x 100) f 1)>];
3[xlabel=3, label=<(&lt; x 100)>];
4[xlabel=4, label=<ko(Bool)>, fillcolor=<#DDDDFF>];
5[xlabel=5, label=<f>];
6[xlabel=6, label=<1>];
7[xlabel=7, label=<ko(#&lt;clo&gt;)>, fillcolor=<#DDDDFF>];
8[xlabel=8, label=<ko(Int)>, fillcolor=<#DDDDFF>];
9[xlabel=9, label=<(eq? (f2 2) f)>];
10[xlabel=10, label=<(eq? (f2 2) f)>];
11[xlabel=11, label=<(f2 2)>];
12[xlabel=12, label=<(f2 2)>];
13[xlabel=13, label=<err(TypeError(Int,operator,function,not a function))>, fillcolor=<#FFAAAA>];
14[xlabel=14, label=<(if (&lt; x 100) f 1)>];
15[xlabel=15, label=<(&lt; x 100)>];
16[xlabel=16, label=<ko(Bool)>, fillcolor=<#DDDDFF>];
17[xlabel=17, label=<f>];
18[xlabel=18, label=<1>];
19[xlabel=19, label=<f>];
20[xlabel=20, label=<1>];
21[xlabel=21, label=<ko(#&lt;clo&gt;)>, fillcolor=<#DDDDFF>];
22[xlabel=22, label=<ko(Int)>, fillcolor=<#DDDDFF>];
23[xlabel=23, label=<ko(#&lt;clo&gt;)>, fillcolor=<#DDDDFF>];
24[xlabel=24, label=<ko(Int)>, fillcolor=<#DDDDFF>];
25[xlabel=25, label=<ko(#f)>, fillcolor=<#FFFFAA>];
26[xlabel=26, label=<ko(#t)>, fillcolor=<#FFFFAA>];
27[xlabel=27, label=<(eq? (f2 2) f)>];
28[xlabel=28, label=<(eq? (f2 2) f)>];
29[xlabel=29, label=<(f2 2)>];
30[xlabel=30, label=<(f2 2)>];
31[xlabel=31, label=<(if (&lt; x 100) f 1)>];
32[xlabel=32, label=<(if (&lt; x 100) f 1)>];
33[xlabel=33, label=<(&lt; x 100)>];
34[xlabel=34, label=<ko(Bool)>, fillcolor=<#DDDDFF>];
35[xlabel=35, label=<f>];
36[xlabel=36, label=<1>];
37[xlabel=37, label=<f>];
38[xlabel=38, label=<1>];
39[xlabel=39, label=<ko(#&lt;clo&gt;)>, fillcolor=<#DDDDFF>];
40[xlabel=40, label=<ko(Int)>, fillcolor=<#DDDDFF>];
41[xlabel=41, label=<ko(#&lt;clo&gt;)>, fillcolor=<#DDDDFF>];
42[xlabel=42, label=<ko(Int)>, fillcolor=<#DDDDFF>];
43[xlabel=43, label=<ko(#f)>, fillcolor=<#FFFFAA>];
44[xlabel=44, label=<ko(#t)>, fillcolor=<#FFFFAA>];

0 -> 1;
1 -> 2;
2 -> 3;
3 -> 4;
4 -> 5;
4 -> 6;
5 -> 7;
6 -> 8;
7 -> 10;
8 -> 9;
9 -> 12;
10 -> 11;
11 -> 14;
12 -> 13;
14 -> 15;
15 -> 16;
16 -> 17;
16 -> 18;
16 -> 19;
16 -> 20;
17 -> 21;
18 -> 22;
19 -> 23;
20 -> 24;
21 -> 28;
22 -> 27;
23 -> 26;
24 -> 25;
27 -> 30;
28 -> 29;
29 -> 32;
30 -> 31;
31 -> 33;
32 -> 15;
33 -> 34;
34 -> 35;
34 -> 36;
34 -> 37;
34 -> 38;
35 -> 39;
36 -> 40;
37 -> 41;
38 -> 42;
39 -> 27;
40 -> 27;
41 -> 44;
42 -> 43;
}
