digraph "Scala-Par-AM Scheme-examples/OPi/linear_100.scm" {
  node[shape=box, style=filled, fillcolor=<#DDFFDD>];

stats[style=rounded, label="# nodes: 301\l# edges: 300\lgraph density: 0.003\loutdegree positive min: 1\loutdegree max: 1\loutdegree avg: 0.997\l"];
config[style=rounded, label="lattice: TypeSet\lbound: 100\laddress: Classical\lstep\lmachine: SeqAAMLS\l"]

0[xlabel=0, label=<(begin (begin 1) (begin 2) (begin 3) (begin 4) (begin 5) (begin 6) (begin 7) (begin 8) (begin 9) (begin 10) (begin 11) (begin 12) (begin 13) (begin 14) (begin 15) (begin 16) (begin 17) (begin 18) (begin 19) (begin 20) (begin 21) (begin 22) (begin 23) (begin 24) (begin 25) (begin 26) (begin 27) (begin 28) (begin 29) (begin 30) (begin 31) (begin 32) (begin 33) (begin 34) (begin 35) (begin 36) (begin 37) (begin 38) (begin 39) (begin 40) (begin 41) (begin 42) (begin 43) (begin 44) (begin 45) (begin 46) (begin 47) (begin 48) (begin 49) (begin 50) (begin 51) (begin 52) (begin 53) (begin 54) (begin 55) (begin 56) (begin 57) (begin 58) (begin 59) (begin 60) (begin 61) (begin 62) (begin 63) (begin 64) (begin 65) (begin 66) (begin 67) (begin 68) (begin 69) (begin 70) (begin 71) (begin 72) (begin 73) (begin 74) (begin 75) (begin 76) (begin 77) (begin 78) (begin 79) (begin 80) (begin 81) (begin 82) (begin 83) (begin 84) (begin 85) (begin 86) (begin 87) (begin 88) (begin 89) (begin 90) (begin 91) (begin 92) (begin 93) (begin 94) (begin 95) (begin 96) (begin 97) (begin 98) (begin 99) (begin 100))>, fillcolor=<#AAFFAA>];
1[xlabel=1, label=<(begin 1)>];
2[xlabel=2, label=<1>];
3[xlabel=3, label=<ko(Int)>, fillcolor=<#DDDDFF>];
4[xlabel=4, label=<(begin 2)>];
5[xlabel=5, label=<2>];
6[xlabel=6, label=<ko(Int)>, fillcolor=<#DDDDFF>];
7[xlabel=7, label=<(begin 3)>];
8[xlabel=8, label=<3>];
9[xlabel=9, label=<ko(Int)>, fillcolor=<#DDDDFF>];
10[xlabel=10, label=<(begin 4)>];
11[xlabel=11, label=<4>];
12[xlabel=12, label=<ko(Int)>, fillcolor=<#DDDDFF>];
13[xlabel=13, label=<(begin 5)>];
14[xlabel=14, label=<5>];
15[xlabel=15, label=<ko(Int)>, fillcolor=<#DDDDFF>];
16[xlabel=16, label=<(begin 6)>];
17[xlabel=17, label=<6>];
18[xlabel=18, label=<ko(Int)>, fillcolor=<#DDDDFF>];
19[xlabel=19, label=<(begin 7)>];
20[xlabel=20, label=<7>];
21[xlabel=21, label=<ko(Int)>, fillcolor=<#DDDDFF>];
22[xlabel=22, label=<(begin 8)>];
23[xlabel=23, label=<8>];
24[xlabel=24, label=<ko(Int)>, fillcolor=<#DDDDFF>];
25[xlabel=25, label=<(begin 9)>];
26[xlabel=26, label=<9>];
27[xlabel=27, label=<ko(Int)>, fillcolor=<#DDDDFF>];
28[xlabel=28, label=<(begin 10)>];
29[xlabel=29, label=<10>];
30[xlabel=30, label=<ko(Int)>, fillcolor=<#DDDDFF>];
31[xlabel=31, label=<(begin 11)>];
32[xlabel=32, label=<11>];
33[xlabel=33, label=<ko(Int)>, fillcolor=<#DDDDFF>];
34[xlabel=34, label=<(begin 12)>];
35[xlabel=35, label=<12>];
36[xlabel=36, label=<ko(Int)>, fillcolor=<#DDDDFF>];
37[xlabel=37, label=<(begin 13)>];
38[xlabel=38, label=<13>];
39[xlabel=39, label=<ko(Int)>, fillcolor=<#DDDDFF>];
40[xlabel=40, label=<(begin 14)>];
41[xlabel=41, label=<14>];
42[xlabel=42, label=<ko(Int)>, fillcolor=<#DDDDFF>];
43[xlabel=43, label=<(begin 15)>];
44[xlabel=44, label=<15>];
45[xlabel=45, label=<ko(Int)>, fillcolor=<#DDDDFF>];
46[xlabel=46, label=<(begin 16)>];
47[xlabel=47, label=<16>];
48[xlabel=48, label=<ko(Int)>, fillcolor=<#DDDDFF>];
49[xlabel=49, label=<(begin 17)>];
50[xlabel=50, label=<17>];
51[xlabel=51, label=<ko(Int)>, fillcolor=<#DDDDFF>];
52[xlabel=52, label=<(begin 18)>];
53[xlabel=53, label=<18>];
54[xlabel=54, label=<ko(Int)>, fillcolor=<#DDDDFF>];
55[xlabel=55, label=<(begin 19)>];
56[xlabel=56, label=<19>];
57[xlabel=57, label=<ko(Int)>, fillcolor=<#DDDDFF>];
58[xlabel=58, label=<(begin 20)>];
59[xlabel=59, label=<20>];
60[xlabel=60, label=<ko(Int)>, fillcolor=<#DDDDFF>];
61[xlabel=61, label=<(begin 21)>];
62[xlabel=62, label=<21>];
63[xlabel=63, label=<ko(Int)>, fillcolor=<#DDDDFF>];
64[xlabel=64, label=<(begin 22)>];
65[xlabel=65, label=<22>];
66[xlabel=66, label=<ko(Int)>, fillcolor=<#DDDDFF>];
67[xlabel=67, label=<(begin 23)>];
68[xlabel=68, label=<23>];
69[xlabel=69, label=<ko(Int)>, fillcolor=<#DDDDFF>];
70[xlabel=70, label=<(begin 24)>];
71[xlabel=71, label=<24>];
72[xlabel=72, label=<ko(Int)>, fillcolor=<#DDDDFF>];
73[xlabel=73, label=<(begin 25)>];
74[xlabel=74, label=<25>];
75[xlabel=75, label=<ko(Int)>, fillcolor=<#DDDDFF>];
76[xlabel=76, label=<(begin 26)>];
77[xlabel=77, label=<26>];
78[xlabel=78, label=<ko(Int)>, fillcolor=<#DDDDFF>];
79[xlabel=79, label=<(begin 27)>];
80[xlabel=80, label=<27>];
81[xlabel=81, label=<ko(Int)>, fillcolor=<#DDDDFF>];
82[xlabel=82, label=<(begin 28)>];
83[xlabel=83, label=<28>];
84[xlabel=84, label=<ko(Int)>, fillcolor=<#DDDDFF>];
85[xlabel=85, label=<(begin 29)>];
86[xlabel=86, label=<29>];
87[xlabel=87, label=<ko(Int)>, fillcolor=<#DDDDFF>];
88[xlabel=88, label=<(begin 30)>];
89[xlabel=89, label=<30>];
90[xlabel=90, label=<ko(Int)>, fillcolor=<#DDDDFF>];
91[xlabel=91, label=<(begin 31)>];
92[xlabel=92, label=<31>];
93[xlabel=93, label=<ko(Int)>, fillcolor=<#DDDDFF>];
94[xlabel=94, label=<(begin 32)>];
95[xlabel=95, label=<32>];
96[xlabel=96, label=<ko(Int)>, fillcolor=<#DDDDFF>];
97[xlabel=97, label=<(begin 33)>];
98[xlabel=98, label=<33>];
99[xlabel=99, label=<ko(Int)>, fillcolor=<#DDDDFF>];
100[xlabel=100, label=<(begin 34)>];
101[xlabel=101, label=<34>];
102[xlabel=102, label=<ko(Int)>, fillcolor=<#DDDDFF>];
103[xlabel=103, label=<(begin 35)>];
104[xlabel=104, label=<35>];
105[xlabel=105, label=<ko(Int)>, fillcolor=<#DDDDFF>];
106[xlabel=106, label=<(begin 36)>];
107[xlabel=107, label=<36>];
108[xlabel=108, label=<ko(Int)>, fillcolor=<#DDDDFF>];
109[xlabel=109, label=<(begin 37)>];
110[xlabel=110, label=<37>];
111[xlabel=111, label=<ko(Int)>, fillcolor=<#DDDDFF>];
112[xlabel=112, label=<(begin 38)>];
113[xlabel=113, label=<38>];
114[xlabel=114, label=<ko(Int)>, fillcolor=<#DDDDFF>];
115[xlabel=115, label=<(begin 39)>];
116[xlabel=116, label=<39>];
117[xlabel=117, label=<ko(Int)>, fillcolor=<#DDDDFF>];
118[xlabel=118, label=<(begin 40)>];
119[xlabel=119, label=<40>];
120[xlabel=120, label=<ko(Int)>, fillcolor=<#DDDDFF>];
121[xlabel=121, label=<(begin 41)>];
122[xlabel=122, label=<41>];
123[xlabel=123, label=<ko(Int)>, fillcolor=<#DDDDFF>];
124[xlabel=124, label=<(begin 42)>];
125[xlabel=125, label=<42>];
126[xlabel=126, label=<ko(Int)>, fillcolor=<#DDDDFF>];
127[xlabel=127, label=<(begin 43)>];
128[xlabel=128, label=<43>];
129[xlabel=129, label=<ko(Int)>, fillcolor=<#DDDDFF>];
130[xlabel=130, label=<(begin 44)>];
131[xlabel=131, label=<44>];
132[xlabel=132, label=<ko(Int)>, fillcolor=<#DDDDFF>];
133[xlabel=133, label=<(begin 45)>];
134[xlabel=134, label=<45>];
135[xlabel=135, label=<ko(Int)>, fillcolor=<#DDDDFF>];
136[xlabel=136, label=<(begin 46)>];
137[xlabel=137, label=<46>];
138[xlabel=138, label=<ko(Int)>, fillcolor=<#DDDDFF>];
139[xlabel=139, label=<(begin 47)>];
140[xlabel=140, label=<47>];
141[xlabel=141, label=<ko(Int)>, fillcolor=<#DDDDFF>];
142[xlabel=142, label=<(begin 48)>];
143[xlabel=143, label=<48>];
144[xlabel=144, label=<ko(Int)>, fillcolor=<#DDDDFF>];
145[xlabel=145, label=<(begin 49)>];
146[xlabel=146, label=<49>];
147[xlabel=147, label=<ko(Int)>, fillcolor=<#DDDDFF>];
148[xlabel=148, label=<(begin 50)>];
149[xlabel=149, label=<50>];
150[xlabel=150, label=<ko(Int)>, fillcolor=<#DDDDFF>];
151[xlabel=151, label=<(begin 51)>];
152[xlabel=152, label=<51>];
153[xlabel=153, label=<ko(Int)>, fillcolor=<#DDDDFF>];
154[xlabel=154, label=<(begin 52)>];
155[xlabel=155, label=<52>];
156[xlabel=156, label=<ko(Int)>, fillcolor=<#DDDDFF>];
157[xlabel=157, label=<(begin 53)>];
158[xlabel=158, label=<53>];
159[xlabel=159, label=<ko(Int)>, fillcolor=<#DDDDFF>];
160[xlabel=160, label=<(begin 54)>];
161[xlabel=161, label=<54>];
162[xlabel=162, label=<ko(Int)>, fillcolor=<#DDDDFF>];
163[xlabel=163, label=<(begin 55)>];
164[xlabel=164, label=<55>];
165[xlabel=165, label=<ko(Int)>, fillcolor=<#DDDDFF>];
166[xlabel=166, label=<(begin 56)>];
167[xlabel=167, label=<56>];
168[xlabel=168, label=<ko(Int)>, fillcolor=<#DDDDFF>];
169[xlabel=169, label=<(begin 57)>];
170[xlabel=170, label=<57>];
171[xlabel=171, label=<ko(Int)>, fillcolor=<#DDDDFF>];
172[xlabel=172, label=<(begin 58)>];
173[xlabel=173, label=<58>];
174[xlabel=174, label=<ko(Int)>, fillcolor=<#DDDDFF>];
175[xlabel=175, label=<(begin 59)>];
176[xlabel=176, label=<59>];
177[xlabel=177, label=<ko(Int)>, fillcolor=<#DDDDFF>];
178[xlabel=178, label=<(begin 60)>];
179[xlabel=179, label=<60>];
180[xlabel=180, label=<ko(Int)>, fillcolor=<#DDDDFF>];
181[xlabel=181, label=<(begin 61)>];
182[xlabel=182, label=<61>];
183[xlabel=183, label=<ko(Int)>, fillcolor=<#DDDDFF>];
184[xlabel=184, label=<(begin 62)>];
185[xlabel=185, label=<62>];
186[xlabel=186, label=<ko(Int)>, fillcolor=<#DDDDFF>];
187[xlabel=187, label=<(begin 63)>];
188[xlabel=188, label=<63>];
189[xlabel=189, label=<ko(Int)>, fillcolor=<#DDDDFF>];
190[xlabel=190, label=<(begin 64)>];
191[xlabel=191, label=<64>];
192[xlabel=192, label=<ko(Int)>, fillcolor=<#DDDDFF>];
193[xlabel=193, label=<(begin 65)>];
194[xlabel=194, label=<65>];
195[xlabel=195, label=<ko(Int)>, fillcolor=<#DDDDFF>];
196[xlabel=196, label=<(begin 66)>];
197[xlabel=197, label=<66>];
198[xlabel=198, label=<ko(Int)>, fillcolor=<#DDDDFF>];
199[xlabel=199, label=<(begin 67)>];
200[xlabel=200, label=<67>];
201[xlabel=201, label=<ko(Int)>, fillcolor=<#DDDDFF>];
202[xlabel=202, label=<(begin 68)>];
203[xlabel=203, label=<68>];
204[xlabel=204, label=<ko(Int)>, fillcolor=<#DDDDFF>];
205[xlabel=205, label=<(begin 69)>];
206[xlabel=206, label=<69>];
207[xlabel=207, label=<ko(Int)>, fillcolor=<#DDDDFF>];
208[xlabel=208, label=<(begin 70)>];
209[xlabel=209, label=<70>];
210[xlabel=210, label=<ko(Int)>, fillcolor=<#DDDDFF>];
211[xlabel=211, label=<(begin 71)>];
212[xlabel=212, label=<71>];
213[xlabel=213, label=<ko(Int)>, fillcolor=<#DDDDFF>];
214[xlabel=214, label=<(begin 72)>];
215[xlabel=215, label=<72>];
216[xlabel=216, label=<ko(Int)>, fillcolor=<#DDDDFF>];
217[xlabel=217, label=<(begin 73)>];
218[xlabel=218, label=<73>];
219[xlabel=219, label=<ko(Int)>, fillcolor=<#DDDDFF>];
220[xlabel=220, label=<(begin 74)>];
221[xlabel=221, label=<74>];
222[xlabel=222, label=<ko(Int)>, fillcolor=<#DDDDFF>];
223[xlabel=223, label=<(begin 75)>];
224[xlabel=224, label=<75>];
225[xlabel=225, label=<ko(Int)>, fillcolor=<#DDDDFF>];
226[xlabel=226, label=<(begin 76)>];
227[xlabel=227, label=<76>];
228[xlabel=228, label=<ko(Int)>, fillcolor=<#DDDDFF>];
229[xlabel=229, label=<(begin 77)>];
230[xlabel=230, label=<77>];
231[xlabel=231, label=<ko(Int)>, fillcolor=<#DDDDFF>];
232[xlabel=232, label=<(begin 78)>];
233[xlabel=233, label=<78>];
234[xlabel=234, label=<ko(Int)>, fillcolor=<#DDDDFF>];
235[xlabel=235, label=<(begin 79)>];
236[xlabel=236, label=<79>];
237[xlabel=237, label=<ko(Int)>, fillcolor=<#DDDDFF>];
238[xlabel=238, label=<(begin 80)>];
239[xlabel=239, label=<80>];
240[xlabel=240, label=<ko(Int)>, fillcolor=<#DDDDFF>];
241[xlabel=241, label=<(begin 81)>];
242[xlabel=242, label=<81>];
243[xlabel=243, label=<ko(Int)>, fillcolor=<#DDDDFF>];
244[xlabel=244, label=<(begin 82)>];
245[xlabel=245, label=<82>];
246[xlabel=246, label=<ko(Int)>, fillcolor=<#DDDDFF>];
247[xlabel=247, label=<(begin 83)>];
248[xlabel=248, label=<83>];
249[xlabel=249, label=<ko(Int)>, fillcolor=<#DDDDFF>];
250[xlabel=250, label=<(begin 84)>];
251[xlabel=251, label=<84>];
252[xlabel=252, label=<ko(Int)>, fillcolor=<#DDDDFF>];
253[xlabel=253, label=<(begin 85)>];
254[xlabel=254, label=<85>];
255[xlabel=255, label=<ko(Int)>, fillcolor=<#DDDDFF>];
256[xlabel=256, label=<(begin 86)>];
257[xlabel=257, label=<86>];
258[xlabel=258, label=<ko(Int)>, fillcolor=<#DDDDFF>];
259[xlabel=259, label=<(begin 87)>];
260[xlabel=260, label=<87>];
261[xlabel=261, label=<ko(Int)>, fillcolor=<#DDDDFF>];
262[xlabel=262, label=<(begin 88)>];
263[xlabel=263, label=<88>];
264[xlabel=264, label=<ko(Int)>, fillcolor=<#DDDDFF>];
265[xlabel=265, label=<(begin 89)>];
266[xlabel=266, label=<89>];
267[xlabel=267, label=<ko(Int)>, fillcolor=<#DDDDFF>];
268[xlabel=268, label=<(begin 90)>];
269[xlabel=269, label=<90>];
270[xlabel=270, label=<ko(Int)>, fillcolor=<#DDDDFF>];
271[xlabel=271, label=<(begin 91)>];
272[xlabel=272, label=<91>];
273[xlabel=273, label=<ko(Int)>, fillcolor=<#DDDDFF>];
274[xlabel=274, label=<(begin 92)>];
275[xlabel=275, label=<92>];
276[xlabel=276, label=<ko(Int)>, fillcolor=<#DDDDFF>];
277[xlabel=277, label=<(begin 93)>];
278[xlabel=278, label=<93>];
279[xlabel=279, label=<ko(Int)>, fillcolor=<#DDDDFF>];
280[xlabel=280, label=<(begin 94)>];
281[xlabel=281, label=<94>];
282[xlabel=282, label=<ko(Int)>, fillcolor=<#DDDDFF>];
283[xlabel=283, label=<(begin 95)>];
284[xlabel=284, label=<95>];
285[xlabel=285, label=<ko(Int)>, fillcolor=<#DDDDFF>];
286[xlabel=286, label=<(begin 96)>];
287[xlabel=287, label=<96>];
288[xlabel=288, label=<ko(Int)>, fillcolor=<#DDDDFF>];
289[xlabel=289, label=<(begin 97)>];
290[xlabel=290, label=<97>];
291[xlabel=291, label=<ko(Int)>, fillcolor=<#DDDDFF>];
292[xlabel=292, label=<(begin 98)>];
293[xlabel=293, label=<98>];
294[xlabel=294, label=<ko(Int)>, fillcolor=<#DDDDFF>];
295[xlabel=295, label=<(begin 99)>];
296[xlabel=296, label=<99>];
297[xlabel=297, label=<ko(Int)>, fillcolor=<#DDDDFF>];
298[xlabel=298, label=<(begin 100)>];
299[xlabel=299, label=<100>];
300[xlabel=300, label=<ko(Int)>, fillcolor=<#FFFFAA>];

0 -> 1;
1 -> 2;
2 -> 3;
3 -> 4;
4 -> 5;
5 -> 6;
6 -> 7;
7 -> 8;
8 -> 9;
9 -> 10;
10 -> 11;
11 -> 12;
12 -> 13;
13 -> 14;
14 -> 15;
15 -> 16;
16 -> 17;
17 -> 18;
18 -> 19;
19 -> 20;
20 -> 21;
21 -> 22;
22 -> 23;
23 -> 24;
24 -> 25;
25 -> 26;
26 -> 27;
27 -> 28;
28 -> 29;
29 -> 30;
30 -> 31;
31 -> 32;
32 -> 33;
33 -> 34;
34 -> 35;
35 -> 36;
36 -> 37;
37 -> 38;
38 -> 39;
39 -> 40;
40 -> 41;
41 -> 42;
42 -> 43;
43 -> 44;
44 -> 45;
45 -> 46;
46 -> 47;
47 -> 48;
48 -> 49;
49 -> 50;
50 -> 51;
51 -> 52;
52 -> 53;
53 -> 54;
54 -> 55;
55 -> 56;
56 -> 57;
57 -> 58;
58 -> 59;
59 -> 60;
60 -> 61;
61 -> 62;
62 -> 63;
63 -> 64;
64 -> 65;
65 -> 66;
66 -> 67;
67 -> 68;
68 -> 69;
69 -> 70;
70 -> 71;
71 -> 72;
72 -> 73;
73 -> 74;
74 -> 75;
75 -> 76;
76 -> 77;
77 -> 78;
78 -> 79;
79 -> 80;
80 -> 81;
81 -> 82;
82 -> 83;
83 -> 84;
84 -> 85;
85 -> 86;
86 -> 87;
87 -> 88;
88 -> 89;
89 -> 90;
90 -> 91;
91 -> 92;
92 -> 93;
93 -> 94;
94 -> 95;
95 -> 96;
96 -> 97;
97 -> 98;
98 -> 99;
99 -> 100;
100 -> 101;
101 -> 102;
102 -> 103;
103 -> 104;
104 -> 105;
105 -> 106;
106 -> 107;
107 -> 108;
108 -> 109;
109 -> 110;
110 -> 111;
111 -> 112;
112 -> 113;
113 -> 114;
114 -> 115;
115 -> 116;
116 -> 117;
117 -> 118;
118 -> 119;
119 -> 120;
120 -> 121;
121 -> 122;
122 -> 123;
123 -> 124;
124 -> 125;
125 -> 126;
126 -> 127;
127 -> 128;
128 -> 129;
129 -> 130;
130 -> 131;
131 -> 132;
132 -> 133;
133 -> 134;
134 -> 135;
135 -> 136;
136 -> 137;
137 -> 138;
138 -> 139;
139 -> 140;
140 -> 141;
141 -> 142;
142 -> 143;
143 -> 144;
144 -> 145;
145 -> 146;
146 -> 147;
147 -> 148;
148 -> 149;
149 -> 150;
150 -> 151;
151 -> 152;
152 -> 153;
153 -> 154;
154 -> 155;
155 -> 156;
156 -> 157;
157 -> 158;
158 -> 159;
159 -> 160;
160 -> 161;
161 -> 162;
162 -> 163;
163 -> 164;
164 -> 165;
165 -> 166;
166 -> 167;
167 -> 168;
168 -> 169;
169 -> 170;
170 -> 171;
171 -> 172;
172 -> 173;
173 -> 174;
174 -> 175;
175 -> 176;
176 -> 177;
177 -> 178;
178 -> 179;
179 -> 180;
180 -> 181;
181 -> 182;
182 -> 183;
183 -> 184;
184 -> 185;
185 -> 186;
186 -> 187;
187 -> 188;
188 -> 189;
189 -> 190;
190 -> 191;
191 -> 192;
192 -> 193;
193 -> 194;
194 -> 195;
195 -> 196;
196 -> 197;
197 -> 198;
198 -> 199;
199 -> 200;
200 -> 201;
201 -> 202;
202 -> 203;
203 -> 204;
204 -> 205;
205 -> 206;
206 -> 207;
207 -> 208;
208 -> 209;
209 -> 210;
210 -> 211;
211 -> 212;
212 -> 213;
213 -> 214;
214 -> 215;
215 -> 216;
216 -> 217;
217 -> 218;
218 -> 219;
219 -> 220;
220 -> 221;
221 -> 222;
222 -> 223;
223 -> 224;
224 -> 225;
225 -> 226;
226 -> 227;
227 -> 228;
228 -> 229;
229 -> 230;
230 -> 231;
231 -> 232;
232 -> 233;
233 -> 234;
234 -> 235;
235 -> 236;
236 -> 237;
237 -> 238;
238 -> 239;
239 -> 240;
240 -> 241;
241 -> 242;
242 -> 243;
243 -> 244;
244 -> 245;
245 -> 246;
246 -> 247;
247 -> 248;
248 -> 249;
249 -> 250;
250 -> 251;
251 -> 252;
252 -> 253;
253 -> 254;
254 -> 255;
255 -> 256;
256 -> 257;
257 -> 258;
258 -> 259;
259 -> 260;
260 -> 261;
261 -> 262;
262 -> 263;
263 -> 264;
264 -> 265;
265 -> 266;
266 -> 267;
267 -> 268;
268 -> 269;
269 -> 270;
270 -> 271;
271 -> 272;
272 -> 273;
273 -> 274;
274 -> 275;
275 -> 276;
276 -> 277;
277 -> 278;
278 -> 279;
279 -> 280;
280 -> 281;
281 -> 282;
282 -> 283;
283 -> 284;
284 -> 285;
285 -> 286;
286 -> 287;
287 -> 288;
288 -> 289;
289 -> 290;
290 -> 291;
291 -> 292;
292 -> 293;
293 -> 294;
294 -> 295;
295 -> 296;
296 -> 297;
297 -> 298;
298 -> 299;
299 -> 300;
}
