digraph "Scala-Par-AM Scheme-examples/OPi/factorial_iter.scm" {
  node[shape=box, style=filled, fillcolor=<#DDFFDD>];

stats[style=rounded, label="# nodes: 22\l# edges: 22\lgraph density: 0.048\loutdegree positive min: 1\loutdegree max: 2\loutdegree avg: 1.000\l"];
config[style=rounded, label="lattice: TypeSet\lbound: 100\laddress: Classical\lstep\lmachine: SeqAAMLS\l"]

0[xlabel=0, label=<(letrec ((factorial (lambda (n) (letrec ((loop (lambda (n acc) (if (= n 0) acc (loop (- n 1) (* acc n)))))) (loop n 1))))) (factorial 10))>, fillcolor=<#AAFFAA>];
1[xlabel=1, label=<(factorial 10)>];
2[xlabel=2, label=<(letrec ((loop (lambda (n acc) (if (= n 0) acc (loop (- n 1) (* acc n)))))) (loop n 1))>];
3[xlabel=3, label=<(loop n 1)>];
4[xlabel=4, label=<(if (= n 0) acc (loop (- n 1) (* acc n)))>];
5[xlabel=5, label=<(= n 0)>];
6[xlabel=6, label=<ko({#f,#t})>, fillcolor=<#DDDDFF>];
7[xlabel=7, label=<acc>];
8[xlabel=8, label=<(loop (- n 1) (* acc n))>];
9[xlabel=9, label=<ko(Int)>, fillcolor=<#FFFFAA>];
10[xlabel=10, label=<(- n 1)>];
11[xlabel=11, label=<ko(Int)>, fillcolor=<#DDDDFF>];
12[xlabel=12, label=<(* acc n)>];
13[xlabel=13, label=<ko(Int)>, fillcolor=<#DDDDFF>];
14[xlabel=14, label=<(if (= n 0) acc (loop (- n 1) (* acc n)))>];
15[xlabel=15, label=<(= n 0)>];
16[xlabel=16, label=<ko({#f,#t})>, fillcolor=<#DDDDFF>];
17[xlabel=17, label=<acc>];
18[xlabel=18, label=<(loop (- n 1) (* acc n))>];
19[xlabel=19, label=<ko(Int)>, fillcolor=<#FFFFAA>];
20[xlabel=20, label=<(- n 1)>];
21[xlabel=21, label=<ko(Int)>, fillcolor=<#DDDDFF>];

0 -> 1;
1 -> 2;
2 -> 3;
3 -> 4;
4 -> 5;
5 -> 6;
6 -> 7;
6 -> 8;
7 -> 9;
8 -> 10;
10 -> 11;
11 -> 12;
12 -> 13;
13 -> 14;
14 -> 15;
15 -> 16;
16 -> 17;
16 -> 18;
17 -> 19;
18 -> 20;
20 -> 21;
21 -> 12;
}
