digraph "Scala-Par-AM Scheme-examples/Larceny/Kernighan_and_Van_Wyk/tail.scm" {
  node[shape=box, style=filled, fillcolor=<#DDFFDD>];

stats[style=rounded, label="# nodes: 7\l# edges: 6\lgraph density: 0.143\loutdegree positive min: 1\loutdegree max: 1\loutdegree avg: 0.857\l"];
config[style=rounded, label="lattice: TypeSet\lbound: 100\laddress: Classical\lstep\lmachine: SeqAAMLS\l"]

0[xlabel=0, label=<(letrec ((inport #f) (outport #f) (readline (lambda (port line-so-far) (let ((x (read-char port))) (cond ((eof-object? x) x) ((char=? x #\n ewline) (list-&gt;string (reverse (cons x line-so-far)))) (#t (readline port (cons x line-so-far))))))) (tail-r-aux (lambda (port file-so-far) (let ((x (readline port '()))) (if (eof-object? x) (begin (display file-so-far outport) (close-output-port outport)) (tail-r-aux port (cons x file-so-far)))))) (tail-r (lambda (port) (tail-r-aux port '()))) (go (lambda () (set! inport (open-input-file "Larceny/Kernighan_and_Van_Wyk/data/bib")) (set! outport (open-output-file "foo")) (tail-r inport) (close-input-port inport)))) (go))>, fillcolor=<#AAFFAA>];
1[xlabel=1, label=<(go)>];
2[xlabel=2, label=<(begin (set! inport (open-input-file "Larceny/Kernighan_and_Van_Wyk/data/bib")) (set! outport (open-output-file "foo")) (tail-r inport) (close-input-port inport))>];
3[xlabel=3, label=<(set! inport (open-input-file "Larceny/Kernighan_and_Van_Wyk/data/bib"))>];
4[xlabel=4, label=<(open-input-file "Larceny/Kernighan_and_Van_Wyk/data/bib")>];
5[xlabel=5, label=<open-input-file>];
6[xlabel=6, label=<err(UnboundVariable(open-input-file))>, fillcolor=<#FFAAAA>];

0 -> 1;
1 -> 2;
2 -> 3;
3 -> 4;
4 -> 5;
5 -> 6;
}
