digraph "Scala-Par-AM Scheme-examples/SigScheme/let-loop.scm" {
  node[shape=box, style=filled, fillcolor=<#DDFFDD>];

stats[style=rounded, label="# nodes: 4\l# edges: 3\lgraph density: 0.250\loutdegree positive min: 1\loutdegree max: 1\loutdegree avg: 0.750\l"];
config[style=rounded, label="lattice: TypeSet\lbound: 100\laddress: Classical\lstep\lmachine: SeqAAMLS\l"]

0[xlabel=0, label=<(letrec ((loop (lambda (i l) (let ((a 0) (b 1) (c 2)) (if (&lt; i l) (loop (+ 1 i) l) l))))) (write (loop 0 20000)) (newline))>, fillcolor=<#AAFFAA>];
1[xlabel=1, label=<(write (loop 0 20000))>];
2[xlabel=2, label=<write>];
3[xlabel=3, label=<err(UnboundVariable(write))>, fillcolor=<#FFAAAA>];

0 -> 1;
1 -> 2;
2 -> 3;
}
