digraph "Scala-Par-AM Scheme-examples/Larceny/Kernighan_and_Van_Wyk/wc.scm" {
  node[shape=box, style=filled, fillcolor=<#DDFFDD>];

stats[style=rounded, label="# nodes: 8\l# edges: 7\lgraph density: 0.125\loutdegree positive min: 1\loutdegree max: 1\loutdegree avg: 0.875\l"];
config[style=rounded, label="lattice: TypeSet\lbound: 100\laddress: Classical\lstep\lmachine: SeqAAMLS\l"]

0[xlabel=0, label=<(letrec ((inport #f) (nl #f) (nw #f) (nc #f) (inword #f) (wcport (lambda (port) (let ((x (read-char port))) (if (eof-object? x) (begin (list nl nw nc)) (begin (set! nc (+ nc 1)) (if (char=? x #\n ewline) (set! nl (+ nl 1)) #f) (if (or (char=? x #\s pace) (char=? x #\n ewline)) (set! inword #f) (if (not inword) (begin (set! nw (+ nw 1)) (set! inword #t)) #f)) (wcport port)))))) (go (lambda () (set! inport (open-input-file "Larceny/Kernighan_and_Van_Wyk/data/bib")) (set! nl 0) (set! nw 0) (set! nc 0) (set! inword #f) (let ((result (wcport inport))) (close-input-port inport) result)))) (equal? (go) '(31102 851820 4460056)))>, fillcolor=<#AAFFAA>];
1[xlabel=1, label=<(equal? (go) '(31102 851820 4460056))>];
2[xlabel=2, label=<(go)>];
3[xlabel=3, label=<(begin (set! inport (open-input-file "Larceny/Kernighan_and_Van_Wyk/data/bib")) (set! nl 0) (set! nw 0) (set! nc 0) (set! inword #f) (let ((result (wcport inport))) (close-input-port inport) result))>];
4[xlabel=4, label=<(set! inport (open-input-file "Larceny/Kernighan_and_Van_Wyk/data/bib"))>];
5[xlabel=5, label=<(open-input-file "Larceny/Kernighan_and_Van_Wyk/data/bib")>];
6[xlabel=6, label=<open-input-file>];
7[xlabel=7, label=<err(UnboundVariable(open-input-file))>, fillcolor=<#FFAAAA>];

0 -> 1;
1 -> 2;
2 -> 3;
3 -> 4;
4 -> 5;
5 -> 6;
6 -> 7;
}
