digraph "Scala-Par-AM Scheme-examples/other/collatz.scm" {
  node[shape=box, style=filled, fillcolor=<#DDFFDD>];

stats[style=rounded, label="# nodes: 309\l# edges: 335\lgraph density: 0.004\loutdegree positive min: 1\loutdegree max: 2\loutdegree avg: 1.084\l"];
config[style=rounded, label="lattice: TypeSet\lbound: 100\laddress: Classical\lstep\lmachine: SeqAAMLS\l"]

0[xlabel=0, label=<(letrec ((div2* (lambda (n s) (if (= (* 2 n) s) n (if (= (+ (* 2 n) 1) s) n (div2* (- n 1) s))))) (div2 (lambda (n) (div2* n n))) (hailstone* (lambda (n count) (if (= n 1) count (if (even? n) (hailstone* (div2 n) (+ count 1)) (hailstone* (+ (* 3 n) 1) (+ count 1)))))) (hailstone (lambda (n) (hailstone* n 0)))) (hailstone 5))>, fillcolor=<#AAFFAA>];
1[xlabel=1, label=<(hailstone 5)>];
2[xlabel=2, label=<(hailstone* n 0)>];
3[xlabel=3, label=<(if (= n 1) count (if (even? n) (hailstone* (div2 n) (+ count 1)) (hailstone* (+ (* 3 n) 1) (+ count 1))))>];
4[xlabel=4, label=<(= n 1)>];
5[xlabel=5, label=<ko({#f,#t})>, fillcolor=<#DDDDFF>];
6[xlabel=6, label=<count>];
7[xlabel=7, label=<(if (even? n) (hailstone* (div2 n) (+ count 1)) (hailstone* (+ (* 3 n) 1) (+ count 1)))>];
8[xlabel=8, label=<ko(Int)>, fillcolor=<#FFFFAA>];
9[xlabel=9, label=<(even? n)>];
10[xlabel=10, label=<ko(Bool)>, fillcolor=<#DDDDFF>];
11[xlabel=11, label=<(hailstone* (div2 n) (+ count 1))>];
12[xlabel=12, label=<(hailstone* (+ (* 3 n) 1) (+ count 1))>];
13[xlabel=13, label=<(div2 n)>];
14[xlabel=14, label=<(+ (* 3 n) 1)>];
15[xlabel=15, label=<(* 3 n)>];
16[xlabel=16, label=<(div2* n n)>];
17[xlabel=17, label=<(if (= (* 2 n) s) n (if (= (+ (* 2 n) 1) s) n (div2* (- n 1) s)))>];
18[xlabel=18, label=<ko(Int)>, fillcolor=<#DDDDFF>];
19[xlabel=19, label=<ko(Int)>, fillcolor=<#DDDDFF>];
20[xlabel=20, label=<(= (* 2 n) s)>];
21[xlabel=21, label=<(* 2 n)>];
22[xlabel=22, label=<(+ count 1)>];
23[xlabel=23, label=<ko(Int)>, fillcolor=<#DDDDFF>];
24[xlabel=24, label=<ko(Int)>, fillcolor=<#DDDDFF>];
25[xlabel=25, label=<ko({#f,#t})>, fillcolor=<#DDDDFF>];
26[xlabel=26, label=<(if (= n 1) count (if (even? n) (hailstone* (div2 n) (+ count 1)) (hailstone* (+ (* 3 n) 1) (+ count 1))))>];
27[xlabel=27, label=<(= n 1)>];
28[xlabel=28, label=<n>];
29[xlabel=29, label=<(if (= (+ (* 2 n) 1) s) n (div2* (- n 1) s))>];
30[xlabel=30, label=<ko(Int)>, fillcolor=<#DDDDFF>];
31[xlabel=31, label=<(= (+ (* 2 n) 1) s)>];
32[xlabel=32, label=<ko({#f,#t})>, fillcolor=<#DDDDFF>];
33[xlabel=33, label=<count>];
34[xlabel=34, label=<(if (even? n) (hailstone* (div2 n) (+ count 1)) (hailstone* (+ (* 3 n) 1) (+ count 1)))>];
35[xlabel=35, label=<(+ (* 2 n) 1)>];
36[xlabel=36, label=<(+ count 1)>];
37[xlabel=37, label=<ko(Int)>, fillcolor=<#DDDDFF>];
38[xlabel=38, label=<(* 2 n)>];
39[xlabel=39, label=<ko(Int)>, fillcolor=<#FFFFAA>];
40[xlabel=40, label=<(even? n)>];
41[xlabel=41, label=<ko(Bool)>, fillcolor=<#DDDDFF>];
42[xlabel=42, label=<ko(Int)>, fillcolor=<#DDDDFF>];
43[xlabel=43, label=<(if (= n 1) count (if (even? n) (hailstone* (div2 n) (+ count 1)) (hailstone* (+ (* 3 n) 1) (+ count 1))))>];
44[xlabel=44, label=<(= n 1)>];
45[xlabel=45, label=<ko(Int)>, fillcolor=<#DDDDFF>];
46[xlabel=46, label=<(hailstone* (div2 n) (+ count 1))>];
47[xlabel=47, label=<(hailstone* (+ (* 3 n) 1) (+ count 1))>];
48[xlabel=48, label=<(div2 n)>];
49[xlabel=49, label=<(+ (* 3 n) 1)>];
50[xlabel=50, label=<ko({#f,#t})>, fillcolor=<#DDDDFF>];
51[xlabel=51, label=<ko({#f,#t})>, fillcolor=<#DDDDFF>];
52[xlabel=52, label=<count>];
53[xlabel=53, label=<(if (even? n) (hailstone* (div2 n) (+ count 1)) (hailstone* (+ (* 3 n) 1) (+ count 1)))>];
54[xlabel=54, label=<n>];
55[xlabel=55, label=<(div2* (- n 1) s)>];
56[xlabel=56, label=<(* 3 n)>];
57[xlabel=57, label=<(div2* n n)>];
58[xlabel=58, label=<(if (= (* 2 n) s) n (if (= (+ (* 2 n) 1) s) n (div2* (- n 1) s)))>];
59[xlabel=59, label=<ko(Int)>, fillcolor=<#DDDDFF>];
60[xlabel=60, label=<ko(Int)>, fillcolor=<#DDDDFF>];
61[xlabel=61, label=<(- n 1)>];
62[xlabel=62, label=<ko(Int)>, fillcolor=<#FFFFAA>];
63[xlabel=63, label=<(even? n)>];
64[xlabel=64, label=<ko(Bool)>, fillcolor=<#DDDDFF>];
65[xlabel=65, label=<ko(Int)>, fillcolor=<#DDDDFF>];
66[xlabel=66, label=<(+ count 1)>];
67[xlabel=67, label=<ko(Int)>, fillcolor=<#DDDDFF>];
68[xlabel=68, label=<(= (* 2 n) s)>];
69[xlabel=69, label=<(* 2 n)>];
70[xlabel=70, label=<ko(Int)>, fillcolor=<#DDDDFF>];
71[xlabel=71, label=<(if (= (* 2 n) s) n (if (= (+ (* 2 n) 1) s) n (div2* (- n 1) s)))>];
72[xlabel=72, label=<(hailstone* (div2 n) (+ count 1))>];
73[xlabel=73, label=<(hailstone* (+ (* 3 n) 1) (+ count 1))>];
74[xlabel=74, label=<(div2 n)>];
75[xlabel=75, label=<(+ (* 3 n) 1)>];
76[xlabel=76, label=<(= (* 2 n) s)>];
77[xlabel=77, label=<(if (= n 1) count (if (even? n) (hailstone* (div2 n) (+ count 1)) (hailstone* (+ (* 3 n) 1) (+ count 1))))>];
78[xlabel=78, label=<ko(Int)>, fillcolor=<#DDDDFF>];
79[xlabel=79, label=<ko({#f,#t})>, fillcolor=<#DDDDFF>];
80[xlabel=80, label=<(= n 1)>];
81[xlabel=81, label=<(* 2 n)>];
82[xlabel=82, label=<(* 3 n)>];
83[xlabel=83, label=<(div2* n n)>];
84[xlabel=84, label=<(if (= (* 2 n) s) n (if (= (+ (* 2 n) 1) s) n (div2* (- n 1) s)))>];
85[xlabel=85, label=<ko(Int)>, fillcolor=<#DDDDFF>];
86[xlabel=86, label=<ko(Int)>, fillcolor=<#DDDDFF>];
87[xlabel=87, label=<ko({#f,#t})>, fillcolor=<#DDDDFF>];
88[xlabel=88, label=<n>];
89[xlabel=89, label=<(if (= (+ (* 2 n) 1) s) n (div2* (- n 1) s))>];
90[xlabel=90, label=<ko(Int)>, fillcolor=<#DDDDFF>];
91[xlabel=91, label=<(= (+ (* 2 n) 1) s)>];
92[xlabel=92, label=<count>];
93[xlabel=93, label=<(if (even? n) (hailstone* (div2 n) (+ count 1)) (hailstone* (+ (* 3 n) 1) (+ count 1)))>];
94[xlabel=94, label=<ko({#f,#t})>, fillcolor=<#DDDDFF>];
95[xlabel=95, label=<ko(Int)>, fillcolor=<#DDDDFF>];
96[xlabel=96, label=<(= (* 2 n) s)>];
97[xlabel=97, label=<(* 2 n)>];
98[xlabel=98, label=<(+ count 1)>];
99[xlabel=99, label=<n>];
100[xlabel=100, label=<(if (= (+ (* 2 n) 1) s) n (div2* (- n 1) s))>];
101[xlabel=101, label=<ko(Int)>, fillcolor=<#FFFFAA>];
102[xlabel=102, label=<(even? n)>];
103[xlabel=103, label=<(+ (* 2 n) 1)>];
104[xlabel=104, label=<(+ count 1)>];
105[xlabel=105, label=<ko(Int)>, fillcolor=<#DDDDFF>];
106[xlabel=106, label=<(* 2 n)>];
107[xlabel=107, label=<ko(Bool)>, fillcolor=<#DDDDFF>];
108[xlabel=108, label=<ko(Int)>, fillcolor=<#DDDDFF>];
109[xlabel=109, label=<(= (+ (* 2 n) 1) s)>];
110[xlabel=110, label=<ko(Int)>, fillcolor=<#DDDDFF>];
111[xlabel=111, label=<ko(Int)>, fillcolor=<#DDDDFF>];
112[xlabel=112, label=<ko({#f,#t})>, fillcolor=<#DDDDFF>];
113[xlabel=113, label=<(if (= n 1) count (if (even? n) (hailstone* (div2 n) (+ count 1)) (hailstone* (+ (* 3 n) 1) (+ count 1))))>];
114[xlabel=114, label=<(+ (* 2 n) 1)>];
115[xlabel=115, label=<(+ count 1)>];
116[xlabel=116, label=<(hailstone* (div2 n) (+ count 1))>];
117[xlabel=117, label=<(hailstone* (+ (* 3 n) 1) (+ count 1))>];
118[xlabel=118, label=<ko(Int)>, fillcolor=<#DDDDFF>];
119[xlabel=119, label=<(= n 1)>];
120[xlabel=120, label=<ko(Int)>, fillcolor=<#DDDDFF>];
121[xlabel=121, label=<(div2 n)>];
122[xlabel=122, label=<(+ (* 3 n) 1)>];
123[xlabel=123, label=<ko(Int)>, fillcolor=<#DDDDFF>];
124[xlabel=124, label=<(* 2 n)>];
125[xlabel=125, label=<n>];
126[xlabel=126, label=<(if (= (+ (* 2 n) 1) s) n (div2* (- n 1) s))>];
127[xlabel=127, label=<ko(Int)>, fillcolor=<#DDDDFF>];
128[xlabel=128, label=<(= (+ (* 2 n) 1) s)>];
129[xlabel=129, label=<ko(Int)>, fillcolor=<#DDDDFF>];
130[xlabel=130, label=<(if (= n 1) count (if (even? n) (hailstone* (div2 n) (+ count 1)) (hailstone* (+ (* 3 n) 1) (+ count 1))))>];
131[xlabel=131, label=<(* 3 n)>];
132[xlabel=132, label=<(div2* n n)>];
133[xlabel=133, label=<ko({#f,#t})>, fillcolor=<#DDDDFF>];
134[xlabel=134, label=<ko({#f,#t})>, fillcolor=<#DDDDFF>];
135[xlabel=135, label=<count>];
136[xlabel=136, label=<(if (even? n) (hailstone* (div2 n) (+ count 1)) (hailstone* (+ (* 3 n) 1) (+ count 1)))>];
137[xlabel=137, label=<n>];
138[xlabel=138, label=<(div2* (- n 1) s)>];
139[xlabel=139, label=<(if (= (* 2 n) s) n (if (= (+ (* 2 n) 1) s) n (div2* (- n 1) s)))>];
140[xlabel=140, label=<ko(Int)>, fillcolor=<#DDDDFF>];
141[xlabel=141, label=<(= n 1)>];
142[xlabel=142, label=<ko(Int)>, fillcolor=<#DDDDFF>];
143[xlabel=143, label=<(+ (* 2 n) 1)>];
144[xlabel=144, label=<(* 2 n)>];
145[xlabel=145, label=<ko({#f,#t})>, fillcolor=<#DDDDFF>];
146[xlabel=146, label=<ko({#f,#t})>, fillcolor=<#DDDDFF>];
147[xlabel=147, label=<ko(Int)>, fillcolor=<#DDDDFF>];
148[xlabel=148, label=<(= (* 2 n) s)>];
149[xlabel=149, label=<ko(Int)>, fillcolor=<#DDDDFF>];
150[xlabel=150, label=<(- n 1)>];
151[xlabel=151, label=<ko(Int)>, fillcolor=<#FFFFAA>];
152[xlabel=152, label=<(even? n)>];
153[xlabel=153, label=<ko(Bool)>, fillcolor=<#DDDDFF>];
154[xlabel=154, label=<ko(Int)>, fillcolor=<#DDDDFF>];
155[xlabel=155, label=<(+ count 1)>];
156[xlabel=156, label=<(* 2 n)>];
157[xlabel=157, label=<(+ count 1)>];
158[xlabel=158, label=<count>];
159[xlabel=159, label=<(if (even? n) (hailstone* (div2 n) (+ count 1)) (hailstone* (+ (* 3 n) 1) (+ count 1)))>];
160[xlabel=160, label=<n>];
161[xlabel=161, label=<(div2* (- n 1) s)>];
162[xlabel=162, label=<ko(Int)>, fillcolor=<#DDDDFF>];
163[xlabel=163, label=<ko(Int)>, fillcolor=<#DDDDFF>];
164[xlabel=164, label=<ko(Int)>, fillcolor=<#FFFFAA>];
165[xlabel=165, label=<(even? n)>];
166[xlabel=166, label=<ko(Int)>, fillcolor=<#DDDDFF>];
167[xlabel=167, label=<ko(Int)>, fillcolor=<#DDDDFF>];
168[xlabel=168, label=<ko(Int)>, fillcolor=<#DDDDFF>];
169[xlabel=169, label=<(if (= (* 2 n) s) n (if (= (+ (* 2 n) 1) s) n (div2* (- n 1) s)))>];
170[xlabel=170, label=<(hailstone* (div2 n) (+ count 1))>];
171[xlabel=171, label=<(hailstone* (+ (* 3 n) 1) (+ count 1))>];
172[xlabel=172, label=<(div2 n)>];
173[xlabel=173, label=<(+ (* 3 n) 1)>];
174[xlabel=174, label=<(= (* 2 n) s)>];
175[xlabel=175, label=<(if (= n 1) count (if (even? n) (hailstone* (div2 n) (+ count 1)) (hailstone* (+ (* 3 n) 1) (+ count 1))))>];
176[xlabel=176, label=<ko({#f,#t})>, fillcolor=<#DDDDFF>];
177[xlabel=177, label=<ko(Bool)>, fillcolor=<#DDDDFF>];
178[xlabel=178, label=<ko({#f,#t})>, fillcolor=<#DDDDFF>];
179[xlabel=179, label=<n>];
180[xlabel=180, label=<(div2* (- n 1) s)>];
181[xlabel=181, label=<(hailstone* (div2 n) (+ count 1))>];
182[xlabel=182, label=<(hailstone* (+ (* 3 n) 1) (+ count 1))>];
183[xlabel=183, label=<(= n 1)>];
184[xlabel=184, label=<n>];
185[xlabel=185, label=<(if (= (+ (* 2 n) 1) s) n (div2* (- n 1) s))>];
186[xlabel=186, label=<(* 2 n)>];
187[xlabel=187, label=<(* 3 n)>];
188[xlabel=188, label=<(div2* n n)>];
189[xlabel=189, label=<(if (= (* 2 n) s) n (if (= (+ (* 2 n) 1) s) n (div2* (- n 1) s)))>];
190[xlabel=190, label=<ko(Int)>, fillcolor=<#DDDDFF>];
191[xlabel=191, label=<ko(Int)>, fillcolor=<#DDDDFF>];
192[xlabel=192, label=<ko(Int)>, fillcolor=<#DDDDFF>];
193[xlabel=193, label=<(= (+ (* 2 n) 1) s)>];
194[xlabel=194, label=<ko({#f,#t})>, fillcolor=<#DDDDFF>];
195[xlabel=195, label=<(div2 n)>];
196[xlabel=196, label=<(+ (* 3 n) 1)>];
197[xlabel=197, label=<(- n 1)>];
198[xlabel=198, label=<ko(Int)>, fillcolor=<#DDDDFF>];
199[xlabel=199, label=<(* 3 n)>];
200[xlabel=200, label=<(div2* n n)>];
201[xlabel=201, label=<count>];
202[xlabel=202, label=<(if (even? n) (hailstone* (div2 n) (+ count 1)) (hailstone* (+ (* 3 n) 1) (+ count 1)))>];
203[xlabel=203, label=<(+ (* 2 n) 1)>];
204[xlabel=204, label=<ko({#f,#t})>, fillcolor=<#DDDDFF>];
205[xlabel=205, label=<ko(Int)>, fillcolor=<#DDDDFF>];
206[xlabel=206, label=<(= (* 2 n) s)>];
207[xlabel=207, label=<(* 2 n)>];
208[xlabel=208, label=<n>];
209[xlabel=209, label=<(if (= (+ (* 2 n) 1) s) n (div2* (- n 1) s))>];
210[xlabel=210, label=<ko(Int)>, fillcolor=<#FFFFAA>];
211[xlabel=211, label=<(even? n)>];
212[xlabel=212, label=<(if (= (* 2 n) s) n (if (= (+ (* 2 n) 1) s) n (div2* (- n 1) s)))>];
213[xlabel=213, label=<ko(Int)>, fillcolor=<#DDDDFF>];
214[xlabel=214, label=<(= (* 2 n) s)>];
215[xlabel=215, label=<ko(Int)>, fillcolor=<#DDDDFF>];
216[xlabel=216, label=<ko(Bool)>, fillcolor=<#DDDDFF>];
217[xlabel=217, label=<ko(Int)>, fillcolor=<#DDDDFF>];
218[xlabel=218, label=<(= (+ (* 2 n) 1) s)>];
219[xlabel=219, label=<ko(Int)>, fillcolor=<#DDDDFF>];
220[xlabel=220, label=<ko({#f,#t})>, fillcolor=<#DDDDFF>];
221[xlabel=221, label=<(+ (* 2 n) 1)>];
222[xlabel=222, label=<(+ count 1)>];
223[xlabel=223, label=<(hailstone* (div2 n) (+ count 1))>];
224[xlabel=224, label=<(hailstone* (+ (* 3 n) 1) (+ count 1))>];
225[xlabel=225, label=<(+ count 1)>];
226[xlabel=226, label=<(* 2 n)>];
227[xlabel=227, label=<ko(Int)>, fillcolor=<#DDDDFF>];
228[xlabel=228, label=<ko(Int)>, fillcolor=<#DDDDFF>];
229[xlabel=229, label=<(div2 n)>];
230[xlabel=230, label=<(+ (* 3 n) 1)>];
231[xlabel=231, label=<ko(Int)>, fillcolor=<#DDDDFF>];
232[xlabel=232, label=<(* 2 n)>];
233[xlabel=233, label=<n>];
234[xlabel=234, label=<(if (= (+ (* 2 n) 1) s) n (div2* (- n 1) s))>];
235[xlabel=235, label=<ko(Int)>, fillcolor=<#DDDDFF>];
236[xlabel=236, label=<(= (+ (* 2 n) 1) s)>];
237[xlabel=237, label=<ko(Int)>, fillcolor=<#DDDDFF>];
238[xlabel=238, label=<(if (= n 1) count (if (even? n) (hailstone* (div2 n) (+ count 1)) (hailstone* (+ (* 3 n) 1) (+ count 1))))>];
239[xlabel=239, label=<(* 3 n)>];
240[xlabel=240, label=<(div2* n n)>];
241[xlabel=241, label=<ko({#f,#t})>, fillcolor=<#DDDDFF>];
242[xlabel=242, label=<n>];
243[xlabel=243, label=<(if (= (+ (* 2 n) 1) s) n (div2* (- n 1) s))>];
244[xlabel=244, label=<(= n 1)>];
245[xlabel=245, label=<(if (= (* 2 n) s) n (if (= (+ (* 2 n) 1) s) n (div2* (- n 1) s)))>];
246[xlabel=246, label=<ko(Int)>, fillcolor=<#DDDDFF>];
247[xlabel=247, label=<ko(Int)>, fillcolor=<#DDDDFF>];
248[xlabel=248, label=<(+ (* 2 n) 1)>];
249[xlabel=249, label=<(* 2 n)>];
250[xlabel=250, label=<ko({#f,#t})>, fillcolor=<#DDDDFF>];
251[xlabel=251, label=<ko(Int)>, fillcolor=<#DDDDFF>];
252[xlabel=252, label=<(= (* 2 n) s)>];
253[xlabel=253, label=<ko({#f,#t})>, fillcolor=<#DDDDFF>];
254[xlabel=254, label=<ko(Int)>, fillcolor=<#DDDDFF>];
255[xlabel=255, label=<(= (+ (* 2 n) 1) s)>];
256[xlabel=256, label=<(+ (* 2 n) 1)>];
257[xlabel=257, label=<count>];
258[xlabel=258, label=<(if (even? n) (hailstone* (div2 n) (+ count 1)) (hailstone* (+ (* 3 n) 1) (+ count 1)))>];
259[xlabel=259, label=<(* 2 n)>];
260[xlabel=260, label=<n>];
261[xlabel=261, label=<(div2* (- n 1) s)>];
262[xlabel=262, label=<ko(Int)>, fillcolor=<#DDDDFF>];
263[xlabel=263, label=<ko(Int)>, fillcolor=<#DDDDFF>];
264[xlabel=264, label=<ko(Int)>, fillcolor=<#DDDDFF>];
265[xlabel=265, label=<ko(Int)>, fillcolor=<#FFFFAA>];
266[xlabel=266, label=<(even? n)>];
267[xlabel=267, label=<(* 2 n)>];
268[xlabel=268, label=<ko(Int)>, fillcolor=<#DDDDFF>];
269[xlabel=269, label=<ko(Bool)>, fillcolor=<#DDDDFF>];
270[xlabel=270, label=<ko({#f,#t})>, fillcolor=<#DDDDFF>];
271[xlabel=271, label=<ko({#f,#t})>, fillcolor=<#DDDDFF>];
272[xlabel=272, label=<n>];
273[xlabel=273, label=<(div2* (- n 1) s)>];
274[xlabel=274, label=<n>];
275[xlabel=275, label=<(if (= (+ (* 2 n) 1) s) n (div2* (- n 1) s))>];
276[xlabel=276, label=<(hailstone* (div2 n) (+ count 1))>];
277[xlabel=277, label=<(hailstone* (+ (* 3 n) 1) (+ count 1))>];
278[xlabel=278, label=<ko(Int)>, fillcolor=<#DDDDFF>];
279[xlabel=279, label=<ko({#f,#t})>, fillcolor=<#DDDDFF>];
280[xlabel=280, label=<(div2 n)>];
281[xlabel=281, label=<(+ (* 3 n) 1)>];
282[xlabel=282, label=<ko(Int)>, fillcolor=<#DDDDFF>];
283[xlabel=283, label=<(= (+ (* 2 n) 1) s)>];
284[xlabel=284, label=<(- n 1)>];
285[xlabel=285, label=<ko(Int)>, fillcolor=<#DDDDFF>];
286[xlabel=286, label=<(+ (* 2 n) 1)>];
287[xlabel=287, label=<(* 3 n)>];
288[xlabel=288, label=<(div2* n n)>];
289[xlabel=289, label=<n>];
290[xlabel=290, label=<(div2* (- n 1) s)>];
291[xlabel=291, label=<(if (= (* 2 n) s) n (if (= (+ (* 2 n) 1) s) n (div2* (- n 1) s)))>];
292[xlabel=292, label=<ko(Int)>, fillcolor=<#DDDDFF>];
293[xlabel=293, label=<(= (* 2 n) s)>];
294[xlabel=294, label=<ko(Int)>, fillcolor=<#DDDDFF>];
295[xlabel=295, label=<(* 2 n)>];
296[xlabel=296, label=<ko(Int)>, fillcolor=<#DDDDFF>];
297[xlabel=297, label=<ko({#f,#t})>, fillcolor=<#DDDDFF>];
298[xlabel=298, label=<n>];
299[xlabel=299, label=<(if (= (+ (* 2 n) 1) s) n (div2* (- n 1) s))>];
300[xlabel=300, label=<ko(Int)>, fillcolor=<#DDDDFF>];
301[xlabel=301, label=<(= (+ (* 2 n) 1) s)>];
302[xlabel=302, label=<(+ (* 2 n) 1)>];
303[xlabel=303, label=<(* 2 n)>];
304[xlabel=304, label=<ko(Int)>, fillcolor=<#DDDDFF>];
305[xlabel=305, label=<ko(Int)>, fillcolor=<#DDDDFF>];
306[xlabel=306, label=<ko({#f,#t})>, fillcolor=<#DDDDFF>];
307[xlabel=307, label=<n>];
308[xlabel=308, label=<(div2* (- n 1) s)>];

0 -> 1;
1 -> 2;
2 -> 3;
3 -> 4;
4 -> 5;
5 -> 6;
5 -> 7;
6 -> 8;
7 -> 9;
9 -> 10;
10 -> 11;
10 -> 12;
11 -> 13;
12 -> 14;
13 -> 16;
14 -> 15;
15 -> 18;
16 -> 17;
17 -> 20;
18 -> 19;
19 -> 22;
20 -> 21;
21 -> 24;
22 -> 23;
23 -> 26;
24 -> 25;
25 -> 28;
25 -> 29;
26 -> 27;
27 -> 32;
28 -> 30;
29 -> 31;
30 -> 36;
31 -> 35;
32 -> 33;
32 -> 34;
33 -> 39;
34 -> 40;
35 -> 38;
36 -> 37;
37 -> 43;
38 -> 42;
40 -> 41;
41 -> 46;
41 -> 47;
42 -> 45;
43 -> 44;
44 -> 51;
45 -> 50;
46 -> 48;
47 -> 49;
48 -> 57;
49 -> 56;
50 -> 54;
50 -> 55;
51 -> 52;
51 -> 53;
52 -> 62;
53 -> 63;
54 -> 60;
55 -> 61;
56 -> 59;
57 -> 58;
58 -> 68;
59 -> 67;
60 -> 66;
61 -> 65;
63 -> 64;
64 -> 72;
64 -> 73;
65 -> 71;
66 -> 70;
67 -> 22;
68 -> 69;
69 -> 78;
70 -> 77;
71 -> 76;
72 -> 74;
73 -> 75;
74 -> 83;
75 -> 82;
76 -> 81;
77 -> 80;
78 -> 79;
79 -> 88;
79 -> 89;
80 -> 87;
81 -> 86;
82 -> 85;
83 -> 84;
84 -> 96;
85 -> 95;
86 -> 94;
87 -> 92;
87 -> 93;
88 -> 90;
89 -> 91;
90 -> 104;
91 -> 103;
92 -> 101;
93 -> 102;
94 -> 99;
94 -> 100;
95 -> 98;
96 -> 97;
97 -> 111;
98 -> 110;
99 -> 108;
100 -> 109;
102 -> 107;
103 -> 106;
104 -> 105;
105 -> 113;
106 -> 118;
107 -> 116;
107 -> 117;
108 -> 115;
109 -> 114;
110 -> 113;
111 -> 112;
112 -> 125;
112 -> 126;
113 -> 119;
114 -> 124;
115 -> 123;
116 -> 121;
117 -> 122;
118 -> 120;
119 -> 134;
120 -> 133;
121 -> 132;
122 -> 131;
123 -> 130;
124 -> 129;
125 -> 127;
126 -> 128;
127 -> 36;
128 -> 143;
129 -> 142;
130 -> 141;
131 -> 140;
132 -> 139;
133 -> 137;
133 -> 138;
134 -> 135;
134 -> 136;
135 -> 151;
136 -> 152;
137 -> 149;
138 -> 150;
139 -> 148;
140 -> 147;
141 -> 146;
142 -> 145;
143 -> 144;
144 -> 162;
145 -> 160;
145 -> 161;
146 -> 158;
146 -> 159;
147 -> 157;
148 -> 156;
149 -> 155;
150 -> 154;
152 -> 153;
153 -> 170;
153 -> 171;
154 -> 169;
155 -> 168;
156 -> 167;
157 -> 166;
158 -> 164;
159 -> 165;
160 -> 108;
161 -> 61;
162 -> 163;
163 -> 178;
165 -> 177;
166 -> 175;
167 -> 176;
168 -> 175;
169 -> 174;
170 -> 172;
171 -> 173;
172 -> 188;
173 -> 187;
174 -> 186;
175 -> 183;
176 -> 184;
176 -> 185;
177 -> 181;
177 -> 182;
178 -> 179;
178 -> 180;
179 -> 192;
180 -> 197;
181 -> 195;
182 -> 196;
183 -> 194;
184 -> 192;
185 -> 193;
186 -> 191;
187 -> 190;
188 -> 189;
189 -> 206;
190 -> 205;
191 -> 204;
192 -> 66;
193 -> 203;
194 -> 201;
194 -> 202;
195 -> 200;
196 -> 199;
197 -> 198;
198 -> 212;
199 -> 213;
200 -> 212;
201 -> 210;
202 -> 211;
203 -> 144;
204 -> 208;
204 -> 209;
205 -> 98;
206 -> 207;
207 -> 219;
208 -> 217;
209 -> 218;
211 -> 216;
212 -> 214;
213 -> 215;
214 -> 226;
215 -> 225;
216 -> 223;
216 -> 224;
217 -> 222;
218 -> 221;
219 -> 220;
220 -> 233;
220 -> 234;
221 -> 232;
222 -> 231;
223 -> 229;
224 -> 230;
225 -> 228;
226 -> 227;
227 -> 241;
228 -> 238;
229 -> 240;
230 -> 239;
231 -> 238;
232 -> 237;
233 -> 235;
234 -> 236;
235 -> 104;
236 -> 248;
237 -> 247;
238 -> 244;
239 -> 246;
240 -> 245;
241 -> 242;
241 -> 243;
242 -> 254;
243 -> 255;
244 -> 253;
245 -> 252;
246 -> 251;
247 -> 250;
248 -> 249;
249 -> 262;
250 -> 260;
250 -> 261;
251 -> 157;
252 -> 259;
253 -> 257;
253 -> 258;
254 -> 115;
255 -> 256;
256 -> 267;
257 -> 265;
258 -> 266;
259 -> 264;
260 -> 217;
261 -> 150;
262 -> 263;
263 -> 271;
264 -> 270;
266 -> 269;
267 -> 268;
268 -> 278;
269 -> 276;
269 -> 277;
270 -> 274;
270 -> 275;
271 -> 272;
271 -> 273;
272 -> 282;
273 -> 284;
274 -> 282;
275 -> 283;
276 -> 280;
277 -> 281;
278 -> 279;
279 -> 289;
279 -> 290;
280 -> 288;
281 -> 287;
282 -> 155;
283 -> 286;
284 -> 285;
285 -> 291;
286 -> 249;
287 -> 292;
288 -> 291;
289 -> 254;
290 -> 197;
291 -> 293;
292 -> 294;
293 -> 295;
294 -> 225;
295 -> 296;
296 -> 297;
297 -> 298;
297 -> 299;
298 -> 300;
299 -> 301;
300 -> 222;
301 -> 302;
302 -> 303;
303 -> 304;
304 -> 305;
305 -> 306;
306 -> 307;
306 -> 308;
307 -> 300;
308 -> 284;
}
