digraph "Scala-Par-AM Scheme-examples/OPi/fibonacci_recur.scm" {
  node[shape=box, style=filled, fillcolor=<#DDFFDD>];

stats[style=rounded, label="# nodes: 276\l# edges: 346\lgraph density: 0.005\loutdegree positive min: 1\loutdegree max: 6\loutdegree avg: 1.254\l"];
config[style=rounded, label="lattice: TypeSet\lbound: 100\laddress: Classical\lstep\lmachine: SeqAAMLS\l"]

0[xlabel=0, label=<(letrec ((fibonacci (lambda (n) (if (&lt;= n 1) n (+ (fibonacci (- n 1)) (fibonacci (- n 2))))))) (fibonacci 10))>, fillcolor=<#AAFFAA>];
1[xlabel=1, label=<(fibonacci 10)>];
2[xlabel=2, label=<(if (&lt;= n 1) n (+ (fibonacci (- n 1)) (fibonacci (- n 2))))>];
3[xlabel=3, label=<(&lt;= n 1)>];
4[xlabel=4, label=<ko(Bool)>, fillcolor=<#DDDDFF>];
5[xlabel=5, label=<n>];
6[xlabel=6, label=<(+ (fibonacci (- n 1)) (fibonacci (- n 2)))>];
7[xlabel=7, label=<ko(Int)>, fillcolor=<#FFFFAA>];
8[xlabel=8, label=<(fibonacci (- n 1))>];
9[xlabel=9, label=<(- n 1)>];
10[xlabel=10, label=<ko(Int)>, fillcolor=<#DDDDFF>];
11[xlabel=11, label=<(if (&lt;= n 1) n (+ (fibonacci (- n 1)) (fibonacci (- n 2))))>];
12[xlabel=12, label=<(&lt;= n 1)>];
13[xlabel=13, label=<ko(Bool)>, fillcolor=<#DDDDFF>];
14[xlabel=14, label=<n>];
15[xlabel=15, label=<(+ (fibonacci (- n 1)) (fibonacci (- n 2)))>];
16[xlabel=16, label=<n>];
17[xlabel=17, label=<(+ (fibonacci (- n 1)) (fibonacci (- n 2)))>];
18[xlabel=18, label=<ko(Int)>, fillcolor=<#FFFFAA>];
19[xlabel=19, label=<(fibonacci (- n 1))>];
20[xlabel=20, label=<ko(Int)>, fillcolor=<#DDDDFF>];
21[xlabel=21, label=<(fibonacci (- n 1))>];
22[xlabel=22, label=<(- n 1)>];
23[xlabel=23, label=<(fibonacci (- n 2))>];
24[xlabel=24, label=<(- n 1)>];
25[xlabel=25, label=<ko(Int)>, fillcolor=<#DDDDFF>];
26[xlabel=26, label=<(- n 2)>];
27[xlabel=27, label=<ko(Int)>, fillcolor=<#DDDDFF>];
28[xlabel=28, label=<(if (&lt;= n 1) n (+ (fibonacci (- n 1)) (fibonacci (- n 2))))>];
29[xlabel=29, label=<ko(Int)>, fillcolor=<#DDDDFF>];
30[xlabel=30, label=<(if (&lt;= n 1) n (+ (fibonacci (- n 1)) (fibonacci (- n 2))))>];
31[xlabel=31, label=<(if (&lt;= n 1) n (+ (fibonacci (- n 1)) (fibonacci (- n 2))))>];
32[xlabel=32, label=<(&lt;= n 1)>];
33[xlabel=33, label=<ko(Bool)>, fillcolor=<#DDDDFF>];
34[xlabel=34, label=<(&lt;= n 1)>];
35[xlabel=35, label=<ko(Bool)>, fillcolor=<#DDDDFF>];
36[xlabel=36, label=<n>];
37[xlabel=37, label=<(+ (fibonacci (- n 1)) (fibonacci (- n 2)))>];
38[xlabel=38, label=<n>];
39[xlabel=39, label=<(+ (fibonacci (- n 1)) (fibonacci (- n 2)))>];
40[xlabel=40, label=<ko(Int)>, fillcolor=<#FFFFAA>];
41[xlabel=41, label=<ko(Int)>, fillcolor=<#DDDDFF>];
42[xlabel=42, label=<n>];
43[xlabel=43, label=<n>];
44[xlabel=44, label=<(+ (fibonacci (- n 1)) (fibonacci (- n 2)))>];
45[xlabel=45, label=<n>];
46[xlabel=46, label=<(+ (fibonacci (- n 1)) (fibonacci (- n 2)))>];
47[xlabel=47, label=<(+ (fibonacci (- n 1)) (fibonacci (- n 2)))>];
48[xlabel=48, label=<ko(Int)>, fillcolor=<#DDDDFF>];
49[xlabel=49, label=<ko(Int)>, fillcolor=<#FFFFAA>];
50[xlabel=50, label=<(fibonacci (- n 1))>];
51[xlabel=51, label=<ko(Int)>, fillcolor=<#DDDDFF>];
52[xlabel=52, label=<(fibonacci (- n 1))>];
53[xlabel=53, label=<(fibonacci (- n 1))>];
54[xlabel=54, label=<(fibonacci (- n 2))>];
55[xlabel=55, label=<(fibonacci (- n 2))>];
56[xlabel=56, label=<(- n 2)>];
57[xlabel=57, label=<(- n 2)>];
58[xlabel=58, label=<(- n 1)>];
59[xlabel=59, label=<(- n 1)>];
60[xlabel=60, label=<(- n 1)>];
61[xlabel=61, label=<(fibonacci (- n 2))>];
62[xlabel=62, label=<(- n 2)>];
63[xlabel=63, label=<ko(Int)>, fillcolor=<#DDDDFF>];
64[xlabel=64, label=<ko(Int)>, fillcolor=<#DDDDFF>];
65[xlabel=65, label=<ko(Int)>, fillcolor=<#DDDDFF>];
66[xlabel=66, label=<ko(Int)>, fillcolor=<#DDDDFF>];
67[xlabel=67, label=<ko(Int)>, fillcolor=<#DDDDFF>];
68[xlabel=68, label=<(if (&lt;= n 1) n (+ (fibonacci (- n 1)) (fibonacci (- n 2))))>];
69[xlabel=69, label=<(if (&lt;= n 1) n (+ (fibonacci (- n 1)) (fibonacci (- n 2))))>];
70[xlabel=70, label=<(if (&lt;= n 1) n (+ (fibonacci (- n 1)) (fibonacci (- n 2))))>];
71[xlabel=71, label=<(if (&lt;= n 1) n (+ (fibonacci (- n 1)) (fibonacci (- n 2))))>];
72[xlabel=72, label=<(if (&lt;= n 1) n (+ (fibonacci (- n 1)) (fibonacci (- n 2))))>];
73[xlabel=73, label=<ko(Int)>, fillcolor=<#DDDDFF>];
74[xlabel=74, label=<(if (&lt;= n 1) n (+ (fibonacci (- n 1)) (fibonacci (- n 2))))>];
75[xlabel=75, label=<(&lt;= n 1)>];
76[xlabel=76, label=<(&lt;= n 1)>];
77[xlabel=77, label=<(&lt;= n 1)>];
78[xlabel=78, label=<ko(Bool)>, fillcolor=<#DDDDFF>];
79[xlabel=79, label=<ko(Bool)>, fillcolor=<#DDDDFF>];
80[xlabel=80, label=<ko(Bool)>, fillcolor=<#DDDDFF>];
81[xlabel=81, label=<n>];
82[xlabel=82, label=<n>];
83[xlabel=83, label=<(+ (fibonacci (- n 1)) (fibonacci (- n 2)))>];
84[xlabel=84, label=<(+ (fibonacci (- n 1)) (fibonacci (- n 2)))>];
85[xlabel=85, label=<n>];
86[xlabel=86, label=<(+ (fibonacci (- n 1)) (fibonacci (- n 2)))>];
87[xlabel=87, label=<(+ (fibonacci (- n 1)) (fibonacci (- n 2)))>];
88[xlabel=88, label=<n>];
89[xlabel=89, label=<n>];
90[xlabel=90, label=<(+ (fibonacci (- n 1)) (fibonacci (- n 2)))>];
91[xlabel=91, label=<n>];
92[xlabel=92, label=<(+ (fibonacci (- n 1)) (fibonacci (- n 2)))>];
93[xlabel=93, label=<(+ (fibonacci (- n 1)) (fibonacci (- n 2)))>];
94[xlabel=94, label=<n>];
95[xlabel=95, label=<(+ (fibonacci (- n 1)) (fibonacci (- n 2)))>];
96[xlabel=96, label=<n>];
97[xlabel=97, label=<(+ (fibonacci (- n 1)) (fibonacci (- n 2)))>];
98[xlabel=98, label=<n>];
99[xlabel=99, label=<ko(Int)>, fillcolor=<#DDDDFF>];
100[xlabel=100, label=<(fibonacci (- n 1))>];
101[xlabel=101, label=<ko(Int)>, fillcolor=<#DDDDFF>];
102[xlabel=102, label=<ko(Int)>, fillcolor=<#FFFFAA>];
103[xlabel=103, label=<(fibonacci (- n 1))>];
104[xlabel=104, label=<ko(Int)>, fillcolor=<#FFFFAA>];
105[xlabel=105, label=<ko(Int)>, fillcolor=<#DDDDFF>];
106[xlabel=106, label=<(fibonacci (- n 1))>];
107[xlabel=107, label=<ko(Int)>, fillcolor=<#DDDDFF>];
108[xlabel=108, label=<ko(Int)>, fillcolor=<#DDDDFF>];
109[xlabel=109, label=<ko(Int)>, fillcolor=<#FFFFAA>];
110[xlabel=110, label=<ko(Int)>, fillcolor=<#DDDDFF>];
111[xlabel=111, label=<(- n 1)>];
112[xlabel=112, label=<(fibonacci (- n 2))>];
113[xlabel=113, label=<(fibonacci (- n 2))>];
114[xlabel=114, label=<(- n 1)>];
115[xlabel=115, label=<(fibonacci (- n 2))>];
116[xlabel=116, label=<(fibonacci (- n 2))>];
117[xlabel=117, label=<(- n 1)>];
118[xlabel=118, label=<(fibonacci (- n 2))>];
119[xlabel=119, label=<(- n 2)>];
120[xlabel=120, label=<(- n 2)>];
121[xlabel=121, label=<ko(Int)>, fillcolor=<#DDDDFF>];
122[xlabel=122, label=<(- n 2)>];
123[xlabel=123, label=<ko(Int)>, fillcolor=<#DDDDFF>];
124[xlabel=124, label=<(- n 2)>];
125[xlabel=125, label=<(- n 2)>];
126[xlabel=126, label=<ko(Int)>, fillcolor=<#DDDDFF>];
127[xlabel=127, label=<(if (&lt;= n 1) n (+ (fibonacci (- n 1)) (fibonacci (- n 2))))>];
128[xlabel=128, label=<ko(Int)>, fillcolor=<#DDDDFF>];
129[xlabel=129, label=<ko(Int)>, fillcolor=<#DDDDFF>];
130[xlabel=130, label=<(if (&lt;= n 1) n (+ (fibonacci (- n 1)) (fibonacci (- n 2))))>];
131[xlabel=131, label=<ko(Int)>, fillcolor=<#DDDDFF>];
132[xlabel=132, label=<(if (&lt;= n 1) n (+ (fibonacci (- n 1)) (fibonacci (- n 2))))>];
133[xlabel=133, label=<ko(Int)>, fillcolor=<#DDDDFF>];
134[xlabel=134, label=<ko(Int)>, fillcolor=<#DDDDFF>];
135[xlabel=135, label=<(if (&lt;= n 1) n (+ (fibonacci (- n 1)) (fibonacci (- n 2))))>];
136[xlabel=136, label=<(if (&lt;= n 1) n (+ (fibonacci (- n 1)) (fibonacci (- n 2))))>];
137[xlabel=137, label=<(&lt;= n 1)>];
138[xlabel=138, label=<(if (&lt;= n 1) n (+ (fibonacci (- n 1)) (fibonacci (- n 2))))>];
139[xlabel=139, label=<(if (&lt;= n 1) n (+ (fibonacci (- n 1)) (fibonacci (- n 2))))>];
140[xlabel=140, label=<(if (&lt;= n 1) n (+ (fibonacci (- n 1)) (fibonacci (- n 2))))>];
141[xlabel=141, label=<(&lt;= n 1)>];
142[xlabel=142, label=<ko(Bool)>, fillcolor=<#DDDDFF>];
143[xlabel=143, label=<(&lt;= n 1)>];
144[xlabel=144, label=<ko(Bool)>, fillcolor=<#DDDDFF>];
145[xlabel=145, label=<(&lt;= n 1)>];
146[xlabel=146, label=<ko(Bool)>, fillcolor=<#DDDDFF>];
147[xlabel=147, label=<(+ (fibonacci (- n 1)) (fibonacci (- n 2)))>];
148[xlabel=148, label=<(+ (fibonacci (- n 1)) (fibonacci (- n 2)))>];
149[xlabel=149, label=<n>];
150[xlabel=150, label=<(+ (fibonacci (- n 1)) (fibonacci (- n 2)))>];
151[xlabel=151, label=<n>];
152[xlabel=152, label=<n>];
153[xlabel=153, label=<ko(Bool)>, fillcolor=<#DDDDFF>];
154[xlabel=154, label=<n>];
155[xlabel=155, label=<(+ (fibonacci (- n 1)) (fibonacci (- n 2)))>];
156[xlabel=156, label=<(+ (fibonacci (- n 1)) (fibonacci (- n 2)))>];
157[xlabel=157, label=<n>];
158[xlabel=158, label=<n>];
159[xlabel=159, label=<(+ (fibonacci (- n 1)) (fibonacci (- n 2)))>];
160[xlabel=160, label=<ko(Int)>, fillcolor=<#FFFFAA>];
161[xlabel=161, label=<ko(Int)>, fillcolor=<#DDDDFF>];
162[xlabel=162, label=<ko(Int)>, fillcolor=<#DDDDFF>];
163[xlabel=163, label=<n>];
164[xlabel=164, label=<n>];
165[xlabel=165, label=<(+ (fibonacci (- n 1)) (fibonacci (- n 2)))>];
166[xlabel=166, label=<(+ (fibonacci (- n 1)) (fibonacci (- n 2)))>];
167[xlabel=167, label=<n>];
168[xlabel=168, label=<(+ (fibonacci (- n 1)) (fibonacci (- n 2)))>];
169[xlabel=169, label=<ko(Int)>, fillcolor=<#DDDDFF>];
170[xlabel=170, label=<ko(Int)>, fillcolor=<#DDDDFF>];
171[xlabel=171, label=<ko(Int)>, fillcolor=<#FFFFAA>];
172[xlabel=172, label=<n>];
173[xlabel=173, label=<(+ (fibonacci (- n 1)) (fibonacci (- n 2)))>];
174[xlabel=174, label=<n>];
175[xlabel=175, label=<(+ (fibonacci (- n 1)) (fibonacci (- n 2)))>];
176[xlabel=176, label=<n>];
177[xlabel=177, label=<(+ (fibonacci (- n 1)) (fibonacci (- n 2)))>];
178[xlabel=178, label=<ko(Int)>, fillcolor=<#DDDDFF>];
179[xlabel=179, label=<(fibonacci (- n 1))>];
180[xlabel=180, label=<ko(Int)>, fillcolor=<#FFFFAA>];
181[xlabel=181, label=<(fibonacci (- n 1))>];
182[xlabel=182, label=<ko(Int)>, fillcolor=<#DDDDFF>];
183[xlabel=183, label=<(fibonacci (- n 2))>];
184[xlabel=184, label=<(fibonacci (- n 2))>];
185[xlabel=185, label=<(fibonacci (- n 2))>];
186[xlabel=186, label=<ko(Int)>, fillcolor=<#DDDDFF>];
187[xlabel=187, label=<ko(Int)>, fillcolor=<#FFFFAA>];
188[xlabel=188, label=<(fibonacci (- n 1))>];
189[xlabel=189, label=<(fibonacci (- n 1))>];
190[xlabel=190, label=<ko(Int)>, fillcolor=<#DDDDFF>];
191[xlabel=191, label=<(fibonacci (- n 2))>];
192[xlabel=192, label=<(fibonacci (- n 2))>];
193[xlabel=193, label=<(- n 2)>];
194[xlabel=194, label=<(- n 2)>];
195[xlabel=195, label=<(- n 2)>];
196[xlabel=196, label=<(- n 1)>];
197[xlabel=197, label=<(- n 1)>];
198[xlabel=198, label=<(- n 2)>];
199[xlabel=199, label=<(- n 2)>];
200[xlabel=200, label=<(- n 1)>];
201[xlabel=201, label=<(- n 1)>];
202[xlabel=202, label=<ko(Int)>, fillcolor=<#DDDDFF>];
203[xlabel=203, label=<ko(Int)>, fillcolor=<#DDDDFF>];
204[xlabel=204, label=<ko(Int)>, fillcolor=<#DDDDFF>];
205[xlabel=205, label=<ko(Int)>, fillcolor=<#DDDDFF>];
206[xlabel=206, label=<ko(Int)>, fillcolor=<#DDDDFF>];
207[xlabel=207, label=<ko(Int)>, fillcolor=<#DDDDFF>];
208[xlabel=208, label=<ko(Int)>, fillcolor=<#DDDDFF>];
209[xlabel=209, label=<ko(Int)>, fillcolor=<#DDDDFF>];
210[xlabel=210, label=<ko(Int)>, fillcolor=<#DDDDFF>];
211[xlabel=211, label=<(if (&lt;= n 1) n (+ (fibonacci (- n 1)) (fibonacci (- n 2))))>];
212[xlabel=212, label=<(if (&lt;= n 1) n (+ (fibonacci (- n 1)) (fibonacci (- n 2))))>];
213[xlabel=213, label=<(if (&lt;= n 1) n (+ (fibonacci (- n 1)) (fibonacci (- n 2))))>];
214[xlabel=214, label=<(if (&lt;= n 1) n (+ (fibonacci (- n 1)) (fibonacci (- n 2))))>];
215[xlabel=215, label=<(if (&lt;= n 1) n (+ (fibonacci (- n 1)) (fibonacci (- n 2))))>];
216[xlabel=216, label=<(if (&lt;= n 1) n (+ (fibonacci (- n 1)) (fibonacci (- n 2))))>];
217[xlabel=217, label=<(if (&lt;= n 1) n (+ (fibonacci (- n 1)) (fibonacci (- n 2))))>];
218[xlabel=218, label=<(if (&lt;= n 1) n (+ (fibonacci (- n 1)) (fibonacci (- n 2))))>];
219[xlabel=219, label=<(if (&lt;= n 1) n (+ (fibonacci (- n 1)) (fibonacci (- n 2))))>];
220[xlabel=220, label=<(&lt;= n 1)>];
221[xlabel=221, label=<(&lt;= n 1)>];
222[xlabel=222, label=<(&lt;= n 1)>];
223[xlabel=223, label=<ko(Bool)>, fillcolor=<#DDDDFF>];
224[xlabel=224, label=<ko(Bool)>, fillcolor=<#DDDDFF>];
225[xlabel=225, label=<ko(Bool)>, fillcolor=<#DDDDFF>];
226[xlabel=226, label=<(+ (fibonacci (- n 1)) (fibonacci (- n 2)))>];
227[xlabel=227, label=<(+ (fibonacci (- n 1)) (fibonacci (- n 2)))>];
228[xlabel=228, label=<n>];
229[xlabel=229, label=<(+ (fibonacci (- n 1)) (fibonacci (- n 2)))>];
230[xlabel=230, label=<n>];
231[xlabel=231, label=<n>];
232[xlabel=232, label=<n>];
233[xlabel=233, label=<(+ (fibonacci (- n 1)) (fibonacci (- n 2)))>];
234[xlabel=234, label=<n>];
235[xlabel=235, label=<(+ (fibonacci (- n 1)) (fibonacci (- n 2)))>];
236[xlabel=236, label=<n>];
237[xlabel=237, label=<(+ (fibonacci (- n 1)) (fibonacci (- n 2)))>];
238[xlabel=238, label=<(+ (fibonacci (- n 1)) (fibonacci (- n 2)))>];
239[xlabel=239, label=<n>];
240[xlabel=240, label=<n>];
241[xlabel=241, label=<(+ (fibonacci (- n 1)) (fibonacci (- n 2)))>];
242[xlabel=242, label=<n>];
243[xlabel=243, label=<(+ (fibonacci (- n 1)) (fibonacci (- n 2)))>];
244[xlabel=244, label=<ko(Int)>, fillcolor=<#DDDDFF>];
245[xlabel=245, label=<ko(Int)>, fillcolor=<#FFFFAA>];
246[xlabel=246, label=<ko(Int)>, fillcolor=<#DDDDFF>];
247[xlabel=247, label=<ko(Int)>, fillcolor=<#DDDDFF>];
248[xlabel=248, label=<ko(Int)>, fillcolor=<#FFFFAA>];
249[xlabel=249, label=<ko(Int)>, fillcolor=<#DDDDFF>];
250[xlabel=250, label=<(fibonacci (- n 1))>];
251[xlabel=251, label=<ko(Int)>, fillcolor=<#FFFFAA>];
252[xlabel=252, label=<ko(Int)>, fillcolor=<#DDDDFF>];
253[xlabel=253, label=<ko(Int)>, fillcolor=<#DDDDFF>];
254[xlabel=254, label=<(fibonacci (- n 2))>];
255[xlabel=255, label=<(- n 1)>];
256[xlabel=256, label=<(- n 2)>];
257[xlabel=257, label=<ko(Int)>, fillcolor=<#DDDDFF>];
258[xlabel=258, label=<(if (&lt;= n 1) n (+ (fibonacci (- n 1)) (fibonacci (- n 2))))>];
259[xlabel=259, label=<ko(Int)>, fillcolor=<#DDDDFF>];
260[xlabel=260, label=<(if (&lt;= n 1) n (+ (fibonacci (- n 1)) (fibonacci (- n 2))))>];
261[xlabel=261, label=<(&lt;= n 1)>];
262[xlabel=262, label=<ko(Bool)>, fillcolor=<#DDDDFF>];
263[xlabel=263, label=<(+ (fibonacci (- n 1)) (fibonacci (- n 2)))>];
264[xlabel=264, label=<(+ (fibonacci (- n 1)) (fibonacci (- n 2)))>];
265[xlabel=265, label=<(+ (fibonacci (- n 1)) (fibonacci (- n 2)))>];
266[xlabel=266, label=<n>];
267[xlabel=267, label=<n>];
268[xlabel=268, label=<n>];
269[xlabel=269, label=<(fibonacci (- n 1))>];
270[xlabel=270, label=<ko(Int)>, fillcolor=<#FFFFAA>];
271[xlabel=271, label=<ko(Int)>, fillcolor=<#DDDDFF>];
272[xlabel=272, label=<ko(Int)>, fillcolor=<#DDDDFF>];
273[xlabel=273, label=<(- n 1)>];
274[xlabel=274, label=<ko(Int)>, fillcolor=<#DDDDFF>];
275[xlabel=275, label=<(if (&lt;= n 1) n (+ (fibonacci (- n 1)) (fibonacci (- n 2))))>];

0 -> 1;
1 -> 2;
2 -> 3;
3 -> 4;
4 -> 5;
4 -> 6;
5 -> 7;
6 -> 8;
8 -> 9;
9 -> 10;
10 -> 11;
11 -> 12;
12 -> 13;
13 -> 14;
13 -> 15;
13 -> 16;
13 -> 17;
14 -> 18;
15 -> 19;
16 -> 20;
17 -> 21;
19 -> 24;
20 -> 23;
21 -> 22;
22 -> 27;
23 -> 26;
24 -> 25;
25 -> 30;
26 -> 29;
27 -> 28;
28 -> 32;
29 -> 31;
30 -> 12;
31 -> 34;
32 -> 33;
33 -> 36;
33 -> 37;
33 -> 38;
33 -> 39;
34 -> 35;
35 -> 42;
35 -> 43;
35 -> 44;
35 -> 45;
35 -> 46;
35 -> 47;
36 -> 40;
37 -> 21;
38 -> 41;
39 -> 21;
41 -> 54;
41 -> 55;
42 -> 48;
43 -> 49;
44 -> 50;
45 -> 51;
46 -> 52;
47 -> 53;
48 -> 61;
50 -> 60;
51 -> 49;
52 -> 59;
53 -> 58;
54 -> 56;
55 -> 57;
56 -> 67;
57 -> 66;
58 -> 65;
59 -> 64;
60 -> 63;
61 -> 62;
62 -> 73;
63 -> 72;
64 -> 71;
65 -> 70;
66 -> 69;
67 -> 68;
68 -> 76;
69 -> 77;
70 -> 76;
71 -> 75;
72 -> 34;
73 -> 74;
74 -> 34;
75 -> 80;
76 -> 78;
77 -> 79;
78 -> 93;
78 -> 94;
78 -> 95;
78 -> 96;
78 -> 97;
78 -> 98;
79 -> 87;
79 -> 88;
79 -> 89;
79 -> 90;
79 -> 91;
79 -> 92;
80 -> 81;
80 -> 82;
80 -> 83;
80 -> 84;
80 -> 85;
80 -> 86;
81 -> 108;
82 -> 109;
83 -> 52;
84 -> 52;
85 -> 110;
86 -> 100;
87 -> 103;
88 -> 104;
89 -> 105;
90 -> 106;
91 -> 107;
92 -> 106;
93 -> 53;
94 -> 99;
95 -> 100;
96 -> 101;
97 -> 53;
98 -> 102;
99 -> 115;
99 -> 118;
100 -> 111;
101 -> 102;
103 -> 117;
105 -> 107;
106 -> 114;
107 -> 115;
107 -> 116;
108 -> 112;
108 -> 113;
110 -> 109;
111 -> 126;
112 -> 124;
113 -> 125;
114 -> 123;
115 -> 120;
116 -> 122;
117 -> 121;
118 -> 119;
119 -> 134;
120 -> 133;
121 -> 132;
122 -> 131;
123 -> 130;
124 -> 129;
125 -> 128;
126 -> 127;
127 -> 141;
128 -> 140;
129 -> 139;
130 -> 77;
131 -> 138;
132 -> 137;
133 -> 136;
134 -> 135;
135 -> 76;
136 -> 145;
137 -> 144;
138 -> 77;
139 -> 75;
140 -> 143;
141 -> 142;
142 -> 154;
142 -> 155;
142 -> 156;
142 -> 157;
142 -> 158;
142 -> 159;
143 -> 153;
144 -> 147;
144 -> 148;
144 -> 149;
144 -> 150;
144 -> 151;
144 -> 152;
145 -> 146;
146 -> 172;
146 -> 173;
146 -> 174;
146 -> 175;
146 -> 176;
146 -> 177;
147 -> 103;
148 -> 103;
149 -> 169;
150 -> 103;
151 -> 170;
152 -> 171;
153 -> 163;
153 -> 164;
153 -> 165;
153 -> 166;
153 -> 167;
153 -> 168;
154 -> 160;
155 -> 100;
156 -> 100;
157 -> 161;
158 -> 162;
159 -> 100;
161 -> 160;
162 -> 183;
162 -> 191;
162 -> 192;
163 -> 186;
164 -> 187;
165 -> 188;
166 -> 189;
167 -> 190;
168 -> 189;
169 -> 183;
169 -> 184;
169 -> 185;
170 -> 169;
172 -> 178;
173 -> 179;
174 -> 180;
175 -> 181;
176 -> 182;
177 -> 181;
178 -> 180;
178 -> 182;
179 -> 201;
181 -> 200;
182 -> 115;
183 -> 195;
184 -> 198;
185 -> 199;
186 -> 186;
186 -> 187;
188 -> 197;
189 -> 196;
190 -> 113;
191 -> 193;
192 -> 194;
193 -> 210;
194 -> 209;
195 -> 208;
196 -> 207;
197 -> 206;
198 -> 205;
199 -> 204;
200 -> 203;
201 -> 202;
202 -> 219;
203 -> 218;
204 -> 217;
205 -> 216;
206 -> 215;
207 -> 214;
208 -> 213;
209 -> 212;
210 -> 211;
211 -> 141;
212 -> 222;
213 -> 220;
214 -> 143;
215 -> 222;
216 -> 137;
217 -> 221;
218 -> 145;
219 -> 220;
220 -> 224;
221 -> 225;
222 -> 223;
223 -> 238;
223 -> 239;
223 -> 240;
223 -> 241;
223 -> 242;
223 -> 243;
224 -> 232;
224 -> 233;
224 -> 234;
224 -> 235;
224 -> 236;
224 -> 237;
225 -> 226;
225 -> 227;
225 -> 228;
225 -> 229;
225 -> 230;
225 -> 231;
226 -> 250;
227 -> 250;
228 -> 251;
229 -> 250;
230 -> 252;
231 -> 253;
232 -> 247;
233 -> 179;
234 -> 248;
235 -> 179;
236 -> 249;
237 -> 179;
238 -> 188;
239 -> 244;
240 -> 245;
241 -> 188;
242 -> 246;
243 -> 188;
244 -> 244;
244 -> 245;
246 -> 192;
246 -> 254;
247 -> 183;
247 -> 254;
249 -> 247;
249 -> 248;
250 -> 255;
252 -> 252;
252 -> 253;
253 -> 185;
253 -> 254;
254 -> 256;
255 -> 257;
256 -> 259;
257 -> 258;
258 -> 221;
259 -> 260;
260 -> 261;
261 -> 262;
262 -> 263;
262 -> 264;
262 -> 265;
262 -> 266;
262 -> 267;
262 -> 268;
263 -> 269;
264 -> 269;
265 -> 269;
266 -> 270;
267 -> 271;
268 -> 272;
269 -> 273;
271 -> 270;
271 -> 271;
271 -> 272;
272 -> 254;
273 -> 274;
274 -> 275;
275 -> 261;
}
