digraph "Scala-Par-AM Scheme-examples/Nguyen/ack.scm" {
  node[shape=box, style=filled, fillcolor=<#DDFFDD>];

stats[style=rounded, label="# nodes: 316\l# edges: 383\lgraph density: 0.004\loutdegree positive min: 1\loutdegree max: 4\loutdegree avg: 1.212\l"];
config[style=rounded, label="lattice: TypeSet\lbound: 100\laddress: Classical\lstep\lmachine: SeqAAMLS\l"]

0[xlabel=0, label=<(letrec ((ack (lambda (m n) (cond ((= 0 m) (+ 1 n)) ((= 0 n) (ack (- m 1) 1)) (#t (ack (- m 1) (ack m (- n 1)))))))) (ack 2 0))>, fillcolor=<#AAFFAA>];
1[xlabel=1, label=<(ack 2 0)>];
2[xlabel=2, label=<(cond ((= 0 m) (+ 1 n)) ((= 0 n) (ack (- m 1) 1)) (#t (ack (- m 1) (ack m (- n 1)))))>];
3[xlabel=3, label=<(= 0 m)>];
4[xlabel=4, label=<ko({#f,#t})>, fillcolor=<#DDDDFF>];
5[xlabel=5, label=<(+ 1 n)>];
6[xlabel=6, label=<(= 0 n)>];
7[xlabel=7, label=<ko(Int)>, fillcolor=<#FFFFAA>];
8[xlabel=8, label=<ko({#f,#t})>, fillcolor=<#DDDDFF>];
9[xlabel=9, label=<(ack (- m 1) 1)>];
10[xlabel=10, label=<(ack (- m 1) (ack m (- n 1)))>];
11[xlabel=11, label=<(- m 1)>];
12[xlabel=12, label=<(- m 1)>];
13[xlabel=13, label=<ko(Int)>, fillcolor=<#DDDDFF>];
14[xlabel=14, label=<ko(Int)>, fillcolor=<#DDDDFF>];
15[xlabel=15, label=<(cond ((= 0 m) (+ 1 n)) ((= 0 n) (ack (- m 1) 1)) (#t (ack (- m 1) (ack m (- n 1)))))>];
16[xlabel=16, label=<(ack m (- n 1))>];
17[xlabel=17, label=<(- n 1)>];
18[xlabel=18, label=<(= 0 m)>];
19[xlabel=19, label=<ko({#f,#t})>, fillcolor=<#DDDDFF>];
20[xlabel=20, label=<ko(Int)>, fillcolor=<#DDDDFF>];
21[xlabel=21, label=<(cond ((= 0 m) (+ 1 n)) ((= 0 n) (ack (- m 1) 1)) (#t (ack (- m 1) (ack m (- n 1)))))>];
22[xlabel=22, label=<(+ 1 n)>];
23[xlabel=23, label=<(= 0 n)>];
24[xlabel=24, label=<ko(Int)>, fillcolor=<#FFFFAA>];
25[xlabel=25, label=<ko({#f,#t})>, fillcolor=<#DDDDFF>];
26[xlabel=26, label=<(= 0 m)>];
27[xlabel=27, label=<ko({#f,#t})>, fillcolor=<#DDDDFF>];
28[xlabel=28, label=<(ack (- m 1) 1)>];
29[xlabel=29, label=<(ack (- m 1) (ack m (- n 1)))>];
30[xlabel=30, label=<(- m 1)>];
31[xlabel=31, label=<(+ 1 n)>];
32[xlabel=32, label=<(= 0 n)>];
33[xlabel=33, label=<(+ 1 n)>];
34[xlabel=34, label=<(= 0 n)>];
35[xlabel=35, label=<ko(Int)>, fillcolor=<#FFFFAA>];
36[xlabel=36, label=<ko({#f,#t})>, fillcolor=<#DDDDFF>];
37[xlabel=37, label=<ko(Int)>, fillcolor=<#DDDDFF>];
38[xlabel=38, label=<ko({#f,#t})>, fillcolor=<#DDDDFF>];
39[xlabel=39, label=<ko(Int)>, fillcolor=<#DDDDFF>];
40[xlabel=40, label=<(ack m (- n 1))>];
41[xlabel=41, label=<(ack (- m 1) 1)>];
42[xlabel=42, label=<(ack (- m 1) (ack m (- n 1)))>];
43[xlabel=43, label=<(ack (- m 1) 1)>];
44[xlabel=44, label=<(ack (- m 1) (ack m (- n 1)))>];
45[xlabel=45, label=<(cond ((= 0 m) (+ 1 n)) ((= 0 n) (ack (- m 1) 1)) (#t (ack (- m 1) (ack m (- n 1)))))>];
46[xlabel=46, label=<(ack (- m 1) 1)>];
47[xlabel=47, label=<(ack (- m 1) (ack m (- n 1)))>];
48[xlabel=48, label=<(- m 1)>];
49[xlabel=49, label=<(- m 1)>];
50[xlabel=50, label=<(- m 1)>];
51[xlabel=51, label=<(- m 1)>];
52[xlabel=52, label=<(- m 1)>];
53[xlabel=53, label=<(- m 1)>];
54[xlabel=54, label=<(- n 1)>];
55[xlabel=55, label=<ko(Int)>, fillcolor=<#DDDDFF>];
56[xlabel=56, label=<ko(Int)>, fillcolor=<#DDDDFF>];
57[xlabel=57, label=<ko(Int)>, fillcolor=<#DDDDFF>];
58[xlabel=58, label=<ko(Int)>, fillcolor=<#DDDDFF>];
59[xlabel=59, label=<ko(Int)>, fillcolor=<#DDDDFF>];
60[xlabel=60, label=<ko(Int)>, fillcolor=<#DDDDFF>];
61[xlabel=61, label=<ko(Int)>, fillcolor=<#DDDDFF>];
62[xlabel=62, label=<(cond ((= 0 m) (+ 1 n)) ((= 0 n) (ack (- m 1) 1)) (#t (ack (- m 1) (ack m (- n 1)))))>];
63[xlabel=63, label=<(ack m (- n 1))>];
64[xlabel=64, label=<(cond ((= 0 m) (+ 1 n)) ((= 0 n) (ack (- m 1) 1)) (#t (ack (- m 1) (ack m (- n 1)))))>];
65[xlabel=65, label=<(ack m (- n 1))>];
66[xlabel=66, label=<(cond ((= 0 m) (+ 1 n)) ((= 0 n) (ack (- m 1) 1)) (#t (ack (- m 1) (ack m (- n 1)))))>];
67[xlabel=67, label=<(ack m (- n 1))>];
68[xlabel=68, label=<(ack m (- n 1))>];
69[xlabel=69, label=<(cond ((= 0 m) (+ 1 n)) ((= 0 n) (ack (- m 1) 1)) (#t (ack (- m 1) (ack m (- n 1)))))>];
70[xlabel=70, label=<(= 0 m)>];
71[xlabel=71, label=<(- n 1)>];
72[xlabel=72, label=<(- n 1)>];
73[xlabel=73, label=<(= 0 m)>];
74[xlabel=74, label=<(- n 1)>];
75[xlabel=75, label=<(= 0 m)>];
76[xlabel=76, label=<(- n 1)>];
77[xlabel=77, label=<ko({#f,#t})>, fillcolor=<#DDDDFF>];
78[xlabel=78, label=<ko(Int)>, fillcolor=<#DDDDFF>];
79[xlabel=79, label=<ko({#f,#t})>, fillcolor=<#DDDDFF>];
80[xlabel=80, label=<ko(Int)>, fillcolor=<#DDDDFF>];
81[xlabel=81, label=<ko({#f,#t})>, fillcolor=<#DDDDFF>];
82[xlabel=82, label=<ko(Int)>, fillcolor=<#DDDDFF>];
83[xlabel=83, label=<ko(Int)>, fillcolor=<#DDDDFF>];
84[xlabel=84, label=<(cond ((= 0 m) (+ 1 n)) ((= 0 n) (ack (- m 1) 1)) (#t (ack (- m 1) (ack m (- n 1)))))>];
85[xlabel=85, label=<(cond ((= 0 m) (+ 1 n)) ((= 0 n) (ack (- m 1) 1)) (#t (ack (- m 1) (ack m (- n 1)))))>];
86[xlabel=86, label=<(+ 1 n)>];
87[xlabel=87, label=<(= 0 n)>];
88[xlabel=88, label=<(+ 1 n)>];
89[xlabel=89, label=<(cond ((= 0 m) (+ 1 n)) ((= 0 n) (ack (- m 1) 1)) (#t (ack (- m 1) (ack m (- n 1)))))>];
90[xlabel=90, label=<(+ 1 n)>];
91[xlabel=91, label=<(= 0 n)>];
92[xlabel=92, label=<(+ 1 n)>];
93[xlabel=93, label=<(cond ((= 0 m) (+ 1 n)) ((= 0 n) (ack (- m 1) 1)) (#t (ack (- m 1) (ack m (- n 1)))))>];
94[xlabel=94, label=<(+ 1 n)>];
95[xlabel=95, label=<(= 0 n)>];
96[xlabel=96, label=<(+ 1 n)>];
97[xlabel=97, label=<ko(Int)>, fillcolor=<#FFFFAA>];
98[xlabel=98, label=<ko({#f,#t})>, fillcolor=<#DDDDFF>];
99[xlabel=99, label=<ko(Int)>, fillcolor=<#DDDDFF>];
100[xlabel=100, label=<ko({#f,#t})>, fillcolor=<#DDDDFF>];
101[xlabel=101, label=<ko(Int)>, fillcolor=<#FFFFAA>];
102[xlabel=102, label=<ko(Int)>, fillcolor=<#DDDDFF>];
103[xlabel=103, label=<(= 0 m)>];
104[xlabel=104, label=<ko(Int)>, fillcolor=<#FFFFAA>];
105[xlabel=105, label=<ko({#f,#t})>, fillcolor=<#DDDDFF>];
106[xlabel=106, label=<ko(Int)>, fillcolor=<#DDDDFF>];
107[xlabel=107, label=<(= 0 m)>];
108[xlabel=108, label=<(= 0 m)>];
109[xlabel=109, label=<ko({#f,#t})>, fillcolor=<#DDDDFF>];
110[xlabel=110, label=<ko({#f,#t})>, fillcolor=<#DDDDFF>];
111[xlabel=111, label=<(cond ((= 0 m) (+ 1 n)) ((= 0 n) (ack (- m 1) 1)) (#t (ack (- m 1) (ack m (- n 1)))))>];
112[xlabel=112, label=<(ack (- m 1) 1)>];
113[xlabel=113, label=<(ack (- m 1) (ack m (- n 1)))>];
114[xlabel=114, label=<(ack (- m 1) 1)>];
115[xlabel=115, label=<(ack (- m 1) (ack m (- n 1)))>];
116[xlabel=116, label=<ko({#f,#t})>, fillcolor=<#DDDDFF>];
117[xlabel=117, label=<(ack (- m 1) 1)>];
118[xlabel=118, label=<(ack (- m 1) (ack m (- n 1)))>];
119[xlabel=119, label=<(ack (- m 1) 1)>];
120[xlabel=120, label=<(ack (- m 1) (ack m (- n 1)))>];
121[xlabel=121, label=<(ack (- m 1) 1)>];
122[xlabel=122, label=<(ack (- m 1) (ack m (- n 1)))>];
123[xlabel=123, label=<(- m 1)>];
124[xlabel=124, label=<(- m 1)>];
125[xlabel=125, label=<(- m 1)>];
126[xlabel=126, label=<(- m 1)>];
127[xlabel=127, label=<(+ 1 n)>];
128[xlabel=128, label=<(+ 1 n)>];
129[xlabel=129, label=<(- m 1)>];
130[xlabel=130, label=<(- m 1)>];
131[xlabel=131, label=<(+ 1 n)>];
132[xlabel=132, label=<(= 0 n)>];
133[xlabel=133, label=<(+ 1 n)>];
134[xlabel=134, label=<(+ 1 n)>];
135[xlabel=135, label=<(= 0 n)>];
136[xlabel=136, label=<(+ 1 n)>];
137[xlabel=137, label=<ko(Int)>, fillcolor=<#FFFFAA>];
138[xlabel=138, label=<ko({#f,#t})>, fillcolor=<#DDDDFF>];
139[xlabel=139, label=<ko(Int)>, fillcolor=<#DDDDFF>];
140[xlabel=140, label=<ko(Int)>, fillcolor=<#FFFFAA>];
141[xlabel=141, label=<ko({#f,#t})>, fillcolor=<#DDDDFF>];
142[xlabel=142, label=<ko(Int)>, fillcolor=<#DDDDFF>];
143[xlabel=143, label=<ko(Int)>, fillcolor=<#DDDDFF>];
144[xlabel=144, label=<ko(Int)>, fillcolor=<#DDDDFF>];
145[xlabel=145, label=<ko(Int)>, fillcolor=<#DDDDFF>];
146[xlabel=146, label=<ko(Int)>, fillcolor=<#FFFFAA>];
147[xlabel=147, label=<ko(Int)>, fillcolor=<#DDDDFF>];
148[xlabel=148, label=<ko(Int)>, fillcolor=<#DDDDFF>];
149[xlabel=149, label=<ko(Int)>, fillcolor=<#DDDDFF>];
150[xlabel=150, label=<ko(Int)>, fillcolor=<#DDDDFF>];
151[xlabel=151, label=<(ack m (- n 1))>];
152[xlabel=152, label=<(ack m (- n 1))>];
153[xlabel=153, label=<(ack m (- n 1))>];
154[xlabel=154, label=<(ack m (- n 1))>];
155[xlabel=155, label=<(cond ((= 0 m) (+ 1 n)) ((= 0 n) (ack (- m 1) 1)) (#t (ack (- m 1) (ack m (- n 1)))))>];
156[xlabel=156, label=<(cond ((= 0 m) (+ 1 n)) ((= 0 n) (ack (- m 1) 1)) (#t (ack (- m 1) (ack m (- n 1)))))>];
157[xlabel=157, label=<(cond ((= 0 m) (+ 1 n)) ((= 0 n) (ack (- m 1) 1)) (#t (ack (- m 1) (ack m (- n 1)))))>];
158[xlabel=158, label=<(ack m (- n 1))>];
159[xlabel=159, label=<(ack m (- n 1))>];
160[xlabel=160, label=<(ack m (- n 1))>];
161[xlabel=161, label=<(cond ((= 0 m) (+ 1 n)) ((= 0 n) (ack (- m 1) 1)) (#t (ack (- m 1) (ack m (- n 1)))))>];
162[xlabel=162, label=<(ack (- m 1) 1)>];
163[xlabel=163, label=<(ack (- m 1) (ack m (- n 1)))>];
164[xlabel=164, label=<(ack (- m 1) 1)>];
165[xlabel=165, label=<(ack (- m 1) (ack m (- n 1)))>];
166[xlabel=166, label=<(cond ((= 0 m) (+ 1 n)) ((= 0 n) (ack (- m 1) 1)) (#t (ack (- m 1) (ack m (- n 1)))))>];
167[xlabel=167, label=<(ack (- m 1) 1)>];
168[xlabel=168, label=<(ack (- m 1) (ack m (- n 1)))>];
169[xlabel=169, label=<(ack (- m 1) 1)>];
170[xlabel=170, label=<(ack (- m 1) (ack m (- n 1)))>];
171[xlabel=171, label=<(- m 1)>];
172[xlabel=172, label=<(- m 1)>];
173[xlabel=173, label=<(- m 1)>];
174[xlabel=174, label=<(- m 1)>];
175[xlabel=175, label=<(- m 1)>];
176[xlabel=176, label=<(- n 1)>];
177[xlabel=177, label=<(- n 1)>];
178[xlabel=178, label=<(- n 1)>];
179[xlabel=179, label=<(= 0 m)>];
180[xlabel=180, label=<(- n 1)>];
181[xlabel=181, label=<(- n 1)>];
182[xlabel=182, label=<(- n 1)>];
183[xlabel=183, label=<(- n 1)>];
184[xlabel=184, label=<ko(Int)>, fillcolor=<#DDDDFF>];
185[xlabel=185, label=<ko(Int)>, fillcolor=<#DDDDFF>];
186[xlabel=186, label=<ko(Int)>, fillcolor=<#DDDDFF>];
187[xlabel=187, label=<ko(Int)>, fillcolor=<#DDDDFF>];
188[xlabel=188, label=<ko({#f,#t})>, fillcolor=<#DDDDFF>];
189[xlabel=189, label=<ko(Int)>, fillcolor=<#DDDDFF>];
190[xlabel=190, label=<ko(Int)>, fillcolor=<#DDDDFF>];
191[xlabel=191, label=<ko(Int)>, fillcolor=<#DDDDFF>];
192[xlabel=192, label=<ko(Int)>, fillcolor=<#DDDDFF>];
193[xlabel=193, label=<ko(Int)>, fillcolor=<#DDDDFF>];
194[xlabel=194, label=<ko(Int)>, fillcolor=<#DDDDFF>];
195[xlabel=195, label=<ko(Int)>, fillcolor=<#DDDDFF>];
196[xlabel=196, label=<ko(Int)>, fillcolor=<#DDDDFF>];
197[xlabel=197, label=<(cond ((= 0 m) (+ 1 n)) ((= 0 n) (ack (- m 1) 1)) (#t (ack (- m 1) (ack m (- n 1)))))>];
198[xlabel=198, label=<(cond ((= 0 m) (+ 1 n)) ((= 0 n) (ack (- m 1) 1)) (#t (ack (- m 1) (ack m (- n 1)))))>];
199[xlabel=199, label=<(cond ((= 0 m) (+ 1 n)) ((= 0 n) (ack (- m 1) 1)) (#t (ack (- m 1) (ack m (- n 1)))))>];
200[xlabel=200, label=<(cond ((= 0 m) (+ 1 n)) ((= 0 n) (ack (- m 1) 1)) (#t (ack (- m 1) (ack m (- n 1)))))>];
201[xlabel=201, label=<(+ 1 n)>];
202[xlabel=202, label=<(= 0 n)>];
203[xlabel=203, label=<(+ 1 n)>];
204[xlabel=204, label=<(cond ((= 0 m) (+ 1 n)) ((= 0 n) (ack (- m 1) 1)) (#t (ack (- m 1) (ack m (- n 1)))))>];
205[xlabel=205, label=<(cond ((= 0 m) (+ 1 n)) ((= 0 n) (ack (- m 1) 1)) (#t (ack (- m 1) (ack m (- n 1)))))>];
206[xlabel=206, label=<(cond ((= 0 m) (+ 1 n)) ((= 0 n) (ack (- m 1) 1)) (#t (ack (- m 1) (ack m (- n 1)))))>];
207[xlabel=207, label=<(cond ((= 0 m) (+ 1 n)) ((= 0 n) (ack (- m 1) 1)) (#t (ack (- m 1) (ack m (- n 1)))))>];
208[xlabel=208, label=<(= 0 m)>];
209[xlabel=209, label=<(= 0 m)>];
210[xlabel=210, label=<ko(Int)>, fillcolor=<#FFFFAA>];
211[xlabel=211, label=<ko({#f,#t})>, fillcolor=<#DDDDFF>];
212[xlabel=212, label=<ko(Int)>, fillcolor=<#DDDDFF>];
213[xlabel=213, label=<(= 0 m)>];
214[xlabel=214, label=<(= 0 m)>];
215[xlabel=215, label=<ko({#f,#t})>, fillcolor=<#DDDDFF>];
216[xlabel=216, label=<ko({#f,#t})>, fillcolor=<#DDDDFF>];
217[xlabel=217, label=<ko({#f,#t})>, fillcolor=<#DDDDFF>];
218[xlabel=218, label=<ko({#f,#t})>, fillcolor=<#DDDDFF>];
219[xlabel=219, label=<(ack (- m 1) 1)>];
220[xlabel=220, label=<(ack (- m 1) (ack m (- n 1)))>];
221[xlabel=221, label=<(ack (- m 1) 1)>];
222[xlabel=222, label=<(ack (- m 1) (ack m (- n 1)))>];
223[xlabel=223, label=<(- m 1)>];
224[xlabel=224, label=<(- m 1)>];
225[xlabel=225, label=<(+ 1 n)>];
226[xlabel=226, label=<(= 0 n)>];
227[xlabel=227, label=<(+ 1 n)>];
228[xlabel=228, label=<(+ 1 n)>];
229[xlabel=229, label=<(= 0 n)>];
230[xlabel=230, label=<(+ 1 n)>];
231[xlabel=231, label=<(+ 1 n)>];
232[xlabel=232, label=<(= 0 n)>];
233[xlabel=233, label=<(+ 1 n)>];
234[xlabel=234, label=<(+ 1 n)>];
235[xlabel=235, label=<(= 0 n)>];
236[xlabel=236, label=<(+ 1 n)>];
237[xlabel=237, label=<ko(Int)>, fillcolor=<#FFFFAA>];
238[xlabel=238, label=<ko({#f,#t})>, fillcolor=<#DDDDFF>];
239[xlabel=239, label=<ko(Int)>, fillcolor=<#DDDDFF>];
240[xlabel=240, label=<ko(Int)>, fillcolor=<#FFFFAA>];
241[xlabel=241, label=<ko({#f,#t})>, fillcolor=<#DDDDFF>];
242[xlabel=242, label=<ko(Int)>, fillcolor=<#DDDDFF>];
243[xlabel=243, label=<ko(Int)>, fillcolor=<#FFFFAA>];
244[xlabel=244, label=<ko({#f,#t})>, fillcolor=<#DDDDFF>];
245[xlabel=245, label=<ko(Int)>, fillcolor=<#DDDDFF>];
246[xlabel=246, label=<ko(Int)>, fillcolor=<#FFFFAA>];
247[xlabel=247, label=<ko({#f,#t})>, fillcolor=<#DDDDFF>];
248[xlabel=248, label=<ko(Int)>, fillcolor=<#DDDDFF>];
249[xlabel=249, label=<ko(Int)>, fillcolor=<#DDDDFF>];
250[xlabel=250, label=<ko(Int)>, fillcolor=<#DDDDFF>];
251[xlabel=251, label=<(ack m (- n 1))>];
252[xlabel=252, label=<(ack m (- n 1))>];
253[xlabel=253, label=<(ack m (- n 1))>];
254[xlabel=254, label=<(cond ((= 0 m) (+ 1 n)) ((= 0 n) (ack (- m 1) 1)) (#t (ack (- m 1) (ack m (- n 1)))))>];
255[xlabel=255, label=<(ack (- m 1) 1)>];
256[xlabel=256, label=<(ack (- m 1) (ack m (- n 1)))>];
257[xlabel=257, label=<(ack (- m 1) 1)>];
258[xlabel=258, label=<(ack (- m 1) (ack m (- n 1)))>];
259[xlabel=259, label=<(cond ((= 0 m) (+ 1 n)) ((= 0 n) (ack (- m 1) 1)) (#t (ack (- m 1) (ack m (- n 1)))))>];
260[xlabel=260, label=<(ack (- m 1) 1)>];
261[xlabel=261, label=<(ack (- m 1) (ack m (- n 1)))>];
262[xlabel=262, label=<(ack (- m 1) 1)>];
263[xlabel=263, label=<(ack (- m 1) (ack m (- n 1)))>];
264[xlabel=264, label=<(ack (- m 1) 1)>];
265[xlabel=265, label=<(ack (- m 1) (ack m (- n 1)))>];
266[xlabel=266, label=<(ack (- m 1) 1)>];
267[xlabel=267, label=<(ack (- m 1) (ack m (- n 1)))>];
268[xlabel=268, label=<(ack (- m 1) 1)>];
269[xlabel=269, label=<(ack (- m 1) (ack m (- n 1)))>];
270[xlabel=270, label=<(ack (- m 1) 1)>];
271[xlabel=271, label=<(ack (- m 1) (ack m (- n 1)))>];
272[xlabel=272, label=<(- m 1)>];
273[xlabel=273, label=<(- m 1)>];
274[xlabel=274, label=<(- m 1)>];
275[xlabel=275, label=<(- m 1)>];
276[xlabel=276, label=<(- n 1)>];
277[xlabel=277, label=<(- n 1)>];
278[xlabel=278, label=<(- n 1)>];
279[xlabel=279, label=<ko(Int)>, fillcolor=<#DDDDFF>];
280[xlabel=280, label=<ko(Int)>, fillcolor=<#DDDDFF>];
281[xlabel=281, label=<ko(Int)>, fillcolor=<#DDDDFF>];
282[xlabel=282, label=<ko(Int)>, fillcolor=<#DDDDFF>];
283[xlabel=283, label=<ko(Int)>, fillcolor=<#DDDDFF>];
284[xlabel=284, label=<ko(Int)>, fillcolor=<#DDDDFF>];
285[xlabel=285, label=<ko(Int)>, fillcolor=<#DDDDFF>];
286[xlabel=286, label=<(cond ((= 0 m) (+ 1 n)) ((= 0 n) (ack (- m 1) 1)) (#t (ack (- m 1) (ack m (- n 1)))))>];
287[xlabel=287, label=<(cond ((= 0 m) (+ 1 n)) ((= 0 n) (ack (- m 1) 1)) (#t (ack (- m 1) (ack m (- n 1)))))>];
288[xlabel=288, label=<(cond ((= 0 m) (+ 1 n)) ((= 0 n) (ack (- m 1) 1)) (#t (ack (- m 1) (ack m (- n 1)))))>];
289[xlabel=289, label=<(cond ((= 0 m) (+ 1 n)) ((= 0 n) (ack (- m 1) 1)) (#t (ack (- m 1) (ack m (- n 1)))))>];
290[xlabel=290, label=<(= 0 m)>];
291[xlabel=291, label=<(= 0 m)>];
292[xlabel=292, label=<ko({#f,#t})>, fillcolor=<#DDDDFF>];
293[xlabel=293, label=<ko({#f,#t})>, fillcolor=<#DDDDFF>];
294[xlabel=294, label=<(+ 1 n)>];
295[xlabel=295, label=<(= 0 n)>];
296[xlabel=296, label=<(+ 1 n)>];
297[xlabel=297, label=<(+ 1 n)>];
298[xlabel=298, label=<(= 0 n)>];
299[xlabel=299, label=<(+ 1 n)>];
300[xlabel=300, label=<ko(Int)>, fillcolor=<#FFFFAA>];
301[xlabel=301, label=<ko({#f,#t})>, fillcolor=<#DDDDFF>];
302[xlabel=302, label=<ko(Int)>, fillcolor=<#DDDDFF>];
303[xlabel=303, label=<ko(Int)>, fillcolor=<#FFFFAA>];
304[xlabel=304, label=<ko({#f,#t})>, fillcolor=<#DDDDFF>];
305[xlabel=305, label=<ko(Int)>, fillcolor=<#DDDDFF>];
306[xlabel=306, label=<(ack (- m 1) 1)>];
307[xlabel=307, label=<(ack (- m 1) (ack m (- n 1)))>];
308[xlabel=308, label=<(ack (- m 1) 1)>];
309[xlabel=309, label=<(ack (- m 1) (ack m (- n 1)))>];
310[xlabel=310, label=<(ack (- m 1) 1)>];
311[xlabel=311, label=<(ack (- m 1) (ack m (- n 1)))>];
312[xlabel=312, label=<(ack (- m 1) 1)>];
313[xlabel=313, label=<(ack (- m 1) (ack m (- n 1)))>];
314[xlabel=314, label=<(- m 1)>];
315[xlabel=315, label=<ko(Int)>, fillcolor=<#DDDDFF>];

0 -> 1;
1 -> 2;
2 -> 3;
3 -> 4;
4 -> 5;
4 -> 6;
5 -> 7;
6 -> 8;
8 -> 9;
8 -> 10;
9 -> 11;
10 -> 12;
11 -> 14;
12 -> 13;
13 -> 16;
14 -> 15;
15 -> 18;
16 -> 17;
17 -> 20;
18 -> 19;
19 -> 22;
19 -> 23;
20 -> 21;
21 -> 26;
22 -> 24;
23 -> 25;
25 -> 28;
25 -> 29;
26 -> 27;
27 -> 31;
27 -> 32;
27 -> 33;
27 -> 34;
28 -> 11;
29 -> 30;
30 -> 39;
31 -> 35;
32 -> 36;
33 -> 37;
34 -> 38;
36 -> 46;
36 -> 47;
37 -> 45;
38 -> 41;
38 -> 42;
38 -> 43;
38 -> 44;
39 -> 40;
40 -> 54;
41 -> 50;
42 -> 51;
43 -> 52;
44 -> 53;
45 -> 26;
46 -> 48;
47 -> 49;
48 -> 61;
49 -> 60;
50 -> 59;
51 -> 58;
52 -> 57;
53 -> 56;
54 -> 55;
55 -> 69;
56 -> 67;
56 -> 68;
57 -> 66;
58 -> 65;
59 -> 64;
60 -> 63;
61 -> 62;
62 -> 70;
63 -> 76;
64 -> 75;
65 -> 74;
66 -> 73;
67 -> 71;
68 -> 72;
69 -> 70;
70 -> 77;
71 -> 83;
72 -> 82;
73 -> 81;
74 -> 80;
75 -> 79;
76 -> 78;
77 -> 91;
77 -> 94;
77 -> 95;
77 -> 96;
78 -> 93;
79 -> 90;
79 -> 91;
79 -> 92;
80 -> 89;
81 -> 86;
81 -> 87;
81 -> 88;
82 -> 85;
83 -> 84;
84 -> 108;
85 -> 107;
86 -> 104;
87 -> 105;
88 -> 106;
89 -> 103;
90 -> 101;
91 -> 100;
92 -> 102;
93 -> 26;
94 -> 97;
95 -> 98;
96 -> 99;
98 -> 121;
98 -> 122;
99 -> 62;
100 -> 117;
100 -> 118;
100 -> 119;
100 -> 120;
102 -> 64;
103 -> 116;
105 -> 112;
105 -> 113;
105 -> 114;
105 -> 115;
106 -> 111;
107 -> 110;
108 -> 109;
109 -> 134;
109 -> 135;
109 -> 136;
110 -> 131;
110 -> 132;
110 -> 133;
111 -> 73;
112 -> 125;
113 -> 129;
114 -> 52;
115 -> 130;
116 -> 34;
116 -> 127;
116 -> 128;
117 -> 50;
118 -> 124;
119 -> 125;
120 -> 126;
121 -> 48;
122 -> 123;
123 -> 150;
124 -> 149;
125 -> 145;
126 -> 148;
127 -> 146;
128 -> 147;
129 -> 144;
130 -> 143;
131 -> 140;
132 -> 141;
133 -> 142;
134 -> 137;
135 -> 138;
136 -> 139;
138 -> 167;
138 -> 168;
138 -> 169;
138 -> 170;
139 -> 166;
141 -> 162;
141 -> 163;
141 -> 164;
141 -> 165;
142 -> 85;
142 -> 161;
143 -> 159;
143 -> 160;
144 -> 158;
145 -> 156;
145 -> 157;
147 -> 155;
148 -> 153;
148 -> 154;
149 -> 152;
150 -> 151;
151 -> 183;
152 -> 182;
153 -> 180;
154 -> 181;
155 -> 103;
156 -> 179;
157 -> 179;
158 -> 178;
159 -> 176;
160 -> 177;
161 -> 107;
162 -> 173;
163 -> 174;
164 -> 175;
165 -> 174;
166 -> 108;
167 -> 171;
168 -> 53;
169 -> 172;
170 -> 53;
171 -> 196;
172 -> 195;
173 -> 194;
174 -> 192;
175 -> 193;
176 -> 191;
177 -> 190;
178 -> 189;
179 -> 188;
180 -> 187;
181 -> 186;
182 -> 185;
183 -> 184;
184 -> 207;
185 -> 206;
186 -> 205;
187 -> 204;
188 -> 201;
188 -> 202;
188 -> 203;
189 -> 66;
190 -> 200;
191 -> 198;
192 -> 68;
193 -> 200;
194 -> 199;
195 -> 198;
196 -> 197;
197 -> 209;
198 -> 214;
199 -> 208;
200 -> 213;
201 -> 210;
202 -> 211;
203 -> 212;
204 -> 209;
205 -> 208;
206 -> 75;
207 -> 70;
208 -> 216;
209 -> 215;
211 -> 219;
211 -> 220;
211 -> 221;
211 -> 222;
212 -> 157;
213 -> 218;
214 -> 217;
215 -> 234;
215 -> 235;
215 -> 236;
216 -> 231;
216 -> 232;
216 -> 233;
217 -> 228;
217 -> 229;
217 -> 230;
218 -> 225;
218 -> 226;
218 -> 227;
219 -> 125;
220 -> 223;
221 -> 125;
222 -> 224;
223 -> 250;
224 -> 249;
225 -> 246;
226 -> 247;
227 -> 248;
228 -> 243;
229 -> 244;
230 -> 245;
231 -> 240;
232 -> 241;
233 -> 242;
234 -> 237;
235 -> 238;
236 -> 239;
238 -> 268;
238 -> 269;
238 -> 270;
238 -> 271;
239 -> 197;
241 -> 264;
241 -> 265;
241 -> 266;
241 -> 267;
242 -> 199;
242 -> 205;
244 -> 260;
244 -> 261;
244 -> 262;
244 -> 263;
245 -> 259;
247 -> 255;
247 -> 256;
247 -> 257;
247 -> 258;
248 -> 200;
248 -> 254;
249 -> 252;
249 -> 253;
250 -> 251;
251 -> 278;
252 -> 276;
253 -> 277;
254 -> 213;
255 -> 274;
256 -> 275;
257 -> 175;
258 -> 275;
259 -> 214;
260 -> 272;
261 -> 130;
262 -> 172;
263 -> 130;
264 -> 173;
265 -> 273;
266 -> 274;
267 -> 273;
268 -> 171;
269 -> 126;
270 -> 272;
271 -> 126;
272 -> 284;
273 -> 285;
274 -> 283;
275 -> 282;
276 -> 281;
277 -> 280;
278 -> 279;
279 -> 156;
280 -> 288;
281 -> 286;
282 -> 160;
283 -> 288;
283 -> 289;
284 -> 286;
284 -> 287;
285 -> 154;
286 -> 291;
287 -> 291;
288 -> 290;
289 -> 290;
290 -> 293;
291 -> 292;
292 -> 297;
292 -> 298;
292 -> 299;
293 -> 294;
293 -> 295;
293 -> 296;
294 -> 303;
295 -> 304;
296 -> 305;
297 -> 300;
298 -> 301;
299 -> 302;
301 -> 310;
301 -> 311;
301 -> 312;
301 -> 313;
302 -> 287;
304 -> 306;
304 -> 307;
304 -> 308;
304 -> 309;
305 -> 288;
305 -> 289;
306 -> 274;
307 -> 314;
308 -> 274;
309 -> 314;
310 -> 272;
311 -> 224;
312 -> 272;
313 -> 224;
314 -> 315;
315 -> 253;
}
