digraph "Scala-Par-AM Scheme-examples/Sergey/gcfa2/kcfa3.scm" {
  node[shape=box, style=filled, fillcolor=<#DDFFDD>];

stats[style=rounded, label="# nodes: 190\l# edges: 203\lgraph density: 0.006\loutdegree positive min: 1\loutdegree max: 3\loutdegree avg: 1.068\l"];
config[style=rounded, label="lattice: TypeSet\lbound: 100\laddress: Classical\lstep\lmachine: SeqAAMLS\l"]

0[xlabel=0, label=<((lambda (f1) (let ((a (f1 #t))) (f1 #f))) (lambda (x1) ((lambda (f2) (let ((b (f2 #t))) (f2 #f))) (lambda (x2) ((lambda (f3) (let ((c (f3 #t))) (f3 #f))) (lambda (x3) ((lambda (z) (z x1 x2 x3)) (lambda (y1 y2 y3) y1))))))))>, fillcolor=<#AAFFAA>];
1[xlabel=1, label=<(let ((a (f1 #t))) (f1 #f))>];
2[xlabel=2, label=<(f1 #t)>];
3[xlabel=3, label=<((lambda (f2) (let ((b (f2 #t))) (f2 #f))) (lambda (x2) ((lambda (f3) (let ((c (f3 #t))) (f3 #f))) (lambda (x3) ((lambda (z) (z x1 x2 x3)) (lambda (y1 y2 y3) y1))))))>];
4[xlabel=4, label=<(let ((b (f2 #t))) (f2 #f))>];
5[xlabel=5, label=<(f2 #t)>];
6[xlabel=6, label=<((lambda (f3) (let ((c (f3 #t))) (f3 #f))) (lambda (x3) ((lambda (z) (z x1 x2 x3)) (lambda (y1 y2 y3) y1))))>];
7[xlabel=7, label=<(let ((c (f3 #t))) (f3 #f))>];
8[xlabel=8, label=<(f3 #t)>];
9[xlabel=9, label=<((lambda (z) (z x1 x2 x3)) (lambda (y1 y2 y3) y1))>];
10[xlabel=10, label=<(z x1 x2 x3)>];
11[xlabel=11, label=<y1>];
12[xlabel=12, label=<ko(#t)>, fillcolor=<#DDDDFF>];
13[xlabel=13, label=<(f3 #f)>];
14[xlabel=14, label=<((lambda (z) (z x1 x2 x3)) (lambda (y1 y2 y3) y1))>];
15[xlabel=15, label=<(z x1 x2 x3)>];
16[xlabel=16, label=<y1>];
17[xlabel=17, label=<ko(#t)>, fillcolor=<#DDDDFF>];
18[xlabel=18, label=<(f2 #f)>];
19[xlabel=19, label=<((lambda (f3) (let ((c (f3 #t))) (f3 #f))) (lambda (x3) ((lambda (z) (z x1 x2 x3)) (lambda (y1 y2 y3) y1))))>];
20[xlabel=20, label=<(let ((c (f3 #t))) (f3 #f))>];
21[xlabel=21, label=<(f3 #t)>];
22[xlabel=22, label=<((lambda (z) (z x1 x2 x3)) (lambda (y1 y2 y3) y1))>];
23[xlabel=23, label=<(z x1 x2 x3)>];
24[xlabel=24, label=<y1>];
25[xlabel=25, label=<ko(#t)>, fillcolor=<#DDDDFF>];
26[xlabel=26, label=<(f3 #f)>];
27[xlabel=27, label=<(f3 #f)>];
28[xlabel=28, label=<((lambda (z) (z x1 x2 x3)) (lambda (y1 y2 y3) y1))>];
29[xlabel=29, label=<((lambda (z) (z x1 x2 x3)) (lambda (y1 y2 y3) y1))>];
30[xlabel=30, label=<(z x1 x2 x3)>];
31[xlabel=31, label=<(z x1 x2 x3)>];
32[xlabel=32, label=<y1>];
33[xlabel=33, label=<y1>];
34[xlabel=34, label=<ko(#t)>, fillcolor=<#DDDDFF>];
35[xlabel=35, label=<ko(#t)>, fillcolor=<#DDDDFF>];
36[xlabel=36, label=<(f2 #f)>];
37[xlabel=37, label=<(f1 #f)>];
38[xlabel=38, label=<((lambda (f2) (let ((b (f2 #t))) (f2 #f))) (lambda (x2) ((lambda (f3) (let ((c (f3 #t))) (f3 #f))) (lambda (x3) ((lambda (z) (z x1 x2 x3)) (lambda (y1 y2 y3) y1))))))>];
39[xlabel=39, label=<((lambda (f3) (let ((c (f3 #t))) (f3 #f))) (lambda (x3) ((lambda (z) (z x1 x2 x3)) (lambda (y1 y2 y3) y1))))>];
40[xlabel=40, label=<(let ((c (f3 #t))) (f3 #f))>];
41[xlabel=41, label=<(let ((b (f2 #t))) (f2 #f))>];
42[xlabel=42, label=<(f2 #t)>];
43[xlabel=43, label=<(f3 #t)>];
44[xlabel=44, label=<((lambda (z) (z x1 x2 x3)) (lambda (y1 y2 y3) y1))>];
45[xlabel=45, label=<((lambda (f3) (let ((c (f3 #t))) (f3 #f))) (lambda (x3) ((lambda (z) (z x1 x2 x3)) (lambda (y1 y2 y3) y1))))>];
46[xlabel=46, label=<(let ((c (f3 #t))) (f3 #f))>];
47[xlabel=47, label=<(z x1 x2 x3)>];
48[xlabel=48, label=<(f3 #t)>];
49[xlabel=49, label=<((lambda (z) (z x1 x2 x3)) (lambda (y1 y2 y3) y1))>];
50[xlabel=50, label=<(z x1 x2 x3)>];
51[xlabel=51, label=<y1>];
52[xlabel=52, label=<ko({#f,#t})>, fillcolor=<#DDDDFF>];
53[xlabel=53, label=<(f3 #f)>];
54[xlabel=54, label=<(f3 #f)>];
55[xlabel=55, label=<((lambda (z) (z x1 x2 x3)) (lambda (y1 y2 y3) y1))>];
56[xlabel=56, label=<((lambda (z) (z x1 x2 x3)) (lambda (y1 y2 y3) y1))>];
57[xlabel=57, label=<(z x1 x2 x3)>];
58[xlabel=58, label=<(z x1 x2 x3)>];
59[xlabel=59, label=<y1>];
60[xlabel=60, label=<y1>];
61[xlabel=61, label=<ko({#f,#t})>, fillcolor=<#DDDDFF>];
62[xlabel=62, label=<ko({#f,#t})>, fillcolor=<#DDDDFF>];
63[xlabel=63, label=<(f2 #f)>];
64[xlabel=64, label=<(f2 #f)>];
65[xlabel=65, label=<(f1 #f)>];
66[xlabel=66, label=<((lambda (f2) (let ((b (f2 #t))) (f2 #f))) (lambda (x2) ((lambda (f3) (let ((c (f3 #t))) (f3 #f))) (lambda (x3) ((lambda (z) (z x1 x2 x3)) (lambda (y1 y2 y3) y1))))))>];
67[xlabel=67, label=<((lambda (f3) (let ((c (f3 #t))) (f3 #f))) (lambda (x3) ((lambda (z) (z x1 x2 x3)) (lambda (y1 y2 y3) y1))))>];
68[xlabel=68, label=<((lambda (f3) (let ((c (f3 #t))) (f3 #f))) (lambda (x3) ((lambda (z) (z x1 x2 x3)) (lambda (y1 y2 y3) y1))))>];
69[xlabel=69, label=<(let ((c (f3 #t))) (f3 #f))>];
70[xlabel=70, label=<(let ((c (f3 #t))) (f3 #f))>];
71[xlabel=71, label=<(let ((b (f2 #t))) (f2 #f))>];
72[xlabel=72, label=<(f2 #t)>];
73[xlabel=73, label=<(f3 #t)>];
74[xlabel=74, label=<(f3 #t)>];
75[xlabel=75, label=<((lambda (z) (z x1 x2 x3)) (lambda (y1 y2 y3) y1))>];
76[xlabel=76, label=<((lambda (z) (z x1 x2 x3)) (lambda (y1 y2 y3) y1))>];
77[xlabel=77, label=<((lambda (f3) (let ((c (f3 #t))) (f3 #f))) (lambda (x3) ((lambda (z) (z x1 x2 x3)) (lambda (y1 y2 y3) y1))))>];
78[xlabel=78, label=<(let ((c (f3 #t))) (f3 #f))>];
79[xlabel=79, label=<(z x1 x2 x3)>];
80[xlabel=80, label=<(z x1 x2 x3)>];
81[xlabel=81, label=<y1>];
82[xlabel=82, label=<y1>];
83[xlabel=83, label=<(f3 #t)>];
84[xlabel=84, label=<((lambda (z) (z x1 x2 x3)) (lambda (y1 y2 y3) y1))>];
85[xlabel=85, label=<ko({#f,#t})>, fillcolor=<#DDDDFF>];
86[xlabel=86, label=<ko({#f,#t})>, fillcolor=<#DDDDFF>];
87[xlabel=87, label=<(f3 #f)>];
88[xlabel=88, label=<(f3 #f)>];
89[xlabel=89, label=<(f3 #f)>];
90[xlabel=90, label=<(f3 #f)>];
91[xlabel=91, label=<(f3 #f)>];
92[xlabel=92, label=<(z x1 x2 x3)>];
93[xlabel=93, label=<y1>];
94[xlabel=94, label=<((lambda (z) (z x1 x2 x3)) (lambda (y1 y2 y3) y1))>];
95[xlabel=95, label=<((lambda (z) (z x1 x2 x3)) (lambda (y1 y2 y3) y1))>];
96[xlabel=96, label=<((lambda (z) (z x1 x2 x3)) (lambda (y1 y2 y3) y1))>];
97[xlabel=97, label=<((lambda (z) (z x1 x2 x3)) (lambda (y1 y2 y3) y1))>];
98[xlabel=98, label=<((lambda (z) (z x1 x2 x3)) (lambda (y1 y2 y3) y1))>];
99[xlabel=99, label=<(z x1 x2 x3)>];
100[xlabel=100, label=<(z x1 x2 x3)>];
101[xlabel=101, label=<(z x1 x2 x3)>];
102[xlabel=102, label=<(z x1 x2 x3)>];
103[xlabel=103, label=<(z x1 x2 x3)>];
104[xlabel=104, label=<ko({#f,#t})>, fillcolor=<#DDDDFF>];
105[xlabel=105, label=<(f3 #f)>];
106[xlabel=106, label=<(f3 #f)>];
107[xlabel=107, label=<y1>];
108[xlabel=108, label=<y1>];
109[xlabel=109, label=<y1>];
110[xlabel=110, label=<y1>];
111[xlabel=111, label=<y1>];
112[xlabel=112, label=<ko({#f,#t})>, fillcolor=<#FFFFAA>];
113[xlabel=113, label=<ko({#f,#t})>, fillcolor=<#DDDDFF>];
114[xlabel=114, label=<ko({#f,#t})>, fillcolor=<#DDDDFF>];
115[xlabel=115, label=<ko({#f,#t})>, fillcolor=<#DDDDFF>];
116[xlabel=116, label=<ko({#f,#t})>, fillcolor=<#DDDDFF>];
117[xlabel=117, label=<((lambda (z) (z x1 x2 x3)) (lambda (y1 y2 y3) y1))>];
118[xlabel=118, label=<((lambda (z) (z x1 x2 x3)) (lambda (y1 y2 y3) y1))>];
119[xlabel=119, label=<(z x1 x2 x3)>];
120[xlabel=120, label=<(z x1 x2 x3)>];
121[xlabel=121, label=<(f1 #f)>];
122[xlabel=122, label=<(f2 #f)>];
123[xlabel=123, label=<(f2 #f)>];
124[xlabel=124, label=<(f1 #f)>];
125[xlabel=125, label=<((lambda (f2) (let ((b (f2 #t))) (f2 #f))) (lambda (x2) ((lambda (f3) (let ((c (f3 #t))) (f3 #f))) (lambda (x3) ((lambda (z) (z x1 x2 x3)) (lambda (y1 y2 y3) y1))))))>];
126[xlabel=126, label=<((lambda (f3) (let ((c (f3 #t))) (f3 #f))) (lambda (x3) ((lambda (z) (z x1 x2 x3)) (lambda (y1 y2 y3) y1))))>];
127[xlabel=127, label=<((lambda (f3) (let ((c (f3 #t))) (f3 #f))) (lambda (x3) ((lambda (z) (z x1 x2 x3)) (lambda (y1 y2 y3) y1))))>];
128[xlabel=128, label=<((lambda (f2) (let ((b (f2 #t))) (f2 #f))) (lambda (x2) ((lambda (f3) (let ((c (f3 #t))) (f3 #f))) (lambda (x3) ((lambda (z) (z x1 x2 x3)) (lambda (y1 y2 y3) y1))))))>];
129[xlabel=129, label=<y1>];
130[xlabel=130, label=<y1>];
131[xlabel=131, label=<ko({#f,#t})>, fillcolor=<#DDDDFF>];
132[xlabel=132, label=<ko({#f,#t})>, fillcolor=<#DDDDFF>];
133[xlabel=133, label=<(let ((b (f2 #t))) (f2 #f))>];
134[xlabel=134, label=<(let ((c (f3 #t))) (f3 #f))>];
135[xlabel=135, label=<(let ((c (f3 #t))) (f3 #f))>];
136[xlabel=136, label=<(let ((b (f2 #t))) (f2 #f))>];
137[xlabel=137, label=<(f2 #t)>];
138[xlabel=138, label=<(f2 #t)>];
139[xlabel=139, label=<(f2 #f)>];
140[xlabel=140, label=<(f2 #f)>];
141[xlabel=141, label=<((lambda (f3) (let ((c (f3 #t))) (f3 #f))) (lambda (x3) ((lambda (z) (z x1 x2 x3)) (lambda (y1 y2 y3) y1))))>];
142[xlabel=142, label=<((lambda (f3) (let ((c (f3 #t))) (f3 #f))) (lambda (x3) ((lambda (z) (z x1 x2 x3)) (lambda (y1 y2 y3) y1))))>];
143[xlabel=143, label=<((lambda (f3) (let ((c (f3 #t))) (f3 #f))) (lambda (x3) ((lambda (z) (z x1 x2 x3)) (lambda (y1 y2 y3) y1))))>];
144[xlabel=144, label=<((lambda (f3) (let ((c (f3 #t))) (f3 #f))) (lambda (x3) ((lambda (z) (z x1 x2 x3)) (lambda (y1 y2 y3) y1))))>];
145[xlabel=145, label=<(let ((c (f3 #t))) (f3 #f))>];
146[xlabel=146, label=<(let ((c (f3 #t))) (f3 #f))>];
147[xlabel=147, label=<(let ((c (f3 #t))) (f3 #f))>];
148[xlabel=148, label=<(let ((c (f3 #t))) (f3 #f))>];
149[xlabel=149, label=<(f3 #t)>];
150[xlabel=150, label=<(f3 #t)>];
151[xlabel=151, label=<((lambda (z) (z x1 x2 x3)) (lambda (y1 y2 y3) y1))>];
152[xlabel=152, label=<((lambda (z) (z x1 x2 x3)) (lambda (y1 y2 y3) y1))>];
153[xlabel=153, label=<(z x1 x2 x3)>];
154[xlabel=154, label=<(z x1 x2 x3)>];
155[xlabel=155, label=<y1>];
156[xlabel=156, label=<y1>];
157[xlabel=157, label=<ko({#f,#t})>, fillcolor=<#DDDDFF>];
158[xlabel=158, label=<ko({#f,#t})>, fillcolor=<#DDDDFF>];
159[xlabel=159, label=<(f3 #f)>];
160[xlabel=160, label=<(f3 #f)>];
161[xlabel=161, label=<(f3 #f)>];
162[xlabel=162, label=<(f3 #f)>];
163[xlabel=163, label=<(f3 #f)>];
164[xlabel=164, label=<((lambda (z) (z x1 x2 x3)) (lambda (y1 y2 y3) y1))>];
165[xlabel=165, label=<((lambda (z) (z x1 x2 x3)) (lambda (y1 y2 y3) y1))>];
166[xlabel=166, label=<((lambda (z) (z x1 x2 x3)) (lambda (y1 y2 y3) y1))>];
167[xlabel=167, label=<((lambda (z) (z x1 x2 x3)) (lambda (y1 y2 y3) y1))>];
168[xlabel=168, label=<((lambda (z) (z x1 x2 x3)) (lambda (y1 y2 y3) y1))>];
169[xlabel=169, label=<(z x1 x2 x3)>];
170[xlabel=170, label=<(z x1 x2 x3)>];
171[xlabel=171, label=<(z x1 x2 x3)>];
172[xlabel=172, label=<(z x1 x2 x3)>];
173[xlabel=173, label=<(z x1 x2 x3)>];
174[xlabel=174, label=<y1>];
175[xlabel=175, label=<y1>];
176[xlabel=176, label=<y1>];
177[xlabel=177, label=<y1>];
178[xlabel=178, label=<y1>];
179[xlabel=179, label=<ko({#f,#t})>, fillcolor=<#FFFFAA>];
180[xlabel=180, label=<ko({#f,#t})>, fillcolor=<#DDDDFF>];
181[xlabel=181, label=<ko({#f,#t})>, fillcolor=<#DDDDFF>];
182[xlabel=182, label=<ko({#f,#t})>, fillcolor=<#DDDDFF>];
183[xlabel=183, label=<ko({#f,#t})>, fillcolor=<#DDDDFF>];
184[xlabel=184, label=<(f2 #f)>];
185[xlabel=185, label=<(f2 #f)>];
186[xlabel=186, label=<((lambda (f3) (let ((c (f3 #t))) (f3 #f))) (lambda (x3) ((lambda (z) (z x1 x2 x3)) (lambda (y1 y2 y3) y1))))>];
187[xlabel=187, label=<((lambda (f3) (let ((c (f3 #t))) (f3 #f))) (lambda (x3) ((lambda (z) (z x1 x2 x3)) (lambda (y1 y2 y3) y1))))>];
188[xlabel=188, label=<(let ((c (f3 #t))) (f3 #f))>];
189[xlabel=189, label=<(let ((c (f3 #t))) (f3 #f))>];

0 -> 1;
1 -> 2;
2 -> 3;
3 -> 4;
4 -> 5;
5 -> 6;
6 -> 7;
7 -> 8;
8 -> 9;
9 -> 10;
10 -> 11;
11 -> 12;
12 -> 13;
13 -> 14;
14 -> 15;
15 -> 16;
16 -> 17;
17 -> 18;
18 -> 19;
19 -> 20;
20 -> 21;
21 -> 22;
22 -> 23;
23 -> 24;
24 -> 25;
25 -> 26;
25 -> 27;
26 -> 28;
27 -> 29;
28 -> 31;
29 -> 30;
30 -> 33;
31 -> 32;
32 -> 35;
33 -> 34;
34 -> 37;
35 -> 36;
36 -> 39;
37 -> 38;
38 -> 41;
39 -> 40;
40 -> 43;
41 -> 42;
42 -> 45;
43 -> 44;
44 -> 47;
45 -> 46;
46 -> 48;
47 -> 24;
48 -> 49;
49 -> 50;
50 -> 51;
51 -> 52;
52 -> 53;
52 -> 54;
53 -> 55;
54 -> 56;
55 -> 58;
56 -> 57;
57 -> 60;
58 -> 59;
59 -> 62;
60 -> 61;
61 -> 65;
62 -> 63;
62 -> 64;
63 -> 67;
64 -> 68;
65 -> 66;
66 -> 71;
67 -> 70;
68 -> 69;
69 -> 74;
70 -> 73;
71 -> 72;
72 -> 77;
73 -> 76;
74 -> 75;
75 -> 80;
76 -> 79;
77 -> 78;
78 -> 83;
79 -> 82;
80 -> 81;
81 -> 86;
82 -> 85;
83 -> 84;
84 -> 92;
85 -> 90;
85 -> 91;
86 -> 87;
86 -> 88;
86 -> 89;
87 -> 96;
88 -> 97;
89 -> 98;
90 -> 94;
91 -> 95;
92 -> 93;
93 -> 104;
94 -> 103;
95 -> 102;
96 -> 101;
97 -> 100;
98 -> 99;
99 -> 111;
100 -> 110;
101 -> 109;
102 -> 108;
103 -> 107;
104 -> 105;
104 -> 106;
105 -> 117;
106 -> 118;
107 -> 116;
108 -> 115;
109 -> 114;
110 -> 113;
111 -> 112;
113 -> 124;
114 -> 122;
114 -> 123;
115 -> 121;
116 -> 63;
116 -> 64;
117 -> 120;
118 -> 119;
119 -> 130;
120 -> 129;
121 -> 128;
122 -> 126;
123 -> 127;
124 -> 125;
125 -> 136;
126 -> 135;
127 -> 134;
128 -> 133;
129 -> 132;
130 -> 131;
131 -> 65;
132 -> 139;
132 -> 140;
133 -> 138;
134 -> 74;
135 -> 74;
136 -> 137;
137 -> 144;
138 -> 143;
139 -> 141;
140 -> 142;
141 -> 148;
142 -> 147;
143 -> 146;
144 -> 145;
145 -> 150;
146 -> 149;
147 -> 150;
148 -> 149;
149 -> 152;
150 -> 151;
151 -> 154;
152 -> 153;
153 -> 156;
154 -> 155;
155 -> 158;
156 -> 157;
157 -> 162;
157 -> 163;
158 -> 159;
158 -> 160;
158 -> 161;
159 -> 166;
160 -> 167;
161 -> 168;
162 -> 164;
163 -> 165;
164 -> 173;
165 -> 172;
166 -> 171;
167 -> 170;
168 -> 169;
169 -> 178;
170 -> 177;
171 -> 176;
172 -> 175;
173 -> 174;
174 -> 183;
175 -> 182;
176 -> 181;
177 -> 180;
178 -> 179;
180 -> 124;
181 -> 184;
181 -> 185;
182 -> 121;
183 -> 139;
183 -> 140;
184 -> 186;
185 -> 187;
186 -> 189;
187 -> 188;
188 -> 150;
189 -> 150;
}
