digraph "Scala-Par-AM Scheme-examples/Sergey/kcfa/kcfa-worst-case-5.scm" {
  node[shape=box, style=filled, fillcolor=<#DDFFDD>];

stats[style=rounded, label="# nodes: 529\l# edges: 583\lgraph density: 0.002\loutdegree positive min: 1\loutdegree max: 5\loutdegree avg: 1.102\l"];
config[style=rounded, label="lattice: TypeSet\lbound: 100\laddress: Classical\lstep\lmachine: SeqAAMLS\l"]

0[xlabel=0, label=<((lambda (f1) (f1 #t) (f1 #f)) (lambda (x1) ((lambda (f2) (f2 #t) (f2 #f)) (lambda (x2) ((lambda (f3) (f3 #t) (f3 #f)) (lambda (x3) ((lambda (f4) (f4 #t) (f4 #f)) (lambda (x4) ((lambda (f5) (f5 #t) (f5 #f)) (lambda (x5) ((lambda (z) (z x1 x2 x3 x4 x5)) (lambda (y1 y2 y3 y4 y5) y1))))))))))))>, fillcolor=<#AAFFAA>];
1[xlabel=1, label=<(begin (f1 #t) (f1 #f))>];
2[xlabel=2, label=<(f1 #t)>];
3[xlabel=3, label=<((lambda (f2) (f2 #t) (f2 #f)) (lambda (x2) ((lambda (f3) (f3 #t) (f3 #f)) (lambda (x3) ((lambda (f4) (f4 #t) (f4 #f)) (lambda (x4) ((lambda (f5) (f5 #t) (f5 #f)) (lambda (x5) ((lambda (z) (z x1 x2 x3 x4 x5)) (lambda (y1 y2 y3 y4 y5) y1))))))))))>];
4[xlabel=4, label=<(begin (f2 #t) (f2 #f))>];
5[xlabel=5, label=<(f2 #t)>];
6[xlabel=6, label=<((lambda (f3) (f3 #t) (f3 #f)) (lambda (x3) ((lambda (f4) (f4 #t) (f4 #f)) (lambda (x4) ((lambda (f5) (f5 #t) (f5 #f)) (lambda (x5) ((lambda (z) (z x1 x2 x3 x4 x5)) (lambda (y1 y2 y3 y4 y5) y1))))))))>];
7[xlabel=7, label=<(begin (f3 #t) (f3 #f))>];
8[xlabel=8, label=<(f3 #t)>];
9[xlabel=9, label=<((lambda (f4) (f4 #t) (f4 #f)) (lambda (x4) ((lambda (f5) (f5 #t) (f5 #f)) (lambda (x5) ((lambda (z) (z x1 x2 x3 x4 x5)) (lambda (y1 y2 y3 y4 y5) y1))))))>];
10[xlabel=10, label=<(begin (f4 #t) (f4 #f))>];
11[xlabel=11, label=<(f4 #t)>];
12[xlabel=12, label=<((lambda (f5) (f5 #t) (f5 #f)) (lambda (x5) ((lambda (z) (z x1 x2 x3 x4 x5)) (lambda (y1 y2 y3 y4 y5) y1))))>];
13[xlabel=13, label=<(begin (f5 #t) (f5 #f))>];
14[xlabel=14, label=<(f5 #t)>];
15[xlabel=15, label=<((lambda (z) (z x1 x2 x3 x4 x5)) (lambda (y1 y2 y3 y4 y5) y1))>];
16[xlabel=16, label=<(z x1 x2 x3 x4 x5)>];
17[xlabel=17, label=<y1>];
18[xlabel=18, label=<ko(#t)>, fillcolor=<#DDDDFF>];
19[xlabel=19, label=<(f5 #f)>];
20[xlabel=20, label=<((lambda (z) (z x1 x2 x3 x4 x5)) (lambda (y1 y2 y3 y4 y5) y1))>];
21[xlabel=21, label=<(z x1 x2 x3 x4 x5)>];
22[xlabel=22, label=<y1>];
23[xlabel=23, label=<ko(#t)>, fillcolor=<#DDDDFF>];
24[xlabel=24, label=<(f4 #f)>];
25[xlabel=25, label=<((lambda (f5) (f5 #t) (f5 #f)) (lambda (x5) ((lambda (z) (z x1 x2 x3 x4 x5)) (lambda (y1 y2 y3 y4 y5) y1))))>];
26[xlabel=26, label=<(begin (f5 #t) (f5 #f))>];
27[xlabel=27, label=<(f5 #t)>];
28[xlabel=28, label=<((lambda (z) (z x1 x2 x3 x4 x5)) (lambda (y1 y2 y3 y4 y5) y1))>];
29[xlabel=29, label=<(z x1 x2 x3 x4 x5)>];
30[xlabel=30, label=<y1>];
31[xlabel=31, label=<ko(#t)>, fillcolor=<#DDDDFF>];
32[xlabel=32, label=<(f5 #f)>];
33[xlabel=33, label=<(f5 #f)>];
34[xlabel=34, label=<((lambda (z) (z x1 x2 x3 x4 x5)) (lambda (y1 y2 y3 y4 y5) y1))>];
35[xlabel=35, label=<((lambda (z) (z x1 x2 x3 x4 x5)) (lambda (y1 y2 y3 y4 y5) y1))>];
36[xlabel=36, label=<(z x1 x2 x3 x4 x5)>];
37[xlabel=37, label=<(z x1 x2 x3 x4 x5)>];
38[xlabel=38, label=<y1>];
39[xlabel=39, label=<y1>];
40[xlabel=40, label=<ko(#t)>, fillcolor=<#DDDDFF>];
41[xlabel=41, label=<ko(#t)>, fillcolor=<#DDDDFF>];
42[xlabel=42, label=<(f4 #f)>];
43[xlabel=43, label=<(f3 #f)>];
44[xlabel=44, label=<((lambda (f4) (f4 #t) (f4 #f)) (lambda (x4) ((lambda (f5) (f5 #t) (f5 #f)) (lambda (x5) ((lambda (z) (z x1 x2 x3 x4 x5)) (lambda (y1 y2 y3 y4 y5) y1))))))>];
45[xlabel=45, label=<((lambda (f5) (f5 #t) (f5 #f)) (lambda (x5) ((lambda (z) (z x1 x2 x3 x4 x5)) (lambda (y1 y2 y3 y4 y5) y1))))>];
46[xlabel=46, label=<(begin (f5 #t) (f5 #f))>];
47[xlabel=47, label=<(begin (f4 #t) (f4 #f))>];
48[xlabel=48, label=<(f4 #t)>];
49[xlabel=49, label=<(f5 #t)>];
50[xlabel=50, label=<((lambda (z) (z x1 x2 x3 x4 x5)) (lambda (y1 y2 y3 y4 y5) y1))>];
51[xlabel=51, label=<((lambda (f5) (f5 #t) (f5 #f)) (lambda (x5) ((lambda (z) (z x1 x2 x3 x4 x5)) (lambda (y1 y2 y3 y4 y5) y1))))>];
52[xlabel=52, label=<(begin (f5 #t) (f5 #f))>];
53[xlabel=53, label=<(z x1 x2 x3 x4 x5)>];
54[xlabel=54, label=<(f5 #t)>];
55[xlabel=55, label=<((lambda (z) (z x1 x2 x3 x4 x5)) (lambda (y1 y2 y3 y4 y5) y1))>];
56[xlabel=56, label=<(z x1 x2 x3 x4 x5)>];
57[xlabel=57, label=<y1>];
58[xlabel=58, label=<ko(#t)>, fillcolor=<#DDDDFF>];
59[xlabel=59, label=<(f5 #f)>];
60[xlabel=60, label=<(f5 #f)>];
61[xlabel=61, label=<((lambda (z) (z x1 x2 x3 x4 x5)) (lambda (y1 y2 y3 y4 y5) y1))>];
62[xlabel=62, label=<((lambda (z) (z x1 x2 x3 x4 x5)) (lambda (y1 y2 y3 y4 y5) y1))>];
63[xlabel=63, label=<(z x1 x2 x3 x4 x5)>];
64[xlabel=64, label=<(z x1 x2 x3 x4 x5)>];
65[xlabel=65, label=<y1>];
66[xlabel=66, label=<y1>];
67[xlabel=67, label=<ko(#t)>, fillcolor=<#DDDDFF>];
68[xlabel=68, label=<ko(#t)>, fillcolor=<#DDDDFF>];
69[xlabel=69, label=<(f4 #f)>];
70[xlabel=70, label=<(f4 #f)>];
71[xlabel=71, label=<(f3 #f)>];
72[xlabel=72, label=<((lambda (f4) (f4 #t) (f4 #f)) (lambda (x4) ((lambda (f5) (f5 #t) (f5 #f)) (lambda (x5) ((lambda (z) (z x1 x2 x3 x4 x5)) (lambda (y1 y2 y3 y4 y5) y1))))))>];
73[xlabel=73, label=<((lambda (f5) (f5 #t) (f5 #f)) (lambda (x5) ((lambda (z) (z x1 x2 x3 x4 x5)) (lambda (y1 y2 y3 y4 y5) y1))))>];
74[xlabel=74, label=<((lambda (f5) (f5 #t) (f5 #f)) (lambda (x5) ((lambda (z) (z x1 x2 x3 x4 x5)) (lambda (y1 y2 y3 y4 y5) y1))))>];
75[xlabel=75, label=<(begin (f5 #t) (f5 #f))>];
76[xlabel=76, label=<(begin (f5 #t) (f5 #f))>];
77[xlabel=77, label=<(begin (f4 #t) (f4 #f))>];
78[xlabel=78, label=<(f4 #t)>];
79[xlabel=79, label=<(f5 #t)>];
80[xlabel=80, label=<(f5 #t)>];
81[xlabel=81, label=<((lambda (z) (z x1 x2 x3 x4 x5)) (lambda (y1 y2 y3 y4 y5) y1))>];
82[xlabel=82, label=<((lambda (z) (z x1 x2 x3 x4 x5)) (lambda (y1 y2 y3 y4 y5) y1))>];
83[xlabel=83, label=<((lambda (f5) (f5 #t) (f5 #f)) (lambda (x5) ((lambda (z) (z x1 x2 x3 x4 x5)) (lambda (y1 y2 y3 y4 y5) y1))))>];
84[xlabel=84, label=<(begin (f5 #t) (f5 #f))>];
85[xlabel=85, label=<(z x1 x2 x3 x4 x5)>];
86[xlabel=86, label=<(z x1 x2 x3 x4 x5)>];
87[xlabel=87, label=<y1>];
88[xlabel=88, label=<ko(#t)>, fillcolor=<#DDDDFF>];
89[xlabel=89, label=<(f5 #f)>];
90[xlabel=90, label=<(f5 #f)>];
91[xlabel=91, label=<(f5 #f)>];
92[xlabel=92, label=<((lambda (z) (z x1 x2 x3 x4 x5)) (lambda (y1 y2 y3 y4 y5) y1))>];
93[xlabel=93, label=<((lambda (z) (z x1 x2 x3 x4 x5)) (lambda (y1 y2 y3 y4 y5) y1))>];
94[xlabel=94, label=<((lambda (z) (z x1 x2 x3 x4 x5)) (lambda (y1 y2 y3 y4 y5) y1))>];
95[xlabel=95, label=<(z x1 x2 x3 x4 x5)>];
96[xlabel=96, label=<(z x1 x2 x3 x4 x5)>];
97[xlabel=97, label=<(z x1 x2 x3 x4 x5)>];
98[xlabel=98, label=<y1>];
99[xlabel=99, label=<y1>];
100[xlabel=100, label=<y1>];
101[xlabel=101, label=<ko(#t)>, fillcolor=<#DDDDFF>];
102[xlabel=102, label=<ko(#t)>, fillcolor=<#DDDDFF>];
103[xlabel=103, label=<ko(#t)>, fillcolor=<#DDDDFF>];
104[xlabel=104, label=<(f4 #f)>];
105[xlabel=105, label=<(f4 #f)>];
106[xlabel=106, label=<(f3 #f)>];
107[xlabel=107, label=<(f2 #f)>];
108[xlabel=108, label=<((lambda (f3) (f3 #t) (f3 #f)) (lambda (x3) ((lambda (f4) (f4 #t) (f4 #f)) (lambda (x4) ((lambda (f5) (f5 #t) (f5 #f)) (lambda (x5) ((lambda (z) (z x1 x2 x3 x4 x5)) (lambda (y1 y2 y3 y4 y5) y1))))))))>];
109[xlabel=109, label=<((lambda (f4) (f4 #t) (f4 #f)) (lambda (x4) ((lambda (f5) (f5 #t) (f5 #f)) (lambda (x5) ((lambda (z) (z x1 x2 x3 x4 x5)) (lambda (y1 y2 y3 y4 y5) y1))))))>];
110[xlabel=110, label=<((lambda (f5) (f5 #t) (f5 #f)) (lambda (x5) ((lambda (z) (z x1 x2 x3 x4 x5)) (lambda (y1 y2 y3 y4 y5) y1))))>];
111[xlabel=111, label=<((lambda (f5) (f5 #t) (f5 #f)) (lambda (x5) ((lambda (z) (z x1 x2 x3 x4 x5)) (lambda (y1 y2 y3 y4 y5) y1))))>];
112[xlabel=112, label=<(begin (f5 #t) (f5 #f))>];
113[xlabel=113, label=<(begin (f5 #t) (f5 #f))>];
114[xlabel=114, label=<(begin (f4 #t) (f4 #f))>];
115[xlabel=115, label=<(begin (f3 #t) (f3 #f))>];
116[xlabel=116, label=<(f3 #t)>];
117[xlabel=117, label=<(f4 #t)>];
118[xlabel=118, label=<((lambda (f5) (f5 #t) (f5 #f)) (lambda (x5) ((lambda (z) (z x1 x2 x3 x4 x5)) (lambda (y1 y2 y3 y4 y5) y1))))>];
119[xlabel=119, label=<((lambda (f4) (f4 #t) (f4 #f)) (lambda (x4) ((lambda (f5) (f5 #t) (f5 #f)) (lambda (x5) ((lambda (z) (z x1 x2 x3 x4 x5)) (lambda (y1 y2 y3 y4 y5) y1))))))>];
120[xlabel=120, label=<(begin (f4 #t) (f4 #f))>];
121[xlabel=121, label=<(begin (f5 #t) (f5 #f))>];
122[xlabel=122, label=<(f4 #t)>];
123[xlabel=123, label=<((lambda (f5) (f5 #t) (f5 #f)) (lambda (x5) ((lambda (z) (z x1 x2 x3 x4 x5)) (lambda (y1 y2 y3 y4 y5) y1))))>];
124[xlabel=124, label=<(begin (f5 #t) (f5 #f))>];
125[xlabel=125, label=<(f5 #t)>];
126[xlabel=126, label=<((lambda (z) (z x1 x2 x3 x4 x5)) (lambda (y1 y2 y3 y4 y5) y1))>];
127[xlabel=127, label=<(z x1 x2 x3 x4 x5)>];
128[xlabel=128, label=<y1>];
129[xlabel=129, label=<ko(#t)>, fillcolor=<#DDDDFF>];
130[xlabel=130, label=<(f5 #f)>];
131[xlabel=131, label=<(f5 #f)>];
132[xlabel=132, label=<(f5 #f)>];
133[xlabel=133, label=<((lambda (z) (z x1 x2 x3 x4 x5)) (lambda (y1 y2 y3 y4 y5) y1))>];
134[xlabel=134, label=<((lambda (z) (z x1 x2 x3 x4 x5)) (lambda (y1 y2 y3 y4 y5) y1))>];
135[xlabel=135, label=<((lambda (z) (z x1 x2 x3 x4 x5)) (lambda (y1 y2 y3 y4 y5) y1))>];
136[xlabel=136, label=<(z x1 x2 x3 x4 x5)>];
137[xlabel=137, label=<(z x1 x2 x3 x4 x5)>];
138[xlabel=138, label=<(z x1 x2 x3 x4 x5)>];
139[xlabel=139, label=<y1>];
140[xlabel=140, label=<y1>];
141[xlabel=141, label=<y1>];
142[xlabel=142, label=<ko(#t)>, fillcolor=<#DDDDFF>];
143[xlabel=143, label=<ko(#t)>, fillcolor=<#DDDDFF>];
144[xlabel=144, label=<ko(#t)>, fillcolor=<#DDDDFF>];
145[xlabel=145, label=<(f4 #f)>];
146[xlabel=146, label=<(f4 #f)>];
147[xlabel=147, label=<(f3 #f)>];
148[xlabel=148, label=<(f3 #f)>];
149[xlabel=149, label=<(f2 #f)>];
150[xlabel=150, label=<((lambda (f3) (f3 #t) (f3 #f)) (lambda (x3) ((lambda (f4) (f4 #t) (f4 #f)) (lambda (x4) ((lambda (f5) (f5 #t) (f5 #f)) (lambda (x5) ((lambda (z) (z x1 x2 x3 x4 x5)) (lambda (y1 y2 y3 y4 y5) y1))))))))>];
151[xlabel=151, label=<((lambda (f4) (f4 #t) (f4 #f)) (lambda (x4) ((lambda (f5) (f5 #t) (f5 #f)) (lambda (x5) ((lambda (z) (z x1 x2 x3 x4 x5)) (lambda (y1 y2 y3 y4 y5) y1))))))>];
152[xlabel=152, label=<((lambda (f4) (f4 #t) (f4 #f)) (lambda (x4) ((lambda (f5) (f5 #t) (f5 #f)) (lambda (x5) ((lambda (z) (z x1 x2 x3 x4 x5)) (lambda (y1 y2 y3 y4 y5) y1))))))>];
153[xlabel=153, label=<((lambda (f5) (f5 #t) (f5 #f)) (lambda (x5) ((lambda (z) (z x1 x2 x3 x4 x5)) (lambda (y1 y2 y3 y4 y5) y1))))>];
154[xlabel=154, label=<((lambda (f5) (f5 #t) (f5 #f)) (lambda (x5) ((lambda (z) (z x1 x2 x3 x4 x5)) (lambda (y1 y2 y3 y4 y5) y1))))>];
155[xlabel=155, label=<(begin (f5 #t) (f5 #f))>];
156[xlabel=156, label=<(begin (f5 #t) (f5 #f))>];
157[xlabel=157, label=<(begin (f4 #t) (f4 #f))>];
158[xlabel=158, label=<(begin (f4 #t) (f4 #f))>];
159[xlabel=159, label=<(begin (f3 #t) (f3 #f))>];
160[xlabel=160, label=<(f3 #t)>];
161[xlabel=161, label=<(f4 #t)>];
162[xlabel=162, label=<(f4 #t)>];
163[xlabel=163, label=<(f5 #t)>];
164[xlabel=164, label=<((lambda (z) (z x1 x2 x3 x4 x5)) (lambda (y1 y2 y3 y4 y5) y1))>];
165[xlabel=165, label=<((lambda (f5) (f5 #t) (f5 #f)) (lambda (x5) ((lambda (z) (z x1 x2 x3 x4 x5)) (lambda (y1 y2 y3 y4 y5) y1))))>];
166[xlabel=166, label=<((lambda (f5) (f5 #t) (f5 #f)) (lambda (x5) ((lambda (z) (z x1 x2 x3 x4 x5)) (lambda (y1 y2 y3 y4 y5) y1))))>];
167[xlabel=167, label=<((lambda (f4) (f4 #t) (f4 #f)) (lambda (x4) ((lambda (f5) (f5 #t) (f5 #f)) (lambda (x5) ((lambda (z) (z x1 x2 x3 x4 x5)) (lambda (y1 y2 y3 y4 y5) y1))))))>];
168[xlabel=168, label=<(begin (f4 #t) (f4 #f))>];
169[xlabel=169, label=<(begin (f5 #t) (f5 #f))>];
170[xlabel=170, label=<(begin (f5 #t) (f5 #f))>];
171[xlabel=171, label=<(z x1 x2 x3 x4 x5)>];
172[xlabel=172, label=<(f5 #t)>];
173[xlabel=173, label=<((lambda (z) (z x1 x2 x3 x4 x5)) (lambda (y1 y2 y3 y4 y5) y1))>];
174[xlabel=174, label=<(z x1 x2 x3 x4 x5)>];
175[xlabel=175, label=<y1>];
176[xlabel=176, label=<ko(#t)>, fillcolor=<#DDDDFF>];
177[xlabel=177, label=<(f5 #f)>];
178[xlabel=178, label=<(f5 #f)>];
179[xlabel=179, label=<(f5 #f)>];
180[xlabel=180, label=<((lambda (z) (z x1 x2 x3 x4 x5)) (lambda (y1 y2 y3 y4 y5) y1))>];
181[xlabel=181, label=<((lambda (z) (z x1 x2 x3 x4 x5)) (lambda (y1 y2 y3 y4 y5) y1))>];
182[xlabel=182, label=<((lambda (z) (z x1 x2 x3 x4 x5)) (lambda (y1 y2 y3 y4 y5) y1))>];
183[xlabel=183, label=<(z x1 x2 x3 x4 x5)>];
184[xlabel=184, label=<(z x1 x2 x3 x4 x5)>];
185[xlabel=185, label=<(z x1 x2 x3 x4 x5)>];
186[xlabel=186, label=<y1>];
187[xlabel=187, label=<y1>];
188[xlabel=188, label=<y1>];
189[xlabel=189, label=<ko(#t)>, fillcolor=<#DDDDFF>];
190[xlabel=190, label=<ko(#t)>, fillcolor=<#DDDDFF>];
191[xlabel=191, label=<ko(#t)>, fillcolor=<#DDDDFF>];
192[xlabel=192, label=<(f4 #f)>];
193[xlabel=193, label=<(f4 #f)>];
194[xlabel=194, label=<(f4 #f)>];
195[xlabel=195, label=<(f3 #f)>];
196[xlabel=196, label=<(f3 #f)>];
197[xlabel=197, label=<(f2 #f)>];
198[xlabel=198, label=<((lambda (f3) (f3 #t) (f3 #f)) (lambda (x3) ((lambda (f4) (f4 #t) (f4 #f)) (lambda (x4) ((lambda (f5) (f5 #t) (f5 #f)) (lambda (x5) ((lambda (z) (z x1 x2 x3 x4 x5)) (lambda (y1 y2 y3 y4 y5) y1))))))))>];
199[xlabel=199, label=<((lambda (f4) (f4 #t) (f4 #f)) (lambda (x4) ((lambda (f5) (f5 #t) (f5 #f)) (lambda (x5) ((lambda (z) (z x1 x2 x3 x4 x5)) (lambda (y1 y2 y3 y4 y5) y1))))))>];
200[xlabel=200, label=<((lambda (f4) (f4 #t) (f4 #f)) (lambda (x4) ((lambda (f5) (f5 #t) (f5 #f)) (lambda (x5) ((lambda (z) (z x1 x2 x3 x4 x5)) (lambda (y1 y2 y3 y4 y5) y1))))))>];
201[xlabel=201, label=<((lambda (f5) (f5 #t) (f5 #f)) (lambda (x5) ((lambda (z) (z x1 x2 x3 x4 x5)) (lambda (y1 y2 y3 y4 y5) y1))))>];
202[xlabel=202, label=<((lambda (f5) (f5 #t) (f5 #f)) (lambda (x5) ((lambda (z) (z x1 x2 x3 x4 x5)) (lambda (y1 y2 y3 y4 y5) y1))))>];
203[xlabel=203, label=<((lambda (f5) (f5 #t) (f5 #f)) (lambda (x5) ((lambda (z) (z x1 x2 x3 x4 x5)) (lambda (y1 y2 y3 y4 y5) y1))))>];
204[xlabel=204, label=<(begin (f5 #t) (f5 #f))>];
205[xlabel=205, label=<(begin (f5 #t) (f5 #f))>];
206[xlabel=206, label=<(begin (f5 #t) (f5 #f))>];
207[xlabel=207, label=<(begin (f4 #t) (f4 #f))>];
208[xlabel=208, label=<(begin (f4 #t) (f4 #f))>];
209[xlabel=209, label=<(begin (f3 #t) (f3 #f))>];
210[xlabel=210, label=<(f3 #t)>];
211[xlabel=211, label=<(f5 #t)>];
212[xlabel=212, label=<((lambda (z) (z x1 x2 x3 x4 x5)) (lambda (y1 y2 y3 y4 y5) y1))>];
213[xlabel=213, label=<((lambda (f4) (f4 #t) (f4 #f)) (lambda (x4) ((lambda (f5) (f5 #t) (f5 #f)) (lambda (x5) ((lambda (z) (z x1 x2 x3 x4 x5)) (lambda (y1 y2 y3 y4 y5) y1))))))>];
214[xlabel=214, label=<(begin (f4 #t) (f4 #f))>];
215[xlabel=215, label=<(z x1 x2 x3 x4 x5)>];
216[xlabel=216, label=<y1>];
217[xlabel=217, label=<ko(#t)>, fillcolor=<#DDDDFF>];
218[xlabel=218, label=<(f5 #f)>];
219[xlabel=219, label=<(f5 #f)>];
220[xlabel=220, label=<(f5 #f)>];
221[xlabel=221, label=<(f5 #f)>];
222[xlabel=222, label=<((lambda (z) (z x1 x2 x3 x4 x5)) (lambda (y1 y2 y3 y4 y5) y1))>];
223[xlabel=223, label=<((lambda (z) (z x1 x2 x3 x4 x5)) (lambda (y1 y2 y3 y4 y5) y1))>];
224[xlabel=224, label=<((lambda (z) (z x1 x2 x3 x4 x5)) (lambda (y1 y2 y3 y4 y5) y1))>];
225[xlabel=225, label=<((lambda (z) (z x1 x2 x3 x4 x5)) (lambda (y1 y2 y3 y4 y5) y1))>];
226[xlabel=226, label=<(z x1 x2 x3 x4 x5)>];
227[xlabel=227, label=<(z x1 x2 x3 x4 x5)>];
228[xlabel=228, label=<(z x1 x2 x3 x4 x5)>];
229[xlabel=229, label=<(z x1 x2 x3 x4 x5)>];
230[xlabel=230, label=<y1>];
231[xlabel=231, label=<y1>];
232[xlabel=232, label=<y1>];
233[xlabel=233, label=<y1>];
234[xlabel=234, label=<ko(#t)>, fillcolor=<#DDDDFF>];
235[xlabel=235, label=<ko(#t)>, fillcolor=<#DDDDFF>];
236[xlabel=236, label=<ko(#t)>, fillcolor=<#DDDDFF>];
237[xlabel=237, label=<ko(#t)>, fillcolor=<#DDDDFF>];
238[xlabel=238, label=<(f4 #f)>];
239[xlabel=239, label=<(f4 #f)>];
240[xlabel=240, label=<(f4 #f)>];
241[xlabel=241, label=<(f3 #f)>];
242[xlabel=242, label=<(f3 #f)>];
243[xlabel=243, label=<(f2 #f)>];
244[xlabel=244, label=<(f1 #f)>];
245[xlabel=245, label=<((lambda (f2) (f2 #t) (f2 #f)) (lambda (x2) ((lambda (f3) (f3 #t) (f3 #f)) (lambda (x3) ((lambda (f4) (f4 #t) (f4 #f)) (lambda (x4) ((lambda (f5) (f5 #t) (f5 #f)) (lambda (x5) ((lambda (z) (z x1 x2 x3 x4 x5)) (lambda (y1 y2 y3 y4 y5) y1))))))))))>];
246[xlabel=246, label=<((lambda (f3) (f3 #t) (f3 #f)) (lambda (x3) ((lambda (f4) (f4 #t) (f4 #f)) (lambda (x4) ((lambda (f5) (f5 #t) (f5 #f)) (lambda (x5) ((lambda (z) (z x1 x2 x3 x4 x5)) (lambda (y1 y2 y3 y4 y5) y1))))))))>];
247[xlabel=247, label=<((lambda (f4) (f4 #t) (f4 #f)) (lambda (x4) ((lambda (f5) (f5 #t) (f5 #f)) (lambda (x5) ((lambda (z) (z x1 x2 x3 x4 x5)) (lambda (y1 y2 y3 y4 y5) y1))))))>];
248[xlabel=248, label=<((lambda (f4) (f4 #t) (f4 #f)) (lambda (x4) ((lambda (f5) (f5 #t) (f5 #f)) (lambda (x5) ((lambda (z) (z x1 x2 x3 x4 x5)) (lambda (y1 y2 y3 y4 y5) y1))))))>];
249[xlabel=249, label=<((lambda (f5) (f5 #t) (f5 #f)) (lambda (x5) ((lambda (z) (z x1 x2 x3 x4 x5)) (lambda (y1 y2 y3 y4 y5) y1))))>];
250[xlabel=250, label=<((lambda (f5) (f5 #t) (f5 #f)) (lambda (x5) ((lambda (z) (z x1 x2 x3 x4 x5)) (lambda (y1 y2 y3 y4 y5) y1))))>];
251[xlabel=251, label=<((lambda (f5) (f5 #t) (f5 #f)) (lambda (x5) ((lambda (z) (z x1 x2 x3 x4 x5)) (lambda (y1 y2 y3 y4 y5) y1))))>];
252[xlabel=252, label=<(begin (f5 #t) (f5 #f))>];
253[xlabel=253, label=<(begin (f5 #t) (f5 #f))>];
254[xlabel=254, label=<(begin (f5 #t) (f5 #f))>];
255[xlabel=255, label=<(begin (f4 #t) (f4 #f))>];
256[xlabel=256, label=<(begin (f4 #t) (f4 #f))>];
257[xlabel=257, label=<(begin (f3 #t) (f3 #f))>];
258[xlabel=258, label=<(begin (f2 #t) (f2 #f))>];
259[xlabel=259, label=<(f2 #t)>];
260[xlabel=260, label=<(f3 #t)>];
261[xlabel=261, label=<(f4 #t)>];
262[xlabel=262, label=<((lambda (f5) (f5 #t) (f5 #f)) (lambda (x5) ((lambda (z) (z x1 x2 x3 x4 x5)) (lambda (y1 y2 y3 y4 y5) y1))))>];
263[xlabel=263, label=<((lambda (f4) (f4 #t) (f4 #f)) (lambda (x4) ((lambda (f5) (f5 #t) (f5 #f)) (lambda (x5) ((lambda (z) (z x1 x2 x3 x4 x5)) (lambda (y1 y2 y3 y4 y5) y1))))))>];
264[xlabel=264, label=<((lambda (f3) (f3 #t) (f3 #f)) (lambda (x3) ((lambda (f4) (f4 #t) (f4 #f)) (lambda (x4) ((lambda (f5) (f5 #t) (f5 #f)) (lambda (x5) ((lambda (z) (z x1 x2 x3 x4 x5)) (lambda (y1 y2 y3 y4 y5) y1))))))))>];
265[xlabel=265, label=<(begin (f3 #t) (f3 #f))>];
266[xlabel=266, label=<(begin (f4 #t) (f4 #f))>];
267[xlabel=267, label=<(begin (f5 #t) (f5 #f))>];
268[xlabel=268, label=<(f3 #t)>];
269[xlabel=269, label=<((lambda (f4) (f4 #t) (f4 #f)) (lambda (x4) ((lambda (f5) (f5 #t) (f5 #f)) (lambda (x5) ((lambda (z) (z x1 x2 x3 x4 x5)) (lambda (y1 y2 y3 y4 y5) y1))))))>];
270[xlabel=270, label=<(begin (f4 #t) (f4 #f))>];
271[xlabel=271, label=<(f4 #t)>];
272[xlabel=272, label=<((lambda (f5) (f5 #t) (f5 #f)) (lambda (x5) ((lambda (z) (z x1 x2 x3 x4 x5)) (lambda (y1 y2 y3 y4 y5) y1))))>];
273[xlabel=273, label=<(begin (f5 #t) (f5 #f))>];
274[xlabel=274, label=<(f5 #t)>];
275[xlabel=275, label=<((lambda (z) (z x1 x2 x3 x4 x5)) (lambda (y1 y2 y3 y4 y5) y1))>];
276[xlabel=276, label=<(z x1 x2 x3 x4 x5)>];
277[xlabel=277, label=<y1>];
278[xlabel=278, label=<ko({#f,#t})>, fillcolor=<#DDDDFF>];
279[xlabel=279, label=<(f5 #f)>];
280[xlabel=280, label=<(f5 #f)>];
281[xlabel=281, label=<(f5 #f)>];
282[xlabel=282, label=<(f5 #f)>];
283[xlabel=283, label=<((lambda (z) (z x1 x2 x3 x4 x5)) (lambda (y1 y2 y3 y4 y5) y1))>];
284[xlabel=284, label=<((lambda (z) (z x1 x2 x3 x4 x5)) (lambda (y1 y2 y3 y4 y5) y1))>];
285[xlabel=285, label=<((lambda (z) (z x1 x2 x3 x4 x5)) (lambda (y1 y2 y3 y4 y5) y1))>];
286[xlabel=286, label=<((lambda (z) (z x1 x2 x3 x4 x5)) (lambda (y1 y2 y3 y4 y5) y1))>];
287[xlabel=287, label=<(z x1 x2 x3 x4 x5)>];
288[xlabel=288, label=<(z x1 x2 x3 x4 x5)>];
289[xlabel=289, label=<(z x1 x2 x3 x4 x5)>];
290[xlabel=290, label=<(z x1 x2 x3 x4 x5)>];
291[xlabel=291, label=<y1>];
292[xlabel=292, label=<y1>];
293[xlabel=293, label=<y1>];
294[xlabel=294, label=<y1>];
295[xlabel=295, label=<ko({#f,#t})>, fillcolor=<#DDDDFF>];
296[xlabel=296, label=<ko({#f,#t})>, fillcolor=<#DDDDFF>];
297[xlabel=297, label=<ko({#f,#t})>, fillcolor=<#DDDDFF>];
298[xlabel=298, label=<ko({#f,#t})>, fillcolor=<#DDDDFF>];
299[xlabel=299, label=<(f4 #f)>];
300[xlabel=300, label=<(f4 #f)>];
301[xlabel=301, label=<(f4 #f)>];
302[xlabel=302, label=<(f3 #f)>];
303[xlabel=303, label=<(f3 #f)>];
304[xlabel=304, label=<(f2 #f)>];
305[xlabel=305, label=<(f2 #f)>];
306[xlabel=306, label=<(f1 #f)>];
307[xlabel=307, label=<((lambda (f2) (f2 #t) (f2 #f)) (lambda (x2) ((lambda (f3) (f3 #t) (f3 #f)) (lambda (x3) ((lambda (f4) (f4 #t) (f4 #f)) (lambda (x4) ((lambda (f5) (f5 #t) (f5 #f)) (lambda (x5) ((lambda (z) (z x1 x2 x3 x4 x5)) (lambda (y1 y2 y3 y4 y5) y1))))))))))>];
308[xlabel=308, label=<((lambda (f3) (f3 #t) (f3 #f)) (lambda (x3) ((lambda (f4) (f4 #t) (f4 #f)) (lambda (x4) ((lambda (f5) (f5 #t) (f5 #f)) (lambda (x5) ((lambda (z) (z x1 x2 x3 x4 x5)) (lambda (y1 y2 y3 y4 y5) y1))))))))>];
309[xlabel=309, label=<((lambda (f3) (f3 #t) (f3 #f)) (lambda (x3) ((lambda (f4) (f4 #t) (f4 #f)) (lambda (x4) ((lambda (f5) (f5 #t) (f5 #f)) (lambda (x5) ((lambda (z) (z x1 x2 x3 x4 x5)) (lambda (y1 y2 y3 y4 y5) y1))))))))>];
310[xlabel=310, label=<((lambda (f4) (f4 #t) (f4 #f)) (lambda (x4) ((lambda (f5) (f5 #t) (f5 #f)) (lambda (x5) ((lambda (z) (z x1 x2 x3 x4 x5)) (lambda (y1 y2 y3 y4 y5) y1))))))>];
311[xlabel=311, label=<((lambda (f4) (f4 #t) (f4 #f)) (lambda (x4) ((lambda (f5) (f5 #t) (f5 #f)) (lambda (x5) ((lambda (z) (z x1 x2 x3 x4 x5)) (lambda (y1 y2 y3 y4 y5) y1))))))>];
312[xlabel=312, label=<((lambda (f5) (f5 #t) (f5 #f)) (lambda (x5) ((lambda (z) (z x1 x2 x3 x4 x5)) (lambda (y1 y2 y3 y4 y5) y1))))>];
313[xlabel=313, label=<((lambda (f5) (f5 #t) (f5 #f)) (lambda (x5) ((lambda (z) (z x1 x2 x3 x4 x5)) (lambda (y1 y2 y3 y4 y5) y1))))>];
314[xlabel=314, label=<((lambda (f5) (f5 #t) (f5 #f)) (lambda (x5) ((lambda (z) (z x1 x2 x3 x4 x5)) (lambda (y1 y2 y3 y4 y5) y1))))>];
315[xlabel=315, label=<(begin (f5 #t) (f5 #f))>];
316[xlabel=316, label=<(begin (f5 #t) (f5 #f))>];
317[xlabel=317, label=<(begin (f5 #t) (f5 #f))>];
318[xlabel=318, label=<(begin (f4 #t) (f4 #f))>];
319[xlabel=319, label=<(begin (f4 #t) (f4 #f))>];
320[xlabel=320, label=<(begin (f3 #t) (f3 #f))>];
321[xlabel=321, label=<(begin (f3 #t) (f3 #f))>];
322[xlabel=322, label=<(begin (f2 #t) (f2 #f))>];
323[xlabel=323, label=<(f2 #t)>];
324[xlabel=324, label=<(f3 #t)>];
325[xlabel=325, label=<(f3 #t)>];
326[xlabel=326, label=<(f4 #t)>];
327[xlabel=327, label=<(f5 #t)>];
328[xlabel=328, label=<((lambda (z) (z x1 x2 x3 x4 x5)) (lambda (y1 y2 y3 y4 y5) y1))>];
329[xlabel=329, label=<((lambda (f5) (f5 #t) (f5 #f)) (lambda (x5) ((lambda (z) (z x1 x2 x3 x4 x5)) (lambda (y1 y2 y3 y4 y5) y1))))>];
330[xlabel=330, label=<((lambda (f4) (f4 #t) (f4 #f)) (lambda (x4) ((lambda (f5) (f5 #t) (f5 #f)) (lambda (x5) ((lambda (z) (z x1 x2 x3 x4 x5)) (lambda (y1 y2 y3 y4 y5) y1))))))>];
331[xlabel=331, label=<((lambda (f4) (f4 #t) (f4 #f)) (lambda (x4) ((lambda (f5) (f5 #t) (f5 #f)) (lambda (x5) ((lambda (z) (z x1 x2 x3 x4 x5)) (lambda (y1 y2 y3 y4 y5) y1))))))>];
332[xlabel=332, label=<((lambda (f3) (f3 #t) (f3 #f)) (lambda (x3) ((lambda (f4) (f4 #t) (f4 #f)) (lambda (x4) ((lambda (f5) (f5 #t) (f5 #f)) (lambda (x5) ((lambda (z) (z x1 x2 x3 x4 x5)) (lambda (y1 y2 y3 y4 y5) y1))))))))>];
333[xlabel=333, label=<(begin (f3 #t) (f3 #f))>];
334[xlabel=334, label=<(begin (f4 #t) (f4 #f))>];
335[xlabel=335, label=<(begin (f4 #t) (f4 #f))>];
336[xlabel=336, label=<(begin (f5 #t) (f5 #f))>];
337[xlabel=337, label=<(z x1 x2 x3 x4 x5)>];
338[xlabel=338, label=<(f4 #t)>];
339[xlabel=339, label=<((lambda (f5) (f5 #t) (f5 #f)) (lambda (x5) ((lambda (z) (z x1 x2 x3 x4 x5)) (lambda (y1 y2 y3 y4 y5) y1))))>];
340[xlabel=340, label=<(begin (f5 #t) (f5 #f))>];
341[xlabel=341, label=<(f5 #t)>];
342[xlabel=342, label=<((lambda (z) (z x1 x2 x3 x4 x5)) (lambda (y1 y2 y3 y4 y5) y1))>];
343[xlabel=343, label=<(z x1 x2 x3 x4 x5)>];
344[xlabel=344, label=<y1>];
345[xlabel=345, label=<ko({#f,#t})>, fillcolor=<#DDDDFF>];
346[xlabel=346, label=<(f5 #f)>];
347[xlabel=347, label=<(f5 #f)>];
348[xlabel=348, label=<(f5 #f)>];
349[xlabel=349, label=<(f5 #f)>];
350[xlabel=350, label=<((lambda (z) (z x1 x2 x3 x4 x5)) (lambda (y1 y2 y3 y4 y5) y1))>];
351[xlabel=351, label=<((lambda (z) (z x1 x2 x3 x4 x5)) (lambda (y1 y2 y3 y4 y5) y1))>];
352[xlabel=352, label=<((lambda (z) (z x1 x2 x3 x4 x5)) (lambda (y1 y2 y3 y4 y5) y1))>];
353[xlabel=353, label=<((lambda (z) (z x1 x2 x3 x4 x5)) (lambda (y1 y2 y3 y4 y5) y1))>];
354[xlabel=354, label=<(z x1 x2 x3 x4 x5)>];
355[xlabel=355, label=<(z x1 x2 x3 x4 x5)>];
356[xlabel=356, label=<(z x1 x2 x3 x4 x5)>];
357[xlabel=357, label=<(z x1 x2 x3 x4 x5)>];
358[xlabel=358, label=<y1>];
359[xlabel=359, label=<y1>];
360[xlabel=360, label=<y1>];
361[xlabel=361, label=<y1>];
362[xlabel=362, label=<ko({#f,#t})>, fillcolor=<#DDDDFF>];
363[xlabel=363, label=<ko({#f,#t})>, fillcolor=<#DDDDFF>];
364[xlabel=364, label=<ko({#f,#t})>, fillcolor=<#DDDDFF>];
365[xlabel=365, label=<ko({#f,#t})>, fillcolor=<#DDDDFF>];
366[xlabel=366, label=<(f4 #f)>];
367[xlabel=367, label=<(f4 #f)>];
368[xlabel=368, label=<(f4 #f)>];
369[xlabel=369, label=<(f3 #f)>];
370[xlabel=370, label=<(f3 #f)>];
371[xlabel=371, label=<(f3 #f)>];
372[xlabel=372, label=<(f2 #f)>];
373[xlabel=373, label=<(f2 #f)>];
374[xlabel=374, label=<(f1 #f)>];
375[xlabel=375, label=<((lambda (f2) (f2 #t) (f2 #f)) (lambda (x2) ((lambda (f3) (f3 #t) (f3 #f)) (lambda (x3) ((lambda (f4) (f4 #t) (f4 #f)) (lambda (x4) ((lambda (f5) (f5 #t) (f5 #f)) (lambda (x5) ((lambda (z) (z x1 x2 x3 x4 x5)) (lambda (y1 y2 y3 y4 y5) y1))))))))))>];
376[xlabel=376, label=<((lambda (f3) (f3 #t) (f3 #f)) (lambda (x3) ((lambda (f4) (f4 #t) (f4 #f)) (lambda (x4) ((lambda (f5) (f5 #t) (f5 #f)) (lambda (x5) ((lambda (z) (z x1 x2 x3 x4 x5)) (lambda (y1 y2 y3 y4 y5) y1))))))))>];
377[xlabel=377, label=<((lambda (f3) (f3 #t) (f3 #f)) (lambda (x3) ((lambda (f4) (f4 #t) (f4 #f)) (lambda (x4) ((lambda (f5) (f5 #t) (f5 #f)) (lambda (x5) ((lambda (z) (z x1 x2 x3 x4 x5)) (lambda (y1 y2 y3 y4 y5) y1))))))))>];
378[xlabel=378, label=<((lambda (f4) (f4 #t) (f4 #f)) (lambda (x4) ((lambda (f5) (f5 #t) (f5 #f)) (lambda (x5) ((lambda (z) (z x1 x2 x3 x4 x5)) (lambda (y1 y2 y3 y4 y5) y1))))))>];
379[xlabel=379, label=<((lambda (f4) (f4 #t) (f4 #f)) (lambda (x4) ((lambda (f5) (f5 #t) (f5 #f)) (lambda (x5) ((lambda (z) (z x1 x2 x3 x4 x5)) (lambda (y1 y2 y3 y4 y5) y1))))))>];
380[xlabel=380, label=<((lambda (f4) (f4 #t) (f4 #f)) (lambda (x4) ((lambda (f5) (f5 #t) (f5 #f)) (lambda (x5) ((lambda (z) (z x1 x2 x3 x4 x5)) (lambda (y1 y2 y3 y4 y5) y1))))))>];
381[xlabel=381, label=<((lambda (f5) (f5 #t) (f5 #f)) (lambda (x5) ((lambda (z) (z x1 x2 x3 x4 x5)) (lambda (y1 y2 y3 y4 y5) y1))))>];
382[xlabel=382, label=<((lambda (f5) (f5 #t) (f5 #f)) (lambda (x5) ((lambda (z) (z x1 x2 x3 x4 x5)) (lambda (y1 y2 y3 y4 y5) y1))))>];
383[xlabel=383, label=<((lambda (f5) (f5 #t) (f5 #f)) (lambda (x5) ((lambda (z) (z x1 x2 x3 x4 x5)) (lambda (y1 y2 y3 y4 y5) y1))))>];
384[xlabel=384, label=<(begin (f5 #t) (f5 #f))>];
385[xlabel=385, label=<(begin (f5 #t) (f5 #f))>];
386[xlabel=386, label=<(begin (f5 #t) (f5 #f))>];
387[xlabel=387, label=<(begin (f4 #t) (f4 #f))>];
388[xlabel=388, label=<(begin (f4 #t) (f4 #f))>];
389[xlabel=389, label=<(begin (f4 #t) (f4 #f))>];
390[xlabel=390, label=<(begin (f3 #t) (f3 #f))>];
391[xlabel=391, label=<(begin (f3 #t) (f3 #f))>];
392[xlabel=392, label=<(begin (f2 #t) (f2 #f))>];
393[xlabel=393, label=<(f2 #t)>];
394[xlabel=394, label=<(f4 #t)>];
395[xlabel=395, label=<((lambda (f5) (f5 #t) (f5 #f)) (lambda (x5) ((lambda (z) (z x1 x2 x3 x4 x5)) (lambda (y1 y2 y3 y4 y5) y1))))>];
396[xlabel=396, label=<((lambda (f3) (f3 #t) (f3 #f)) (lambda (x3) ((lambda (f4) (f4 #t) (f4 #f)) (lambda (x4) ((lambda (f5) (f5 #t) (f5 #f)) (lambda (x5) ((lambda (z) (z x1 x2 x3 x4 x5)) (lambda (y1 y2 y3 y4 y5) y1))))))))>];
397[xlabel=397, label=<(begin (f3 #t) (f3 #f))>];
398[xlabel=398, label=<(begin (f5 #t) (f5 #f))>];
399[xlabel=399, label=<(f5 #t)>];
400[xlabel=400, label=<((lambda (z) (z x1 x2 x3 x4 x5)) (lambda (y1 y2 y3 y4 y5) y1))>];
401[xlabel=401, label=<(z x1 x2 x3 x4 x5)>];
402[xlabel=402, label=<y1>];
403[xlabel=403, label=<ko({#f,#t})>, fillcolor=<#DDDDFF>];
404[xlabel=404, label=<(f5 #f)>];
405[xlabel=405, label=<(f5 #f)>];
406[xlabel=406, label=<(f5 #f)>];
407[xlabel=407, label=<(f5 #f)>];
408[xlabel=408, label=<((lambda (z) (z x1 x2 x3 x4 x5)) (lambda (y1 y2 y3 y4 y5) y1))>];
409[xlabel=409, label=<((lambda (z) (z x1 x2 x3 x4 x5)) (lambda (y1 y2 y3 y4 y5) y1))>];
410[xlabel=410, label=<((lambda (z) (z x1 x2 x3 x4 x5)) (lambda (y1 y2 y3 y4 y5) y1))>];
411[xlabel=411, label=<((lambda (z) (z x1 x2 x3 x4 x5)) (lambda (y1 y2 y3 y4 y5) y1))>];
412[xlabel=412, label=<(z x1 x2 x3 x4 x5)>];
413[xlabel=413, label=<(z x1 x2 x3 x4 x5)>];
414[xlabel=414, label=<(z x1 x2 x3 x4 x5)>];
415[xlabel=415, label=<(z x1 x2 x3 x4 x5)>];
416[xlabel=416, label=<y1>];
417[xlabel=417, label=<y1>];
418[xlabel=418, label=<y1>];
419[xlabel=419, label=<y1>];
420[xlabel=420, label=<ko({#f,#t})>, fillcolor=<#DDDDFF>];
421[xlabel=421, label=<ko({#f,#t})>, fillcolor=<#DDDDFF>];
422[xlabel=422, label=<ko({#f,#t})>, fillcolor=<#DDDDFF>];
423[xlabel=423, label=<ko({#f,#t})>, fillcolor=<#DDDDFF>];
424[xlabel=424, label=<(f4 #f)>];
425[xlabel=425, label=<(f4 #f)>];
426[xlabel=426, label=<(f4 #f)>];
427[xlabel=427, label=<(f4 #f)>];
428[xlabel=428, label=<(f3 #f)>];
429[xlabel=429, label=<(f3 #f)>];
430[xlabel=430, label=<(f3 #f)>];
431[xlabel=431, label=<(f2 #f)>];
432[xlabel=432, label=<(f2 #f)>];
433[xlabel=433, label=<(f1 #f)>];
434[xlabel=434, label=<((lambda (f2) (f2 #t) (f2 #f)) (lambda (x2) ((lambda (f3) (f3 #t) (f3 #f)) (lambda (x3) ((lambda (f4) (f4 #t) (f4 #f)) (lambda (x4) ((lambda (f5) (f5 #t) (f5 #f)) (lambda (x5) ((lambda (z) (z x1 x2 x3 x4 x5)) (lambda (y1 y2 y3 y4 y5) y1))))))))))>];
435[xlabel=435, label=<((lambda (f3) (f3 #t) (f3 #f)) (lambda (x3) ((lambda (f4) (f4 #t) (f4 #f)) (lambda (x4) ((lambda (f5) (f5 #t) (f5 #f)) (lambda (x5) ((lambda (z) (z x1 x2 x3 x4 x5)) (lambda (y1 y2 y3 y4 y5) y1))))))))>];
436[xlabel=436, label=<((lambda (f3) (f3 #t) (f3 #f)) (lambda (x3) ((lambda (f4) (f4 #t) (f4 #f)) (lambda (x4) ((lambda (f5) (f5 #t) (f5 #f)) (lambda (x5) ((lambda (z) (z x1 x2 x3 x4 x5)) (lambda (y1 y2 y3 y4 y5) y1))))))))>];
437[xlabel=437, label=<((lambda (f4) (f4 #t) (f4 #f)) (lambda (x4) ((lambda (f5) (f5 #t) (f5 #f)) (lambda (x5) ((lambda (z) (z x1 x2 x3 x4 x5)) (lambda (y1 y2 y3 y4 y5) y1))))))>];
438[xlabel=438, label=<((lambda (f4) (f4 #t) (f4 #f)) (lambda (x4) ((lambda (f5) (f5 #t) (f5 #f)) (lambda (x5) ((lambda (z) (z x1 x2 x3 x4 x5)) (lambda (y1 y2 y3 y4 y5) y1))))))>];
439[xlabel=439, label=<((lambda (f4) (f4 #t) (f4 #f)) (lambda (x4) ((lambda (f5) (f5 #t) (f5 #f)) (lambda (x5) ((lambda (z) (z x1 x2 x3 x4 x5)) (lambda (y1 y2 y3 y4 y5) y1))))))>];
440[xlabel=440, label=<((lambda (f5) (f5 #t) (f5 #f)) (lambda (x5) ((lambda (z) (z x1 x2 x3 x4 x5)) (lambda (y1 y2 y3 y4 y5) y1))))>];
441[xlabel=441, label=<((lambda (f5) (f5 #t) (f5 #f)) (lambda (x5) ((lambda (z) (z x1 x2 x3 x4 x5)) (lambda (y1 y2 y3 y4 y5) y1))))>];
442[xlabel=442, label=<((lambda (f5) (f5 #t) (f5 #f)) (lambda (x5) ((lambda (z) (z x1 x2 x3 x4 x5)) (lambda (y1 y2 y3 y4 y5) y1))))>];
443[xlabel=443, label=<((lambda (f5) (f5 #t) (f5 #f)) (lambda (x5) ((lambda (z) (z x1 x2 x3 x4 x5)) (lambda (y1 y2 y3 y4 y5) y1))))>];
444[xlabel=444, label=<(begin (f5 #t) (f5 #f))>];
445[xlabel=445, label=<(begin (f5 #t) (f5 #f))>];
446[xlabel=446, label=<(begin (f5 #t) (f5 #f))>];
447[xlabel=447, label=<(begin (f5 #t) (f5 #f))>];
448[xlabel=448, label=<(begin (f4 #t) (f4 #f))>];
449[xlabel=449, label=<(begin (f4 #t) (f4 #f))>];
450[xlabel=450, label=<(begin (f4 #t) (f4 #f))>];
451[xlabel=451, label=<(begin (f3 #t) (f3 #f))>];
452[xlabel=452, label=<(begin (f3 #t) (f3 #f))>];
453[xlabel=453, label=<(begin (f2 #t) (f2 #f))>];
454[xlabel=454, label=<(f2 #t)>];
455[xlabel=455, label=<(f3 #t)>];
456[xlabel=456, label=<(f5 #t)>];
457[xlabel=457, label=<((lambda (z) (z x1 x2 x3 x4 x5)) (lambda (y1 y2 y3 y4 y5) y1))>];
458[xlabel=458, label=<((lambda (f4) (f4 #t) (f4 #f)) (lambda (x4) ((lambda (f5) (f5 #t) (f5 #f)) (lambda (x5) ((lambda (z) (z x1 x2 x3 x4 x5)) (lambda (y1 y2 y3 y4 y5) y1))))))>];
459[xlabel=459, label=<((lambda (f3) (f3 #t) (f3 #f)) (lambda (x3) ((lambda (f4) (f4 #t) (f4 #f)) (lambda (x4) ((lambda (f5) (f5 #t) (f5 #f)) (lambda (x5) ((lambda (z) (z x1 x2 x3 x4 x5)) (lambda (y1 y2 y3 y4 y5) y1))))))))>];
460[xlabel=460, label=<(begin (f3 #t) (f3 #f))>];
461[xlabel=461, label=<(begin (f4 #t) (f4 #f))>];
462[xlabel=462, label=<(z x1 x2 x3 x4 x5)>];
463[xlabel=463, label=<y1>];
464[xlabel=464, label=<ko({#f,#t})>, fillcolor=<#DDDDFF>];
465[xlabel=465, label=<(f5 #f)>];
466[xlabel=466, label=<(f5 #f)>];
467[xlabel=467, label=<(f5 #f)>];
468[xlabel=468, label=<(f5 #f)>];
469[xlabel=469, label=<(f5 #f)>];
470[xlabel=470, label=<((lambda (z) (z x1 x2 x3 x4 x5)) (lambda (y1 y2 y3 y4 y5) y1))>];
471[xlabel=471, label=<((lambda (z) (z x1 x2 x3 x4 x5)) (lambda (y1 y2 y3 y4 y5) y1))>];
472[xlabel=472, label=<((lambda (z) (z x1 x2 x3 x4 x5)) (lambda (y1 y2 y3 y4 y5) y1))>];
473[xlabel=473, label=<((lambda (z) (z x1 x2 x3 x4 x5)) (lambda (y1 y2 y3 y4 y5) y1))>];
474[xlabel=474, label=<((lambda (z) (z x1 x2 x3 x4 x5)) (lambda (y1 y2 y3 y4 y5) y1))>];
475[xlabel=475, label=<(z x1 x2 x3 x4 x5)>];
476[xlabel=476, label=<(z x1 x2 x3 x4 x5)>];
477[xlabel=477, label=<(z x1 x2 x3 x4 x5)>];
478[xlabel=478, label=<(z x1 x2 x3 x4 x5)>];
479[xlabel=479, label=<(z x1 x2 x3 x4 x5)>];
480[xlabel=480, label=<y1>];
481[xlabel=481, label=<y1>];
482[xlabel=482, label=<y1>];
483[xlabel=483, label=<y1>];
484[xlabel=484, label=<y1>];
485[xlabel=485, label=<ko({#f,#t})>, fillcolor=<#DDDDFF>];
486[xlabel=486, label=<ko({#f,#t})>, fillcolor=<#DDDDFF>];
487[xlabel=487, label=<ko({#f,#t})>, fillcolor=<#DDDDFF>];
488[xlabel=488, label=<ko({#f,#t})>, fillcolor=<#FFFFAA>];
489[xlabel=489, label=<ko({#f,#t})>, fillcolor=<#DDDDFF>];
490[xlabel=490, label=<(f1 #f)>];
491[xlabel=491, label=<(f3 #f)>];
492[xlabel=492, label=<(f3 #f)>];
493[xlabel=493, label=<(f3 #f)>];
494[xlabel=494, label=<(f4 #f)>];
495[xlabel=495, label=<(f4 #f)>];
496[xlabel=496, label=<(f4 #f)>];
497[xlabel=497, label=<(f4 #f)>];
498[xlabel=498, label=<(f2 #f)>];
499[xlabel=499, label=<(f2 #f)>];
500[xlabel=500, label=<((lambda (f3) (f3 #t) (f3 #f)) (lambda (x3) ((lambda (f4) (f4 #t) (f4 #f)) (lambda (x4) ((lambda (f5) (f5 #t) (f5 #f)) (lambda (x5) ((lambda (z) (z x1 x2 x3 x4 x5)) (lambda (y1 y2 y3 y4 y5) y1))))))))>];
501[xlabel=501, label=<((lambda (f3) (f3 #t) (f3 #f)) (lambda (x3) ((lambda (f4) (f4 #t) (f4 #f)) (lambda (x4) ((lambda (f5) (f5 #t) (f5 #f)) (lambda (x5) ((lambda (z) (z x1 x2 x3 x4 x5)) (lambda (y1 y2 y3 y4 y5) y1))))))))>];
502[xlabel=502, label=<((lambda (f5) (f5 #t) (f5 #f)) (lambda (x5) ((lambda (z) (z x1 x2 x3 x4 x5)) (lambda (y1 y2 y3 y4 y5) y1))))>];
503[xlabel=503, label=<((lambda (f5) (f5 #t) (f5 #f)) (lambda (x5) ((lambda (z) (z x1 x2 x3 x4 x5)) (lambda (y1 y2 y3 y4 y5) y1))))>];
504[xlabel=504, label=<((lambda (f5) (f5 #t) (f5 #f)) (lambda (x5) ((lambda (z) (z x1 x2 x3 x4 x5)) (lambda (y1 y2 y3 y4 y5) y1))))>];
505[xlabel=505, label=<((lambda (f5) (f5 #t) (f5 #f)) (lambda (x5) ((lambda (z) (z x1 x2 x3 x4 x5)) (lambda (y1 y2 y3 y4 y5) y1))))>];
506[xlabel=506, label=<((lambda (f4) (f4 #t) (f4 #f)) (lambda (x4) ((lambda (f5) (f5 #t) (f5 #f)) (lambda (x5) ((lambda (z) (z x1 x2 x3 x4 x5)) (lambda (y1 y2 y3 y4 y5) y1))))))>];
507[xlabel=507, label=<((lambda (f4) (f4 #t) (f4 #f)) (lambda (x4) ((lambda (f5) (f5 #t) (f5 #f)) (lambda (x5) ((lambda (z) (z x1 x2 x3 x4 x5)) (lambda (y1 y2 y3 y4 y5) y1))))))>];
508[xlabel=508, label=<((lambda (f4) (f4 #t) (f4 #f)) (lambda (x4) ((lambda (f5) (f5 #t) (f5 #f)) (lambda (x5) ((lambda (z) (z x1 x2 x3 x4 x5)) (lambda (y1 y2 y3 y4 y5) y1))))))>];
509[xlabel=509, label=<((lambda (f2) (f2 #t) (f2 #f)) (lambda (x2) ((lambda (f3) (f3 #t) (f3 #f)) (lambda (x3) ((lambda (f4) (f4 #t) (f4 #f)) (lambda (x4) ((lambda (f5) (f5 #t) (f5 #f)) (lambda (x5) ((lambda (z) (z x1 x2 x3 x4 x5)) (lambda (y1 y2 y3 y4 y5) y1))))))))))>];
510[xlabel=510, label=<(begin (f2 #t) (f2 #f))>];
511[xlabel=511, label=<(begin (f4 #t) (f4 #f))>];
512[xlabel=512, label=<(begin (f4 #t) (f4 #f))>];
513[xlabel=513, label=<(begin (f4 #t) (f4 #f))>];
514[xlabel=514, label=<(begin (f5 #t) (f5 #f))>];
515[xlabel=515, label=<(begin (f5 #t) (f5 #f))>];
516[xlabel=516, label=<(begin (f5 #t) (f5 #f))>];
517[xlabel=517, label=<(begin (f5 #t) (f5 #f))>];
518[xlabel=518, label=<(begin (f3 #t) (f3 #f))>];
519[xlabel=519, label=<(begin (f3 #t) (f3 #f))>];
520[xlabel=520, label=<(f3 #t)>];
521[xlabel=521, label=<(f4 #t)>];
522[xlabel=522, label=<(f2 #t)>];
523[xlabel=523, label=<((lambda (f3) (f3 #t) (f3 #f)) (lambda (x3) ((lambda (f4) (f4 #t) (f4 #f)) (lambda (x4) ((lambda (f5) (f5 #t) (f5 #f)) (lambda (x5) ((lambda (z) (z x1 x2 x3 x4 x5)) (lambda (y1 y2 y3 y4 y5) y1))))))))>];
524[xlabel=524, label=<((lambda (f5) (f5 #t) (f5 #f)) (lambda (x5) ((lambda (z) (z x1 x2 x3 x4 x5)) (lambda (y1 y2 y3 y4 y5) y1))))>];
525[xlabel=525, label=<((lambda (f4) (f4 #t) (f4 #f)) (lambda (x4) ((lambda (f5) (f5 #t) (f5 #f)) (lambda (x5) ((lambda (z) (z x1 x2 x3 x4 x5)) (lambda (y1 y2 y3 y4 y5) y1))))))>];
526[xlabel=526, label=<(begin (f4 #t) (f4 #f))>];
527[xlabel=527, label=<(begin (f5 #t) (f5 #f))>];
528[xlabel=528, label=<(begin (f3 #t) (f3 #f))>];

0 -> 1;
1 -> 2;
2 -> 3;
3 -> 4;
4 -> 5;
5 -> 6;
6 -> 7;
7 -> 8;
8 -> 9;
9 -> 10;
10 -> 11;
11 -> 12;
12 -> 13;
13 -> 14;
14 -> 15;
15 -> 16;
16 -> 17;
17 -> 18;
18 -> 19;
19 -> 20;
20 -> 21;
21 -> 22;
22 -> 23;
23 -> 24;
24 -> 25;
25 -> 26;
26 -> 27;
27 -> 28;
28 -> 29;
29 -> 30;
30 -> 31;
31 -> 32;
31 -> 33;
32 -> 34;
33 -> 35;
34 -> 37;
35 -> 36;
36 -> 39;
37 -> 38;
38 -> 41;
39 -> 40;
40 -> 43;
41 -> 42;
42 -> 45;
43 -> 44;
44 -> 47;
45 -> 46;
46 -> 49;
47 -> 48;
48 -> 51;
49 -> 50;
50 -> 53;
51 -> 52;
52 -> 54;
53 -> 30;
54 -> 55;
55 -> 56;
56 -> 57;
57 -> 58;
58 -> 59;
58 -> 60;
59 -> 61;
60 -> 62;
61 -> 64;
62 -> 63;
63 -> 66;
64 -> 65;
65 -> 68;
66 -> 67;
67 -> 71;
68 -> 69;
68 -> 70;
69 -> 73;
70 -> 74;
71 -> 72;
72 -> 77;
73 -> 76;
74 -> 75;
75 -> 80;
76 -> 79;
77 -> 78;
78 -> 83;
79 -> 82;
80 -> 81;
81 -> 86;
82 -> 85;
83 -> 84;
84 -> 79;
85 -> 57;
86 -> 87;
87 -> 88;
88 -> 89;
88 -> 90;
88 -> 91;
89 -> 92;
90 -> 93;
91 -> 94;
92 -> 97;
93 -> 96;
94 -> 95;
95 -> 100;
96 -> 99;
97 -> 98;
98 -> 103;
99 -> 102;
100 -> 101;
101 -> 107;
102 -> 106;
103 -> 104;
103 -> 105;
104 -> 110;
105 -> 111;
106 -> 109;
107 -> 108;
108 -> 115;
109 -> 114;
110 -> 113;
111 -> 112;
112 -> 80;
113 -> 80;
114 -> 117;
115 -> 116;
116 -> 119;
117 -> 118;
118 -> 121;
119 -> 120;
120 -> 122;
121 -> 80;
122 -> 123;
123 -> 124;
124 -> 125;
125 -> 126;
126 -> 127;
127 -> 128;
128 -> 129;
129 -> 130;
129 -> 131;
129 -> 132;
130 -> 133;
131 -> 134;
132 -> 135;
133 -> 138;
134 -> 137;
135 -> 136;
136 -> 141;
137 -> 140;
138 -> 139;
139 -> 144;
140 -> 143;
141 -> 142;
142 -> 149;
143 -> 147;
143 -> 148;
144 -> 145;
144 -> 146;
145 -> 153;
146 -> 154;
147 -> 151;
148 -> 152;
149 -> 150;
150 -> 159;
151 -> 158;
152 -> 157;
153 -> 156;
154 -> 155;
155 -> 163;
156 -> 163;
157 -> 162;
158 -> 161;
159 -> 160;
160 -> 167;
161 -> 166;
162 -> 165;
163 -> 164;
164 -> 171;
165 -> 170;
166 -> 169;
167 -> 168;
168 -> 161;
169 -> 163;
170 -> 172;
171 -> 128;
172 -> 173;
173 -> 174;
174 -> 175;
175 -> 176;
176 -> 177;
176 -> 178;
176 -> 179;
177 -> 180;
178 -> 181;
179 -> 182;
180 -> 185;
181 -> 184;
182 -> 183;
183 -> 188;
184 -> 187;
185 -> 186;
186 -> 191;
187 -> 190;
188 -> 189;
189 -> 197;
190 -> 195;
190 -> 196;
191 -> 192;
191 -> 193;
191 -> 194;
192 -> 201;
193 -> 202;
194 -> 203;
195 -> 199;
196 -> 200;
197 -> 198;
198 -> 209;
199 -> 208;
200 -> 207;
201 -> 206;
202 -> 205;
203 -> 204;
204 -> 211;
205 -> 172;
206 -> 172;
207 -> 162;
208 -> 162;
209 -> 210;
210 -> 213;
211 -> 212;
212 -> 215;
213 -> 214;
214 -> 162;
215 -> 216;
216 -> 217;
217 -> 218;
217 -> 219;
217 -> 220;
217 -> 221;
218 -> 222;
219 -> 223;
220 -> 224;
221 -> 225;
222 -> 229;
223 -> 228;
224 -> 227;
225 -> 226;
226 -> 233;
227 -> 232;
228 -> 231;
229 -> 230;
230 -> 237;
231 -> 236;
232 -> 235;
233 -> 234;
234 -> 244;
235 -> 243;
236 -> 241;
236 -> 242;
237 -> 238;
237 -> 239;
237 -> 240;
238 -> 249;
239 -> 250;
240 -> 251;
241 -> 247;
242 -> 248;
243 -> 246;
244 -> 245;
245 -> 258;
246 -> 257;
247 -> 256;
248 -> 255;
249 -> 254;
250 -> 253;
251 -> 252;
252 -> 211;
253 -> 211;
254 -> 211;
255 -> 261;
256 -> 261;
257 -> 260;
258 -> 259;
259 -> 264;
260 -> 263;
261 -> 262;
262 -> 267;
263 -> 266;
264 -> 265;
265 -> 268;
266 -> 261;
267 -> 211;
268 -> 269;
269 -> 270;
270 -> 271;
271 -> 272;
272 -> 273;
273 -> 274;
274 -> 275;
275 -> 276;
276 -> 277;
277 -> 278;
278 -> 279;
278 -> 280;
278 -> 281;
278 -> 282;
279 -> 283;
280 -> 284;
281 -> 285;
282 -> 286;
283 -> 290;
284 -> 289;
285 -> 288;
286 -> 287;
287 -> 294;
288 -> 293;
289 -> 292;
290 -> 291;
291 -> 298;
292 -> 297;
293 -> 296;
294 -> 295;
295 -> 306;
296 -> 304;
296 -> 305;
297 -> 302;
297 -> 303;
298 -> 299;
298 -> 300;
298 -> 301;
299 -> 312;
300 -> 313;
301 -> 314;
302 -> 310;
303 -> 311;
304 -> 308;
305 -> 309;
306 -> 307;
307 -> 322;
308 -> 321;
309 -> 320;
310 -> 319;
311 -> 318;
312 -> 317;
313 -> 316;
314 -> 315;
315 -> 327;
316 -> 327;
317 -> 327;
318 -> 326;
319 -> 326;
320 -> 325;
321 -> 324;
322 -> 323;
323 -> 332;
324 -> 331;
325 -> 330;
326 -> 329;
327 -> 328;
328 -> 337;
329 -> 336;
330 -> 335;
331 -> 334;
332 -> 333;
333 -> 324;
334 -> 326;
335 -> 338;
336 -> 327;
337 -> 277;
338 -> 339;
339 -> 340;
340 -> 341;
341 -> 342;
342 -> 343;
343 -> 344;
344 -> 345;
345 -> 346;
345 -> 347;
345 -> 348;
345 -> 349;
346 -> 350;
347 -> 351;
348 -> 352;
349 -> 353;
350 -> 357;
351 -> 356;
352 -> 355;
353 -> 354;
354 -> 361;
355 -> 360;
356 -> 359;
357 -> 358;
358 -> 365;
359 -> 364;
360 -> 363;
361 -> 362;
362 -> 374;
363 -> 372;
363 -> 373;
364 -> 369;
364 -> 370;
364 -> 371;
365 -> 366;
365 -> 367;
365 -> 368;
366 -> 381;
367 -> 382;
368 -> 383;
369 -> 378;
370 -> 379;
371 -> 380;
372 -> 376;
373 -> 377;
374 -> 375;
375 -> 392;
376 -> 391;
377 -> 390;
378 -> 389;
379 -> 388;
380 -> 387;
381 -> 386;
382 -> 385;
383 -> 384;
384 -> 341;
385 -> 341;
386 -> 341;
387 -> 394;
388 -> 338;
389 -> 338;
390 -> 325;
391 -> 325;
392 -> 393;
393 -> 396;
394 -> 395;
395 -> 398;
396 -> 397;
397 -> 325;
398 -> 399;
399 -> 400;
400 -> 401;
401 -> 402;
402 -> 403;
403 -> 404;
403 -> 405;
403 -> 406;
403 -> 407;
404 -> 408;
405 -> 409;
406 -> 410;
407 -> 411;
408 -> 415;
409 -> 414;
410 -> 413;
411 -> 412;
412 -> 419;
413 -> 418;
414 -> 417;
415 -> 416;
416 -> 423;
417 -> 422;
418 -> 421;
419 -> 420;
420 -> 433;
421 -> 431;
421 -> 432;
422 -> 428;
422 -> 429;
422 -> 430;
423 -> 424;
423 -> 425;
423 -> 426;
423 -> 427;
424 -> 440;
425 -> 441;
426 -> 442;
427 -> 443;
428 -> 437;
429 -> 438;
430 -> 439;
431 -> 435;
432 -> 436;
433 -> 434;
434 -> 453;
435 -> 452;
436 -> 451;
437 -> 450;
438 -> 449;
439 -> 448;
440 -> 447;
441 -> 446;
442 -> 445;
443 -> 444;
444 -> 456;
445 -> 399;
446 -> 399;
447 -> 399;
448 -> 394;
449 -> 394;
450 -> 394;
451 -> 455;
452 -> 455;
453 -> 454;
454 -> 459;
455 -> 458;
456 -> 457;
457 -> 462;
458 -> 461;
459 -> 460;
460 -> 455;
461 -> 394;
462 -> 463;
463 -> 464;
464 -> 465;
464 -> 466;
464 -> 467;
464 -> 468;
464 -> 469;
465 -> 470;
466 -> 471;
467 -> 472;
468 -> 473;
469 -> 474;
470 -> 479;
471 -> 478;
472 -> 477;
473 -> 476;
474 -> 475;
475 -> 484;
476 -> 483;
477 -> 482;
478 -> 481;
479 -> 480;
480 -> 489;
481 -> 488;
482 -> 487;
483 -> 486;
484 -> 485;
485 -> 498;
485 -> 499;
486 -> 494;
486 -> 495;
486 -> 496;
486 -> 497;
487 -> 491;
487 -> 492;
487 -> 493;
489 -> 490;
490 -> 509;
491 -> 506;
492 -> 507;
493 -> 508;
494 -> 502;
495 -> 503;
496 -> 504;
497 -> 505;
498 -> 500;
499 -> 501;
500 -> 519;
501 -> 518;
502 -> 517;
503 -> 516;
504 -> 515;
505 -> 514;
506 -> 513;
507 -> 512;
508 -> 511;
509 -> 510;
510 -> 522;
511 -> 521;
512 -> 521;
513 -> 521;
514 -> 456;
515 -> 456;
516 -> 456;
517 -> 456;
518 -> 520;
519 -> 520;
520 -> 525;
521 -> 524;
522 -> 523;
523 -> 528;
524 -> 527;
525 -> 526;
526 -> 521;
527 -> 456;
528 -> 520;
}
