digraph "Scala-Par-AM Scheme-examples/other/infinite-2.scm" {
  node[shape=box, style=filled, fillcolor=<#DDFFDD>];

stats[style=rounded, label="# nodes: 6\l# edges: 6\lgraph density: 0.200\loutdegree positive min: 1\loutdegree max: 1\loutdegree avg: 1.000\l"];
config[style=rounded, label="lattice: TypeSet\lbound: 100\laddress: Classical\lstep\lmachine: SeqAAMLS\l"]

0[xlabel=0, label=<(letrec ((t (lambda (x) (t (+ x 1))))) (t 0))>, fillcolor=<#AAFFAA>];
1[xlabel=1, label=<(t 0)>];
2[xlabel=2, label=<(t (+ x 1))>];
3[xlabel=3, label=<(+ x 1)>];
4[xlabel=4, label=<ko(Int)>, fillcolor=<#DDDDFF>];
5[xlabel=5, label=<(t (+ x 1))>];

0 -> 1;
1 -> 2;
2 -> 3;
3 -> 4;
4 -> 5;
5 -> 3;
}
