digraph "Scala-Par-AM Scheme-examples/SCPI/9.13.scm" {
  node[shape=box, style=filled, fillcolor=<#DDFFDD>];

stats[style=rounded, label="# nodes: 721\l# edges: 777\lgraph density: 0.001\loutdegree positive min: 1\loutdegree max: 5\loutdegree avg: 1.078\l"];
config[style=rounded, label="lattice: TypeSet\lbound: 100\laddress: Classical\lstep\lmachine: SeqAAMLS\l"]

0[xlabel=0, label=<(letrec ((result '()) (display (lambda (i) (set! result (cons i result)))) (kw-lijst (lambda (lst) (letrec ((loop (lambda (l) (let ((rest (cdr l)) (n (list (* (car l) (car l))))) (set-cdr! l n) (set-cdr! n rest) (if (not (eq? rest lst)) (loop rest) #f))))) (loop lst) lst))) (print-ring (lambda (r) (letrec ((aux (lambda (l) (if (not (null? l)) (if (eq? (cdr l) r) (begin (display " ") (display (car l)) (display "...")) (begin (display " ") (display (car l)) (aux (cdr l)))) #f)))) (aux r) #t))) (last-cons (cons 3 '())) (test-lst (cons 1 (cons 4 last-cons)))) (set-cdr! last-cons test-lst) (print-ring (kw-lijst test-lst)) (equal? result '("..." 9 " " 3 " " 16 " " 4 " " 1 " " 1 " ")))>, fillcolor=<#AAFFAA>];
1[xlabel=1, label=<'()>];
2[xlabel=2, label=<ko(())>, fillcolor=<#DDDDFF>];
3[xlabel=3, label=<(cons 3 '())>];
4[xlabel=4, label=<'()>];
5[xlabel=5, label=<ko(())>, fillcolor=<#DDDDFF>];
6[xlabel=6, label=<ko(Cons(@3-Time(),@'()-Time()))>, fillcolor=<#DDDDFF>];
7[xlabel=7, label=<(cons 1 (cons 4 last-cons))>];
8[xlabel=8, label=<(cons 4 last-cons)>];
9[xlabel=9, label=<ko(Cons(@4-Time(),@last-cons-Time()))>, fillcolor=<#DDDDFF>];
10[xlabel=10, label=<ko(Cons(@1-Time(),@(cons 4 last-cons)-Time()))>, fillcolor=<#DDDDFF>];
11[xlabel=11, label=<(set-cdr! last-cons test-lst)>];
12[xlabel=12, label=<ko(#f)>, fillcolor=<#DDDDFF>];
13[xlabel=13, label=<(print-ring (kw-lijst test-lst))>];
14[xlabel=14, label=<(kw-lijst test-lst)>];
15[xlabel=15, label=<(letrec ((loop (lambda (l) (let ((rest (cdr l)) (n (list (* (car l) (car l))))) (set-cdr! l n) (set-cdr! n rest) (if (not (eq? rest lst)) (loop rest) #f))))) (loop lst) lst)>];
16[xlabel=16, label=<(loop lst)>];
17[xlabel=17, label=<(let ((rest (cdr l)) (n (list (* (car l) (car l))))) (set-cdr! l n) (set-cdr! n rest) (if (not (eq? rest lst)) (loop rest) #f))>];
18[xlabel=18, label=<(cdr l)>];
19[xlabel=19, label=<ko(Cons(@4-Time(),@last-cons-Time()))>, fillcolor=<#DDDDFF>];
20[xlabel=20, label=<(list (* (car l) (car l)))>];
21[xlabel=21, label=<(* (car l) (car l))>];
22[xlabel=22, label=<(car l)>];
23[xlabel=23, label=<ko(Int)>, fillcolor=<#DDDDFF>];
24[xlabel=24, label=<(car l)>];
25[xlabel=25, label=<ko(Int)>, fillcolor=<#DDDDFF>];
26[xlabel=26, label=<ko(Int)>, fillcolor=<#DDDDFF>];
27[xlabel=27, label=<ko(Cons(@(* (car l) (car l))-Time(),@_nil_-Time()))>, fillcolor=<#DDDDFF>];
28[xlabel=28, label=<(set-cdr! l n)>];
29[xlabel=29, label=<ko(#f)>, fillcolor=<#DDDDFF>];
30[xlabel=30, label=<(set-cdr! n rest)>];
31[xlabel=31, label=<ko(#f)>, fillcolor=<#DDDDFF>];
32[xlabel=32, label=<(if (not (eq? rest lst)) (loop rest) #f)>];
33[xlabel=33, label=<(not (eq? rest lst))>];
34[xlabel=34, label=<(eq? rest lst)>];
35[xlabel=35, label=<ko(#f)>, fillcolor=<#DDDDFF>];
36[xlabel=36, label=<ko(#t)>, fillcolor=<#DDDDFF>];
37[xlabel=37, label=<(loop rest)>];
38[xlabel=38, label=<(let ((rest (cdr l)) (n (list (* (car l) (car l))))) (set-cdr! l n) (set-cdr! n rest) (if (not (eq? rest lst)) (loop rest) #f))>];
39[xlabel=39, label=<(cdr l)>];
40[xlabel=40, label=<ko({Cons(@3-Time(),@'()-Time()),Cons(@4-Time(),@last-cons-Time()),Cons(@(* (car l) (car l))-Time(),@_nil_-Time())})>, fillcolor=<#DDDDFF>];
41[xlabel=41, label=<(list (* (car l) (car l)))>];
42[xlabel=42, label=<(* (car l) (car l))>];
43[xlabel=43, label=<(car l)>];
44[xlabel=44, label=<ko(Int)>, fillcolor=<#DDDDFF>];
45[xlabel=45, label=<(car l)>];
46[xlabel=46, label=<ko(Int)>, fillcolor=<#DDDDFF>];
47[xlabel=47, label=<ko(Int)>, fillcolor=<#DDDDFF>];
48[xlabel=48, label=<ko(Cons(@(* (car l) (car l))-Time(),@_nil_-Time()))>, fillcolor=<#DDDDFF>];
49[xlabel=49, label=<(set-cdr! l n)>];
50[xlabel=50, label=<(set-cdr! l n)>];
51[xlabel=51, label=<ko(#f)>, fillcolor=<#DDDDFF>];
52[xlabel=52, label=<ko(#f)>, fillcolor=<#DDDDFF>];
53[xlabel=53, label=<(set-cdr! n rest)>];
54[xlabel=54, label=<(set-cdr! n rest)>];
55[xlabel=55, label=<ko(#f)>, fillcolor=<#DDDDFF>];
56[xlabel=56, label=<ko(#f)>, fillcolor=<#DDDDFF>];
57[xlabel=57, label=<(if (not (eq? rest lst)) (loop rest) #f)>];
58[xlabel=58, label=<(if (not (eq? rest lst)) (loop rest) #f)>];
59[xlabel=59, label=<(not (eq? rest lst))>];
60[xlabel=60, label=<(not (eq? rest lst))>];
61[xlabel=61, label=<(eq? rest lst)>];
62[xlabel=62, label=<(eq? rest lst)>];
63[xlabel=63, label=<ko(#f)>, fillcolor=<#DDDDFF>];
64[xlabel=64, label=<ko(#f)>, fillcolor=<#DDDDFF>];
65[xlabel=65, label=<ko(#t)>, fillcolor=<#DDDDFF>];
66[xlabel=66, label=<ko(#t)>, fillcolor=<#DDDDFF>];
67[xlabel=67, label=<(loop rest)>];
68[xlabel=68, label=<(loop rest)>];
69[xlabel=69, label=<(let ((rest (cdr l)) (n (list (* (car l) (car l))))) (set-cdr! l n) (set-cdr! n rest) (if (not (eq? rest lst)) (loop rest) #f))>];
70[xlabel=70, label=<(let ((rest (cdr l)) (n (list (* (car l) (car l))))) (set-cdr! l n) (set-cdr! n rest) (if (not (eq? rest lst)) (loop rest) #f))>];
71[xlabel=71, label=<(cdr l)>];
72[xlabel=72, label=<(cdr l)>];
73[xlabel=73, label=<ko({(),Cons(@1-Time(),@(cons 4 last-cons)-Time()),Cons(@(* (car l) (car l))-Time(),@_nil_-Time()),Cons(@3-Time(),@'()-Time()),Cons(@4-Time(),@last-cons-Time())})>, fillcolor=<#DDDDFF>];
74[xlabel=74, label=<ko({Cons(@(* (car l) (car l))-Time(),@_nil_-Time()),Cons(@4-Time(),@last-cons-Time()),Cons(@3-Time(),@'()-Time())})>, fillcolor=<#DDDDFF>];
75[xlabel=75, label=<(list (* (car l) (car l)))>];
76[xlabel=76, label=<(list (* (car l) (car l)))>];
77[xlabel=77, label=<(* (car l) (car l))>];
78[xlabel=78, label=<(* (car l) (car l))>];
79[xlabel=79, label=<(car l)>];
80[xlabel=80, label=<(car l)>];
81[xlabel=81, label=<ko(Int)>, fillcolor=<#DDDDFF>];
82[xlabel=82, label=<ko(Int)>, fillcolor=<#DDDDFF>];
83[xlabel=83, label=<(car l)>];
84[xlabel=84, label=<(car l)>];
85[xlabel=85, label=<ko(Int)>, fillcolor=<#DDDDFF>];
86[xlabel=86, label=<ko(Int)>, fillcolor=<#DDDDFF>];
87[xlabel=87, label=<ko(Int)>, fillcolor=<#DDDDFF>];
88[xlabel=88, label=<ko(Int)>, fillcolor=<#DDDDFF>];
89[xlabel=89, label=<ko(Cons(@(* (car l) (car l))-Time(),@_nil_-Time()))>, fillcolor=<#DDDDFF>];
90[xlabel=90, label=<ko(Cons(@(* (car l) (car l))-Time(),@_nil_-Time()))>, fillcolor=<#DDDDFF>];
91[xlabel=91, label=<(set-cdr! l n)>];
92[xlabel=92, label=<(set-cdr! l n)>];
93[xlabel=93, label=<(set-cdr! l n)>];
94[xlabel=94, label=<(set-cdr! l n)>];
95[xlabel=95, label=<ko(#f)>, fillcolor=<#DDDDFF>];
96[xlabel=96, label=<ko(#f)>, fillcolor=<#DDDDFF>];
97[xlabel=97, label=<(set-cdr! n rest)>];
98[xlabel=98, label=<(set-cdr! n rest)>];
99[xlabel=99, label=<ko(#f)>, fillcolor=<#DDDDFF>];
100[xlabel=100, label=<ko(#f)>, fillcolor=<#DDDDFF>];
101[xlabel=101, label=<(if (not (eq? rest lst)) (loop rest) #f)>];
102[xlabel=102, label=<(if (not (eq? rest lst)) (loop rest) #f)>];
103[xlabel=103, label=<(not (eq? rest lst))>];
104[xlabel=104, label=<(not (eq? rest lst))>];
105[xlabel=105, label=<(eq? rest lst)>];
106[xlabel=106, label=<(eq? rest lst)>];
107[xlabel=107, label=<ko(#f)>, fillcolor=<#DDDDFF>];
108[xlabel=108, label=<ko({#f,#t})>, fillcolor=<#DDDDFF>];
109[xlabel=109, label=<ko({#f,#t})>, fillcolor=<#DDDDFF>];
110[xlabel=110, label=<ko(#t)>, fillcolor=<#DDDDFF>];
111[xlabel=111, label=<(loop rest)>];
112[xlabel=112, label=<(loop rest)>];
113[xlabel=113, label=<#f>];
114[xlabel=114, label=<(let ((rest (cdr l)) (n (list (* (car l) (car l))))) (set-cdr! l n) (set-cdr! n rest) (if (not (eq? rest lst)) (loop rest) #f))>];
115[xlabel=115, label=<ko(#f)>, fillcolor=<#DDDDFF>];
116[xlabel=116, label=<(let ((rest (cdr l)) (n (list (* (car l) (car l))))) (set-cdr! l n) (set-cdr! n rest) (if (not (eq? rest lst)) (loop rest) #f))>];
117[xlabel=117, label=<(cdr l)>];
118[xlabel=118, label=<lst>];
119[xlabel=119, label=<(cdr l)>];
120[xlabel=120, label=<ko({(),Cons(@1-Time(),@(cons 4 last-cons)-Time()),Cons(@(* (car l) (car l))-Time(),@_nil_-Time()),Cons(@3-Time(),@'()-Time()),Cons(@4-Time(),@last-cons-Time())})>, fillcolor=<#DDDDFF>];
121[xlabel=121, label=<ko(Cons(@1-Time(),@(cons 4 last-cons)-Time()))>, fillcolor=<#DDDDFF>];
122[xlabel=122, label=<ko({(),Cons(@1-Time(),@(cons 4 last-cons)-Time()),Cons(@(* (car l) (car l))-Time(),@_nil_-Time()),Cons(@3-Time(),@'()-Time()),Cons(@4-Time(),@last-cons-Time())})>, fillcolor=<#DDDDFF>];
123[xlabel=123, label=<(list (* (car l) (car l)))>];
124[xlabel=124, label=<(letrec ((aux (lambda (l) (if (not (null? l)) (if (eq? (cdr l) r) (begin (display " ") (display (car l)) (display "...")) (begin (display " ") (display (car l)) (aux (cdr l)))) #f)))) (aux r) #t)>];
125[xlabel=125, label=<(list (* (car l) (car l)))>];
126[xlabel=126, label=<(* (car l) (car l))>];
127[xlabel=127, label=<(aux r)>];
128[xlabel=128, label=<(* (car l) (car l))>];
129[xlabel=129, label=<(car l)>];
130[xlabel=130, label=<(if (not (null? l)) (if (eq? (cdr l) r) (begin (display " ") (display (car l)) (display "...")) (begin (display " ") (display (car l)) (aux (cdr l)))) #f)>];
131[xlabel=131, label=<(car l)>];
132[xlabel=132, label=<ko(Int)>, fillcolor=<#DDDDFF>];
133[xlabel=133, label=<(not (null? l))>];
134[xlabel=134, label=<ko(Int)>, fillcolor=<#DDDDFF>];
135[xlabel=135, label=<(car l)>];
136[xlabel=136, label=<(null? l)>];
137[xlabel=137, label=<(car l)>];
138[xlabel=138, label=<ko(Int)>, fillcolor=<#DDDDFF>];
139[xlabel=139, label=<ko(#f)>, fillcolor=<#DDDDFF>];
140[xlabel=140, label=<ko(Int)>, fillcolor=<#DDDDFF>];
141[xlabel=141, label=<ko(Int)>, fillcolor=<#DDDDFF>];
142[xlabel=142, label=<ko(#t)>, fillcolor=<#DDDDFF>];
143[xlabel=143, label=<ko(Int)>, fillcolor=<#DDDDFF>];
144[xlabel=144, label=<ko(Cons(@(* (car l) (car l))-Time(),@_nil_-Time()))>, fillcolor=<#DDDDFF>];
145[xlabel=145, label=<(if (eq? (cdr l) r) (begin (display " ") (display (car l)) (display "...")) (begin (display " ") (display (car l)) (aux (cdr l))))>];
146[xlabel=146, label=<ko(Cons(@(* (car l) (car l))-Time(),@_nil_-Time()))>, fillcolor=<#DDDDFF>];
147[xlabel=147, label=<(set-cdr! l n)>];
148[xlabel=148, label=<(set-cdr! l n)>];
149[xlabel=149, label=<(eq? (cdr l) r)>];
150[xlabel=150, label=<(set-cdr! l n)>];
151[xlabel=151, label=<ko(#f)>, fillcolor=<#DDDDFF>];
152[xlabel=152, label=<(cdr l)>];
153[xlabel=153, label=<ko({Cons(@(* (car l) (car l))-Time(),@_nil_-Time()),Cons(@4-Time(),@last-cons-Time())})>, fillcolor=<#DDDDFF>];
154[xlabel=154, label=<(set-cdr! n rest)>];
155[xlabel=155, label=<ko(#f)>, fillcolor=<#DDDDFF>];
156[xlabel=156, label=<ko(#f)>, fillcolor=<#DDDDFF>];
157[xlabel=157, label=<(begin (display " ") (display (car l)) (aux (cdr l)))>];
158[xlabel=158, label=<(if (not (eq? rest lst)) (loop rest) #f)>];
159[xlabel=159, label=<(not (eq? rest lst))>];
160[xlabel=160, label=<(display " ")>];
161[xlabel=161, label=<(set! result (cons i result))>];
162[xlabel=162, label=<(eq? rest lst)>];
163[xlabel=163, label=<ko({#f,#t})>, fillcolor=<#DDDDFF>];
164[xlabel=164, label=<(cons i result)>];
165[xlabel=165, label=<ko(Cons(@i-Time(),@result-Time()))>, fillcolor=<#DDDDFF>];
166[xlabel=166, label=<ko({#f,#t})>, fillcolor=<#DDDDFF>];
167[xlabel=167, label=<(loop rest)>];
168[xlabel=168, label=<#f>];
169[xlabel=169, label=<ko(#f)>, fillcolor=<#DDDDFF>];
170[xlabel=170, label=<(display (car l))>];
171[xlabel=171, label=<ko(#f)>, fillcolor=<#DDDDFF>];
172[xlabel=172, label=<lst>];
173[xlabel=173, label=<(car l)>];
174[xlabel=174, label=<ko(Int)>, fillcolor=<#DDDDFF>];
175[xlabel=175, label=<ko(Cons(@1-Time(),@(cons 4 last-cons)-Time()))>, fillcolor=<#DDDDFF>];
176[xlabel=176, label=<(letrec ((aux (lambda (l) (if (not (null? l)) (if (eq? (cdr l) r) (begin (display " ") (display (car l)) (display "...")) (begin (display " ") (display (car l)) (aux (cdr l)))) #f)))) (aux r) #t)>];
177[xlabel=177, label=<(set! result (cons i result))>];
178[xlabel=178, label=<(cons i result)>];
179[xlabel=179, label=<(aux r)>];
180[xlabel=180, label=<(if (not (null? l)) (if (eq? (cdr l) r) (begin (display " ") (display (car l)) (display "...")) (begin (display " ") (display (car l)) (aux (cdr l)))) #f)>];
181[xlabel=181, label=<ko(Cons(@i-Time(),@result-Time()))>, fillcolor=<#DDDDFF>];
182[xlabel=182, label=<ko(#f)>, fillcolor=<#DDDDFF>];
183[xlabel=183, label=<ko(#f)>, fillcolor=<#DDDDFF>];
184[xlabel=184, label=<(not (null? l))>];
185[xlabel=185, label=<(null? l)>];
186[xlabel=186, label=<(display (car l))>];
187[xlabel=187, label=<(aux (cdr l))>];
188[xlabel=188, label=<(cdr l)>];
189[xlabel=189, label=<(car l)>];
190[xlabel=190, label=<ko(#f)>, fillcolor=<#DDDDFF>];
191[xlabel=191, label=<ko(#t)>, fillcolor=<#DDDDFF>];
192[xlabel=192, label=<ko(Int)>, fillcolor=<#DDDDFF>];
193[xlabel=193, label=<ko({Cons(@(* (car l) (car l))-Time(),@_nil_-Time()),Cons(@4-Time(),@last-cons-Time())})>, fillcolor=<#DDDDFF>];
194[xlabel=194, label=<(if (not (null? l)) (if (eq? (cdr l) r) (begin (display " ") (display (car l)) (display "...")) (begin (display " ") (display (car l)) (aux (cdr l)))) #f)>];
195[xlabel=195, label=<(set! result (cons i result))>];
196[xlabel=196, label=<(if (eq? (cdr l) r) (begin (display " ") (display (car l)) (display "...")) (begin (display " ") (display (car l)) (aux (cdr l))))>];
197[xlabel=197, label=<(eq? (cdr l) r)>];
198[xlabel=198, label=<(cons i result)>];
199[xlabel=199, label=<(not (null? l))>];
200[xlabel=200, label=<(null? l)>];
201[xlabel=201, label=<(cdr l)>];
202[xlabel=202, label=<ko({Cons(@(* (car l) (car l))-Time(),@_nil_-Time()),Cons(@4-Time(),@last-cons-Time())})>, fillcolor=<#DDDDFF>];
203[xlabel=203, label=<ko(#f)>, fillcolor=<#DDDDFF>];
204[xlabel=204, label=<ko(#t)>, fillcolor=<#DDDDFF>];
205[xlabel=205, label=<ko(#f)>, fillcolor=<#DDDDFF>];
206[xlabel=206, label=<(begin (display " ") (display (car l)) (aux (cdr l)))>];
207[xlabel=207, label=<(if (eq? (cdr l) r) (begin (display " ") (display (car l)) (display "...")) (begin (display " ") (display (car l)) (aux (cdr l))))>];
208[xlabel=208, label=<(eq? (cdr l) r)>];
209[xlabel=209, label=<(display " ")>];
210[xlabel=210, label=<(set! result (cons i result))>];
211[xlabel=211, label=<(cdr l)>];
212[xlabel=212, label=<ko({(),Cons(@1-Time(),@(cons 4 last-cons)-Time()),Cons(@(* (car l) (car l))-Time(),@_nil_-Time()),Cons(@3-Time(),@'()-Time()),Cons(@4-Time(),@last-cons-Time())})>, fillcolor=<#DDDDFF>];
213[xlabel=213, label=<(cons i result)>];
214[xlabel=214, label=<ko(Cons(@i-Time(),@result-Time()))>, fillcolor=<#DDDDFF>];
215[xlabel=215, label=<ko({#f,#t})>, fillcolor=<#DDDDFF>];
216[xlabel=216, label=<(begin (display " ") (display (car l)) (display "..."))>];
217[xlabel=217, label=<(begin (display " ") (display (car l)) (aux (cdr l)))>];
218[xlabel=218, label=<ko(#f)>, fillcolor=<#DDDDFF>];
219[xlabel=219, label=<(display (car l))>];
220[xlabel=220, label=<(display " ")>];
221[xlabel=221, label=<(display " ")>];
222[xlabel=222, label=<(set! result (cons i result))>];
223[xlabel=223, label=<(set! result (cons i result))>];
224[xlabel=224, label=<(car l)>];
225[xlabel=225, label=<ko(Int)>, fillcolor=<#DDDDFF>];
226[xlabel=226, label=<(cons i result)>];
227[xlabel=227, label=<(cons i result)>];
228[xlabel=228, label=<ko(Cons(@i-Time(),@result-Time()))>, fillcolor=<#DDDDFF>];
229[xlabel=229, label=<ko(Cons(@i-Time(),@result-Time()))>, fillcolor=<#DDDDFF>];
230[xlabel=230, label=<(set! result (cons i result))>];
231[xlabel=231, label=<(cons i result)>];
232[xlabel=232, label=<ko(#f)>, fillcolor=<#DDDDFF>];
233[xlabel=233, label=<ko(#f)>, fillcolor=<#DDDDFF>];
234[xlabel=234, label=<ko(#f)>, fillcolor=<#DDDDFF>];
235[xlabel=235, label=<ko(#f)>, fillcolor=<#DDDDFF>];
236[xlabel=236, label=<ko(#f)>, fillcolor=<#DDDDFF>];
237[xlabel=237, label=<(display (car l))>];
238[xlabel=238, label=<(aux (cdr l))>];
239[xlabel=239, label=<(display (car l))>];
240[xlabel=240, label=<(aux (cdr l))>];
241[xlabel=241, label=<(display (car l))>];
242[xlabel=242, label=<ko(Cons(@i-Time(),@result-Time()))>, fillcolor=<#DDDDFF>];
243[xlabel=243, label=<ko(#f)>, fillcolor=<#DDDDFF>];
244[xlabel=244, label=<ko(#f)>, fillcolor=<#DDDDFF>];
245[xlabel=245, label=<(car l)>];
246[xlabel=246, label=<(cdr l)>];
247[xlabel=247, label=<(car l)>];
248[xlabel=248, label=<(cdr l)>];
249[xlabel=249, label=<(car l)>];
250[xlabel=250, label=<ko(Int)>, fillcolor=<#DDDDFF>];
251[xlabel=251, label=<ko({(),Cons(@1-Time(),@(cons 4 last-cons)-Time()),Cons(@(* (car l) (car l))-Time(),@_nil_-Time()),Cons(@3-Time(),@'()-Time()),Cons(@4-Time(),@last-cons-Time())})>, fillcolor=<#DDDDFF>];
252[xlabel=252, label=<ko(Int)>, fillcolor=<#DDDDFF>];
253[xlabel=253, label=<ko({(),Cons(@1-Time(),@(cons 4 last-cons)-Time()),Cons(@(* (car l) (car l))-Time(),@_nil_-Time()),Cons(@3-Time(),@'()-Time()),Cons(@4-Time(),@last-cons-Time())})>, fillcolor=<#DDDDFF>];
254[xlabel=254, label=<ko(Int)>, fillcolor=<#DDDDFF>];
255[xlabel=255, label=<(display (car l))>];
256[xlabel=256, label=<(aux (cdr l))>];
257[xlabel=257, label=<(cdr l)>];
258[xlabel=258, label=<(car l)>];
259[xlabel=259, label=<(set! result (cons i result))>];
260[xlabel=260, label=<(if (not (null? l)) (if (eq? (cdr l) r) (begin (display " ") (display (car l)) (display "...")) (begin (display " ") (display (car l)) (aux (cdr l)))) #f)>];
261[xlabel=261, label=<(set! result (cons i result))>];
262[xlabel=262, label=<(if (not (null? l)) (if (eq? (cdr l) r) (begin (display " ") (display (car l)) (display "...")) (begin (display " ") (display (car l)) (aux (cdr l)))) #f)>];
263[xlabel=263, label=<(set! result (cons i result))>];
264[xlabel=264, label=<(not (null? l))>];
265[xlabel=265, label=<(not (null? l))>];
266[xlabel=266, label=<(cons i result)>];
267[xlabel=267, label=<ko(Int)>, fillcolor=<#DDDDFF>];
268[xlabel=268, label=<ko({Cons(@(* (car l) (car l))-Time(),@_nil_-Time()),Cons(@4-Time(),@last-cons-Time())})>, fillcolor=<#DDDDFF>];
269[xlabel=269, label=<(if (not (null? l)) (if (eq? (cdr l) r) (begin (display " ") (display (car l)) (display "...")) (begin (display " ") (display (car l)) (aux (cdr l)))) #f)>];
270[xlabel=270, label=<(set! result (cons i result))>];
271[xlabel=271, label=<ko(Cons(@i-Time(),@result-Time()))>, fillcolor=<#DDDDFF>];
272[xlabel=272, label=<(null? l)>];
273[xlabel=273, label=<(null? l)>];
274[xlabel=274, label=<ko({#f,#t})>, fillcolor=<#DDDDFF>];
275[xlabel=275, label=<ko({#f,#t})>, fillcolor=<#DDDDFF>];
276[xlabel=276, label=<ko(#f)>, fillcolor=<#DDDDFF>];
277[xlabel=277, label=<ko(#f)>, fillcolor=<#DDDDFF>];
278[xlabel=278, label=<ko(#f)>, fillcolor=<#DDDDFF>];
279[xlabel=279, label=<ko(#f)>, fillcolor=<#DDDDFF>];
280[xlabel=280, label=<(cons i result)>];
281[xlabel=281, label=<(not (null? l))>];
282[xlabel=282, label=<(null? l)>];
283[xlabel=283, label=<(display (car l))>];
284[xlabel=284, label=<(aux (cdr l))>];
285[xlabel=285, label=<(display (car l))>];
286[xlabel=286, label=<(display "...")>];
287[xlabel=287, label=<ko({#f,#t})>, fillcolor=<#DDDDFF>];
288[xlabel=288, label=<ko({#f,#t})>, fillcolor=<#DDDDFF>];
289[xlabel=289, label=<(if (eq? (cdr l) r) (begin (display " ") (display (car l)) (display "...")) (begin (display " ") (display (car l)) (aux (cdr l))))>];
290[xlabel=290, label=<#f>];
291[xlabel=291, label=<(if (eq? (cdr l) r) (begin (display " ") (display (car l)) (display "...")) (begin (display " ") (display (car l)) (aux (cdr l))))>];
292[xlabel=292, label=<#f>];
293[xlabel=293, label=<(set! result (cons i result))>];
294[xlabel=294, label=<(car l)>];
295[xlabel=295, label=<(cdr l)>];
296[xlabel=296, label=<(car l)>];
297[xlabel=297, label=<ko(#f)>, fillcolor=<#DDDDFF>];
298[xlabel=298, label=<ko(#t)>, fillcolor=<#DDDDFF>];
299[xlabel=299, label=<ko(Int)>, fillcolor=<#DDDDFF>];
300[xlabel=300, label=<ko({(),Cons(@1-Time(),@(cons 4 last-cons)-Time()),Cons(@(* (car l) (car l))-Time(),@_nil_-Time()),Cons(@3-Time(),@'()-Time()),Cons(@4-Time(),@last-cons-Time())})>, fillcolor=<#DDDDFF>];
301[xlabel=301, label=<ko(Int)>, fillcolor=<#DDDDFF>];
302[xlabel=302, label=<(cons i result)>];
303[xlabel=303, label=<(eq? (cdr l) r)>];
304[xlabel=304, label=<ko(#f)>, fillcolor=<#DDDDFF>];
305[xlabel=305, label=<(eq? (cdr l) r)>];
306[xlabel=306, label=<ko(#f)>, fillcolor=<#DDDDFF>];
307[xlabel=307, label=<#t>];
308[xlabel=308, label=<(cdr l)>];
309[xlabel=309, label=<#t>];
310[xlabel=310, label=<(cdr l)>];
311[xlabel=311, label=<ko(Cons(@i-Time(),@result-Time()))>, fillcolor=<#DDDDFF>];
312[xlabel=312, label=<(set! result (cons i result))>];
313[xlabel=313, label=<(if (not (null? l)) (if (eq? (cdr l) r) (begin (display " ") (display (car l)) (display "...")) (begin (display " ") (display (car l)) (aux (cdr l)))) #f)>];
314[xlabel=314, label=<(set! result (cons i result))>];
315[xlabel=315, label=<(if (eq? (cdr l) r) (begin (display " ") (display (car l)) (display "...")) (begin (display " ") (display (car l)) (aux (cdr l))))>];
316[xlabel=316, label=<(eq? (cdr l) r)>];
317[xlabel=317, label=<(not (null? l))>];
318[xlabel=318, label=<ko(#f)>, fillcolor=<#DDDDFF>];
319[xlabel=319, label=<ko(#f)>, fillcolor=<#DDDDFF>];
320[xlabel=320, label=<ko(#f)>, fillcolor=<#DDDDFF>];
321[xlabel=321, label=<ko(#f)>, fillcolor=<#DDDDFF>];
322[xlabel=322, label=<ko(#f)>, fillcolor=<#DDDDFF>];
323[xlabel=323, label=<ko({(),Cons(@1-Time(),@(cons 4 last-cons)-Time()),Cons(@(* (car l) (car l))-Time(),@_nil_-Time()),Cons(@3-Time(),@'()-Time()),Cons(@4-Time(),@last-cons-Time())})>, fillcolor=<#DDDDFF>];
324[xlabel=324, label=<ko(#t)>, fillcolor=<#DDDDFF>];
325[xlabel=325, label=<ko({(),Cons(@1-Time(),@(cons 4 last-cons)-Time()),Cons(@(* (car l) (car l))-Time(),@_nil_-Time()),Cons(@3-Time(),@'()-Time()),Cons(@4-Time(),@last-cons-Time())})>, fillcolor=<#DDDDFF>];
326[xlabel=326, label=<ko(#t)>, fillcolor=<#DDDDFF>];
327[xlabel=327, label=<(equal? result '("..." 9 " " 3 " " 16 " " 4 " " 1 " " 1 " "))>];
328[xlabel=328, label=<ko({#f,#t})>, fillcolor=<#DDDDFF>];
329[xlabel=329, label=<(equal? result '("..." 9 " " 3 " " 16 " " 4 " " 1 " " 1 " "))>];
330[xlabel=330, label=<ko({#f,#t})>, fillcolor=<#DDDDFF>];
331[xlabel=331, label=<#t>];
332[xlabel=332, label=<(aux (cdr l))>];
333[xlabel=333, label=<(display (car l))>];
334[xlabel=334, label=<(display (car l))>];
335[xlabel=335, label=<(display "...")>];
336[xlabel=336, label=<(null? l)>];
337[xlabel=337, label=<(cdr l)>];
338[xlabel=338, label=<ko({(),Cons(@1-Time(),@(cons 4 last-cons)-Time()),Cons(@(* (car l) (car l))-Time(),@_nil_-Time()),Cons(@3-Time(),@'()-Time()),Cons(@4-Time(),@last-cons-Time())})>, fillcolor=<#DDDDFF>];
339[xlabel=339, label=<ko({#f,#t})>, fillcolor=<#DDDDFF>];
340[xlabel=340, label=<(set! result (cons i result))>];
341[xlabel=341, label=<(car l)>];
342[xlabel=342, label=<(car l)>];
343[xlabel=343, label=<(cdr l)>];
344[xlabel=344, label=<ko(#t)>, fillcolor=<#DDDDFF>];
345[xlabel=345, label=<(begin (display " ") (display (car l)) (display "..."))>];
346[xlabel=346, label=<(begin (display " ") (display (car l)) (aux (cdr l)))>];
347[xlabel=347, label=<'("..." 9 " " 3 " " 16 " " 4 " " 1 " " 1 " ")>];
348[xlabel=348, label=<(begin (display " ") (display (car l)) (display "..."))>];
349[xlabel=349, label=<(begin (display " ") (display (car l)) (aux (cdr l)))>];
350[xlabel=350, label=<'("..." 9 " " 3 " " 16 " " 4 " " 1 " " 1 " ")>];
351[xlabel=351, label=<ko(Cons(@"..."-Time(),@(9 " " 3 " " 16 " " 4 " " 1 " " 1 " ")-Time()))>, fillcolor=<#DDDDFF>];
352[xlabel=352, label=<(display " ")>];
353[xlabel=353, label=<(display " ")>];
354[xlabel=354, label=<ko(Cons(@"..."-Time(),@(9 " " 3 " " 16 " " 4 " " 1 " " 1 " ")-Time()))>, fillcolor=<#DDDDFF>];
355[xlabel=355, label=<(display " ")>];
356[xlabel=356, label=<(display " ")>];
357[xlabel=357, label=<(equal? result '("..." 9 " " 3 " " 16 " " 4 " " 1 " " 1 " "))>];
358[xlabel=358, label=<ko({(),Cons(@1-Time(),@(cons 4 last-cons)-Time()),Cons(@(* (car l) (car l))-Time(),@_nil_-Time()),Cons(@3-Time(),@'()-Time()),Cons(@4-Time(),@last-cons-Time())})>, fillcolor=<#DDDDFF>];
359[xlabel=359, label=<ko(Int)>, fillcolor=<#DDDDFF>];
360[xlabel=360, label=<ko(Int)>, fillcolor=<#DDDDFF>];
361[xlabel=361, label=<ko({#f,#t})>, fillcolor=<#DDDDFF>];
362[xlabel=362, label=<ko({#f,#t})>, fillcolor=<#DDDDFF>];
363[xlabel=363, label=<(begin (display " ") (display (car l)) (display "..."))>];
364[xlabel=364, label=<(begin (display " ") (display (car l)) (aux (cdr l)))>];
365[xlabel=365, label=<(if (eq? (cdr l) r) (begin (display " ") (display (car l)) (display "...")) (begin (display " ") (display (car l)) (aux (cdr l))))>];
366[xlabel=366, label=<#f>];
367[xlabel=367, label=<(set! result (cons i result))>];
368[xlabel=368, label=<(set! result (cons i result))>];
369[xlabel=369, label=<(if (not (null? l)) (if (eq? (cdr l) r) (begin (display " ") (display (car l)) (display "...")) (begin (display " ") (display (car l)) (aux (cdr l)))) #f)>];
370[xlabel=370, label=<'("..." 9 " " 3 " " 16 " " 4 " " 1 " " 1 " ")>];
371[xlabel=371, label=<(set! result (cons i result))>];
372[xlabel=372, label=<(set! result (cons i result))>];
373[xlabel=373, label=<ko({#f,#t})>, fillcolor=<#FFFFAA>];
374[xlabel=374, label=<(set! result (cons i result))>];
375[xlabel=375, label=<(set! result (cons i result))>];
376[xlabel=376, label=<ko({#f,#t})>, fillcolor=<#FFFFAA>];
377[xlabel=377, label=<(cons i result)>];
378[xlabel=378, label=<(cons i result)>];
379[xlabel=379, label=<ko(Cons(@"..."-Time(),@(9 " " 3 " " 16 " " 4 " " 1 " " 1 " ")-Time()))>, fillcolor=<#DDDDFF>];
380[xlabel=380, label=<(not (null? l))>];
381[xlabel=381, label=<(eq? (cdr l) r)>];
382[xlabel=382, label=<ko(#f)>, fillcolor=<#DDDDFF>];
383[xlabel=383, label=<(display " ")>];
384[xlabel=384, label=<(display " ")>];
385[xlabel=385, label=<(set! result (cons i result))>];
386[xlabel=386, label=<(set! result (cons i result))>];
387[xlabel=387, label=<#t>];
388[xlabel=388, label=<(cdr l)>];
389[xlabel=389, label=<(null? l)>];
390[xlabel=390, label=<ko({#f,#t})>, fillcolor=<#FFFFAA>];
391[xlabel=391, label=<ko(Cons(@i-Time(),@result-Time()))>, fillcolor=<#DDDDFF>];
392[xlabel=392, label=<ko(Cons(@i-Time(),@result-Time()))>, fillcolor=<#DDDDFF>];
393[xlabel=393, label=<ko(#f)>, fillcolor=<#DDDDFF>];
394[xlabel=394, label=<ko(#f)>, fillcolor=<#DDDDFF>];
395[xlabel=395, label=<ko(#f)>, fillcolor=<#DDDDFF>];
396[xlabel=396, label=<ko(#f)>, fillcolor=<#DDDDFF>];
397[xlabel=397, label=<ko(#f)>, fillcolor=<#DDDDFF>];
398[xlabel=398, label=<ko({#f,#t})>, fillcolor=<#DDDDFF>];
399[xlabel=399, label=<ko({(),Cons(@1-Time(),@(cons 4 last-cons)-Time()),Cons(@(* (car l) (car l))-Time(),@_nil_-Time()),Cons(@3-Time(),@'()-Time()),Cons(@4-Time(),@last-cons-Time())})>, fillcolor=<#DDDDFF>];
400[xlabel=400, label=<ko(#t)>, fillcolor=<#DDDDFF>];
401[xlabel=401, label=<(cons i result)>];
402[xlabel=402, label=<(cons i result)>];
403[xlabel=403, label=<ko(Cons(@i-Time(),@result-Time()))>, fillcolor=<#DDDDFF>];
404[xlabel=404, label=<ko(Cons(@i-Time(),@result-Time()))>, fillcolor=<#DDDDFF>];
405[xlabel=405, label=<(equal? result '("..." 9 " " 3 " " 16 " " 4 " " 1 " " 1 " "))>];
406[xlabel=406, label=<ko({#f,#t})>, fillcolor=<#DDDDFF>];
407[xlabel=407, label=<ko({#f,#t})>, fillcolor=<#DDDDFF>];
408[xlabel=408, label=<(display (car l))>];
409[xlabel=409, label=<(aux (cdr l))>];
410[xlabel=410, label=<(display (car l))>];
411[xlabel=411, label=<(display (car l))>];
412[xlabel=412, label=<(aux (cdr l))>];
413[xlabel=413, label=<(cdr l)>];
414[xlabel=414, label=<(car l)>];
415[xlabel=415, label=<(car l)>];
416[xlabel=416, label=<(cdr l)>];
417[xlabel=417, label=<(car l)>];
418[xlabel=418, label=<(if (eq? (cdr l) r) (begin (display " ") (display (car l)) (display "...")) (begin (display " ") (display (car l)) (aux (cdr l))))>];
419[xlabel=419, label=<#f>];
420[xlabel=420, label=<(begin (display " ") (display (car l)) (display "..."))>];
421[xlabel=421, label=<(begin (display " ") (display (car l)) (aux (cdr l)))>];
422[xlabel=422, label=<'("..." 9 " " 3 " " 16 " " 4 " " 1 " " 1 " ")>];
423[xlabel=423, label=<ko(#f)>, fillcolor=<#DDDDFF>];
424[xlabel=424, label=<ko(#f)>, fillcolor=<#DDDDFF>];
425[xlabel=425, label=<ko(#f)>, fillcolor=<#DDDDFF>];
426[xlabel=426, label=<ko(#f)>, fillcolor=<#DDDDFF>];
427[xlabel=427, label=<ko(#f)>, fillcolor=<#DDDDFF>];
428[xlabel=428, label=<(display (car l))>];
429[xlabel=429, label=<(aux (cdr l))>];
430[xlabel=430, label=<(display (car l))>];
431[xlabel=431, label=<(aux (cdr l))>];
432[xlabel=432, label=<(display (car l))>];
433[xlabel=433, label=<ko(Cons(@"..."-Time(),@(9 " " 3 " " 16 " " 4 " " 1 " " 1 " ")-Time()))>, fillcolor=<#DDDDFF>];
434[xlabel=434, label=<(display " ")>];
435[xlabel=435, label=<(display " ")>];
436[xlabel=436, label=<(eq? (cdr l) r)>];
437[xlabel=437, label=<ko(#f)>, fillcolor=<#DDDDFF>];
438[xlabel=438, label=<ko(Int)>, fillcolor=<#DDDDFF>];
439[xlabel=439, label=<ko({(),Cons(@1-Time(),@(cons 4 last-cons)-Time()),Cons(@(* (car l) (car l))-Time(),@_nil_-Time()),Cons(@3-Time(),@'()-Time()),Cons(@4-Time(),@last-cons-Time())})>, fillcolor=<#DDDDFF>];
440[xlabel=440, label=<ko(Int)>, fillcolor=<#DDDDFF>];
441[xlabel=441, label=<ko(Int)>, fillcolor=<#DDDDFF>];
442[xlabel=442, label=<ko({(),Cons(@1-Time(),@(cons 4 last-cons)-Time()),Cons(@(* (car l) (car l))-Time(),@_nil_-Time()),Cons(@3-Time(),@'()-Time()),Cons(@4-Time(),@last-cons-Time())})>, fillcolor=<#DDDDFF>];
443[xlabel=443, label=<(set! result (cons i result))>];
444[xlabel=444, label=<(set! result (cons i result))>];
445[xlabel=445, label=<(set! result (cons i result))>];
446[xlabel=446, label=<#t>];
447[xlabel=447, label=<(cdr l)>];
448[xlabel=448, label=<(set! result (cons i result))>];
449[xlabel=449, label=<(set! result (cons i result))>];
450[xlabel=450, label=<ko({#f,#t})>, fillcolor=<#FFFFAA>];
451[xlabel=451, label=<(car l)>];
452[xlabel=452, label=<(cdr l)>];
453[xlabel=453, label=<(car l)>];
454[xlabel=454, label=<(cdr l)>];
455[xlabel=455, label=<(car l)>];
456[xlabel=456, label=<ko(Int)>, fillcolor=<#DDDDFF>];
457[xlabel=457, label=<ko({(),Cons(@1-Time(),@(cons 4 last-cons)-Time()),Cons(@(* (car l) (car l))-Time(),@_nil_-Time()),Cons(@3-Time(),@'()-Time()),Cons(@4-Time(),@last-cons-Time())})>, fillcolor=<#DDDDFF>];
458[xlabel=458, label=<ko(Int)>, fillcolor=<#DDDDFF>];
459[xlabel=459, label=<ko({(),Cons(@1-Time(),@(cons 4 last-cons)-Time()),Cons(@(* (car l) (car l))-Time(),@_nil_-Time()),Cons(@3-Time(),@'()-Time()),Cons(@4-Time(),@last-cons-Time())})>, fillcolor=<#DDDDFF>];
460[xlabel=460, label=<ko(Int)>, fillcolor=<#DDDDFF>];
461[xlabel=461, label=<(cons i result)>];
462[xlabel=462, label=<ko({(),Cons(@1-Time(),@(cons 4 last-cons)-Time()),Cons(@(* (car l) (car l))-Time(),@_nil_-Time()),Cons(@3-Time(),@'()-Time()),Cons(@4-Time(),@last-cons-Time())})>, fillcolor=<#DDDDFF>];
463[xlabel=463, label=<ko(#t)>, fillcolor=<#DDDDFF>];
464[xlabel=464, label=<ko(Cons(@i-Time(),@result-Time()))>, fillcolor=<#DDDDFF>];
465[xlabel=465, label=<(equal? result '("..." 9 " " 3 " " 16 " " 4 " " 1 " " 1 " "))>];
466[xlabel=466, label=<ko({#f,#t})>, fillcolor=<#DDDDFF>];
467[xlabel=467, label=<(set! result (cons i result))>];
468[xlabel=468, label=<(if (not (null? l)) (if (eq? (cdr l) r) (begin (display " ") (display (car l)) (display "...")) (begin (display " ") (display (car l)) (aux (cdr l)))) #f)>];
469[xlabel=469, label=<(set! result (cons i result))>];
470[xlabel=470, label=<(if (not (null? l)) (if (eq? (cdr l) r) (begin (display " ") (display (car l)) (display "...")) (begin (display " ") (display (car l)) (aux (cdr l)))) #f)>];
471[xlabel=471, label=<(set! result (cons i result))>];
472[xlabel=472, label=<(not (null? l))>];
473[xlabel=473, label=<(not (null? l))>];
474[xlabel=474, label=<(cons i result)>];
475[xlabel=475, label=<(begin (display " ") (display (car l)) (display "..."))>];
476[xlabel=476, label=<(begin (display " ") (display (car l)) (aux (cdr l)))>];
477[xlabel=477, label=<'("..." 9 " " 3 " " 16 " " 4 " " 1 " " 1 " ")>];
478[xlabel=478, label=<ko(#f)>, fillcolor=<#DDDDFF>];
479[xlabel=479, label=<ko(#f)>, fillcolor=<#DDDDFF>];
480[xlabel=480, label=<ko(#f)>, fillcolor=<#DDDDFF>];
481[xlabel=481, label=<ko(#f)>, fillcolor=<#DDDDFF>];
482[xlabel=482, label=<(display (car l))>];
483[xlabel=483, label=<(aux (cdr l))>];
484[xlabel=484, label=<(display (car l))>];
485[xlabel=485, label=<(display "...")>];
486[xlabel=486, label=<ko(Cons(@"..."-Time(),@(9 " " 3 " " 16 " " 4 " " 1 " " 1 " ")-Time()))>, fillcolor=<#DDDDFF>];
487[xlabel=487, label=<(display " ")>];
488[xlabel=488, label=<(display " ")>];
489[xlabel=489, label=<ko(Cons(@i-Time(),@result-Time()))>, fillcolor=<#DDDDFF>];
490[xlabel=490, label=<(null? l)>];
491[xlabel=491, label=<(null? l)>];
492[xlabel=492, label=<ko({#f,#t})>, fillcolor=<#DDDDFF>];
493[xlabel=493, label=<ko({#f,#t})>, fillcolor=<#DDDDFF>];
494[xlabel=494, label=<ko(#f)>, fillcolor=<#DDDDFF>];
495[xlabel=495, label=<ko(#f)>, fillcolor=<#DDDDFF>];
496[xlabel=496, label=<ko(#f)>, fillcolor=<#DDDDFF>];
497[xlabel=497, label=<ko(#f)>, fillcolor=<#DDDDFF>];
498[xlabel=498, label=<(set! result (cons i result))>];
499[xlabel=499, label=<(set! result (cons i result))>];
500[xlabel=500, label=<ko({#f,#t})>, fillcolor=<#FFFFAA>];
501[xlabel=501, label=<(set! result (cons i result))>];
502[xlabel=502, label=<(car l)>];
503[xlabel=503, label=<(cdr l)>];
504[xlabel=504, label=<(car l)>];
505[xlabel=505, label=<ko(Int)>, fillcolor=<#DDDDFF>];
506[xlabel=506, label=<ko({(),Cons(@1-Time(),@(cons 4 last-cons)-Time()),Cons(@(* (car l) (car l))-Time(),@_nil_-Time()),Cons(@3-Time(),@'()-Time()),Cons(@4-Time(),@last-cons-Time())})>, fillcolor=<#DDDDFF>];
507[xlabel=507, label=<ko(Int)>, fillcolor=<#DDDDFF>];
508[xlabel=508, label=<(cons i result)>];
509[xlabel=509, label=<(display (car l))>];
510[xlabel=510, label=<(aux (cdr l))>];
511[xlabel=511, label=<(display (car l))>];
512[xlabel=512, label=<(display "...")>];
513[xlabel=513, label=<ko({#f,#t})>, fillcolor=<#DDDDFF>];
514[xlabel=514, label=<ko({#f,#t})>, fillcolor=<#DDDDFF>];
515[xlabel=515, label=<(if (eq? (cdr l) r) (begin (display " ") (display (car l)) (display "...")) (begin (display " ") (display (car l)) (aux (cdr l))))>];
516[xlabel=516, label=<#f>];
517[xlabel=517, label=<(if (eq? (cdr l) r) (begin (display " ") (display (car l)) (display "...")) (begin (display " ") (display (car l)) (aux (cdr l))))>];
518[xlabel=518, label=<#f>];
519[xlabel=519, label=<(set! result (cons i result))>];
520[xlabel=520, label=<(car l)>];
521[xlabel=521, label=<(cdr l)>];
522[xlabel=522, label=<(car l)>];
523[xlabel=523, label=<ko(Cons(@i-Time(),@result-Time()))>, fillcolor=<#DDDDFF>];
524[xlabel=524, label=<(set! result (cons i result))>];
525[xlabel=525, label=<(set! result (cons i result))>];
526[xlabel=526, label=<ko(#f)>, fillcolor=<#DDDDFF>];
527[xlabel=527, label=<ko(#f)>, fillcolor=<#DDDDFF>];
528[xlabel=528, label=<ko(#f)>, fillcolor=<#DDDDFF>];
529[xlabel=529, label=<ko(#f)>, fillcolor=<#DDDDFF>];
530[xlabel=530, label=<ko(Int)>, fillcolor=<#DDDDFF>];
531[xlabel=531, label=<ko({(),Cons(@1-Time(),@(cons 4 last-cons)-Time()),Cons(@(* (car l) (car l))-Time(),@_nil_-Time()),Cons(@3-Time(),@'()-Time()),Cons(@4-Time(),@last-cons-Time())})>, fillcolor=<#DDDDFF>];
532[xlabel=532, label=<ko(Int)>, fillcolor=<#DDDDFF>];
533[xlabel=533, label=<(cons i result)>];
534[xlabel=534, label=<(eq? (cdr l) r)>];
535[xlabel=535, label=<ko(#f)>, fillcolor=<#DDDDFF>];
536[xlabel=536, label=<(eq? (cdr l) r)>];
537[xlabel=537, label=<ko(#f)>, fillcolor=<#DDDDFF>];
538[xlabel=538, label=<#t>];
539[xlabel=539, label=<(cdr l)>];
540[xlabel=540, label=<#t>];
541[xlabel=541, label=<(cdr l)>];
542[xlabel=542, label=<ko(Cons(@i-Time(),@result-Time()))>, fillcolor=<#DDDDFF>];
543[xlabel=543, label=<(set! result (cons i result))>];
544[xlabel=544, label=<(if (not (null? l)) (if (eq? (cdr l) r) (begin (display " ") (display (car l)) (display "...")) (begin (display " ") (display (car l)) (aux (cdr l)))) #f)>];
545[xlabel=545, label=<(set! result (cons i result))>];
546[xlabel=546, label=<(display (car l))>];
547[xlabel=547, label=<(display (car l))>];
548[xlabel=548, label=<(aux (cdr l))>];
549[xlabel=549, label=<(display "...")>];
550[xlabel=550, label=<(set! result (cons i result))>];
551[xlabel=551, label=<(cdr l)>];
552[xlabel=552, label=<(car l)>];
553[xlabel=553, label=<(car l)>];
554[xlabel=554, label=<(not (null? l))>];
555[xlabel=555, label=<ko(#f)>, fillcolor=<#DDDDFF>];
556[xlabel=556, label=<ko(#f)>, fillcolor=<#DDDDFF>];
557[xlabel=557, label=<ko(#f)>, fillcolor=<#DDDDFF>];
558[xlabel=558, label=<ko(#f)>, fillcolor=<#DDDDFF>];
559[xlabel=559, label=<ko(#f)>, fillcolor=<#DDDDFF>];
560[xlabel=560, label=<ko({(),Cons(@1-Time(),@(cons 4 last-cons)-Time()),Cons(@(* (car l) (car l))-Time(),@_nil_-Time()),Cons(@3-Time(),@'()-Time()),Cons(@4-Time(),@last-cons-Time())})>, fillcolor=<#DDDDFF>];
561[xlabel=561, label=<ko(#t)>, fillcolor=<#DDDDFF>];
562[xlabel=562, label=<ko({(),Cons(@1-Time(),@(cons 4 last-cons)-Time()),Cons(@(* (car l) (car l))-Time(),@_nil_-Time()),Cons(@3-Time(),@'()-Time()),Cons(@4-Time(),@last-cons-Time())})>, fillcolor=<#DDDDFF>];
563[xlabel=563, label=<ko(#t)>, fillcolor=<#DDDDFF>];
564[xlabel=564, label=<(equal? result '("..." 9 " " 3 " " 16 " " 4 " " 1 " " 1 " "))>];
565[xlabel=565, label=<ko({#f,#t})>, fillcolor=<#DDDDFF>];
566[xlabel=566, label=<(equal? result '("..." 9 " " 3 " " 16 " " 4 " " 1 " " 1 " "))>];
567[xlabel=567, label=<ko({#f,#t})>, fillcolor=<#DDDDFF>];
568[xlabel=568, label=<#t>];
569[xlabel=569, label=<(display (car l))>];
570[xlabel=570, label=<(display (car l))>];
571[xlabel=571, label=<(aux (cdr l))>];
572[xlabel=572, label=<(display "...")>];
573[xlabel=573, label=<(null? l)>];
574[xlabel=574, label=<ko(Int)>, fillcolor=<#DDDDFF>];
575[xlabel=575, label=<ko(Int)>, fillcolor=<#DDDDFF>];
576[xlabel=576, label=<ko({(),Cons(@1-Time(),@(cons 4 last-cons)-Time()),Cons(@(* (car l) (car l))-Time(),@_nil_-Time()),Cons(@3-Time(),@'()-Time()),Cons(@4-Time(),@last-cons-Time())})>, fillcolor=<#DDDDFF>];
577[xlabel=577, label=<(set! result (cons i result))>];
578[xlabel=578, label=<(set! result (cons i result))>];
579[xlabel=579, label=<ko({#f,#t})>, fillcolor=<#DDDDFF>];
580[xlabel=580, label=<(set! result (cons i result))>];
581[xlabel=581, label=<(cdr l)>];
582[xlabel=582, label=<(car l)>];
583[xlabel=583, label=<(car l)>];
584[xlabel=584, label=<ko(#t)>, fillcolor=<#DDDDFF>];
585[xlabel=585, label=<(begin (display " ") (display (car l)) (display "..."))>];
586[xlabel=586, label=<(begin (display " ") (display (car l)) (aux (cdr l)))>];
587[xlabel=587, label=<'("..." 9 " " 3 " " 16 " " 4 " " 1 " " 1 " ")>];
588[xlabel=588, label=<(begin (display " ") (display (car l)) (display "..."))>];
589[xlabel=589, label=<(begin (display " ") (display (car l)) (aux (cdr l)))>];
590[xlabel=590, label=<'("..." 9 " " 3 " " 16 " " 4 " " 1 " " 1 " ")>];
591[xlabel=591, label=<ko(Cons(@"..."-Time(),@(9 " " 3 " " 16 " " 4 " " 1 " " 1 " ")-Time()))>, fillcolor=<#DDDDFF>];
592[xlabel=592, label=<(display " ")>];
593[xlabel=593, label=<(display " ")>];
594[xlabel=594, label=<ko(Cons(@"..."-Time(),@(9 " " 3 " " 16 " " 4 " " 1 " " 1 " ")-Time()))>, fillcolor=<#DDDDFF>];
595[xlabel=595, label=<(display " ")>];
596[xlabel=596, label=<(display " ")>];
597[xlabel=597, label=<(equal? result '("..." 9 " " 3 " " 16 " " 4 " " 1 " " 1 " "))>];
598[xlabel=598, label=<ko(Int)>, fillcolor=<#DDDDFF>];
599[xlabel=599, label=<ko(Int)>, fillcolor=<#DDDDFF>];
600[xlabel=600, label=<ko({(),Cons(@1-Time(),@(cons 4 last-cons)-Time()),Cons(@(* (car l) (car l))-Time(),@_nil_-Time()),Cons(@3-Time(),@'()-Time()),Cons(@4-Time(),@last-cons-Time())})>, fillcolor=<#DDDDFF>];
601[xlabel=601, label=<ko({#f,#t})>, fillcolor=<#DDDDFF>];
602[xlabel=602, label=<(if (eq? (cdr l) r) (begin (display " ") (display (car l)) (display "...")) (begin (display " ") (display (car l)) (aux (cdr l))))>];
603[xlabel=603, label=<#f>];
604[xlabel=604, label=<(if (not (null? l)) (if (eq? (cdr l) r) (begin (display " ") (display (car l)) (display "...")) (begin (display " ") (display (car l)) (aux (cdr l)))) #f)>];
605[xlabel=605, label=<(set! result (cons i result))>];
606[xlabel=606, label=<(set! result (cons i result))>];
607[xlabel=607, label=<'("..." 9 " " 3 " " 16 " " 4 " " 1 " " 1 " ")>];
608[xlabel=608, label=<(set! result (cons i result))>];
609[xlabel=609, label=<(set! result (cons i result))>];
610[xlabel=610, label=<ko({#f,#t})>, fillcolor=<#FFFFAA>];
611[xlabel=611, label=<(set! result (cons i result))>];
612[xlabel=612, label=<(set! result (cons i result))>];
613[xlabel=613, label=<ko({#f,#t})>, fillcolor=<#FFFFAA>];
614[xlabel=614, label=<(cons i result)>];
615[xlabel=615, label=<(cons i result)>];
616[xlabel=616, label=<ko(Cons(@"..."-Time(),@(9 " " 3 " " 16 " " 4 " " 1 " " 1 " ")-Time()))>, fillcolor=<#DDDDFF>];
617[xlabel=617, label=<(not (null? l))>];
618[xlabel=618, label=<(eq? (cdr l) r)>];
619[xlabel=619, label=<ko(#f)>, fillcolor=<#DDDDFF>];
620[xlabel=620, label=<#t>];
621[xlabel=621, label=<(cdr l)>];
622[xlabel=622, label=<(null? l)>];
623[xlabel=623, label=<ko({#f,#t})>, fillcolor=<#FFFFAA>];
624[xlabel=624, label=<ko(Cons(@i-Time(),@result-Time()))>, fillcolor=<#DDDDFF>];
625[xlabel=625, label=<ko(Cons(@i-Time(),@result-Time()))>, fillcolor=<#DDDDFF>];
626[xlabel=626, label=<ko(#f)>, fillcolor=<#DDDDFF>];
627[xlabel=627, label=<ko(#f)>, fillcolor=<#DDDDFF>];
628[xlabel=628, label=<ko(#f)>, fillcolor=<#DDDDFF>];
629[xlabel=629, label=<ko(#f)>, fillcolor=<#DDDDFF>];
630[xlabel=630, label=<ko(#f)>, fillcolor=<#DDDDFF>];
631[xlabel=631, label=<ko({#f,#t})>, fillcolor=<#DDDDFF>];
632[xlabel=632, label=<ko({(),Cons(@1-Time(),@(cons 4 last-cons)-Time()),Cons(@(* (car l) (car l))-Time(),@_nil_-Time()),Cons(@3-Time(),@'()-Time()),Cons(@4-Time(),@last-cons-Time())})>, fillcolor=<#DDDDFF>];
633[xlabel=633, label=<ko(#t)>, fillcolor=<#DDDDFF>];
634[xlabel=634, label=<(equal? result '("..." 9 " " 3 " " 16 " " 4 " " 1 " " 1 " "))>];
635[xlabel=635, label=<ko({#f,#t})>, fillcolor=<#DDDDFF>];
636[xlabel=636, label=<ko({#f,#t})>, fillcolor=<#DDDDFF>];
637[xlabel=637, label=<(display (car l))>];
638[xlabel=638, label=<(aux (cdr l))>];
639[xlabel=639, label=<(display (car l))>];
640[xlabel=640, label=<(display (car l))>];
641[xlabel=641, label=<(aux (cdr l))>];
642[xlabel=642, label=<(cdr l)>];
643[xlabel=643, label=<(car l)>];
644[xlabel=644, label=<(car l)>];
645[xlabel=645, label=<(cdr l)>];
646[xlabel=646, label=<(car l)>];
647[xlabel=647, label=<(if (eq? (cdr l) r) (begin (display " ") (display (car l)) (display "...")) (begin (display " ") (display (car l)) (aux (cdr l))))>];
648[xlabel=648, label=<#f>];
649[xlabel=649, label=<(begin (display " ") (display (car l)) (display "..."))>];
650[xlabel=650, label=<(begin (display " ") (display (car l)) (aux (cdr l)))>];
651[xlabel=651, label=<'("..." 9 " " 3 " " 16 " " 4 " " 1 " " 1 " ")>];
652[xlabel=652, label=<ko(Cons(@"..."-Time(),@(9 " " 3 " " 16 " " 4 " " 1 " " 1 " ")-Time()))>, fillcolor=<#DDDDFF>];
653[xlabel=653, label=<(display " ")>];
654[xlabel=654, label=<(display " ")>];
655[xlabel=655, label=<(eq? (cdr l) r)>];
656[xlabel=656, label=<ko(#f)>, fillcolor=<#DDDDFF>];
657[xlabel=657, label=<ko(Int)>, fillcolor=<#DDDDFF>];
658[xlabel=658, label=<ko({(),Cons(@1-Time(),@(cons 4 last-cons)-Time()),Cons(@(* (car l) (car l))-Time(),@_nil_-Time()),Cons(@3-Time(),@'()-Time()),Cons(@4-Time(),@last-cons-Time())})>, fillcolor=<#DDDDFF>];
659[xlabel=659, label=<ko(Int)>, fillcolor=<#DDDDFF>];
660[xlabel=660, label=<ko(Int)>, fillcolor=<#DDDDFF>];
661[xlabel=661, label=<ko({(),Cons(@1-Time(),@(cons 4 last-cons)-Time()),Cons(@(* (car l) (car l))-Time(),@_nil_-Time()),Cons(@3-Time(),@'()-Time()),Cons(@4-Time(),@last-cons-Time())})>, fillcolor=<#DDDDFF>];
662[xlabel=662, label=<(set! result (cons i result))>];
663[xlabel=663, label=<(set! result (cons i result))>];
664[xlabel=664, label=<(set! result (cons i result))>];
665[xlabel=665, label=<#t>];
666[xlabel=666, label=<(cdr l)>];
667[xlabel=667, label=<(set! result (cons i result))>];
668[xlabel=668, label=<(set! result (cons i result))>];
669[xlabel=669, label=<ko({#f,#t})>, fillcolor=<#FFFFAA>];
670[xlabel=670, label=<(cons i result)>];
671[xlabel=671, label=<ko({(),Cons(@1-Time(),@(cons 4 last-cons)-Time()),Cons(@(* (car l) (car l))-Time(),@_nil_-Time()),Cons(@3-Time(),@'()-Time()),Cons(@4-Time(),@last-cons-Time())})>, fillcolor=<#DDDDFF>];
672[xlabel=672, label=<ko(#t)>, fillcolor=<#DDDDFF>];
673[xlabel=673, label=<ko(Cons(@i-Time(),@result-Time()))>, fillcolor=<#DDDDFF>];
674[xlabel=674, label=<(equal? result '("..." 9 " " 3 " " 16 " " 4 " " 1 " " 1 " "))>];
675[xlabel=675, label=<ko({#f,#t})>, fillcolor=<#DDDDFF>];
676[xlabel=676, label=<(begin (display " ") (display (car l)) (display "..."))>];
677[xlabel=677, label=<(begin (display " ") (display (car l)) (aux (cdr l)))>];
678[xlabel=678, label=<'("..." 9 " " 3 " " 16 " " 4 " " 1 " " 1 " ")>];
679[xlabel=679, label=<ko(#f)>, fillcolor=<#DDDDFF>];
680[xlabel=680, label=<ko(#f)>, fillcolor=<#DDDDFF>];
681[xlabel=681, label=<ko(#f)>, fillcolor=<#DDDDFF>];
682[xlabel=682, label=<ko(#f)>, fillcolor=<#DDDDFF>];
683[xlabel=683, label=<(display (car l))>];
684[xlabel=684, label=<(aux (cdr l))>];
685[xlabel=685, label=<(display (car l))>];
686[xlabel=686, label=<(display "...")>];
687[xlabel=687, label=<ko(Cons(@"..."-Time(),@(9 " " 3 " " 16 " " 4 " " 1 " " 1 " ")-Time()))>, fillcolor=<#DDDDFF>];
688[xlabel=688, label=<(display " ")>];
689[xlabel=689, label=<(display " ")>];
690[xlabel=690, label=<(set! result (cons i result))>];
691[xlabel=691, label=<(set! result (cons i result))>];
692[xlabel=692, label=<ko({#f,#t})>, fillcolor=<#FFFFAA>];
693[xlabel=693, label=<(set! result (cons i result))>];
694[xlabel=694, label=<(car l)>];
695[xlabel=695, label=<(cdr l)>];
696[xlabel=696, label=<(car l)>];
697[xlabel=697, label=<ko(Int)>, fillcolor=<#DDDDFF>];
698[xlabel=698, label=<ko({(),Cons(@1-Time(),@(cons 4 last-cons)-Time()),Cons(@(* (car l) (car l))-Time(),@_nil_-Time()),Cons(@3-Time(),@'()-Time()),Cons(@4-Time(),@last-cons-Time())})>, fillcolor=<#DDDDFF>];
699[xlabel=699, label=<ko(Int)>, fillcolor=<#DDDDFF>];
700[xlabel=700, label=<(cons i result)>];
701[xlabel=701, label=<ko(Cons(@i-Time(),@result-Time()))>, fillcolor=<#DDDDFF>];
702[xlabel=702, label=<(set! result (cons i result))>];
703[xlabel=703, label=<(set! result (cons i result))>];
704[xlabel=704, label=<ko(#f)>, fillcolor=<#DDDDFF>];
705[xlabel=705, label=<ko(#f)>, fillcolor=<#DDDDFF>];
706[xlabel=706, label=<ko(#f)>, fillcolor=<#DDDDFF>];
707[xlabel=707, label=<ko(#f)>, fillcolor=<#DDDDFF>];
708[xlabel=708, label=<(display (car l))>];
709[xlabel=709, label=<(display (car l))>];
710[xlabel=710, label=<(aux (cdr l))>];
711[xlabel=711, label=<(display "...")>];
712[xlabel=712, label=<(set! result (cons i result))>];
713[xlabel=713, label=<(cdr l)>];
714[xlabel=714, label=<(car l)>];
715[xlabel=715, label=<(car l)>];
716[xlabel=716, label=<ko(Int)>, fillcolor=<#DDDDFF>];
717[xlabel=717, label=<ko(Int)>, fillcolor=<#DDDDFF>];
718[xlabel=718, label=<ko({(),Cons(@1-Time(),@(cons 4 last-cons)-Time()),Cons(@(* (car l) (car l))-Time(),@_nil_-Time()),Cons(@3-Time(),@'()-Time()),Cons(@4-Time(),@last-cons-Time())})>, fillcolor=<#DDDDFF>];
719[xlabel=719, label=<(set! result (cons i result))>];
720[xlabel=720, label=<(set! result (cons i result))>];

0 -> 1;
1 -> 2;
2 -> 3;
3 -> 4;
4 -> 5;
5 -> 6;
6 -> 7;
7 -> 8;
8 -> 9;
9 -> 10;
10 -> 11;
11 -> 12;
12 -> 13;
13 -> 14;
14 -> 15;
15 -> 16;
16 -> 17;
17 -> 18;
18 -> 19;
19 -> 20;
20 -> 21;
21 -> 22;
22 -> 23;
23 -> 24;
24 -> 25;
25 -> 26;
26 -> 27;
27 -> 28;
28 -> 29;
29 -> 30;
30 -> 31;
31 -> 32;
32 -> 33;
33 -> 34;
34 -> 35;
35 -> 36;
36 -> 37;
37 -> 38;
38 -> 39;
39 -> 40;
40 -> 41;
41 -> 42;
42 -> 43;
43 -> 44;
44 -> 45;
45 -> 46;
46 -> 47;
47 -> 48;
48 -> 49;
48 -> 50;
49 -> 51;
50 -> 52;
51 -> 54;
52 -> 53;
53 -> 56;
54 -> 55;
55 -> 58;
56 -> 57;
57 -> 60;
58 -> 59;
59 -> 62;
60 -> 61;
61 -> 64;
62 -> 63;
63 -> 66;
64 -> 65;
65 -> 68;
66 -> 67;
67 -> 70;
68 -> 69;
69 -> 72;
70 -> 71;
71 -> 74;
72 -> 73;
73 -> 76;
74 -> 75;
75 -> 78;
76 -> 77;
77 -> 80;
78 -> 79;
79 -> 82;
80 -> 81;
81 -> 84;
82 -> 83;
83 -> 86;
84 -> 85;
85 -> 88;
86 -> 87;
87 -> 90;
88 -> 89;
89 -> 93;
89 -> 94;
90 -> 91;
90 -> 92;
91 -> 51;
92 -> 52;
93 -> 95;
94 -> 96;
95 -> 98;
96 -> 97;
97 -> 100;
98 -> 99;
99 -> 102;
100 -> 101;
101 -> 104;
102 -> 103;
103 -> 106;
104 -> 105;
105 -> 108;
106 -> 107;
107 -> 110;
108 -> 109;
109 -> 112;
109 -> 113;
110 -> 111;
111 -> 116;
112 -> 114;
113 -> 115;
114 -> 119;
115 -> 118;
116 -> 117;
117 -> 122;
118 -> 121;
119 -> 120;
120 -> 125;
121 -> 124;
122 -> 123;
123 -> 128;
124 -> 127;
125 -> 126;
126 -> 131;
127 -> 130;
128 -> 129;
129 -> 134;
130 -> 133;
131 -> 132;
132 -> 137;
133 -> 136;
134 -> 135;
135 -> 140;
136 -> 139;
137 -> 138;
138 -> 143;
139 -> 142;
140 -> 141;
141 -> 146;
142 -> 145;
143 -> 144;
144 -> 150;
145 -> 149;
146 -> 147;
146 -> 148;
147 -> 95;
148 -> 96;
149 -> 152;
150 -> 151;
151 -> 154;
152 -> 153;
153 -> 156;
154 -> 155;
155 -> 158;
156 -> 157;
157 -> 160;
158 -> 159;
159 -> 162;
160 -> 161;
161 -> 164;
162 -> 163;
163 -> 166;
164 -> 165;
165 -> 169;
166 -> 167;
166 -> 168;
167 -> 114;
168 -> 171;
169 -> 170;
170 -> 173;
171 -> 172;
172 -> 175;
173 -> 174;
174 -> 177;
175 -> 176;
176 -> 179;
177 -> 178;
178 -> 181;
179 -> 180;
180 -> 184;
181 -> 182;
181 -> 183;
182 -> 186;
183 -> 187;
184 -> 185;
185 -> 190;
186 -> 189;
187 -> 188;
188 -> 193;
189 -> 192;
190 -> 191;
191 -> 196;
192 -> 195;
193 -> 194;
194 -> 199;
195 -> 198;
196 -> 197;
197 -> 201;
198 -> 181;
199 -> 200;
200 -> 203;
201 -> 202;
202 -> 205;
203 -> 204;
204 -> 207;
205 -> 206;
206 -> 209;
207 -> 208;
208 -> 211;
209 -> 210;
210 -> 213;
211 -> 212;
212 -> 215;
213 -> 214;
214 -> 218;
215 -> 216;
215 -> 217;
216 -> 220;
217 -> 221;
218 -> 219;
219 -> 224;
220 -> 223;
221 -> 222;
222 -> 227;
223 -> 226;
224 -> 225;
225 -> 230;
226 -> 229;
227 -> 228;
228 -> 235;
228 -> 236;
229 -> 232;
229 -> 233;
229 -> 234;
230 -> 231;
231 -> 242;
232 -> 239;
233 -> 240;
234 -> 241;
235 -> 237;
236 -> 238;
237 -> 249;
238 -> 248;
239 -> 247;
240 -> 246;
241 -> 245;
242 -> 243;
242 -> 244;
243 -> 255;
244 -> 256;
245 -> 254;
246 -> 253;
247 -> 252;
248 -> 251;
249 -> 250;
250 -> 263;
251 -> 262;
252 -> 261;
253 -> 260;
254 -> 259;
255 -> 258;
256 -> 257;
257 -> 268;
258 -> 267;
259 -> 266;
260 -> 265;
261 -> 226;
262 -> 264;
263 -> 227;
264 -> 273;
265 -> 272;
266 -> 271;
267 -> 270;
268 -> 269;
269 -> 281;
270 -> 280;
271 -> 276;
271 -> 277;
271 -> 278;
271 -> 279;
272 -> 275;
273 -> 274;
274 -> 288;
275 -> 287;
276 -> 283;
277 -> 284;
278 -> 285;
279 -> 286;
280 -> 242;
281 -> 282;
282 -> 297;
283 -> 296;
284 -> 295;
285 -> 294;
286 -> 293;
287 -> 291;
287 -> 292;
288 -> 289;
288 -> 290;
289 -> 305;
290 -> 306;
291 -> 303;
292 -> 304;
293 -> 302;
294 -> 301;
295 -> 300;
296 -> 299;
297 -> 298;
298 -> 315;
299 -> 314;
300 -> 313;
301 -> 312;
302 -> 311;
303 -> 310;
304 -> 309;
305 -> 308;
306 -> 307;
307 -> 326;
308 -> 325;
309 -> 324;
310 -> 323;
311 -> 318;
311 -> 319;
311 -> 320;
311 -> 321;
311 -> 322;
312 -> 266;
313 -> 317;
314 -> 266;
315 -> 316;
316 -> 337;
317 -> 336;
318 -> 331;
319 -> 332;
320 -> 333;
321 -> 334;
322 -> 335;
323 -> 330;
324 -> 329;
325 -> 328;
326 -> 327;
327 -> 350;
328 -> 348;
328 -> 349;
329 -> 347;
330 -> 345;
330 -> 346;
331 -> 344;
332 -> 343;
333 -> 342;
334 -> 341;
335 -> 340;
336 -> 339;
337 -> 338;
338 -> 362;
339 -> 361;
340 -> 302;
341 -> 360;
342 -> 359;
343 -> 358;
344 -> 357;
345 -> 355;
346 -> 356;
347 -> 354;
348 -> 352;
349 -> 353;
350 -> 351;
351 -> 376;
352 -> 375;
353 -> 374;
354 -> 373;
355 -> 372;
356 -> 371;
357 -> 370;
358 -> 369;
359 -> 368;
360 -> 367;
361 -> 365;
361 -> 366;
362 -> 363;
362 -> 364;
363 -> 383;
364 -> 384;
365 -> 381;
366 -> 382;
367 -> 302;
368 -> 302;
369 -> 380;
370 -> 379;
371 -> 377;
372 -> 377;
374 -> 378;
375 -> 377;
377 -> 391;
378 -> 392;
379 -> 390;
380 -> 389;
381 -> 388;
382 -> 387;
383 -> 386;
384 -> 385;
385 -> 402;
386 -> 401;
387 -> 400;
388 -> 399;
389 -> 398;
391 -> 395;
391 -> 396;
391 -> 397;
392 -> 393;
392 -> 394;
393 -> 411;
394 -> 412;
395 -> 408;
396 -> 409;
397 -> 410;
398 -> 407;
399 -> 406;
400 -> 405;
401 -> 404;
402 -> 403;
403 -> 426;
403 -> 427;
404 -> 423;
404 -> 424;
404 -> 425;
405 -> 422;
406 -> 420;
406 -> 421;
407 -> 418;
407 -> 419;
408 -> 417;
409 -> 416;
410 -> 415;
411 -> 414;
412 -> 413;
413 -> 442;
414 -> 441;
415 -> 440;
416 -> 439;
417 -> 438;
418 -> 436;
419 -> 437;
420 -> 434;
421 -> 435;
422 -> 433;
423 -> 430;
424 -> 431;
425 -> 432;
426 -> 428;
427 -> 429;
428 -> 455;
429 -> 454;
430 -> 453;
431 -> 452;
432 -> 451;
433 -> 450;
434 -> 449;
435 -> 448;
436 -> 447;
437 -> 446;
438 -> 445;
439 -> 260;
440 -> 444;
441 -> 443;
442 -> 262;
443 -> 378;
444 -> 461;
445 -> 377;
446 -> 463;
447 -> 462;
448 -> 461;
449 -> 461;
451 -> 460;
452 -> 459;
453 -> 458;
454 -> 457;
455 -> 456;
456 -> 471;
457 -> 470;
458 -> 469;
459 -> 468;
460 -> 467;
461 -> 464;
462 -> 466;
463 -> 465;
464 -> 478;
464 -> 479;
464 -> 480;
464 -> 481;
465 -> 477;
466 -> 475;
466 -> 476;
467 -> 474;
468 -> 473;
469 -> 401;
470 -> 472;
471 -> 402;
472 -> 491;
473 -> 490;
474 -> 489;
475 -> 487;
476 -> 488;
477 -> 486;
478 -> 482;
479 -> 483;
480 -> 484;
481 -> 485;
482 -> 504;
483 -> 503;
484 -> 502;
485 -> 501;
486 -> 500;
487 -> 499;
488 -> 498;
489 -> 494;
489 -> 495;
489 -> 496;
489 -> 497;
490 -> 493;
491 -> 492;
492 -> 514;
493 -> 513;
494 -> 509;
495 -> 510;
496 -> 511;
497 -> 512;
498 -> 508;
499 -> 508;
501 -> 508;
502 -> 507;
503 -> 506;
504 -> 505;
505 -> 525;
506 -> 313;
507 -> 524;
508 -> 523;
509 -> 522;
510 -> 521;
511 -> 520;
512 -> 519;
513 -> 517;
513 -> 518;
514 -> 515;
514 -> 516;
515 -> 536;
516 -> 537;
517 -> 534;
518 -> 535;
519 -> 533;
520 -> 532;
521 -> 531;
522 -> 530;
523 -> 437;
523 -> 526;
523 -> 527;
523 -> 528;
523 -> 529;
524 -> 461;
525 -> 461;
526 -> 546;
527 -> 547;
528 -> 548;
529 -> 549;
530 -> 545;
531 -> 544;
532 -> 543;
533 -> 542;
534 -> 541;
535 -> 540;
536 -> 539;
537 -> 538;
538 -> 563;
539 -> 562;
540 -> 561;
541 -> 560;
542 -> 555;
542 -> 556;
542 -> 557;
542 -> 558;
542 -> 559;
543 -> 474;
544 -> 554;
545 -> 474;
546 -> 553;
547 -> 552;
548 -> 551;
549 -> 550;
550 -> 508;
551 -> 576;
552 -> 575;
553 -> 574;
554 -> 573;
555 -> 568;
556 -> 569;
557 -> 570;
558 -> 571;
559 -> 572;
560 -> 567;
561 -> 566;
562 -> 565;
563 -> 564;
564 -> 590;
565 -> 588;
565 -> 589;
566 -> 587;
567 -> 585;
567 -> 586;
568 -> 584;
569 -> 583;
570 -> 582;
571 -> 581;
572 -> 580;
573 -> 579;
574 -> 578;
575 -> 577;
576 -> 369;
577 -> 508;
578 -> 508;
579 -> 601;
580 -> 533;
581 -> 600;
582 -> 599;
583 -> 598;
584 -> 597;
585 -> 595;
586 -> 596;
587 -> 594;
588 -> 592;
589 -> 593;
590 -> 591;
591 -> 613;
592 -> 612;
593 -> 611;
594 -> 610;
595 -> 609;
596 -> 608;
597 -> 607;
598 -> 606;
599 -> 605;
600 -> 604;
601 -> 602;
601 -> 603;
602 -> 618;
603 -> 619;
604 -> 617;
605 -> 533;
606 -> 533;
607 -> 616;
608 -> 614;
609 -> 614;
611 -> 615;
612 -> 614;
614 -> 624;
615 -> 625;
616 -> 623;
617 -> 622;
618 -> 621;
619 -> 620;
620 -> 633;
621 -> 632;
622 -> 631;
624 -> 628;
624 -> 629;
624 -> 630;
625 -> 626;
625 -> 627;
626 -> 640;
627 -> 641;
628 -> 637;
629 -> 638;
630 -> 639;
631 -> 636;
632 -> 635;
633 -> 634;
634 -> 651;
635 -> 649;
635 -> 650;
636 -> 647;
636 -> 648;
637 -> 646;
638 -> 645;
639 -> 644;
640 -> 643;
641 -> 642;
642 -> 661;
643 -> 660;
644 -> 659;
645 -> 658;
646 -> 657;
647 -> 655;
648 -> 656;
649 -> 653;
650 -> 654;
651 -> 652;
652 -> 669;
653 -> 668;
654 -> 667;
655 -> 666;
656 -> 665;
657 -> 664;
658 -> 468;
659 -> 663;
660 -> 662;
661 -> 470;
662 -> 615;
663 -> 670;
664 -> 614;
665 -> 672;
666 -> 671;
667 -> 670;
668 -> 670;
670 -> 673;
671 -> 675;
672 -> 674;
673 -> 679;
673 -> 680;
673 -> 681;
673 -> 682;
674 -> 678;
675 -> 676;
675 -> 677;
676 -> 688;
677 -> 689;
678 -> 687;
679 -> 683;
680 -> 684;
681 -> 685;
682 -> 686;
683 -> 696;
684 -> 695;
685 -> 694;
686 -> 693;
687 -> 692;
688 -> 691;
689 -> 690;
690 -> 700;
691 -> 700;
693 -> 700;
694 -> 699;
695 -> 698;
696 -> 697;
697 -> 703;
698 -> 544;
699 -> 702;
700 -> 701;
701 -> 656;
701 -> 704;
701 -> 705;
701 -> 706;
701 -> 707;
702 -> 670;
703 -> 670;
704 -> 708;
705 -> 709;
706 -> 710;
707 -> 711;
708 -> 715;
709 -> 714;
710 -> 713;
711 -> 712;
712 -> 700;
713 -> 718;
714 -> 717;
715 -> 716;
716 -> 720;
717 -> 719;
718 -> 604;
719 -> 700;
720 -> 700;
}
