digraph "Scala-Par-AM Scheme-examples/Nguyen/len.scm" {
  node[shape=box, style=filled, fillcolor=<#DDFFDD>];

stats[style=rounded, label="# nodes: 63\l# edges: 64\lgraph density: 0.016\loutdegree positive min: 1\loutdegree max: 2\loutdegree avg: 1.016\l"];
config[style=rounded, label="lattice: TypeSet\lbound: 100\laddress: Classical\lstep\lmachine: SeqAAMLS\l"]

0[xlabel=0, label=<(letrec ((len (lambda (l) (loop l (lambda (x) x)))) (loop (lambda (l k) (cond ((null? l) (k 0)) ((pair? l) (loop (cdr l) (lambda (n) (k (+ 1 n))))))))) (len (list 1 2 3 4 5)))>, fillcolor=<#AAFFAA>];
1[xlabel=1, label=<(len (list 1 2 3 4 5))>];
2[xlabel=2, label=<(list 1 2 3 4 5)>];
3[xlabel=3, label=<ko(Cons(@1-Time(),@_cons_1-Time()))>, fillcolor=<#DDDDFF>];
4[xlabel=4, label=<(loop l (lambda (x) x))>];
5[xlabel=5, label=<(cond ((null? l) (k 0)) ((pair? l) (loop (cdr l) (lambda (n) (k (+ 1 n))))))>];
6[xlabel=6, label=<(null? l)>];
7[xlabel=7, label=<ko(#f)>, fillcolor=<#DDDDFF>];
8[xlabel=8, label=<(pair? l)>];
9[xlabel=9, label=<ko(#t)>, fillcolor=<#DDDDFF>];
10[xlabel=10, label=<(loop (cdr l) (lambda (n) (k (+ 1 n))))>];
11[xlabel=11, label=<(cdr l)>];
12[xlabel=12, label=<ko(Cons(@2-Time(),@_cons_2-Time()))>, fillcolor=<#DDDDFF>];
13[xlabel=13, label=<(cond ((null? l) (k 0)) ((pair? l) (loop (cdr l) (lambda (n) (k (+ 1 n))))))>];
14[xlabel=14, label=<(null? l)>];
15[xlabel=15, label=<ko(#f)>, fillcolor=<#DDDDFF>];
16[xlabel=16, label=<(pair? l)>];
17[xlabel=17, label=<ko(#t)>, fillcolor=<#DDDDFF>];
18[xlabel=18, label=<(loop (cdr l) (lambda (n) (k (+ 1 n))))>];
19[xlabel=19, label=<(cdr l)>];
20[xlabel=20, label=<ko({Cons(@2-Time(),@_cons_2-Time()),Cons(@3-Time(),@_cons_3-Time())})>, fillcolor=<#DDDDFF>];
21[xlabel=21, label=<(cond ((null? l) (k 0)) ((pair? l) (loop (cdr l) (lambda (n) (k (+ 1 n))))))>];
22[xlabel=22, label=<(null? l)>];
23[xlabel=23, label=<ko(#f)>, fillcolor=<#DDDDFF>];
24[xlabel=24, label=<(pair? l)>];
25[xlabel=25, label=<ko(#t)>, fillcolor=<#DDDDFF>];
26[xlabel=26, label=<(loop (cdr l) (lambda (n) (k (+ 1 n))))>];
27[xlabel=27, label=<(cdr l)>];
28[xlabel=28, label=<ko({Cons(@2-Time(),@_cons_2-Time()),Cons(@3-Time(),@_cons_3-Time()),Cons(@4-Time(),@_cons_4-Time())})>, fillcolor=<#DDDDFF>];
29[xlabel=29, label=<(cond ((null? l) (k 0)) ((pair? l) (loop (cdr l) (lambda (n) (k (+ 1 n))))))>];
30[xlabel=30, label=<(null? l)>];
31[xlabel=31, label=<ko(#f)>, fillcolor=<#DDDDFF>];
32[xlabel=32, label=<(pair? l)>];
33[xlabel=33, label=<ko(#t)>, fillcolor=<#DDDDFF>];
34[xlabel=34, label=<(loop (cdr l) (lambda (n) (k (+ 1 n))))>];
35[xlabel=35, label=<(cdr l)>];
36[xlabel=36, label=<ko({Cons(@2-Time(),@_cons_2-Time()),Cons(@5-Time(),@_nil_-Time()),Cons(@3-Time(),@_cons_3-Time()),Cons(@4-Time(),@_cons_4-Time())})>, fillcolor=<#DDDDFF>];
37[xlabel=37, label=<(cond ((null? l) (k 0)) ((pair? l) (loop (cdr l) (lambda (n) (k (+ 1 n))))))>];
38[xlabel=38, label=<(null? l)>];
39[xlabel=39, label=<ko(#f)>, fillcolor=<#DDDDFF>];
40[xlabel=40, label=<(pair? l)>];
41[xlabel=41, label=<ko(#t)>, fillcolor=<#DDDDFF>];
42[xlabel=42, label=<(loop (cdr l) (lambda (n) (k (+ 1 n))))>];
43[xlabel=43, label=<(cdr l)>];
44[xlabel=44, label=<ko({(),Cons(@5-Time(),@_nil_-Time()),Cons(@4-Time(),@_cons_4-Time()),Cons(@3-Time(),@_cons_3-Time()),Cons(@2-Time(),@_cons_2-Time())})>, fillcolor=<#DDDDFF>];
45[xlabel=45, label=<(cond ((null? l) (k 0)) ((pair? l) (loop (cdr l) (lambda (n) (k (+ 1 n))))))>];
46[xlabel=46, label=<(null? l)>];
47[xlabel=47, label=<ko({#f,#t})>, fillcolor=<#DDDDFF>];
48[xlabel=48, label=<(k 0)>];
49[xlabel=49, label=<(pair? l)>];
50[xlabel=50, label=<(k (+ 1 n))>];
51[xlabel=51, label=<x>];
52[xlabel=52, label=<ko({#f,#t})>, fillcolor=<#DDDDFF>];
53[xlabel=53, label=<(loop (cdr l) (lambda (n) (k (+ 1 n))))>];
54[xlabel=54, label=<ko(#f)>, fillcolor=<#FFFFAA>];
55[xlabel=55, label=<(+ 1 n)>];
56[xlabel=56, label=<ko(Int)>, fillcolor=<#FFFFAA>];
57[xlabel=57, label=<ko(Int)>, fillcolor=<#DDDDFF>];
58[xlabel=58, label=<(cdr l)>];
59[xlabel=59, label=<ko({(),Cons(@5-Time(),@_nil_-Time()),Cons(@4-Time(),@_cons_4-Time()),Cons(@3-Time(),@_cons_3-Time()),Cons(@2-Time(),@_cons_2-Time())})>, fillcolor=<#DDDDFF>];
60[xlabel=60, label=<(k (+ 1 n))>];
61[xlabel=61, label=<x>];
62[xlabel=62, label=<ko(Int)>, fillcolor=<#FFFFAA>];

0 -> 1;
1 -> 2;
2 -> 3;
3 -> 4;
4 -> 5;
5 -> 6;
6 -> 7;
7 -> 8;
8 -> 9;
9 -> 10;
10 -> 11;
11 -> 12;
12 -> 13;
13 -> 14;
14 -> 15;
15 -> 16;
16 -> 17;
17 -> 18;
18 -> 19;
19 -> 20;
20 -> 21;
21 -> 22;
22 -> 23;
23 -> 24;
24 -> 25;
25 -> 26;
26 -> 27;
27 -> 28;
28 -> 29;
29 -> 30;
30 -> 31;
31 -> 32;
32 -> 33;
33 -> 34;
34 -> 35;
35 -> 36;
36 -> 37;
37 -> 38;
38 -> 39;
39 -> 40;
40 -> 41;
41 -> 42;
42 -> 43;
43 -> 44;
44 -> 45;
45 -> 46;
46 -> 47;
47 -> 48;
47 -> 49;
48 -> 50;
48 -> 51;
49 -> 52;
50 -> 55;
51 -> 56;
52 -> 53;
52 -> 54;
53 -> 58;
55 -> 57;
57 -> 60;
57 -> 61;
58 -> 59;
59 -> 45;
60 -> 55;
61 -> 62;
}
