digraph "Scala-Par-AM Scheme-examples/AlgoDat1/queue.scm" {
  node[shape=box, style=filled, fillcolor=<#DDFFDD>];

stats[style=rounded, label="# nodes: 2\l# edges: 1\lgraph density: 0.500\loutdegree positive min: 1\loutdegree max: 1\loutdegree avg: 0.500\l"];
config[style=rounded, label="lattice: TypeSet\lbound: 100\laddress: Classical\lstep\lmachine: SeqAAMLS\l"]

0[xlabel=0, label=<(begin )>, fillcolor=<#AAFFAA>];
1[xlabel=1, label=<ko(#f)>, fillcolor=<#FFFFAA>];

0 -> 1;
}
