digraph "Scala-Par-AM Scheme-examples/other/church-6.scm" {
  node[shape=box, style=filled, fillcolor=<#DDFFDD>];

stats[style=rounded, label="# nodes: 114\l# edges: 136\lgraph density: 0.011\loutdegree positive min: 1\loutdegree max: 3\loutdegree avg: 1.193\l"];
config[style=rounded, label="lattice: TypeSet\lbound: 100\laddress: Classical\lstep\lmachine: SeqAAMLS\l"]

0[xlabel=0, label=<(letrec ((zero (lambda (f x) x)) (inc (lambda (n) (lambda (f x) (f (n f x))))) (plus (lambda (m n) (lambda (f x) (m f (n f x)))))) ((plus (inc (inc (inc zero))) (plus (inc (inc zero)) (inc zero))) (lambda (x) (+ x 1)) 0))>, fillcolor=<#AAFFAA>];
1[xlabel=1, label=<((plus (inc (inc (inc zero))) (plus (inc (inc zero)) (inc zero))) (lambda (x) (+ x 1)) 0)>];
2[xlabel=2, label=<(plus (inc (inc (inc zero))) (plus (inc (inc zero)) (inc zero)))>];
3[xlabel=3, label=<(inc (inc (inc zero)))>];
4[xlabel=4, label=<(inc (inc zero))>];
5[xlabel=5, label=<(inc zero)>];
6[xlabel=6, label=<(lambda (f x) (f (n f x)))>];
7[xlabel=7, label=<ko(#&lt;clo&gt;)>, fillcolor=<#DDDDFF>];
8[xlabel=8, label=<(lambda (f x) (f (n f x)))>];
9[xlabel=9, label=<ko(#&lt;clo&gt;)>, fillcolor=<#DDDDFF>];
10[xlabel=10, label=<(lambda (f x) (f (n f x)))>];
11[xlabel=11, label=<ko(#&lt;clo&gt;)>, fillcolor=<#DDDDFF>];
12[xlabel=12, label=<(plus (inc (inc zero)) (inc zero))>];
13[xlabel=13, label=<(inc (inc zero))>];
14[xlabel=14, label=<(inc zero)>];
15[xlabel=15, label=<(lambda (f x) (f (n f x)))>];
16[xlabel=16, label=<ko(#&lt;clo&gt;)>, fillcolor=<#DDDDFF>];
17[xlabel=17, label=<(lambda (f x) (f (n f x)))>];
18[xlabel=18, label=<ko(#&lt;clo&gt;)>, fillcolor=<#DDDDFF>];
19[xlabel=19, label=<(inc zero)>];
20[xlabel=20, label=<(lambda (f x) (f (n f x)))>];
21[xlabel=21, label=<ko(#&lt;clo&gt;)>, fillcolor=<#DDDDFF>];
22[xlabel=22, label=<(lambda (f x) (m f (n f x)))>];
23[xlabel=23, label=<ko(#&lt;clo&gt;)>, fillcolor=<#DDDDFF>];
24[xlabel=24, label=<(lambda (f x) (m f (n f x)))>];
25[xlabel=25, label=<ko(#&lt;clo&gt;)>, fillcolor=<#DDDDFF>];
26[xlabel=26, label=<(m f (n f x))>];
27[xlabel=27, label=<(n f x)>];
28[xlabel=28, label=<(f (n f x))>];
29[xlabel=29, label=<(m f (n f x))>];
30[xlabel=30, label=<(n f x)>];
31[xlabel=31, label=<(n f x)>];
32[xlabel=32, label=<(f (n f x))>];
33[xlabel=33, label=<(m f (n f x))>];
34[xlabel=34, label=<x>];
35[xlabel=35, label=<(f (n f x))>];
36[xlabel=36, label=<ko(Int)>, fillcolor=<#DDDDFF>];
37[xlabel=37, label=<(n f x)>];
38[xlabel=38, label=<(n f x)>];
39[xlabel=39, label=<x>];
40[xlabel=40, label=<(f (n f x))>];
41[xlabel=41, label=<x>];
42[xlabel=42, label=<(f (n f x))>];
43[xlabel=43, label=<(+ x 1)>];
44[xlabel=44, label=<ko(Int)>, fillcolor=<#DDDDFF>];
45[xlabel=45, label=<ko(Int)>, fillcolor=<#DDDDFF>];
46[xlabel=46, label=<ko(Int)>, fillcolor=<#DDDDFF>];
47[xlabel=47, label=<(n f x)>];
48[xlabel=48, label=<x>];
49[xlabel=49, label=<(f (n f x))>];
50[xlabel=50, label=<(+ x 1)>];
51[xlabel=51, label=<(+ x 1)>];
52[xlabel=52, label=<(+ x 1)>];
53[xlabel=53, label=<(f (n f x))>];
54[xlabel=54, label=<(n f x)>];
55[xlabel=55, label=<ko(Int)>, fillcolor=<#DDDDFF>];
56[xlabel=56, label=<ko(Int)>, fillcolor=<#DDDDFF>];
57[xlabel=57, label=<ko(Int)>, fillcolor=<#DDDDFF>];
58[xlabel=58, label=<ko(Int)>, fillcolor=<#DDDDFF>];
59[xlabel=59, label=<(+ x 1)>];
60[xlabel=60, label=<(+ x 1)>];
61[xlabel=61, label=<(f (n f x))>];
62[xlabel=62, label=<(f (n f x))>];
63[xlabel=63, label=<(f (n f x))>];
64[xlabel=64, label=<x>];
65[xlabel=65, label=<(f (n f x))>];
66[xlabel=66, label=<ko(Int)>, fillcolor=<#DDDDFF>];
67[xlabel=67, label=<(n f x)>];
68[xlabel=68, label=<(n f x)>];
69[xlabel=69, label=<(n f x)>];
70[xlabel=70, label=<ko(Int)>, fillcolor=<#DDDDFF>];
71[xlabel=71, label=<ko(Int)>, fillcolor=<#DDDDFF>];
72[xlabel=72, label=<(f (n f x))>];
73[xlabel=73, label=<(f (n f x))>];
74[xlabel=74, label=<x>];
75[xlabel=75, label=<(f (n f x))>];
76[xlabel=76, label=<x>];
77[xlabel=77, label=<(f (n f x))>];
78[xlabel=78, label=<x>];
79[xlabel=79, label=<(f (n f x))>];
80[xlabel=80, label=<(+ x 1)>];
81[xlabel=81, label=<(+ x 1)>];
82[xlabel=82, label=<ko(Int)>, fillcolor=<#DDDDFF>];
83[xlabel=83, label=<ko(Int)>, fillcolor=<#FFFFAA>];
84[xlabel=84, label=<ko(Int)>, fillcolor=<#DDDDFF>];
85[xlabel=85, label=<ko(Int)>, fillcolor=<#DDDDFF>];
86[xlabel=86, label=<(n f x)>];
87[xlabel=87, label=<ko(Int)>, fillcolor=<#DDDDFF>];
88[xlabel=88, label=<(n f x)>];
89[xlabel=89, label=<x>];
90[xlabel=90, label=<(f (n f x))>];
91[xlabel=91, label=<x>];
92[xlabel=92, label=<(f (n f x))>];
93[xlabel=93, label=<(+ x 1)>];
94[xlabel=94, label=<(+ x 1)>];
95[xlabel=95, label=<(+ x 1)>];
96[xlabel=96, label=<(+ x 1)>];
97[xlabel=97, label=<(+ x 1)>];
98[xlabel=98, label=<(f (n f x))>];
99[xlabel=99, label=<ko(Int)>, fillcolor=<#DDDDFF>];
100[xlabel=100, label=<ko(Int)>, fillcolor=<#FFFFAA>];
101[xlabel=101, label=<ko(Int)>, fillcolor=<#DDDDFF>];
102[xlabel=102, label=<ko(Int)>, fillcolor=<#FFFFAA>];
103[xlabel=103, label=<ko(Int)>, fillcolor=<#DDDDFF>];
104[xlabel=104, label=<(+ x 1)>];
105[xlabel=105, label=<(+ x 1)>];
106[xlabel=106, label=<(+ x 1)>];
107[xlabel=107, label=<(f (n f x))>];
108[xlabel=108, label=<(f (n f x))>];
109[xlabel=109, label=<(f (n f x))>];
110[xlabel=110, label=<ko(Int)>, fillcolor=<#DDDDFF>];
111[xlabel=111, label=<ko(Int)>, fillcolor=<#FFFFAA>];
112[xlabel=112, label=<(f (n f x))>];
113[xlabel=113, label=<(f (n f x))>];

0 -> 1;
1 -> 2;
2 -> 3;
3 -> 4;
4 -> 5;
5 -> 6;
6 -> 7;
7 -> 8;
8 -> 9;
9 -> 10;
10 -> 11;
11 -> 12;
12 -> 13;
13 -> 14;
14 -> 15;
15 -> 16;
16 -> 17;
17 -> 18;
18 -> 19;
19 -> 20;
20 -> 21;
21 -> 22;
22 -> 23;
23 -> 24;
24 -> 25;
25 -> 26;
26 -> 27;
27 -> 28;
27 -> 29;
28 -> 30;
29 -> 31;
30 -> 34;
30 -> 35;
31 -> 32;
31 -> 33;
32 -> 38;
33 -> 31;
34 -> 36;
35 -> 37;
36 -> 43;
37 -> 41;
37 -> 42;
38 -> 39;
38 -> 40;
39 -> 46;
40 -> 47;
41 -> 45;
42 -> 37;
43 -> 44;
44 -> 53;
45 -> 51;
45 -> 52;
46 -> 50;
47 -> 48;
47 -> 49;
48 -> 58;
49 -> 47;
50 -> 57;
51 -> 55;
52 -> 56;
53 -> 54;
54 -> 64;
54 -> 65;
55 -> 63;
56 -> 51;
56 -> 52;
57 -> 61;
57 -> 62;
58 -> 59;
58 -> 60;
59 -> 70;
60 -> 71;
61 -> 68;
62 -> 69;
63 -> 67;
64 -> 66;
65 -> 67;
66 -> 80;
66 -> 81;
67 -> 78;
67 -> 79;
68 -> 76;
68 -> 77;
69 -> 74;
69 -> 75;
70 -> 72;
70 -> 73;
71 -> 59;
71 -> 60;
72 -> 86;
73 -> 88;
74 -> 87;
75 -> 88;
76 -> 85;
77 -> 86;
78 -> 84;
79 -> 67;
80 -> 82;
81 -> 83;
82 -> 98;
84 -> 95;
84 -> 96;
84 -> 97;
85 -> 93;
85 -> 94;
86 -> 91;
86 -> 92;
87 -> 50;
88 -> 89;
88 -> 90;
89 -> 71;
90 -> 88;
91 -> 103;
92 -> 86;
93 -> 101;
94 -> 102;
95 -> 99;
96 -> 84;
97 -> 100;
98 -> 54;
99 -> 109;
101 -> 107;
101 -> 108;
103 -> 104;
103 -> 105;
103 -> 106;
104 -> 110;
105 -> 103;
106 -> 111;
107 -> 68;
108 -> 68;
109 -> 67;
110 -> 112;
110 -> 113;
112 -> 86;
113 -> 86;
}
