digraph "Scala-Par-AM Scheme-examples/other/infinite-1.scm" {
  node[shape=box, style=filled, fillcolor=<#DDFFDD>];

stats[style=rounded, label="# nodes: 3\l# edges: 3\lgraph density: 0.500\loutdegree positive min: 1\loutdegree max: 1\loutdegree avg: 1.000\l"];
config[style=rounded, label="lattice: TypeSet\lbound: 100\laddress: Classical\lstep\lmachine: SeqAAMLS\l"]

0[xlabel=0, label=<(letrec ((f (lambda () (f)))) (f))>, fillcolor=<#AAFFAA>];
1[xlabel=1, label=<(f)>];
2[xlabel=2, label=<(f)>];

0 -> 1;
1 -> 2;
2 -> 2;
}
