digraph "Scala-Par-AM Scheme-examples/Parallel_AAM_Andersen_2013/factorial_10.scm" {
  node[shape=box, style=filled, fillcolor=<#DDFFDD>];

stats[style=rounded, label="# nodes: 36\l# edges: 41\lgraph density: 0.033\loutdegree positive min: 1\loutdegree max: 4\loutdegree avg: 1.139\l"];
config[style=rounded, label="lattice: TypeSet\lbound: 100\laddress: Classical\lstep\lmachine: SeqAAMLS\l"]

0[xlabel=0, label=<(letrec ((f (lambda (n) (if (= n 0) 1 (* n (f (- n 1))))))) (f 10))>, fillcolor=<#AAFFAA>];
1[xlabel=1, label=<(f 10)>];
2[xlabel=2, label=<(if (= n 0) 1 (* n (f (- n 1))))>];
3[xlabel=3, label=<(= n 0)>];
4[xlabel=4, label=<ko({#f,#t})>, fillcolor=<#DDDDFF>];
5[xlabel=5, label=<1>];
6[xlabel=6, label=<(* n (f (- n 1)))>];
7[xlabel=7, label=<ko(Int)>, fillcolor=<#FFFFAA>];
8[xlabel=8, label=<(f (- n 1))>];
9[xlabel=9, label=<(- n 1)>];
10[xlabel=10, label=<ko(Int)>, fillcolor=<#DDDDFF>];
11[xlabel=11, label=<(if (= n 0) 1 (* n (f (- n 1))))>];
12[xlabel=12, label=<(= n 0)>];
13[xlabel=13, label=<ko({#f,#t})>, fillcolor=<#DDDDFF>];
14[xlabel=14, label=<1>];
15[xlabel=15, label=<(* n (f (- n 1)))>];
16[xlabel=16, label=<1>];
17[xlabel=17, label=<(* n (f (- n 1)))>];
18[xlabel=18, label=<ko(Int)>, fillcolor=<#FFFFAA>];
19[xlabel=19, label=<(f (- n 1))>];
20[xlabel=20, label=<ko(Int)>, fillcolor=<#DDDDFF>];
21[xlabel=21, label=<(f (- n 1))>];
22[xlabel=22, label=<(- n 1)>];
23[xlabel=23, label=<(- n 1)>];
24[xlabel=24, label=<ko(Int)>, fillcolor=<#DDDDFF>];
25[xlabel=25, label=<ko(Int)>, fillcolor=<#DDDDFF>];
26[xlabel=26, label=<(if (= n 0) 1 (* n (f (- n 1))))>];
27[xlabel=27, label=<(if (= n 0) 1 (* n (f (- n 1))))>];
28[xlabel=28, label=<(= n 0)>];
29[xlabel=29, label=<ko({#f,#t})>, fillcolor=<#DDDDFF>];
30[xlabel=30, label=<1>];
31[xlabel=31, label=<(* n (f (- n 1)))>];
32[xlabel=32, label=<1>];
33[xlabel=33, label=<(* n (f (- n 1)))>];
34[xlabel=34, label=<ko(Int)>, fillcolor=<#FFFFAA>];
35[xlabel=35, label=<ko(Int)>, fillcolor=<#DDDDFF>];

0 -> 1;
1 -> 2;
2 -> 3;
3 -> 4;
4 -> 5;
4 -> 6;
5 -> 7;
6 -> 8;
8 -> 9;
9 -> 10;
10 -> 11;
11 -> 12;
12 -> 13;
13 -> 14;
13 -> 15;
13 -> 16;
13 -> 17;
14 -> 18;
15 -> 19;
16 -> 20;
17 -> 21;
19 -> 23;
20 -> 18;
21 -> 22;
22 -> 25;
23 -> 24;
24 -> 27;
25 -> 26;
26 -> 28;
27 -> 12;
28 -> 29;
29 -> 30;
29 -> 31;
29 -> 32;
29 -> 33;
30 -> 34;
31 -> 21;
32 -> 35;
33 -> 21;
35 -> 34;
35 -> 35;
}
