digraph "Scala-Par-AM Scheme-examples/other/mut-rec.scm" {
  node[shape=box, style=filled, fillcolor=<#DDFFDD>];

stats[style=rounded, label="# nodes: 32\l# edges: 32\lgraph density: 0.032\loutdegree positive min: 1\loutdegree max: 2\loutdegree avg: 1.000\l"];
config[style=rounded, label="lattice: TypeSet\lbound: 100\laddress: Classical\lstep\lmachine: SeqAAMLS\l"]

0[xlabel=0, label=<(letrec ((even? (lambda (x) (if (= x 0) #t (odd? (- x 1))))) (odd? (lambda (x) (if (= x 0) #f (even? (- x 1)))))) (even? 4))>, fillcolor=<#AAFFAA>];
1[xlabel=1, label=<(even? 4)>];
2[xlabel=2, label=<(if (= x 0) #t (odd? (- x 1)))>];
3[xlabel=3, label=<(= x 0)>];
4[xlabel=4, label=<ko({#f,#t})>, fillcolor=<#DDDDFF>];
5[xlabel=5, label=<#t>];
6[xlabel=6, label=<(odd? (- x 1))>];
7[xlabel=7, label=<ko(#t)>, fillcolor=<#FFFFAA>];
8[xlabel=8, label=<(- x 1)>];
9[xlabel=9, label=<ko(Int)>, fillcolor=<#DDDDFF>];
10[xlabel=10, label=<(if (= x 0) #f (even? (- x 1)))>];
11[xlabel=11, label=<(= x 0)>];
12[xlabel=12, label=<ko({#f,#t})>, fillcolor=<#DDDDFF>];
13[xlabel=13, label=<#f>];
14[xlabel=14, label=<(even? (- x 1))>];
15[xlabel=15, label=<ko(#f)>, fillcolor=<#FFFFAA>];
16[xlabel=16, label=<(- x 1)>];
17[xlabel=17, label=<ko(Int)>, fillcolor=<#DDDDFF>];
18[xlabel=18, label=<(if (= x 0) #t (odd? (- x 1)))>];
19[xlabel=19, label=<(= x 0)>];
20[xlabel=20, label=<ko({#f,#t})>, fillcolor=<#DDDDFF>];
21[xlabel=21, label=<#t>];
22[xlabel=22, label=<(odd? (- x 1))>];
23[xlabel=23, label=<ko(#t)>, fillcolor=<#FFFFAA>];
24[xlabel=24, label=<(- x 1)>];
25[xlabel=25, label=<ko(Int)>, fillcolor=<#DDDDFF>];
26[xlabel=26, label=<(if (= x 0) #f (even? (- x 1)))>];
27[xlabel=27, label=<(= x 0)>];
28[xlabel=28, label=<ko({#f,#t})>, fillcolor=<#DDDDFF>];
29[xlabel=29, label=<#f>];
30[xlabel=30, label=<(even? (- x 1))>];
31[xlabel=31, label=<ko(#f)>, fillcolor=<#FFFFAA>];

0 -> 1;
1 -> 2;
2 -> 3;
3 -> 4;
4 -> 5;
4 -> 6;
5 -> 7;
6 -> 8;
8 -> 9;
9 -> 10;
10 -> 11;
11 -> 12;
12 -> 13;
12 -> 14;
13 -> 15;
14 -> 16;
16 -> 17;
17 -> 18;
18 -> 19;
19 -> 20;
20 -> 21;
20 -> 22;
21 -> 23;
22 -> 24;
24 -> 25;
25 -> 26;
26 -> 27;
27 -> 28;
28 -> 29;
28 -> 30;
29 -> 31;
30 -> 16;
}
