digraph "Scala-Par-AM Scheme-examples/SCPI/2.4.scm" {
  node[shape=box, style=filled, fillcolor=<#DDFFDD>];

stats[style=rounded, label="# nodes: 47\l# edges: 47\lgraph density: 0.022\loutdegree positive min: 1\loutdegree max: 2\loutdegree avg: 1.000\l"];
config[style=rounded, label="lattice: TypeSet\lbound: 100\laddress: Classical\lstep\lmachine: SeqAAMLS\l"]

0[xlabel=0, label=<(letrec ((derde-machtswortel (lambda (x) (letrec ((epsilon 1.000000e-02) (hulp-derde-machtswortel (lambda (y) (if (&lt; (abs (- (* y y y) x)) epsilon) y (hulp-derde-machtswortel (/ (+ (/ x (* y y)) y y) 3)))))) (hulp-derde-machtswortel (/ x 3)))))) (= 3.000000e+00 (exact-&gt;inexact (derde-machtswortel 27))))>, fillcolor=<#AAFFAA>];
1[xlabel=1, label=<(= 3.000000e+00 (exact-&gt;inexact (derde-machtswortel 27)))>];
2[xlabel=2, label=<(exact-&gt;inexact (derde-machtswortel 27))>];
3[xlabel=3, label=<(derde-machtswortel 27)>];
4[xlabel=4, label=<(letrec ((epsilon 1.000000e-02) (hulp-derde-machtswortel (lambda (y) (if (&lt; (abs (- (* y y y) x)) epsilon) y (hulp-derde-machtswortel (/ (+ (/ x (* y y)) y y) 3)))))) (hulp-derde-machtswortel (/ x 3)))>];
5[xlabel=5, label=<(hulp-derde-machtswortel (/ x 3))>];
6[xlabel=6, label=<(/ x 3)>];
7[xlabel=7, label=<ko({Int,Real})>, fillcolor=<#DDDDFF>];
8[xlabel=8, label=<(if (&lt; (abs (- (* y y y) x)) epsilon) y (hulp-derde-machtswortel (/ (+ (/ x (* y y)) y y) 3)))>];
9[xlabel=9, label=<(&lt; (abs (- (* y y y) x)) epsilon)>];
10[xlabel=10, label=<(abs (- (* y y y) x))>];
11[xlabel=11, label=<(- (* y y y) x)>];
12[xlabel=12, label=<(* y y y)>];
13[xlabel=13, label=<ko({Real,Int})>, fillcolor=<#DDDDFF>];
14[xlabel=14, label=<ko({Real,Int})>, fillcolor=<#DDDDFF>];
15[xlabel=15, label=<ko({Real,Int})>, fillcolor=<#DDDDFF>];
16[xlabel=16, label=<ko(Bool)>, fillcolor=<#DDDDFF>];
17[xlabel=17, label=<y>];
18[xlabel=18, label=<(hulp-derde-machtswortel (/ (+ (/ x (* y y)) y y) 3))>];
19[xlabel=19, label=<ko({Int,Real})>, fillcolor=<#DDDDFF>];
20[xlabel=20, label=<(/ (+ (/ x (* y y)) y y) 3)>];
21[xlabel=21, label=<(+ (/ x (* y y)) y y)>];
22[xlabel=22, label=<ko(Real)>, fillcolor=<#DDDDFF>];
23[xlabel=23, label=<ko({#f,#t})>, fillcolor=<#FFFFAA>];
24[xlabel=24, label=<(/ x (* y y))>];
25[xlabel=25, label=<(* y y)>];
26[xlabel=26, label=<ko({Real,Int})>, fillcolor=<#DDDDFF>];
27[xlabel=27, label=<ko({Int,Real})>, fillcolor=<#DDDDFF>];
28[xlabel=28, label=<ko({Real,Int})>, fillcolor=<#DDDDFF>];
29[xlabel=29, label=<ko({Int,Real})>, fillcolor=<#DDDDFF>];
30[xlabel=30, label=<(if (&lt; (abs (- (* y y y) x)) epsilon) y (hulp-derde-machtswortel (/ (+ (/ x (* y y)) y y) 3)))>];
31[xlabel=31, label=<(&lt; (abs (- (* y y y) x)) epsilon)>];
32[xlabel=32, label=<(abs (- (* y y y) x))>];
33[xlabel=33, label=<(- (* y y y) x)>];
34[xlabel=34, label=<(* y y y)>];
35[xlabel=35, label=<ko({Real,Int})>, fillcolor=<#DDDDFF>];
36[xlabel=36, label=<ko({Real,Int})>, fillcolor=<#DDDDFF>];
37[xlabel=37, label=<ko({Real,Int})>, fillcolor=<#DDDDFF>];
38[xlabel=38, label=<ko(Bool)>, fillcolor=<#DDDDFF>];
39[xlabel=39, label=<y>];
40[xlabel=40, label=<(hulp-derde-machtswortel (/ (+ (/ x (* y y)) y y) 3))>];
41[xlabel=41, label=<ko({Int,Real})>, fillcolor=<#DDDDFF>];
42[xlabel=42, label=<(/ (+ (/ x (* y y)) y y) 3)>];
43[xlabel=43, label=<(+ (/ x (* y y)) y y)>];
44[xlabel=44, label=<ko(Real)>, fillcolor=<#DDDDFF>];
45[xlabel=45, label=<ko({#f,#t})>, fillcolor=<#FFFFAA>];
46[xlabel=46, label=<(/ x (* y y))>];

0 -> 1;
1 -> 2;
2 -> 3;
3 -> 4;
4 -> 5;
5 -> 6;
6 -> 7;
7 -> 8;
8 -> 9;
9 -> 10;
10 -> 11;
11 -> 12;
12 -> 13;
13 -> 14;
14 -> 15;
15 -> 16;
16 -> 17;
16 -> 18;
17 -> 19;
18 -> 20;
19 -> 22;
20 -> 21;
21 -> 24;
22 -> 23;
24 -> 25;
25 -> 26;
26 -> 27;
27 -> 28;
28 -> 29;
29 -> 30;
30 -> 31;
31 -> 32;
32 -> 33;
33 -> 34;
34 -> 35;
35 -> 36;
36 -> 37;
37 -> 38;
38 -> 39;
38 -> 40;
39 -> 41;
40 -> 42;
41 -> 44;
42 -> 43;
43 -> 46;
44 -> 45;
46 -> 25;
}
