digraph "Scala-Par-AM Scheme-examples/OPi/tree/tree_01.scm" {
  node[shape=box, style=filled, fillcolor=<#DDFFDD>];

stats[style=rounded, label="# nodes: 8\l# edges: 8\lgraph density: 0.143\loutdegree positive min: 1\loutdegree max: 2\loutdegree avg: 1.000\l"];
config[style=rounded, label="lattice: TypeSet\lbound: 100\laddress: Classical\lstep\lmachine: SeqAAMLS\l"]

0[xlabel=0, label=<(letrec ((tree (lambda (n) (if (&gt;= n 0) 0 1)))) (tree 0))>, fillcolor=<#AAFFAA>];
1[xlabel=1, label=<(tree 0)>];
2[xlabel=2, label=<(if (&gt;= n 0) 0 1)>];
3[xlabel=3, label=<(&gt;= n 0)>];
4[xlabel=4, label=<ko(Bool)>, fillcolor=<#DDDDFF>];
5[xlabel=5, label=<0>];
6[xlabel=6, label=<1>];
7[xlabel=7, label=<ko(Int)>, fillcolor=<#FFFFAA>];

0 -> 1;
1 -> 2;
2 -> 3;
3 -> 4;
4 -> 5;
4 -> 6;
5 -> 7;
6 -> 7;
}
