digraph "Scala-Par-AM Scheme-examples/OPi/factorial_recur.scm" {
  node[shape=box, style=filled, fillcolor=<#DDFFDD>];

stats[style=rounded, label="# nodes: 36\l# edges: 41\lgraph density: 0.033\loutdegree positive min: 1\loutdegree max: 4\loutdegree avg: 1.139\l"];
config[style=rounded, label="lattice: TypeSet\lbound: 100\laddress: Classical\lstep\lmachine: AAM\l"]

0[xlabel=0, label=<ev((letrec ((factorial (lambda (n) (if (&lt;= n 1) 1 (* (factorial (- n 1)) n))))) (factorial 10)))>, fillcolor=<#AAFFAA>];
1[xlabel=1, label=<ev((factorial 10))>];
2[xlabel=2, label=<ev((if (&lt;= n 1) 1 (* (factorial (- n 1)) n)))>];
3[xlabel=3, label=<ev((&lt;= n 1))>];
4[xlabel=4, label=<ko(Bool)>, fillcolor=<#DDDDFF>];
5[xlabel=5, label=<ev(1)>];
6[xlabel=6, label=<ev((* (factorial (- n 1)) n))>];
7[xlabel=7, label=<ko(Int)>, fillcolor=<#FFFFAA>];
8[xlabel=8, label=<ev((factorial (- n 1)))>];
9[xlabel=9, label=<ev((- n 1))>];
10[xlabel=10, label=<ko(Int)>, fillcolor=<#DDDDFF>];
11[xlabel=11, label=<ev((if (&lt;= n 1) 1 (* (factorial (- n 1)) n)))>];
12[xlabel=12, label=<ev((&lt;= n 1))>];
13[xlabel=13, label=<ko(Bool)>, fillcolor=<#DDDDFF>];
14[xlabel=14, label=<ev(1)>];
15[xlabel=15, label=<ev((* (factorial (- n 1)) n))>];
16[xlabel=16, label=<ev(1)>];
17[xlabel=17, label=<ev((* (factorial (- n 1)) n))>];
18[xlabel=18, label=<ko(Int)>, fillcolor=<#FFFFAA>];
19[xlabel=19, label=<ev((factorial (- n 1)))>];
20[xlabel=20, label=<ko(Int)>, fillcolor=<#DDDDFF>];
21[xlabel=21, label=<ev((factorial (- n 1)))>];
22[xlabel=22, label=<ev((- n 1))>];
23[xlabel=23, label=<ev((- n 1))>];
24[xlabel=24, label=<ko(Int)>, fillcolor=<#DDDDFF>];
25[xlabel=25, label=<ko(Int)>, fillcolor=<#DDDDFF>];
26[xlabel=26, label=<ev((if (&lt;= n 1) 1 (* (factorial (- n 1)) n)))>];
27[xlabel=27, label=<ev((if (&lt;= n 1) 1 (* (factorial (- n 1)) n)))>];
28[xlabel=28, label=<ev((&lt;= n 1))>];
29[xlabel=29, label=<ko(Bool)>, fillcolor=<#DDDDFF>];
30[xlabel=30, label=<ev(1)>];
31[xlabel=31, label=<ev((* (factorial (- n 1)) n))>];
32[xlabel=32, label=<ev(1)>];
33[xlabel=33, label=<ev((* (factorial (- n 1)) n))>];
34[xlabel=34, label=<ko(Int)>, fillcolor=<#FFFFAA>];
35[xlabel=35, label=<ko(Int)>, fillcolor=<#DDDDFF>];

0 -> 1;
1 -> 2;
2 -> 3;
3 -> 4;
4 -> 5;
4 -> 6;
5 -> 7;
6 -> 8;
8 -> 9;
9 -> 10;
10 -> 11;
11 -> 12;
12 -> 13;
13 -> 14;
13 -> 15;
13 -> 16;
13 -> 17;
14 -> 18;
15 -> 19;
16 -> 20;
17 -> 21;
19 -> 23;
20 -> 18;
21 -> 22;
22 -> 25;
23 -> 24;
24 -> 27;
25 -> 26;
26 -> 28;
27 -> 12;
28 -> 29;
29 -> 30;
29 -> 31;
29 -> 32;
29 -> 33;
30 -> 34;
31 -> 21;
32 -> 35;
33 -> 21;
35 -> 34;
35 -> 35;
}
