digraph "Scala-Par-AM Scheme-examples/Parallel_AAM_Andersen_2013/hailstone_05.scm" {
  node[shape=box, style=filled, fillcolor=<#DDFFDD>];

stats[style=rounded, label="# nodes: 788\l# edges: 856\lgraph density: 0.001\loutdegree positive min: 1\loutdegree max: 2\loutdegree avg: 1.086\l"];
config[style=rounded, label="lattice: TypeSet\lbound: 100\laddress: Classical\lstep\lmachine: SeqAAMLS\l"]

0[xlabel=0, label=<(letrec ((even? (lambda (n) (if (= n 0) #t (if (= n 1) #f (even? (- n 2))))))) (letrec ((div2* (lambda (n s) (if (= (* 2 n) s) n (if (= (+ (* 2 n) 1) s) n (div2* (- n 1) s)))))) (letrec ((div2 (lambda (n) (div2* n n)))) (letrec ((hailstone* (lambda (n count) (if (= n 1) count (if (even? n) (hailstone* (div2 n) (+ count 1)) (hailstone* (+ (* 3 n) 1) (+ count 1))))))) (letrec ((hailstone (lambda (n) (hailstone* n 0)))) (hailstone 5))))))>, fillcolor=<#AAFFAA>];
1[xlabel=1, label=<(letrec ((div2* (lambda (n s) (if (= (* 2 n) s) n (if (= (+ (* 2 n) 1) s) n (div2* (- n 1) s)))))) (letrec ((div2 (lambda (n) (div2* n n)))) (letrec ((hailstone* (lambda (n count) (if (= n 1) count (if (even? n) (hailstone* (div2 n) (+ count 1)) (hailstone* (+ (* 3 n) 1) (+ count 1))))))) (letrec ((hailstone (lambda (n) (hailstone* n 0)))) (hailstone 5)))))>];
2[xlabel=2, label=<(letrec ((div2 (lambda (n) (div2* n n)))) (letrec ((hailstone* (lambda (n count) (if (= n 1) count (if (even? n) (hailstone* (div2 n) (+ count 1)) (hailstone* (+ (* 3 n) 1) (+ count 1))))))) (letrec ((hailstone (lambda (n) (hailstone* n 0)))) (hailstone 5))))>];
3[xlabel=3, label=<(letrec ((hailstone* (lambda (n count) (if (= n 1) count (if (even? n) (hailstone* (div2 n) (+ count 1)) (hailstone* (+ (* 3 n) 1) (+ count 1))))))) (letrec ((hailstone (lambda (n) (hailstone* n 0)))) (hailstone 5)))>];
4[xlabel=4, label=<(letrec ((hailstone (lambda (n) (hailstone* n 0)))) (hailstone 5))>];
5[xlabel=5, label=<(hailstone 5)>];
6[xlabel=6, label=<(hailstone* n 0)>];
7[xlabel=7, label=<(if (= n 1) count (if (even? n) (hailstone* (div2 n) (+ count 1)) (hailstone* (+ (* 3 n) 1) (+ count 1))))>];
8[xlabel=8, label=<(= n 1)>];
9[xlabel=9, label=<ko({#f,#t})>, fillcolor=<#DDDDFF>];
10[xlabel=10, label=<count>];
11[xlabel=11, label=<(if (even? n) (hailstone* (div2 n) (+ count 1)) (hailstone* (+ (* 3 n) 1) (+ count 1)))>];
12[xlabel=12, label=<ko(Int)>, fillcolor=<#FFFFAA>];
13[xlabel=13, label=<(even? n)>];
14[xlabel=14, label=<(if (= n 0) #t (if (= n 1) #f (even? (- n 2))))>];
15[xlabel=15, label=<(= n 0)>];
16[xlabel=16, label=<ko({#f,#t})>, fillcolor=<#DDDDFF>];
17[xlabel=17, label=<#t>];
18[xlabel=18, label=<(if (= n 1) #f (even? (- n 2)))>];
19[xlabel=19, label=<ko(#t)>, fillcolor=<#DDDDFF>];
20[xlabel=20, label=<(= n 1)>];
21[xlabel=21, label=<ko({#f,#t})>, fillcolor=<#DDDDFF>];
22[xlabel=22, label=<(hailstone* (div2 n) (+ count 1))>];
23[xlabel=23, label=<(div2 n)>];
24[xlabel=24, label=<#f>];
25[xlabel=25, label=<(even? (- n 2))>];
26[xlabel=26, label=<ko(#f)>, fillcolor=<#DDDDFF>];
27[xlabel=27, label=<(- n 2)>];
28[xlabel=28, label=<(div2* n n)>];
29[xlabel=29, label=<(if (= (* 2 n) s) n (if (= (+ (* 2 n) 1) s) n (div2* (- n 1) s)))>];
30[xlabel=30, label=<ko(Int)>, fillcolor=<#DDDDFF>];
31[xlabel=31, label=<(hailstone* (+ (* 3 n) 1) (+ count 1))>];
32[xlabel=32, label=<(+ (* 3 n) 1)>];
33[xlabel=33, label=<(if (= n 0) #t (if (= n 1) #f (even? (- n 2))))>];
34[xlabel=34, label=<(= (* 2 n) s)>];
35[xlabel=35, label=<(* 2 n)>];
36[xlabel=36, label=<(= n 0)>];
37[xlabel=37, label=<(* 3 n)>];
38[xlabel=38, label=<ko(Int)>, fillcolor=<#DDDDFF>];
39[xlabel=39, label=<ko({#f,#t})>, fillcolor=<#DDDDFF>];
40[xlabel=40, label=<ko(Int)>, fillcolor=<#DDDDFF>];
41[xlabel=41, label=<ko({#f,#t})>, fillcolor=<#DDDDFF>];
42[xlabel=42, label=<#t>];
43[xlabel=43, label=<(if (= n 1) #f (even? (- n 2)))>];
44[xlabel=44, label=<ko(Int)>, fillcolor=<#DDDDFF>];
45[xlabel=45, label=<(+ count 1)>];
46[xlabel=46, label=<ko(#t)>, fillcolor=<#DDDDFF>];
47[xlabel=47, label=<(= n 1)>];
48[xlabel=48, label=<n>];
49[xlabel=49, label=<(if (= (+ (* 2 n) 1) s) n (div2* (- n 1) s))>];
50[xlabel=50, label=<ko(Int)>, fillcolor=<#DDDDFF>];
51[xlabel=51, label=<(= (+ (* 2 n) 1) s)>];
52[xlabel=52, label=<ko({#f,#t})>, fillcolor=<#DDDDFF>];
53[xlabel=53, label=<(hailstone* (div2 n) (+ count 1))>];
54[xlabel=54, label=<ko(Int)>, fillcolor=<#DDDDFF>];
55[xlabel=55, label=<(if (= n 1) count (if (even? n) (hailstone* (div2 n) (+ count 1)) (hailstone* (+ (* 3 n) 1) (+ count 1))))>];
56[xlabel=56, label=<(div2 n)>];
57[xlabel=57, label=<#f>];
58[xlabel=58, label=<(even? (- n 2))>];
59[xlabel=59, label=<(+ (* 2 n) 1)>];
60[xlabel=60, label=<(+ count 1)>];
61[xlabel=61, label=<ko(Int)>, fillcolor=<#DDDDFF>];
62[xlabel=62, label=<(* 2 n)>];
63[xlabel=63, label=<ko(#f)>, fillcolor=<#DDDDFF>];
64[xlabel=64, label=<(div2* n n)>];
65[xlabel=65, label=<(= n 1)>];
66[xlabel=66, label=<ko({#f,#t})>, fillcolor=<#DDDDFF>];
67[xlabel=67, label=<(if (= (* 2 n) s) n (if (= (+ (* 2 n) 1) s) n (div2* (- n 1) s)))>];
68[xlabel=68, label=<(hailstone* (+ (* 3 n) 1) (+ count 1))>];
69[xlabel=69, label=<ko(Int)>, fillcolor=<#DDDDFF>];
70[xlabel=70, label=<(if (= n 1) count (if (even? n) (hailstone* (div2 n) (+ count 1)) (hailstone* (+ (* 3 n) 1) (+ count 1))))>];
71[xlabel=71, label=<(= n 1)>];
72[xlabel=72, label=<ko(Int)>, fillcolor=<#DDDDFF>];
73[xlabel=73, label=<(+ (* 3 n) 1)>];
74[xlabel=74, label=<(= (* 2 n) s)>];
75[xlabel=75, label=<count>];
76[xlabel=76, label=<(if (even? n) (hailstone* (div2 n) (+ count 1)) (hailstone* (+ (* 3 n) 1) (+ count 1)))>];
77[xlabel=77, label=<ko(Int)>, fillcolor=<#FFFFAA>];
78[xlabel=78, label=<(even? n)>];
79[xlabel=79, label=<(* 2 n)>];
80[xlabel=80, label=<(* 3 n)>];
81[xlabel=81, label=<ko({#f,#t})>, fillcolor=<#DDDDFF>];
82[xlabel=82, label=<ko({#f,#t})>, fillcolor=<#DDDDFF>];
83[xlabel=83, label=<count>];
84[xlabel=84, label=<(if (even? n) (hailstone* (div2 n) (+ count 1)) (hailstone* (+ (* 3 n) 1) (+ count 1)))>];
85[xlabel=85, label=<n>];
86[xlabel=86, label=<(div2* (- n 1) s)>];
87[xlabel=87, label=<ko(Int)>, fillcolor=<#DDDDFF>];
88[xlabel=88, label=<ko(Int)>, fillcolor=<#DDDDFF>];
89[xlabel=89, label=<(if (= n 0) #t (if (= n 1) #f (even? (- n 2))))>];
90[xlabel=90, label=<(= n 0)>];
91[xlabel=91, label=<ko({#f,#t})>, fillcolor=<#DDDDFF>];
92[xlabel=92, label=<ko(Int)>, fillcolor=<#DDDDFF>];
93[xlabel=93, label=<ko(Int)>, fillcolor=<#DDDDFF>];
94[xlabel=94, label=<(- n 1)>];
95[xlabel=95, label=<ko(Int)>, fillcolor=<#FFFFAA>];
96[xlabel=96, label=<(even? n)>];
97[xlabel=97, label=<(if (= n 0) #t (if (= n 1) #f (even? (- n 2))))>];
98[xlabel=98, label=<ko(Int)>, fillcolor=<#DDDDFF>];
99[xlabel=99, label=<(+ count 1)>];
100[xlabel=100, label=<(+ count 1)>];
101[xlabel=101, label=<n>];
102[xlabel=102, label=<(if (= (+ (* 2 n) 1) s) n (div2* (- n 1) s))>];
103[xlabel=103, label=<ko({#f,#t})>, fillcolor=<#DDDDFF>];
104[xlabel=104, label=<#t>];
105[xlabel=105, label=<(if (= n 1) #f (even? (- n 2)))>];
106[xlabel=106, label=<ko(Int)>, fillcolor=<#DDDDFF>];
107[xlabel=107, label=<(= (+ (* 2 n) 1) s)>];
108[xlabel=108, label=<ko(Int)>, fillcolor=<#DDDDFF>];
109[xlabel=109, label=<ko(Int)>, fillcolor=<#DDDDFF>];
110[xlabel=110, label=<(if (= (* 2 n) s) n (if (= (+ (* 2 n) 1) s) n (div2* (- n 1) s)))>];
111[xlabel=111, label=<(= n 0)>];
112[xlabel=112, label=<ko({#f,#t})>, fillcolor=<#DDDDFF>];
113[xlabel=113, label=<(= (* 2 n) s)>];
114[xlabel=114, label=<(if (= n 1) count (if (even? n) (hailstone* (div2 n) (+ count 1)) (hailstone* (+ (* 3 n) 1) (+ count 1))))>];
115[xlabel=115, label=<(if (= n 1) count (if (even? n) (hailstone* (div2 n) (+ count 1)) (hailstone* (+ (* 3 n) 1) (+ count 1))))>];
116[xlabel=116, label=<(+ (* 2 n) 1)>];
117[xlabel=117, label=<(+ count 1)>];
118[xlabel=118, label=<ko(#t)>, fillcolor=<#DDDDFF>];
119[xlabel=119, label=<(= n 1)>];
120[xlabel=120, label=<ko({#f,#t})>, fillcolor=<#DDDDFF>];
121[xlabel=121, label=<(hailstone* (div2 n) (+ count 1))>];
122[xlabel=122, label=<ko(Int)>, fillcolor=<#DDDDFF>];
123[xlabel=123, label=<(* 2 n)>];
124[xlabel=124, label=<(= n 1)>];
125[xlabel=125, label=<(= n 1)>];
126[xlabel=126, label=<(* 2 n)>];
127[xlabel=127, label=<#t>];
128[xlabel=128, label=<(if (= n 1) #f (even? (- n 2)))>];
129[xlabel=129, label=<ko(#t)>, fillcolor=<#DDDDFF>];
130[xlabel=130, label=<(= n 1)>];
131[xlabel=131, label=<ko(Int)>, fillcolor=<#DDDDFF>];
132[xlabel=132, label=<ko({#f,#t})>, fillcolor=<#DDDDFF>];
133[xlabel=133, label=<ko({#f,#t})>, fillcolor=<#DDDDFF>];
134[xlabel=134, label=<ko(Int)>, fillcolor=<#DDDDFF>];
135[xlabel=135, label=<(if (= n 1) count (if (even? n) (hailstone* (div2 n) (+ count 1)) (hailstone* (+ (* 3 n) 1) (+ count 1))))>];
136[xlabel=136, label=<(div2 n)>];
137[xlabel=137, label=<#f>];
138[xlabel=138, label=<(even? (- n 2))>];
139[xlabel=139, label=<ko(#f)>, fillcolor=<#DDDDFF>];
140[xlabel=140, label=<(- n 2)>];
141[xlabel=141, label=<(div2* n n)>];
142[xlabel=142, label=<(= n 1)>];
143[xlabel=143, label=<ko(Int)>, fillcolor=<#DDDDFF>];
144[xlabel=144, label=<count>];
145[xlabel=145, label=<(if (even? n) (hailstone* (div2 n) (+ count 1)) (hailstone* (+ (* 3 n) 1) (+ count 1)))>];
146[xlabel=146, label=<count>];
147[xlabel=147, label=<(if (even? n) (hailstone* (div2 n) (+ count 1)) (hailstone* (+ (* 3 n) 1) (+ count 1)))>];
148[xlabel=148, label=<ko({#f,#t})>, fillcolor=<#DDDDFF>];
149[xlabel=149, label=<ko({#f,#t})>, fillcolor=<#DDDDFF>];
150[xlabel=150, label=<(hailstone* (div2 n) (+ count 1))>];
151[xlabel=151, label=<(div2 n)>];
152[xlabel=152, label=<#f>];
153[xlabel=153, label=<(even? (- n 2))>];
154[xlabel=154, label=<n>];
155[xlabel=155, label=<(if (= (+ (* 2 n) 1) s) n (div2* (- n 1) s))>];
156[xlabel=156, label=<ko(Int)>, fillcolor=<#FFFFAA>];
157[xlabel=157, label=<(even? n)>];
158[xlabel=158, label=<ko(Int)>, fillcolor=<#FFFFAA>];
159[xlabel=159, label=<(even? n)>];
160[xlabel=160, label=<ko({#f,#t})>, fillcolor=<#DDDDFF>];
161[xlabel=161, label=<ko({#f,#t})>, fillcolor=<#DDDDFF>];
162[xlabel=162, label=<(if (= (* 2 n) s) n (if (= (+ (* 2 n) 1) s) n (div2* (- n 1) s)))>];
163[xlabel=163, label=<ko(Int)>, fillcolor=<#DDDDFF>];
164[xlabel=164, label=<(hailstone* (+ (* 3 n) 1) (+ count 1))>];
165[xlabel=165, label=<(+ (* 3 n) 1)>];
166[xlabel=166, label=<(if (= n 0) #t (if (= n 1) #f (even? (- n 2))))>];
167[xlabel=167, label=<(= (* 2 n) s)>];
168[xlabel=168, label=<count>];
169[xlabel=169, label=<(if (even? n) (hailstone* (div2 n) (+ count 1)) (hailstone* (+ (* 3 n) 1) (+ count 1)))>];
170[xlabel=170, label=<n>];
171[xlabel=171, label=<(div2* (- n 1) s)>];
172[xlabel=172, label=<(if (= n 0) #t (if (= n 1) #f (even? (- n 2))))>];
173[xlabel=173, label=<ko(Int)>, fillcolor=<#DDDDFF>];
174[xlabel=174, label=<(= (+ (* 2 n) 1) s)>];
175[xlabel=175, label=<ko(#f)>, fillcolor=<#DDDDFF>];
176[xlabel=176, label=<(- n 2)>];
177[xlabel=177, label=<(div2* n n)>];
178[xlabel=178, label=<(if (= (* 2 n) s) n (if (= (+ (* 2 n) 1) s) n (div2* (- n 1) s)))>];
179[xlabel=179, label=<ko(Int)>, fillcolor=<#DDDDFF>];
180[xlabel=180, label=<(hailstone* (+ (* 3 n) 1) (+ count 1))>];
181[xlabel=181, label=<(+ (* 2 n) 1)>];
182[xlabel=182, label=<(+ count 1)>];
183[xlabel=183, label=<(= n 0)>];
184[xlabel=184, label=<(= n 0)>];
185[xlabel=185, label=<ko(Int)>, fillcolor=<#DDDDFF>];
186[xlabel=186, label=<(- n 1)>];
187[xlabel=187, label=<ko(Int)>, fillcolor=<#FFFFAA>];
188[xlabel=188, label=<(even? n)>];
189[xlabel=189, label=<(* 2 n)>];
190[xlabel=190, label=<(* 3 n)>];
191[xlabel=191, label=<ko(Int)>, fillcolor=<#DDDDFF>];
192[xlabel=192, label=<ko(Int)>, fillcolor=<#DDDDFF>];
193[xlabel=193, label=<(if (= n 0) #t (if (= n 1) #f (even? (- n 2))))>];
194[xlabel=194, label=<ko(Int)>, fillcolor=<#DDDDFF>];
195[xlabel=195, label=<(+ count 1)>];
196[xlabel=196, label=<ko({#f,#t})>, fillcolor=<#DDDDFF>];
197[xlabel=197, label=<ko({#f,#t})>, fillcolor=<#DDDDFF>];
198[xlabel=198, label=<ko(Int)>, fillcolor=<#DDDDFF>];
199[xlabel=199, label=<(* 2 n)>];
200[xlabel=200, label=<(+ (* 3 n) 1)>];
201[xlabel=201, label=<(= (* 2 n) s)>];
202[xlabel=202, label=<(* 2 n)>];
203[xlabel=203, label=<(= n 0)>];
204[xlabel=204, label=<(* 3 n)>];
205[xlabel=205, label=<ko(Int)>, fillcolor=<#DDDDFF>];
206[xlabel=206, label=<(if (= n 1) count (if (even? n) (hailstone* (div2 n) (+ count 1)) (hailstone* (+ (* 3 n) 1) (+ count 1))))>];
207[xlabel=207, label=<#t>];
208[xlabel=208, label=<(if (= n 1) #f (even? (- n 2)))>];
209[xlabel=209, label=<#t>];
210[xlabel=210, label=<(if (= n 1) #f (even? (- n 2)))>];
211[xlabel=211, label=<ko(Int)>, fillcolor=<#DDDDFF>];
212[xlabel=212, label=<(if (= (* 2 n) s) n (if (= (+ (* 2 n) 1) s) n (div2* (- n 1) s)))>];
213[xlabel=213, label=<ko({#f,#t})>, fillcolor=<#DDDDFF>];
214[xlabel=214, label=<ko(Int)>, fillcolor=<#DDDDFF>];
215[xlabel=215, label=<n>];
216[xlabel=216, label=<(if (= (+ (* 2 n) 1) s) n (div2* (- n 1) s))>];
217[xlabel=217, label=<(= (* 2 n) s)>];
218[xlabel=218, label=<(if (= n 1) count (if (even? n) (hailstone* (div2 n) (+ count 1)) (hailstone* (+ (* 3 n) 1) (+ count 1))))>];
219[xlabel=219, label=<ko(#t)>, fillcolor=<#DDDDFF>];
220[xlabel=220, label=<(= n 1)>];
221[xlabel=221, label=<ko(#t)>, fillcolor=<#DDDDFF>];
222[xlabel=222, label=<(= n 1)>];
223[xlabel=223, label=<(= n 1)>];
224[xlabel=224, label=<ko(Int)>, fillcolor=<#DDDDFF>];
225[xlabel=225, label=<ko(Int)>, fillcolor=<#DDDDFF>];
226[xlabel=226, label=<ko({#f,#t})>, fillcolor=<#DDDDFF>];
227[xlabel=227, label=<ko(Int)>, fillcolor=<#DDDDFF>];
228[xlabel=228, label=<ko({#f,#t})>, fillcolor=<#DDDDFF>];
229[xlabel=229, label=<#t>];
230[xlabel=230, label=<(if (= n 1) #f (even? (- n 2)))>];
231[xlabel=231, label=<ko(Int)>, fillcolor=<#DDDDFF>];
232[xlabel=232, label=<ko({#f,#t})>, fillcolor=<#DDDDFF>];
233[xlabel=233, label=<ko({#f,#t})>, fillcolor=<#DDDDFF>];
234[xlabel=234, label=<ko({#f,#t})>, fillcolor=<#DDDDFF>];
235[xlabel=235, label=<(hailstone* (div2 n) (+ count 1))>];
236[xlabel=236, label=<ko({#f,#t})>, fillcolor=<#DDDDFF>];
237[xlabel=237, label=<(hailstone* (div2 n) (+ count 1))>];
238[xlabel=238, label=<(= n 1)>];
239[xlabel=239, label=<(* 2 n)>];
240[xlabel=240, label=<ko(Int)>, fillcolor=<#DDDDFF>];
241[xlabel=241, label=<(= (+ (* 2 n) 1) s)>];
242[xlabel=242, label=<(+ (* 2 n) 1)>];
243[xlabel=243, label=<(+ count 1)>];
244[xlabel=244, label=<ko(Int)>, fillcolor=<#DDDDFF>];
245[xlabel=245, label=<ko({#f,#t})>, fillcolor=<#DDDDFF>];
246[xlabel=246, label=<(div2 n)>];
247[xlabel=247, label=<#f>];
248[xlabel=248, label=<(even? (- n 2))>];
249[xlabel=249, label=<(div2 n)>];
250[xlabel=250, label=<#f>];
251[xlabel=251, label=<(even? (- n 2))>];
252[xlabel=252, label=<count>];
253[xlabel=253, label=<(if (even? n) (hailstone* (div2 n) (+ count 1)) (hailstone* (+ (* 3 n) 1) (+ count 1)))>];
254[xlabel=254, label=<n>];
255[xlabel=255, label=<(div2* (- n 1) s)>];
256[xlabel=256, label=<(+ count 1)>];
257[xlabel=257, label=<ko(#t)>, fillcolor=<#DDDDFF>];
258[xlabel=258, label=<(= n 1)>];
259[xlabel=259, label=<n>];
260[xlabel=260, label=<(if (= (+ (* 2 n) 1) s) n (div2* (- n 1) s))>];
261[xlabel=261, label=<ko(Int)>, fillcolor=<#DDDDFF>];
262[xlabel=262, label=<(= (+ (* 2 n) 1) s)>];
263[xlabel=263, label=<ko({#f,#t})>, fillcolor=<#DDDDFF>];
264[xlabel=264, label=<(hailstone* (div2 n) (+ count 1))>];
265[xlabel=265, label=<ko(Int)>, fillcolor=<#DDDDFF>];
266[xlabel=266, label=<ko(Int)>, fillcolor=<#FFFFAA>];
267[xlabel=267, label=<(even? n)>];
268[xlabel=268, label=<ko(#f)>, fillcolor=<#DDDDFF>];
269[xlabel=269, label=<(- n 2)>];
270[xlabel=270, label=<(div2* n n)>];
271[xlabel=271, label=<ko(#f)>, fillcolor=<#DDDDFF>];
272[xlabel=272, label=<(div2* n n)>];
273[xlabel=273, label=<count>];
274[xlabel=274, label=<(if (even? n) (hailstone* (div2 n) (+ count 1)) (hailstone* (+ (* 3 n) 1) (+ count 1)))>];
275[xlabel=275, label=<ko({#f,#t})>, fillcolor=<#DDDDFF>];
276[xlabel=276, label=<ko(Int)>, fillcolor=<#DDDDFF>];
277[xlabel=277, label=<(* 2 n)>];
278[xlabel=278, label=<ko(Int)>, fillcolor=<#DDDDFF>];
279[xlabel=279, label=<(if (= n 1) count (if (even? n) (hailstone* (div2 n) (+ count 1)) (hailstone* (+ (* 3 n) 1) (+ count 1))))>];
280[xlabel=280, label=<n>];
281[xlabel=281, label=<(if (= (+ (* 2 n) 1) s) n (div2* (- n 1) s))>];
282[xlabel=282, label=<ko(Int)>, fillcolor=<#FFFFAA>];
283[xlabel=283, label=<(even? n)>];
284[xlabel=284, label=<(if (= (* 2 n) s) n (if (= (+ (* 2 n) 1) s) n (div2* (- n 1) s)))>];
285[xlabel=285, label=<(hailstone* (+ (* 3 n) 1) (+ count 1))>];
286[xlabel=286, label=<(if (= (* 2 n) s) n (if (= (+ (* 2 n) 1) s) n (div2* (- n 1) s)))>];
287[xlabel=287, label=<ko(Int)>, fillcolor=<#DDDDFF>];
288[xlabel=288, label=<(hailstone* (+ (* 3 n) 1) (+ count 1))>];
289[xlabel=289, label=<(if (= n 0) #t (if (= n 1) #f (even? (- n 2))))>];
290[xlabel=290, label=<(div2 n)>];
291[xlabel=291, label=<#f>];
292[xlabel=292, label=<(even? (- n 2))>];
293[xlabel=293, label=<(+ (* 2 n) 1)>];
294[xlabel=294, label=<(* 2 n)>];
295[xlabel=295, label=<ko(#f)>, fillcolor=<#DDDDFF>];
296[xlabel=296, label=<(div2* n n)>];
297[xlabel=297, label=<(= n 1)>];
298[xlabel=298, label=<(= n 0)>];
299[xlabel=299, label=<(+ (* 3 n) 1)>];
300[xlabel=300, label=<(if (= n 0) #t (if (= n 1) #f (even? (- n 2))))>];
301[xlabel=301, label=<(= (* 2 n) s)>];
302[xlabel=302, label=<(+ (* 3 n) 1)>];
303[xlabel=303, label=<(= (* 2 n) s)>];
304[xlabel=304, label=<ko(Int)>, fillcolor=<#DDDDFF>];
305[xlabel=305, label=<(= (+ (* 2 n) 1) s)>];
306[xlabel=306, label=<ko(Int)>, fillcolor=<#DDDDFF>];
307[xlabel=307, label=<ko({#f,#t})>, fillcolor=<#DDDDFF>];
308[xlabel=308, label=<(+ (* 2 n) 1)>];
309[xlabel=309, label=<(+ count 1)>];
310[xlabel=310, label=<(= n 0)>];
311[xlabel=311, label=<(* 2 n)>];
312[xlabel=312, label=<(* 3 n)>];
313[xlabel=313, label=<(* 2 n)>];
314[xlabel=314, label=<(* 3 n)>];
315[xlabel=315, label=<ko({#f,#t})>, fillcolor=<#DDDDFF>];
316[xlabel=316, label=<ko({#f,#t})>, fillcolor=<#DDDDFF>];
317[xlabel=317, label=<(if (= (* 2 n) s) n (if (= (+ (* 2 n) 1) s) n (div2* (- n 1) s)))>];
318[xlabel=318, label=<(hailstone* (+ (* 3 n) 1) (+ count 1))>];
319[xlabel=319, label=<ko(Int)>, fillcolor=<#DDDDFF>];
320[xlabel=320, label=<ko(Int)>, fillcolor=<#DDDDFF>];
321[xlabel=321, label=<(+ (* 3 n) 1)>];
322[xlabel=322, label=<(= (* 2 n) s)>];
323[xlabel=323, label=<count>];
324[xlabel=324, label=<(if (even? n) (hailstone* (div2 n) (+ count 1)) (hailstone* (+ (* 3 n) 1) (+ count 1)))>];
325[xlabel=325, label=<#t>];
326[xlabel=326, label=<(if (= n 1) #f (even? (- n 2)))>];
327[xlabel=327, label=<ko(Int)>, fillcolor=<#DDDDFF>];
328[xlabel=328, label=<ko(Int)>, fillcolor=<#DDDDFF>];
329[xlabel=329, label=<ko(Int)>, fillcolor=<#DDDDFF>];
330[xlabel=330, label=<ko(Int)>, fillcolor=<#DDDDFF>];
331[xlabel=331, label=<ko({#f,#t})>, fillcolor=<#DDDDFF>];
332[xlabel=332, label=<ko(Int)>, fillcolor=<#DDDDFF>];
333[xlabel=333, label=<(* 2 n)>];
334[xlabel=334, label=<n>];
335[xlabel=335, label=<(div2* (- n 1) s)>];
336[xlabel=336, label=<ko(Int)>, fillcolor=<#DDDDFF>];
337[xlabel=337, label=<(- n 1)>];
338[xlabel=338, label=<ko(Int)>, fillcolor=<#DDDDFF>];
339[xlabel=339, label=<(if (= n 1) count (if (even? n) (hailstone* (div2 n) (+ count 1)) (hailstone* (+ (* 3 n) 1) (+ count 1))))>];
340[xlabel=340, label=<#t>];
341[xlabel=341, label=<(if (= n 1) #f (even? (- n 2)))>];
342[xlabel=342, label=<ko({#f,#t})>, fillcolor=<#DDDDFF>];
343[xlabel=343, label=<ko(Int)>, fillcolor=<#DDDDFF>];
344[xlabel=344, label=<ko({#f,#t})>, fillcolor=<#DDDDFF>];
345[xlabel=345, label=<ko(Int)>, fillcolor=<#DDDDFF>];
346[xlabel=346, label=<ko(#t)>, fillcolor=<#DDDDFF>];
347[xlabel=347, label=<(= n 1)>];
348[xlabel=348, label=<ko(Int)>, fillcolor=<#FFFFAA>];
349[xlabel=349, label=<(even? n)>];
350[xlabel=350, label=<(* 2 n)>];
351[xlabel=351, label=<(* 3 n)>];
352[xlabel=352, label=<ko({#f,#t})>, fillcolor=<#DDDDFF>];
353[xlabel=353, label=<n>];
354[xlabel=354, label=<(div2* (- n 1) s)>];
355[xlabel=355, label=<ko(Int)>, fillcolor=<#DDDDFF>];
356[xlabel=356, label=<ko(Int)>, fillcolor=<#DDDDFF>];
357[xlabel=357, label=<(if (= n 0) #t (if (= n 1) #f (even? (- n 2))))>];
358[xlabel=358, label=<ko({#f,#t})>, fillcolor=<#DDDDFF>];
359[xlabel=359, label=<(hailstone* (div2 n) (+ count 1))>];
360[xlabel=360, label=<(+ count 1)>];
361[xlabel=361, label=<n>];
362[xlabel=362, label=<(if (= (+ (* 2 n) 1) s) n (div2* (- n 1) s))>];
363[xlabel=363, label=<n>];
364[xlabel=364, label=<(if (= (+ (* 2 n) 1) s) n (div2* (- n 1) s))>];
365[xlabel=365, label=<ko(#t)>, fillcolor=<#DDDDFF>];
366[xlabel=366, label=<(= n 1)>];
367[xlabel=367, label=<(= n 1)>];
368[xlabel=368, label=<ko(Int)>, fillcolor=<#DDDDFF>];
369[xlabel=369, label=<ko(Int)>, fillcolor=<#DDDDFF>];
370[xlabel=370, label=<(+ count 1)>];
371[xlabel=371, label=<ko(Int)>, fillcolor=<#DDDDFF>];
372[xlabel=372, label=<(if (= (* 2 n) s) n (if (= (+ (* 2 n) 1) s) n (div2* (- n 1) s)))>];
373[xlabel=373, label=<ko({#f,#t})>, fillcolor=<#DDDDFF>];
374[xlabel=374, label=<ko({#f,#t})>, fillcolor=<#DDDDFF>];
375[xlabel=375, label=<ko({#f,#t})>, fillcolor=<#DDDDFF>];
376[xlabel=376, label=<(hailstone* (div2 n) (+ count 1))>];
377[xlabel=377, label=<ko(Int)>, fillcolor=<#DDDDFF>];
378[xlabel=378, label=<(= (+ (* 2 n) 1) s)>];
379[xlabel=379, label=<ko(Int)>, fillcolor=<#DDDDFF>];
380[xlabel=380, label=<(= (+ (* 2 n) 1) s)>];
381[xlabel=381, label=<ko(Int)>, fillcolor=<#DDDDFF>];
382[xlabel=382, label=<(div2 n)>];
383[xlabel=383, label=<#f>];
384[xlabel=384, label=<(even? (- n 2))>];
385[xlabel=385, label=<(= n 0)>];
386[xlabel=386, label=<ko({#f,#t})>, fillcolor=<#DDDDFF>];
387[xlabel=387, label=<ko(Int)>, fillcolor=<#DDDDFF>];
388[xlabel=388, label=<(- n 1)>];
389[xlabel=389, label=<ko(Int)>, fillcolor=<#DDDDFF>];
390[xlabel=390, label=<(+ count 1)>];
391[xlabel=391, label=<n>];
392[xlabel=392, label=<(if (= (+ (* 2 n) 1) s) n (div2* (- n 1) s))>];
393[xlabel=393, label=<ko({#f,#t})>, fillcolor=<#DDDDFF>];
394[xlabel=394, label=<ko(#f)>, fillcolor=<#DDDDFF>];
395[xlabel=395, label=<(- n 2)>];
396[xlabel=396, label=<(div2* n n)>];
397[xlabel=397, label=<(if (= n 1) count (if (even? n) (hailstone* (div2 n) (+ count 1)) (hailstone* (+ (* 3 n) 1) (+ count 1))))>];
398[xlabel=398, label=<(+ (* 2 n) 1)>];
399[xlabel=399, label=<(+ (* 2 n) 1)>];
400[xlabel=400, label=<(+ count 1)>];
401[xlabel=401, label=<(div2 n)>];
402[xlabel=402, label=<#f>];
403[xlabel=403, label=<(even? (- n 2))>];
404[xlabel=404, label=<count>];
405[xlabel=405, label=<(if (even? n) (hailstone* (div2 n) (+ count 1)) (hailstone* (+ (* 3 n) 1) (+ count 1)))>];
406[xlabel=406, label=<n>];
407[xlabel=407, label=<(div2* (- n 1) s)>];
408[xlabel=408, label=<(= (* 2 n) s)>];
409[xlabel=409, label=<(= n 1)>];
410[xlabel=410, label=<(* 2 n)>];
411[xlabel=411, label=<ko(Int)>, fillcolor=<#FFFFAA>];
412[xlabel=412, label=<(even? n)>];
413[xlabel=413, label=<ko(#f)>, fillcolor=<#DDDDFF>];
414[xlabel=414, label=<(div2* n n)>];
415[xlabel=415, label=<ko(Int)>, fillcolor=<#DDDDFF>];
416[xlabel=416, label=<(* 2 n)>];
417[xlabel=417, label=<(if (= (* 2 n) s) n (if (= (+ (* 2 n) 1) s) n (div2* (- n 1) s)))>];
418[xlabel=418, label=<ko(Int)>, fillcolor=<#DDDDFF>];
419[xlabel=419, label=<(hailstone* (+ (* 3 n) 1) (+ count 1))>];
420[xlabel=420, label=<#t>];
421[xlabel=421, label=<(if (= n 1) #f (even? (- n 2)))>];
422[xlabel=422, label=<ko(Int)>, fillcolor=<#DDDDFF>];
423[xlabel=423, label=<(= (+ (* 2 n) 1) s)>];
424[xlabel=424, label=<ko(Int)>, fillcolor=<#DDDDFF>];
425[xlabel=425, label=<(= (* 2 n) s)>];
426[xlabel=426, label=<(if (= n 1) count (if (even? n) (hailstone* (div2 n) (+ count 1)) (hailstone* (+ (* 3 n) 1) (+ count 1))))>];
427[xlabel=427, label=<(+ (* 2 n) 1)>];
428[xlabel=428, label=<ko(#t)>, fillcolor=<#DDDDFF>];
429[xlabel=429, label=<(= n 1)>];
430[xlabel=430, label=<(+ (* 3 n) 1)>];
431[xlabel=431, label=<(if (= n 0) #t (if (= n 1) #f (even? (- n 2))))>];
432[xlabel=432, label=<ko(Int)>, fillcolor=<#DDDDFF>];
433[xlabel=433, label=<(if (= (* 2 n) s) n (if (= (+ (* 2 n) 1) s) n (div2* (- n 1) s)))>];
434[xlabel=434, label=<(hailstone* (+ (* 3 n) 1) (+ count 1))>];
435[xlabel=435, label=<ko(Int)>, fillcolor=<#DDDDFF>];
436[xlabel=436, label=<ko({#f,#t})>, fillcolor=<#DDDDFF>];
437[xlabel=437, label=<count>];
438[xlabel=438, label=<(if (even? n) (hailstone* (div2 n) (+ count 1)) (hailstone* (+ (* 3 n) 1) (+ count 1)))>];
439[xlabel=439, label=<ko({#f,#t})>, fillcolor=<#DDDDFF>];
440[xlabel=440, label=<(= n 0)>];
441[xlabel=441, label=<(+ (* 3 n) 1)>];
442[xlabel=442, label=<(= (* 2 n) s)>];
443[xlabel=443, label=<(= n 1)>];
444[xlabel=444, label=<ko(Int)>, fillcolor=<#DDDDFF>];
445[xlabel=445, label=<(* 3 n)>];
446[xlabel=446, label=<ko({#f,#t})>, fillcolor=<#DDDDFF>];
447[xlabel=447, label=<(hailstone* (div2 n) (+ count 1))>];
448[xlabel=448, label=<(* 2 n)>];
449[xlabel=449, label=<(* 2 n)>];
450[xlabel=450, label=<ko(Int)>, fillcolor=<#DDDDFF>];
451[xlabel=451, label=<ko(Int)>, fillcolor=<#DDDDFF>];
452[xlabel=452, label=<(div2 n)>];
453[xlabel=453, label=<#f>];
454[xlabel=454, label=<(even? (- n 2))>];
455[xlabel=455, label=<ko(Int)>, fillcolor=<#DDDDFF>];
456[xlabel=456, label=<ko({#f,#t})>, fillcolor=<#DDDDFF>];
457[xlabel=457, label=<ko({#f,#t})>, fillcolor=<#DDDDFF>];
458[xlabel=458, label=<(* 2 n)>];
459[xlabel=459, label=<(* 3 n)>];
460[xlabel=460, label=<ko({#f,#t})>, fillcolor=<#DDDDFF>];
461[xlabel=461, label=<n>];
462[xlabel=462, label=<(if (= (+ (* 2 n) 1) s) n (div2* (- n 1) s))>];
463[xlabel=463, label=<ko(Int)>, fillcolor=<#FFFFAA>];
464[xlabel=464, label=<(even? n)>];
465[xlabel=465, label=<(if (= n 0) #t (if (= n 1) #f (even? (- n 2))))>];
466[xlabel=466, label=<ko(Int)>, fillcolor=<#DDDDFF>];
467[xlabel=467, label=<(= (+ (* 2 n) 1) s)>];
468[xlabel=468, label=<#t>];
469[xlabel=469, label=<(if (= n 1) #f (even? (- n 2)))>];
470[xlabel=470, label=<ko(Int)>, fillcolor=<#DDDDFF>];
471[xlabel=471, label=<ko(Int)>, fillcolor=<#DDDDFF>];
472[xlabel=472, label=<count>];
473[xlabel=473, label=<(if (even? n) (hailstone* (div2 n) (+ count 1)) (hailstone* (+ (* 3 n) 1) (+ count 1)))>];
474[xlabel=474, label=<n>];
475[xlabel=475, label=<(div2* (- n 1) s)>];
476[xlabel=476, label=<ko(Int)>, fillcolor=<#DDDDFF>];
477[xlabel=477, label=<ko(#f)>, fillcolor=<#DDDDFF>];
478[xlabel=478, label=<(- n 2)>];
479[xlabel=479, label=<(div2* n n)>];
480[xlabel=480, label=<ko(Int)>, fillcolor=<#DDDDFF>];
481[xlabel=481, label=<ko({#f,#t})>, fillcolor=<#DDDDFF>];
482[xlabel=482, label=<n>];
483[xlabel=483, label=<(if (= (+ (* 2 n) 1) s) n (div2* (- n 1) s))>];
484[xlabel=484, label=<ko({#f,#t})>, fillcolor=<#DDDDFF>];
485[xlabel=485, label=<(if (= (* 2 n) s) n (if (= (+ (* 2 n) 1) s) n (div2* (- n 1) s)))>];
486[xlabel=486, label=<ko(Int)>, fillcolor=<#DDDDFF>];
487[xlabel=487, label=<(hailstone* (+ (* 3 n) 1) (+ count 1))>];
488[xlabel=488, label=<(+ count 1)>];
489[xlabel=489, label=<ko(Int)>, fillcolor=<#DDDDFF>];
490[xlabel=490, label=<(- n 1)>];
491[xlabel=491, label=<ko(Int)>, fillcolor=<#FFFFAA>];
492[xlabel=492, label=<(even? n)>];
493[xlabel=493, label=<ko({#f,#t})>, fillcolor=<#DDDDFF>];
494[xlabel=494, label=<ko(Int)>, fillcolor=<#DDDDFF>];
495[xlabel=495, label=<ko(#t)>, fillcolor=<#DDDDFF>];
496[xlabel=496, label=<(= n 1)>];
497[xlabel=497, label=<(+ (* 2 n) 1)>];
498[xlabel=498, label=<(+ count 1)>];
499[xlabel=499, label=<(= n 0)>];
500[xlabel=500, label=<ko({#f,#t})>, fillcolor=<#DDDDFF>];
501[xlabel=501, label=<ko(Int)>, fillcolor=<#DDDDFF>];
502[xlabel=502, label=<(* 2 n)>];
503[xlabel=503, label=<ko({#f,#t})>, fillcolor=<#DDDDFF>];
504[xlabel=504, label=<(hailstone* (div2 n) (+ count 1))>];
505[xlabel=505, label=<(+ count 1)>];
506[xlabel=506, label=<n>];
507[xlabel=507, label=<(if (= (+ (* 2 n) 1) s) n (div2* (- n 1) s))>];
508[xlabel=508, label=<(if (= n 0) #t (if (= n 1) #f (even? (- n 2))))>];
509[xlabel=509, label=<ko(Int)>, fillcolor=<#DDDDFF>];
510[xlabel=510, label=<(+ count 1)>];
511[xlabel=511, label=<ko(Int)>, fillcolor=<#DDDDFF>];
512[xlabel=512, label=<(+ (* 3 n) 1)>];
513[xlabel=513, label=<(= (* 2 n) s)>];
514[xlabel=514, label=<n>];
515[xlabel=515, label=<(div2* (- n 1) s)>];
516[xlabel=516, label=<ko(Int)>, fillcolor=<#DDDDFF>];
517[xlabel=517, label=<(= (+ (* 2 n) 1) s)>];
518[xlabel=518, label=<(+ (* 2 n) 1)>];
519[xlabel=519, label=<ko(Int)>, fillcolor=<#DDDDFF>];
520[xlabel=520, label=<(- n 1)>];
521[xlabel=521, label=<(* 2 n)>];
522[xlabel=522, label=<(= n 0)>];
523[xlabel=523, label=<(* 3 n)>];
524[xlabel=524, label=<(if (= n 1) count (if (even? n) (hailstone* (div2 n) (+ count 1)) (hailstone* (+ (* 3 n) 1) (+ count 1))))>];
525[xlabel=525, label=<ko(Int)>, fillcolor=<#DDDDFF>];
526[xlabel=526, label=<(if (= (* 2 n) s) n (if (= (+ (* 2 n) 1) s) n (div2* (- n 1) s)))>];
527[xlabel=527, label=<(= (+ (* 2 n) 1) s)>];
528[xlabel=528, label=<ko(Int)>, fillcolor=<#DDDDFF>];
529[xlabel=529, label=<(div2 n)>];
530[xlabel=530, label=<#f>];
531[xlabel=531, label=<(even? (- n 2))>];
532[xlabel=532, label=<ko(Int)>, fillcolor=<#DDDDFF>];
533[xlabel=533, label=<#t>];
534[xlabel=534, label=<(if (= n 1) #f (even? (- n 2)))>];
535[xlabel=535, label=<ko(#t)>, fillcolor=<#DDDDFF>];
536[xlabel=536, label=<(= n 1)>];
537[xlabel=537, label=<(= n 1)>];
538[xlabel=538, label=<ko(Int)>, fillcolor=<#DDDDFF>];
539[xlabel=539, label=<ko(#f)>, fillcolor=<#DDDDFF>];
540[xlabel=540, label=<(div2* n n)>];
541[xlabel=541, label=<(if (= n 1) count (if (even? n) (hailstone* (div2 n) (+ count 1)) (hailstone* (+ (* 3 n) 1) (+ count 1))))>];
542[xlabel=542, label=<(+ (* 2 n) 1)>];
543[xlabel=543, label=<(= (* 2 n) s)>];
544[xlabel=544, label=<ko(Int)>, fillcolor=<#DDDDFF>];
545[xlabel=545, label=<ko({#f,#t})>, fillcolor=<#DDDDFF>];
546[xlabel=546, label=<ko(Int)>, fillcolor=<#DDDDFF>];
547[xlabel=547, label=<ko(Int)>, fillcolor=<#DDDDFF>];
548[xlabel=548, label=<(* 2 n)>];
549[xlabel=549, label=<ko(Int)>, fillcolor=<#DDDDFF>];
550[xlabel=550, label=<(if (= (* 2 n) s) n (if (= (+ (* 2 n) 1) s) n (div2* (- n 1) s)))>];
551[xlabel=551, label=<ko({#f,#t})>, fillcolor=<#DDDDFF>];
552[xlabel=552, label=<#t>];
553[xlabel=553, label=<(if (= n 1) #f (even? (- n 2)))>];
554[xlabel=554, label=<ko(Int)>, fillcolor=<#DDDDFF>];
555[xlabel=555, label=<(= n 1)>];
556[xlabel=556, label=<(* 2 n)>];
557[xlabel=557, label=<(hailstone* (+ (* 3 n) 1) (+ count 1))>];
558[xlabel=558, label=<ko({#f,#t})>, fillcolor=<#DDDDFF>];
559[xlabel=559, label=<ko({#f,#t})>, fillcolor=<#DDDDFF>];
560[xlabel=560, label=<ko({#f,#t})>, fillcolor=<#DDDDFF>];
561[xlabel=561, label=<(hailstone* (div2 n) (+ count 1))>];
562[xlabel=562, label=<(div2 n)>];
563[xlabel=563, label=<#f>];
564[xlabel=564, label=<(even? (- n 2))>];
565[xlabel=565, label=<count>];
566[xlabel=566, label=<(if (even? n) (hailstone* (div2 n) (+ count 1)) (hailstone* (+ (* 3 n) 1) (+ count 1)))>];
567[xlabel=567, label=<n>];
568[xlabel=568, label=<(div2* (- n 1) s)>];
569[xlabel=569, label=<(+ (* 3 n) 1)>];
570[xlabel=570, label=<(= (* 2 n) s)>];
571[xlabel=571, label=<ko(Int)>, fillcolor=<#DDDDFF>];
572[xlabel=572, label=<ko({#f,#t})>, fillcolor=<#DDDDFF>];
573[xlabel=573, label=<ko(#t)>, fillcolor=<#DDDDFF>];
574[xlabel=574, label=<(= n 1)>];
575[xlabel=575, label=<n>];
576[xlabel=576, label=<(if (= (+ (* 2 n) 1) s) n (div2* (- n 1) s))>];
577[xlabel=577, label=<ko(Int)>, fillcolor=<#DDDDFF>];
578[xlabel=578, label=<ko({#f,#t})>, fillcolor=<#DDDDFF>];
579[xlabel=579, label=<ko(Int)>, fillcolor=<#DDDDFF>];
580[xlabel=580, label=<(= (+ (* 2 n) 1) s)>];
581[xlabel=581, label=<ko({#f,#t})>, fillcolor=<#DDDDFF>];
582[xlabel=582, label=<(hailstone* (div2 n) (+ count 1))>];
583[xlabel=583, label=<count>];
584[xlabel=584, label=<(if (even? n) (hailstone* (div2 n) (+ count 1)) (hailstone* (+ (* 3 n) 1) (+ count 1)))>];
585[xlabel=585, label=<ko({#f,#t})>, fillcolor=<#DDDDFF>];
586[xlabel=586, label=<(* 2 n)>];
587[xlabel=587, label=<(* 3 n)>];
588[xlabel=588, label=<ko(Int)>, fillcolor=<#FFFFAA>];
589[xlabel=589, label=<(even? n)>];
590[xlabel=590, label=<ko(#f)>, fillcolor=<#DDDDFF>];
591[xlabel=591, label=<(- n 2)>];
592[xlabel=592, label=<(div2* n n)>];
593[xlabel=593, label=<(if (= (* 2 n) s) n (if (= (+ (* 2 n) 1) s) n (div2* (- n 1) s)))>];
594[xlabel=594, label=<ko(Int)>, fillcolor=<#DDDDFF>];
595[xlabel=595, label=<(hailstone* (+ (* 3 n) 1) (+ count 1))>];
596[xlabel=596, label=<(if (= n 0) #t (if (= n 1) #f (even? (- n 2))))>];
597[xlabel=597, label=<ko(Int)>, fillcolor=<#DDDDFF>];
598[xlabel=598, label=<ko(Int)>, fillcolor=<#DDDDFF>];
599[xlabel=599, label=<n>];
600[xlabel=600, label=<(if (= (+ (* 2 n) 1) s) n (div2* (- n 1) s))>];
601[xlabel=601, label=<ko(Int)>, fillcolor=<#FFFFAA>];
602[xlabel=602, label=<(even? n)>];
603[xlabel=603, label=<(div2 n)>];
604[xlabel=604, label=<#f>];
605[xlabel=605, label=<(even? (- n 2))>];
606[xlabel=606, label=<(+ (* 2 n) 1)>];
607[xlabel=607, label=<n>];
608[xlabel=608, label=<(div2* (- n 1) s)>];
609[xlabel=609, label=<(* 2 n)>];
610[xlabel=610, label=<ko(#f)>, fillcolor=<#DDDDFF>];
611[xlabel=611, label=<(div2* n n)>];
612[xlabel=612, label=<(if (= n 0) #t (if (= n 1) #f (even? (- n 2))))>];
613[xlabel=613, label=<ko(Int)>, fillcolor=<#DDDDFF>];
614[xlabel=614, label=<(= (+ (* 2 n) 1) s)>];
615[xlabel=615, label=<ko({#f,#t})>, fillcolor=<#DDDDFF>];
616[xlabel=616, label=<ko(Int)>, fillcolor=<#DDDDFF>];
617[xlabel=617, label=<(= n 0)>];
618[xlabel=618, label=<(+ (* 3 n) 1)>];
619[xlabel=619, label=<(= (* 2 n) s)>];
620[xlabel=620, label=<(* 2 n)>];
621[xlabel=621, label=<(= n 0)>];
622[xlabel=622, label=<(* 3 n)>];
623[xlabel=623, label=<ko({#f,#t})>, fillcolor=<#DDDDFF>];
624[xlabel=624, label=<(+ count 1)>];
625[xlabel=625, label=<n>];
626[xlabel=626, label=<(if (= (+ (* 2 n) 1) s) n (div2* (- n 1) s))>];
627[xlabel=627, label=<(+ (* 2 n) 1)>];
628[xlabel=628, label=<(+ count 1)>];
629[xlabel=629, label=<(if (= (* 2 n) s) n (if (= (+ (* 2 n) 1) s) n (div2* (- n 1) s)))>];
630[xlabel=630, label=<(hailstone* (+ (* 3 n) 1) (+ count 1))>];
631[xlabel=631, label=<ko(Int)>, fillcolor=<#DDDDFF>];
632[xlabel=632, label=<ko(Int)>, fillcolor=<#DDDDFF>];
633[xlabel=633, label=<(+ (* 3 n) 1)>];
634[xlabel=634, label=<(= (* 2 n) s)>];
635[xlabel=635, label=<ko(Int)>, fillcolor=<#DDDDFF>];
636[xlabel=636, label=<(* 2 n)>];
637[xlabel=637, label=<ko(Int)>, fillcolor=<#DDDDFF>];
638[xlabel=638, label=<(= (+ (* 2 n) 1) s)>];
639[xlabel=639, label=<ko(Int)>, fillcolor=<#DDDDFF>];
640[xlabel=640, label=<#t>];
641[xlabel=641, label=<(if (= n 1) #f (even? (- n 2)))>];
642[xlabel=642, label=<ko(Int)>, fillcolor=<#DDDDFF>];
643[xlabel=643, label=<ko({#f,#t})>, fillcolor=<#DDDDFF>];
644[xlabel=644, label=<ko(Int)>, fillcolor=<#DDDDFF>];
645[xlabel=645, label=<ko({#f,#t})>, fillcolor=<#DDDDFF>];
646[xlabel=646, label=<#t>];
647[xlabel=647, label=<(if (= n 1) #f (even? (- n 2)))>];
648[xlabel=648, label=<ko(Int)>, fillcolor=<#DDDDFF>];
649[xlabel=649, label=<ko(#t)>, fillcolor=<#DDDDFF>];
650[xlabel=650, label=<(= n 1)>];
651[xlabel=651, label=<(if (= n 1) count (if (even? n) (hailstone* (div2 n) (+ count 1)) (hailstone* (+ (* 3 n) 1) (+ count 1))))>];
652[xlabel=652, label=<(+ (* 2 n) 1)>];
653[xlabel=653, label=<ko(Int)>, fillcolor=<#DDDDFF>];
654[xlabel=654, label=<(* 2 n)>];
655[xlabel=655, label=<(* 3 n)>];
656[xlabel=656, label=<ko({#f,#t})>, fillcolor=<#DDDDFF>];
657[xlabel=657, label=<n>];
658[xlabel=658, label=<(div2* (- n 1) s)>];
659[xlabel=659, label=<ko(Int)>, fillcolor=<#DDDDFF>];
660[xlabel=660, label=<ko(Int)>, fillcolor=<#DDDDFF>];
661[xlabel=661, label=<(= n 1)>];
662[xlabel=662, label=<ko(Int)>, fillcolor=<#DDDDFF>];
663[xlabel=663, label=<(* 2 n)>];
664[xlabel=664, label=<ko({#f,#t})>, fillcolor=<#DDDDFF>];
665[xlabel=665, label=<(hailstone* (div2 n) (+ count 1))>];
666[xlabel=666, label=<ko(#t)>, fillcolor=<#DDDDFF>];
667[xlabel=667, label=<(= n 1)>];
668[xlabel=668, label=<n>];
669[xlabel=669, label=<(if (= (+ (* 2 n) 1) s) n (div2* (- n 1) s))>];
670[xlabel=670, label=<ko(Int)>, fillcolor=<#DDDDFF>];
671[xlabel=671, label=<(= (+ (* 2 n) 1) s)>];
672[xlabel=672, label=<ko({#f,#t})>, fillcolor=<#DDDDFF>];
673[xlabel=673, label=<(hailstone* (div2 n) (+ count 1))>];
674[xlabel=674, label=<(div2 n)>];
675[xlabel=675, label=<#f>];
676[xlabel=676, label=<(even? (- n 2))>];
677[xlabel=677, label=<ko(Int)>, fillcolor=<#DDDDFF>];
678[xlabel=678, label=<ko({#f,#t})>, fillcolor=<#DDDDFF>];
679[xlabel=679, label=<ko({#f,#t})>, fillcolor=<#DDDDFF>];
680[xlabel=680, label=<ko({#f,#t})>, fillcolor=<#DDDDFF>];
681[xlabel=681, label=<ko(Int)>, fillcolor=<#DDDDFF>];
682[xlabel=682, label=<(- n 1)>];
683[xlabel=683, label=<ko(Int)>, fillcolor=<#DDDDFF>];
684[xlabel=684, label=<n>];
685[xlabel=685, label=<(if (= (+ (* 2 n) 1) s) n (div2* (- n 1) s))>];
686[xlabel=686, label=<count>];
687[xlabel=687, label=<(if (even? n) (hailstone* (div2 n) (+ count 1)) (hailstone* (+ (* 3 n) 1) (+ count 1)))>];
688[xlabel=688, label=<n>];
689[xlabel=689, label=<(div2* (- n 1) s)>];
690[xlabel=690, label=<ko(Int)>, fillcolor=<#DDDDFF>];
691[xlabel=691, label=<ko(#f)>, fillcolor=<#DDDDFF>];
692[xlabel=692, label=<(- n 2)>];
693[xlabel=693, label=<(div2* n n)>];
694[xlabel=694, label=<(div2 n)>];
695[xlabel=695, label=<#f>];
696[xlabel=696, label=<(even? (- n 2))>];
697[xlabel=697, label=<(+ (* 2 n) 1)>];
698[xlabel=698, label=<ko(#f)>, fillcolor=<#DDDDFF>];
699[xlabel=699, label=<(div2* n n)>];
700[xlabel=700, label=<(if (= (* 2 n) s) n (if (= (+ (* 2 n) 1) s) n (div2* (- n 1) s)))>];
701[xlabel=701, label=<ko(Int)>, fillcolor=<#DDDDFF>];
702[xlabel=702, label=<(hailstone* (+ (* 3 n) 1) (+ count 1))>];
703[xlabel=703, label=<ko({#f,#t})>, fillcolor=<#DDDDFF>];
704[xlabel=704, label=<ko(Int)>, fillcolor=<#FFFFAA>];
705[xlabel=705, label=<(even? n)>];
706[xlabel=706, label=<ko(Int)>, fillcolor=<#DDDDFF>];
707[xlabel=707, label=<(= (+ (* 2 n) 1) s)>];
708[xlabel=708, label=<(= (* 2 n) s)>];
709[xlabel=709, label=<(+ (* 2 n) 1)>];
710[xlabel=710, label=<(if (= n 0) #t (if (= n 1) #f (even? (- n 2))))>];
711[xlabel=711, label=<n>];
712[xlabel=712, label=<(div2* (- n 1) s)>];
713[xlabel=713, label=<(+ (* 3 n) 1)>];
714[xlabel=714, label=<(if (= (* 2 n) s) n (if (= (+ (* 2 n) 1) s) n (div2* (- n 1) s)))>];
715[xlabel=715, label=<(hailstone* (+ (* 3 n) 1) (+ count 1))>];
716[xlabel=716, label=<(+ (* 3 n) 1)>];
717[xlabel=717, label=<(= (* 2 n) s)>];
718[xlabel=718, label=<(= n 0)>];
719[xlabel=719, label=<(* 3 n)>];
720[xlabel=720, label=<(* 2 n)>];
721[xlabel=721, label=<(* 2 n)>];
722[xlabel=722, label=<ko(Int)>, fillcolor=<#DDDDFF>];
723[xlabel=723, label=<ko(Int)>, fillcolor=<#DDDDFF>];
724[xlabel=724, label=<ko(Int)>, fillcolor=<#DDDDFF>];
725[xlabel=725, label=<ko({#f,#t})>, fillcolor=<#DDDDFF>];
726[xlabel=726, label=<(* 2 n)>];
727[xlabel=727, label=<(* 3 n)>];
728[xlabel=728, label=<ko(Int)>, fillcolor=<#DDDDFF>];
729[xlabel=729, label=<ko(Int)>, fillcolor=<#DDDDFF>];
730[xlabel=730, label=<#t>];
731[xlabel=731, label=<(if (= n 1) #f (even? (- n 2)))>];
732[xlabel=732, label=<ko(Int)>, fillcolor=<#DDDDFF>];
733[xlabel=733, label=<ko(Int)>, fillcolor=<#DDDDFF>];
734[xlabel=734, label=<ko({#f,#t})>, fillcolor=<#DDDDFF>];
735[xlabel=735, label=<n>];
736[xlabel=736, label=<(if (= (+ (* 2 n) 1) s) n (div2* (- n 1) s))>];
737[xlabel=737, label=<ko({#f,#t})>, fillcolor=<#DDDDFF>];
738[xlabel=738, label=<ko(#t)>, fillcolor=<#DDDDFF>];
739[xlabel=739, label=<(= n 1)>];
740[xlabel=740, label=<ko({#f,#t})>, fillcolor=<#DDDDFF>];
741[xlabel=741, label=<ko(Int)>, fillcolor=<#DDDDFF>];
742[xlabel=742, label=<n>];
743[xlabel=743, label=<(if (= (+ (* 2 n) 1) s) n (div2* (- n 1) s))>];
744[xlabel=744, label=<ko({#f,#t})>, fillcolor=<#DDDDFF>];
745[xlabel=745, label=<(hailstone* (div2 n) (+ count 1))>];
746[xlabel=746, label=<n>];
747[xlabel=747, label=<(div2* (- n 1) s)>];
748[xlabel=748, label=<ko(Int)>, fillcolor=<#DDDDFF>];
749[xlabel=749, label=<(= (+ (* 2 n) 1) s)>];
750[xlabel=750, label=<(+ (* 2 n) 1)>];
751[xlabel=751, label=<ko(Int)>, fillcolor=<#DDDDFF>];
752[xlabel=752, label=<(- n 1)>];
753[xlabel=753, label=<(div2 n)>];
754[xlabel=754, label=<#f>];
755[xlabel=755, label=<(even? (- n 2))>];
756[xlabel=756, label=<(= (+ (* 2 n) 1) s)>];
757[xlabel=757, label=<(+ (* 2 n) 1)>];
758[xlabel=758, label=<ko(#f)>, fillcolor=<#DDDDFF>];
759[xlabel=759, label=<(div2* n n)>];
760[xlabel=760, label=<ko(Int)>, fillcolor=<#DDDDFF>];
761[xlabel=761, label=<(* 2 n)>];
762[xlabel=762, label=<ko(Int)>, fillcolor=<#DDDDFF>];
763[xlabel=763, label=<(if (= (* 2 n) s) n (if (= (+ (* 2 n) 1) s) n (div2* (- n 1) s)))>];
764[xlabel=764, label=<(hailstone* (+ (* 3 n) 1) (+ count 1))>];
765[xlabel=765, label=<(+ (* 3 n) 1)>];
766[xlabel=766, label=<(= (* 2 n) s)>];
767[xlabel=767, label=<ko(Int)>, fillcolor=<#DDDDFF>];
768[xlabel=768, label=<ko({#f,#t})>, fillcolor=<#DDDDFF>];
769[xlabel=769, label=<(* 2 n)>];
770[xlabel=770, label=<(* 3 n)>];
771[xlabel=771, label=<ko(Int)>, fillcolor=<#DDDDFF>];
772[xlabel=772, label=<ko(Int)>, fillcolor=<#DDDDFF>];
773[xlabel=773, label=<n>];
774[xlabel=774, label=<(div2* (- n 1) s)>];
775[xlabel=775, label=<ko({#f,#t})>, fillcolor=<#DDDDFF>];
776[xlabel=776, label=<ko(Int)>, fillcolor=<#DDDDFF>];
777[xlabel=777, label=<n>];
778[xlabel=778, label=<(if (= (+ (* 2 n) 1) s) n (div2* (- n 1) s))>];
779[xlabel=779, label=<ko(Int)>, fillcolor=<#DDDDFF>];
780[xlabel=780, label=<(= (+ (* 2 n) 1) s)>];
781[xlabel=781, label=<(+ (* 2 n) 1)>];
782[xlabel=782, label=<(* 2 n)>];
783[xlabel=783, label=<ko(Int)>, fillcolor=<#DDDDFF>];
784[xlabel=784, label=<ko(Int)>, fillcolor=<#DDDDFF>];
785[xlabel=785, label=<ko({#f,#t})>, fillcolor=<#DDDDFF>];
786[xlabel=786, label=<n>];
787[xlabel=787, label=<(div2* (- n 1) s)>];

0 -> 1;
1 -> 2;
2 -> 3;
3 -> 4;
4 -> 5;
5 -> 6;
6 -> 7;
7 -> 8;
8 -> 9;
9 -> 10;
9 -> 11;
10 -> 12;
11 -> 13;
13 -> 14;
14 -> 15;
15 -> 16;
16 -> 17;
16 -> 18;
17 -> 19;
18 -> 20;
19 -> 22;
20 -> 21;
21 -> 24;
21 -> 25;
22 -> 23;
23 -> 28;
24 -> 26;
25 -> 27;
26 -> 31;
27 -> 30;
28 -> 29;
29 -> 34;
30 -> 33;
31 -> 32;
32 -> 37;
33 -> 36;
34 -> 35;
35 -> 40;
36 -> 39;
37 -> 38;
38 -> 44;
39 -> 42;
39 -> 43;
40 -> 41;
41 -> 48;
41 -> 49;
42 -> 46;
43 -> 47;
44 -> 45;
45 -> 54;
46 -> 53;
47 -> 52;
48 -> 50;
49 -> 51;
50 -> 60;
51 -> 59;
52 -> 57;
52 -> 58;
53 -> 56;
54 -> 55;
55 -> 65;
56 -> 64;
57 -> 63;
58 -> 27;
59 -> 62;
60 -> 61;
61 -> 70;
62 -> 69;
63 -> 68;
64 -> 67;
65 -> 66;
66 -> 75;
66 -> 76;
67 -> 74;
68 -> 73;
69 -> 72;
70 -> 71;
71 -> 82;
72 -> 81;
73 -> 80;
74 -> 79;
75 -> 77;
76 -> 78;
78 -> 89;
79 -> 88;
80 -> 87;
81 -> 85;
81 -> 86;
82 -> 83;
82 -> 84;
83 -> 95;
84 -> 96;
85 -> 93;
86 -> 94;
87 -> 92;
88 -> 91;
89 -> 90;
90 -> 103;
91 -> 101;
91 -> 102;
92 -> 100;
93 -> 99;
94 -> 98;
96 -> 97;
97 -> 111;
98 -> 110;
99 -> 109;
100 -> 108;
101 -> 106;
102 -> 107;
103 -> 104;
103 -> 105;
104 -> 118;
105 -> 119;
106 -> 117;
107 -> 116;
108 -> 115;
109 -> 114;
110 -> 113;
111 -> 112;
112 -> 127;
112 -> 128;
113 -> 126;
114 -> 125;
115 -> 124;
116 -> 123;
117 -> 122;
118 -> 121;
119 -> 120;
120 -> 137;
120 -> 138;
121 -> 136;
122 -> 135;
123 -> 134;
124 -> 133;
125 -> 132;
126 -> 131;
127 -> 129;
128 -> 130;
129 -> 150;
130 -> 149;
131 -> 148;
132 -> 146;
132 -> 147;
133 -> 144;
133 -> 145;
134 -> 143;
135 -> 142;
136 -> 141;
137 -> 139;
138 -> 140;
139 -> 164;
140 -> 163;
141 -> 162;
142 -> 161;
143 -> 160;
144 -> 158;
145 -> 159;
146 -> 156;
147 -> 157;
148 -> 154;
148 -> 155;
149 -> 152;
149 -> 153;
150 -> 151;
151 -> 177;
152 -> 175;
153 -> 176;
154 -> 173;
155 -> 174;
157 -> 172;
159 -> 166;
160 -> 170;
160 -> 171;
161 -> 168;
161 -> 169;
162 -> 167;
163 -> 166;
164 -> 165;
165 -> 190;
166 -> 184;
167 -> 189;
168 -> 187;
169 -> 188;
170 -> 185;
171 -> 186;
172 -> 183;
173 -> 182;
174 -> 181;
175 -> 180;
176 -> 179;
177 -> 178;
178 -> 201;
179 -> 193;
180 -> 200;
181 -> 199;
182 -> 198;
183 -> 197;
184 -> 196;
185 -> 195;
186 -> 194;
188 -> 193;
189 -> 192;
190 -> 191;
191 -> 214;
192 -> 213;
193 -> 203;
194 -> 212;
195 -> 211;
196 -> 209;
196 -> 210;
197 -> 207;
197 -> 208;
198 -> 206;
199 -> 205;
200 -> 204;
201 -> 202;
202 -> 227;
203 -> 226;
204 -> 225;
205 -> 224;
206 -> 223;
207 -> 221;
208 -> 222;
209 -> 219;
210 -> 220;
211 -> 218;
212 -> 217;
213 -> 215;
213 -> 216;
214 -> 45;
215 -> 240;
216 -> 241;
217 -> 239;
218 -> 238;
219 -> 237;
220 -> 236;
221 -> 235;
222 -> 234;
223 -> 233;
224 -> 232;
225 -> 231;
226 -> 229;
226 -> 230;
227 -> 228;
228 -> 259;
228 -> 260;
229 -> 257;
230 -> 258;
231 -> 256;
232 -> 254;
232 -> 255;
233 -> 252;
233 -> 253;
234 -> 250;
234 -> 251;
235 -> 249;
236 -> 247;
236 -> 248;
237 -> 246;
238 -> 245;
239 -> 244;
240 -> 243;
241 -> 242;
242 -> 277;
243 -> 276;
244 -> 275;
245 -> 273;
245 -> 274;
246 -> 272;
247 -> 271;
248 -> 140;
249 -> 270;
250 -> 268;
251 -> 269;
252 -> 266;
253 -> 267;
254 -> 173;
255 -> 94;
256 -> 265;
257 -> 264;
258 -> 263;
259 -> 261;
260 -> 262;
261 -> 60;
262 -> 293;
263 -> 291;
263 -> 292;
264 -> 290;
265 -> 279;
267 -> 289;
268 -> 288;
269 -> 287;
270 -> 286;
271 -> 285;
272 -> 284;
273 -> 282;
274 -> 283;
275 -> 280;
275 -> 281;
276 -> 279;
277 -> 278;
278 -> 306;
279 -> 297;
280 -> 304;
281 -> 305;
283 -> 300;
284 -> 303;
285 -> 302;
286 -> 301;
287 -> 300;
288 -> 299;
289 -> 298;
290 -> 296;
291 -> 295;
292 -> 176;
293 -> 294;
294 -> 319;
295 -> 318;
296 -> 317;
297 -> 316;
298 -> 315;
299 -> 314;
300 -> 310;
301 -> 313;
302 -> 312;
303 -> 311;
304 -> 309;
305 -> 308;
306 -> 307;
307 -> 334;
307 -> 335;
308 -> 333;
309 -> 332;
310 -> 331;
311 -> 330;
312 -> 329;
313 -> 328;
314 -> 327;
315 -> 325;
315 -> 326;
316 -> 323;
316 -> 324;
317 -> 322;
318 -> 321;
319 -> 320;
320 -> 352;
321 -> 351;
322 -> 350;
323 -> 348;
324 -> 349;
325 -> 346;
326 -> 347;
327 -> 345;
328 -> 344;
329 -> 343;
330 -> 342;
331 -> 340;
331 -> 341;
332 -> 339;
333 -> 338;
334 -> 336;
335 -> 337;
336 -> 370;
337 -> 369;
338 -> 368;
339 -> 367;
340 -> 365;
341 -> 366;
342 -> 363;
342 -> 364;
343 -> 100;
344 -> 361;
344 -> 362;
345 -> 360;
346 -> 359;
347 -> 358;
349 -> 357;
350 -> 356;
351 -> 355;
352 -> 353;
352 -> 354;
353 -> 379;
354 -> 388;
355 -> 387;
356 -> 386;
357 -> 385;
358 -> 383;
358 -> 384;
359 -> 382;
360 -> 381;
361 -> 379;
362 -> 380;
363 -> 377;
364 -> 378;
365 -> 376;
366 -> 375;
367 -> 374;
368 -> 373;
369 -> 372;
370 -> 371;
371 -> 397;
372 -> 408;
373 -> 406;
373 -> 407;
374 -> 404;
374 -> 405;
375 -> 402;
375 -> 403;
376 -> 401;
377 -> 400;
378 -> 399;
379 -> 99;
380 -> 398;
381 -> 397;
382 -> 396;
383 -> 394;
384 -> 395;
385 -> 393;
386 -> 391;
386 -> 392;
387 -> 390;
388 -> 389;
389 -> 417;
390 -> 424;
391 -> 422;
392 -> 423;
393 -> 420;
393 -> 421;
394 -> 419;
395 -> 418;
396 -> 417;
397 -> 409;
398 -> 294;
399 -> 416;
400 -> 415;
401 -> 414;
402 -> 413;
403 -> 269;
404 -> 411;
405 -> 412;
406 -> 304;
407 -> 186;
408 -> 410;
409 -> 436;
410 -> 435;
412 -> 431;
413 -> 434;
414 -> 433;
415 -> 426;
416 -> 432;
417 -> 425;
418 -> 431;
419 -> 430;
420 -> 428;
421 -> 429;
422 -> 117;
423 -> 427;
424 -> 426;
425 -> 449;
426 -> 443;
427 -> 448;
428 -> 447;
429 -> 446;
430 -> 445;
431 -> 440;
432 -> 444;
433 -> 442;
434 -> 441;
435 -> 439;
436 -> 437;
436 -> 438;
437 -> 463;
438 -> 464;
439 -> 461;
439 -> 462;
440 -> 460;
441 -> 459;
442 -> 458;
443 -> 457;
444 -> 456;
445 -> 455;
446 -> 453;
446 -> 454;
447 -> 452;
448 -> 451;
449 -> 450;
450 -> 481;
451 -> 480;
452 -> 479;
453 -> 477;
454 -> 478;
455 -> 476;
456 -> 474;
456 -> 475;
457 -> 472;
457 -> 473;
458 -> 471;
459 -> 470;
460 -> 468;
460 -> 469;
461 -> 466;
462 -> 467;
464 -> 465;
465 -> 499;
466 -> 498;
467 -> 497;
468 -> 495;
469 -> 496;
470 -> 494;
471 -> 493;
472 -> 491;
473 -> 492;
474 -> 489;
475 -> 490;
476 -> 488;
477 -> 487;
478 -> 486;
479 -> 485;
480 -> 484;
481 -> 482;
481 -> 483;
482 -> 516;
483 -> 517;
484 -> 514;
484 -> 515;
485 -> 513;
486 -> 508;
487 -> 512;
488 -> 511;
489 -> 510;
490 -> 509;
492 -> 508;
493 -> 506;
493 -> 507;
494 -> 505;
495 -> 504;
496 -> 503;
497 -> 502;
498 -> 501;
499 -> 500;
500 -> 533;
500 -> 534;
501 -> 524;
502 -> 532;
503 -> 530;
503 -> 531;
504 -> 529;
505 -> 528;
506 -> 519;
507 -> 527;
508 -> 522;
509 -> 526;
510 -> 525;
511 -> 524;
512 -> 523;
513 -> 521;
514 -> 519;
515 -> 520;
516 -> 182;
517 -> 518;
518 -> 548;
519 -> 195;
520 -> 547;
521 -> 546;
522 -> 545;
523 -> 544;
524 -> 537;
525 -> 541;
526 -> 543;
527 -> 542;
528 -> 541;
529 -> 540;
530 -> 539;
531 -> 395;
532 -> 538;
533 -> 535;
534 -> 536;
535 -> 561;
536 -> 560;
537 -> 559;
538 -> 558;
539 -> 557;
540 -> 550;
541 -> 555;
542 -> 448;
543 -> 556;
544 -> 554;
545 -> 552;
545 -> 553;
546 -> 551;
547 -> 550;
548 -> 549;
549 -> 577;
550 -> 570;
551 -> 575;
551 -> 576;
552 -> 573;
553 -> 574;
554 -> 256;
555 -> 572;
556 -> 571;
557 -> 569;
558 -> 567;
558 -> 568;
559 -> 565;
559 -> 566;
560 -> 563;
560 -> 564;
561 -> 562;
562 -> 592;
563 -> 590;
564 -> 591;
565 -> 588;
566 -> 589;
567 -> 466;
568 -> 337;
569 -> 587;
570 -> 586;
571 -> 585;
572 -> 583;
572 -> 584;
573 -> 582;
574 -> 581;
575 -> 579;
576 -> 580;
577 -> 578;
578 -> 607;
578 -> 608;
579 -> 243;
580 -> 606;
581 -> 604;
581 -> 605;
582 -> 603;
583 -> 601;
584 -> 602;
585 -> 599;
585 -> 600;
586 -> 598;
587 -> 597;
589 -> 596;
590 -> 595;
591 -> 594;
592 -> 593;
593 -> 619;
594 -> 612;
595 -> 618;
596 -> 617;
597 -> 616;
598 -> 615;
599 -> 613;
600 -> 614;
602 -> 612;
603 -> 611;
604 -> 610;
605 -> 478;
606 -> 609;
607 -> 516;
608 -> 388;
609 -> 631;
610 -> 630;
611 -> 629;
612 -> 621;
613 -> 628;
614 -> 627;
615 -> 625;
615 -> 626;
616 -> 624;
617 -> 623;
618 -> 622;
619 -> 620;
620 -> 644;
621 -> 643;
622 -> 642;
623 -> 640;
623 -> 641;
624 -> 639;
625 -> 637;
626 -> 638;
627 -> 636;
628 -> 635;
629 -> 634;
630 -> 633;
631 -> 632;
632 -> 656;
633 -> 655;
634 -> 654;
635 -> 651;
636 -> 653;
637 -> 309;
638 -> 652;
639 -> 651;
640 -> 649;
641 -> 650;
642 -> 648;
643 -> 646;
643 -> 647;
644 -> 645;
645 -> 668;
645 -> 669;
646 -> 666;
647 -> 667;
648 -> 360;
649 -> 665;
650 -> 664;
651 -> 661;
652 -> 663;
653 -> 662;
654 -> 660;
655 -> 659;
656 -> 657;
656 -> 658;
657 -> 670;
658 -> 682;
659 -> 681;
660 -> 680;
661 -> 679;
662 -> 678;
663 -> 677;
664 -> 675;
664 -> 676;
665 -> 674;
666 -> 673;
667 -> 672;
668 -> 670;
669 -> 671;
670 -> 370;
671 -> 697;
672 -> 695;
672 -> 696;
673 -> 694;
674 -> 693;
675 -> 691;
676 -> 692;
677 -> 690;
678 -> 688;
678 -> 689;
679 -> 686;
679 -> 687;
680 -> 684;
680 -> 685;
681 -> 390;
682 -> 683;
683 -> 700;
684 -> 706;
685 -> 707;
686 -> 704;
687 -> 705;
688 -> 613;
689 -> 490;
690 -> 703;
691 -> 702;
692 -> 701;
693 -> 700;
694 -> 699;
695 -> 698;
696 -> 591;
697 -> 609;
698 -> 715;
699 -> 714;
700 -> 708;
701 -> 710;
702 -> 713;
703 -> 711;
703 -> 712;
705 -> 710;
706 -> 400;
707 -> 709;
708 -> 721;
709 -> 720;
710 -> 718;
711 -> 637;
712 -> 520;
713 -> 719;
714 -> 717;
715 -> 716;
716 -> 727;
717 -> 726;
718 -> 725;
719 -> 724;
720 -> 723;
721 -> 722;
722 -> 734;
723 -> 733;
724 -> 732;
725 -> 730;
725 -> 731;
726 -> 729;
727 -> 728;
728 -> 741;
729 -> 740;
730 -> 738;
731 -> 739;
732 -> 488;
733 -> 737;
734 -> 735;
734 -> 736;
735 -> 748;
736 -> 749;
737 -> 746;
737 -> 747;
738 -> 745;
739 -> 744;
740 -> 742;
740 -> 743;
741 -> 505;
742 -> 751;
743 -> 756;
744 -> 754;
744 -> 755;
745 -> 753;
746 -> 751;
747 -> 752;
748 -> 498;
749 -> 750;
750 -> 761;
751 -> 510;
752 -> 760;
753 -> 759;
754 -> 758;
755 -> 692;
756 -> 757;
757 -> 720;
758 -> 764;
759 -> 763;
760 -> 763;
761 -> 762;
762 -> 767;
763 -> 766;
764 -> 765;
765 -> 770;
766 -> 769;
767 -> 768;
768 -> 773;
768 -> 774;
769 -> 772;
770 -> 771;
771 -> 776;
772 -> 775;
773 -> 748;
774 -> 682;
775 -> 777;
775 -> 778;
776 -> 624;
777 -> 779;
778 -> 780;
779 -> 628;
780 -> 781;
781 -> 782;
782 -> 783;
783 -> 784;
784 -> 785;
785 -> 786;
785 -> 787;
786 -> 779;
787 -> 752;
}
