digraph "Scala-Par-AM Scheme-examples/OPi/fibonacci_recur.scm" {
  node[shape=box, style=filled, fillcolor=<#DDFFDD>];

stats[style=rounded, label="# nodes: 276\l# edges: 346\lgraph density: 0.005\loutdegree positive min: 1\loutdegree max: 6\loutdegree avg: 1.254\l"];
config[style=rounded, label="lattice: TypeSet\lbound: 100\laddress: Classical\lstep\lmachine: ParAAMLSAState\lp4\l"]

0[xlabel=0, label=<(letrec ((fibonacci (lambda (n) (if (&lt;= n 1) n (+ (fibonacci (- n 1)) (fibonacci (- n 2))))))) (fibonacci 10))>, fillcolor=<#AAFFAA>];
1[xlabel=1, label=<(fibonacci 10)>];
2[xlabel=2, label=<(if (&lt;= n 1) n (+ (fibonacci (- n 1)) (fibonacci (- n 2))))>];
3[xlabel=3, label=<(&lt;= n 1)>];
4[xlabel=4, label=<ko(Bool)>, fillcolor=<#DDDDFF>];
5[xlabel=5, label=<n>];
6[xlabel=6, label=<(+ (fibonacci (- n 1)) (fibonacci (- n 2)))>];
7[xlabel=7, label=<ko(Int)>, fillcolor=<#FFFFAA>];
8[xlabel=8, label=<(fibonacci (- n 1))>];
9[xlabel=9, label=<(- n 1)>];
10[xlabel=10, label=<ko(Int)>, fillcolor=<#DDDDFF>];
11[xlabel=11, label=<(if (&lt;= n 1) n (+ (fibonacci (- n 1)) (fibonacci (- n 2))))>];
12[xlabel=12, label=<(&lt;= n 1)>];
13[xlabel=13, label=<ko(Bool)>, fillcolor=<#DDDDFF>];
14[xlabel=14, label=<n>];
15[xlabel=15, label=<(+ (fibonacci (- n 1)) (fibonacci (- n 2)))>];
16[xlabel=16, label=<n>];
17[xlabel=17, label=<(+ (fibonacci (- n 1)) (fibonacci (- n 2)))>];
18[xlabel=18, label=<ko(Int)>, fillcolor=<#FFFFAA>];
19[xlabel=19, label=<(fibonacci (- n 1))>];
20[xlabel=20, label=<(- n 1)>];
21[xlabel=21, label=<ko(Int)>, fillcolor=<#DDDDFF>];
22[xlabel=22, label=<ko(Int)>, fillcolor=<#DDDDFF>];
23[xlabel=23, label=<(if (&lt;= n 1) n (+ (fibonacci (- n 1)) (fibonacci (- n 2))))>];
24[xlabel=24, label=<ko(Int)>, fillcolor=<#DDDDFF>];
25[xlabel=25, label=<(if (&lt;= n 1) n (+ (fibonacci (- n 1)) (fibonacci (- n 2))))>];
26[xlabel=26, label=<(&lt;= n 1)>];
27[xlabel=27, label=<ko(Bool)>, fillcolor=<#DDDDFF>];
28[xlabel=28, label=<n>];
29[xlabel=29, label=<ko(Int)>, fillcolor=<#FFFFAA>];
30[xlabel=30, label=<(+ (fibonacci (- n 1)) (fibonacci (- n 2)))>];
31[xlabel=31, label=<n>];
32[xlabel=32, label=<ko(Int)>, fillcolor=<#FFFFAA>];
33[xlabel=33, label=<(+ (fibonacci (- n 1)) (fibonacci (- n 2)))>];
34[xlabel=34, label=<(fibonacci (- n 1))>];
35[xlabel=35, label=<(fibonacci (- n 2))>];
36[xlabel=36, label=<(- n 2)>];
37[xlabel=37, label=<(fibonacci (- n 1))>];
38[xlabel=38, label=<(- n 1)>];
39[xlabel=39, label=<ko(Int)>, fillcolor=<#DDDDFF>];
40[xlabel=40, label=<ko(Int)>, fillcolor=<#DDDDFF>];
41[xlabel=41, label=<ko(Int)>, fillcolor=<#DDDDFF>];
42[xlabel=42, label=<ko(Int)>, fillcolor=<#DDDDFF>];
43[xlabel=43, label=<(if (&lt;= n 1) n (+ (fibonacci (- n 1)) (fibonacci (- n 2))))>];
44[xlabel=44, label=<(if (&lt;= n 1) n (+ (fibonacci (- n 1)) (fibonacci (- n 2))))>];
45[xlabel=45, label=<ko(Int)>, fillcolor=<#DDDDFF>];
46[xlabel=46, label=<(if (&lt;= n 1) n (+ (fibonacci (- n 1)) (fibonacci (- n 2))))>];
47[xlabel=47, label=<(if (&lt;= n 1) n (+ (fibonacci (- n 1)) (fibonacci (- n 2))))>];
48[xlabel=48, label=<(&lt;= n 1)>];
49[xlabel=49, label=<(&lt;= n 1)>];
50[xlabel=50, label=<ko(Bool)>, fillcolor=<#DDDDFF>];
51[xlabel=51, label=<(+ (fibonacci (- n 1)) (fibonacci (- n 2)))>];
52[xlabel=52, label=<(+ (fibonacci (- n 1)) (fibonacci (- n 2)))>];
53[xlabel=53, label=<(+ (fibonacci (- n 1)) (fibonacci (- n 2)))>];
54[xlabel=54, label=<n>];
55[xlabel=55, label=<n>];
56[xlabel=56, label=<n>];
57[xlabel=57, label=<(fibonacci (- n 1))>];
58[xlabel=58, label=<ko(Int)>, fillcolor=<#FFFFAA>];
59[xlabel=59, label=<(+ (fibonacci (- n 1)) (fibonacci (- n 2)))>];
60[xlabel=60, label=<(fibonacci (- n 1))>];
61[xlabel=61, label=<n>];
62[xlabel=62, label=<ko(Int)>, fillcolor=<#DDDDFF>];
63[xlabel=63, label=<(+ (fibonacci (- n 1)) (fibonacci (- n 2)))>];
64[xlabel=64, label=<(+ (fibonacci (- n 1)) (fibonacci (- n 2)))>];
65[xlabel=65, label=<ko(Int)>, fillcolor=<#DDDDFF>];
66[xlabel=66, label=<ko(Int)>, fillcolor=<#DDDDFF>];
67[xlabel=67, label=<(- n 1)>];
68[xlabel=68, label=<ko(Int)>, fillcolor=<#DDDDFF>];
69[xlabel=69, label=<(fibonacci (- n 2))>];
70[xlabel=70, label=<(- n 2)>];
71[xlabel=71, label=<ko(Int)>, fillcolor=<#DDDDFF>];
72[xlabel=72, label=<(if (&lt;= n 1) n (+ (fibonacci (- n 1)) (fibonacci (- n 2))))>];
73[xlabel=73, label=<(- n 2)>];
74[xlabel=74, label=<ko(Int)>, fillcolor=<#DDDDFF>];
75[xlabel=75, label=<ko(Int)>, fillcolor=<#DDDDFF>];
76[xlabel=76, label=<(if (&lt;= n 1) n (+ (fibonacci (- n 1)) (fibonacci (- n 2))))>];
77[xlabel=77, label=<ko(Int)>, fillcolor=<#DDDDFF>];
78[xlabel=78, label=<(if (&lt;= n 1) n (+ (fibonacci (- n 1)) (fibonacci (- n 2))))>];
79[xlabel=79, label=<(if (&lt;= n 1) n (+ (fibonacci (- n 1)) (fibonacci (- n 2))))>];
80[xlabel=80, label=<ko(Int)>, fillcolor=<#DDDDFF>];
81[xlabel=81, label=<(if (&lt;= n 1) n (+ (fibonacci (- n 1)) (fibonacci (- n 2))))>];
82[xlabel=82, label=<(&lt;= n 1)>];
83[xlabel=83, label=<ko(Bool)>, fillcolor=<#DDDDFF>];
84[xlabel=84, label=<(if (&lt;= n 1) n (+ (fibonacci (- n 1)) (fibonacci (- n 2))))>];
85[xlabel=85, label=<(&lt;= n 1)>];
86[xlabel=86, label=<(&lt;= n 1)>];
87[xlabel=87, label=<ko(Bool)>, fillcolor=<#DDDDFF>];
88[xlabel=88, label=<n>];
89[xlabel=89, label=<n>];
90[xlabel=90, label=<n>];
91[xlabel=91, label=<(+ (fibonacci (- n 1)) (fibonacci (- n 2)))>];
92[xlabel=92, label=<(+ (fibonacci (- n 1)) (fibonacci (- n 2)))>];
93[xlabel=93, label=<(+ (fibonacci (- n 1)) (fibonacci (- n 2)))>];
94[xlabel=94, label=<ko(Bool)>, fillcolor=<#DDDDFF>];
95[xlabel=95, label=<(+ (fibonacci (- n 1)) (fibonacci (- n 2)))>];
96[xlabel=96, label=<(fibonacci (- n 1))>];
97[xlabel=97, label=<(+ (fibonacci (- n 1)) (fibonacci (- n 2)))>];
98[xlabel=98, label=<n>];
99[xlabel=99, label=<n>];
100[xlabel=100, label=<(+ (fibonacci (- n 1)) (fibonacci (- n 2)))>];
101[xlabel=101, label=<(+ (fibonacci (- n 1)) (fibonacci (- n 2)))>];
102[xlabel=102, label=<(+ (fibonacci (- n 1)) (fibonacci (- n 2)))>];
103[xlabel=103, label=<n>];
104[xlabel=104, label=<ko(Int)>, fillcolor=<#DDDDFF>];
105[xlabel=105, label=<(fibonacci (- n 1))>];
106[xlabel=106, label=<(+ (fibonacci (- n 1)) (fibonacci (- n 2)))>];
107[xlabel=107, label=<(fibonacci (- n 1))>];
108[xlabel=108, label=<n>];
109[xlabel=109, label=<ko(Int)>, fillcolor=<#FFFFAA>];
110[xlabel=110, label=<ko(Int)>, fillcolor=<#DDDDFF>];
111[xlabel=111, label=<(fibonacci (- n 1))>];
112[xlabel=112, label=<(fibonacci (- n 1))>];
113[xlabel=113, label=<(- n 1)>];
114[xlabel=114, label=<(fibonacci (- n 2))>];
115[xlabel=115, label=<(- n 2)>];
116[xlabel=116, label=<(fibonacci (- n 2))>];
117[xlabel=117, label=<(- n 2)>];
118[xlabel=118, label=<(- n 1)>];
119[xlabel=119, label=<ko(Int)>, fillcolor=<#DDDDFF>];
120[xlabel=120, label=<ko(Int)>, fillcolor=<#DDDDFF>];
121[xlabel=121, label=<(- n 1)>];
122[xlabel=122, label=<ko(Int)>, fillcolor=<#DDDDFF>];
123[xlabel=123, label=<ko(Int)>, fillcolor=<#DDDDFF>];
124[xlabel=124, label=<(- n 2)>];
125[xlabel=125, label=<ko(Int)>, fillcolor=<#DDDDFF>];
126[xlabel=126, label=<(- n 2)>];
127[xlabel=127, label=<ko(Int)>, fillcolor=<#DDDDFF>];
128[xlabel=128, label=<(if (&lt;= n 1) n (+ (fibonacci (- n 1)) (fibonacci (- n 2))))>];
129[xlabel=129, label=<ko(Int)>, fillcolor=<#DDDDFF>];
130[xlabel=130, label=<(if (&lt;= n 1) n (+ (fibonacci (- n 1)) (fibonacci (- n 2))))>];
131[xlabel=131, label=<ko(Int)>, fillcolor=<#DDDDFF>];
132[xlabel=132, label=<(if (&lt;= n 1) n (+ (fibonacci (- n 1)) (fibonacci (- n 2))))>];
133[xlabel=133, label=<(if (&lt;= n 1) n (+ (fibonacci (- n 1)) (fibonacci (- n 2))))>];
134[xlabel=134, label=<(&lt;= n 1)>];
135[xlabel=135, label=<(if (&lt;= n 1) n (+ (fibonacci (- n 1)) (fibonacci (- n 2))))>];
136[xlabel=136, label=<(&lt;= n 1)>];
137[xlabel=137, label=<(if (&lt;= n 1) n (+ (fibonacci (- n 1)) (fibonacci (- n 2))))>];
138[xlabel=138, label=<ko(Bool)>, fillcolor=<#DDDDFF>];
139[xlabel=139, label=<n>];
140[xlabel=140, label=<n>];
141[xlabel=141, label=<(+ (fibonacci (- n 1)) (fibonacci (- n 2)))>];
142[xlabel=142, label=<(+ (fibonacci (- n 1)) (fibonacci (- n 2)))>];
143[xlabel=143, label=<n>];
144[xlabel=144, label=<(+ (fibonacci (- n 1)) (fibonacci (- n 2)))>];
145[xlabel=145, label=<(+ (fibonacci (- n 1)) (fibonacci (- n 2)))>];
146[xlabel=146, label=<(fibonacci (- n 1))>];
147[xlabel=147, label=<n>];
148[xlabel=148, label=<ko(Int)>, fillcolor=<#FFFFAA>];
149[xlabel=149, label=<ko(Int)>, fillcolor=<#DDDDFF>];
150[xlabel=150, label=<(fibonacci (- n 1))>];
151[xlabel=151, label=<(+ (fibonacci (- n 1)) (fibonacci (- n 2)))>];
152[xlabel=152, label=<n>];
153[xlabel=153, label=<ko(Int)>, fillcolor=<#DDDDFF>];
154[xlabel=154, label=<(fibonacci (- n 2))>];
155[xlabel=155, label=<(- n 1)>];
156[xlabel=156, label=<ko(Int)>, fillcolor=<#DDDDFF>];
157[xlabel=157, label=<ko(Int)>, fillcolor=<#DDDDFF>];
158[xlabel=158, label=<(fibonacci (- n 2))>];
159[xlabel=159, label=<ko(Int)>, fillcolor=<#DDDDFF>];
160[xlabel=160, label=<(if (&lt;= n 1) n (+ (fibonacci (- n 1)) (fibonacci (- n 2))))>];
161[xlabel=161, label=<ko(Int)>, fillcolor=<#DDDDFF>];
162[xlabel=162, label=<(if (&lt;= n 1) n (+ (fibonacci (- n 1)) (fibonacci (- n 2))))>];
163[xlabel=163, label=<(&lt;= n 1)>];
164[xlabel=164, label=<ko(Bool)>, fillcolor=<#DDDDFF>];
165[xlabel=165, label=<n>];
166[xlabel=166, label=<(+ (fibonacci (- n 1)) (fibonacci (- n 2)))>];
167[xlabel=167, label=<n>];
168[xlabel=168, label=<(+ (fibonacci (- n 1)) (fibonacci (- n 2)))>];
169[xlabel=169, label=<(+ (fibonacci (- n 1)) (fibonacci (- n 2)))>];
170[xlabel=170, label=<n>];
171[xlabel=171, label=<ko(Int)>, fillcolor=<#DDDDFF>];
172[xlabel=172, label=<(fibonacci (- n 1))>];
173[xlabel=173, label=<(- n 1)>];
174[xlabel=174, label=<ko(Int)>, fillcolor=<#DDDDFF>];
175[xlabel=175, label=<ko(Int)>, fillcolor=<#FFFFAA>];
176[xlabel=176, label=<ko(Int)>, fillcolor=<#DDDDFF>];
177[xlabel=177, label=<(if (&lt;= n 1) n (+ (fibonacci (- n 1)) (fibonacci (- n 2))))>];
178[xlabel=178, label=<(fibonacci (- n 1))>];
179[xlabel=179, label=<(- n 1)>];
180[xlabel=180, label=<(fibonacci (- n 2))>];
181[xlabel=181, label=<(- n 2)>];
182[xlabel=182, label=<(if (&lt;= n 1) n (+ (fibonacci (- n 1)) (fibonacci (- n 2))))>];
183[xlabel=183, label=<(&lt;= n 1)>];
184[xlabel=184, label=<ko(Bool)>, fillcolor=<#DDDDFF>];
185[xlabel=185, label=<(+ (fibonacci (- n 1)) (fibonacci (- n 2)))>];
186[xlabel=186, label=<n>];
187[xlabel=187, label=<n>];
188[xlabel=188, label=<n>];
189[xlabel=189, label=<(+ (fibonacci (- n 1)) (fibonacci (- n 2)))>];
190[xlabel=190, label=<(+ (fibonacci (- n 1)) (fibonacci (- n 2)))>];
191[xlabel=191, label=<(fibonacci (- n 2))>];
192[xlabel=192, label=<(- n 2)>];
193[xlabel=193, label=<(- n 1)>];
194[xlabel=194, label=<ko(Int)>, fillcolor=<#DDDDFF>];
195[xlabel=195, label=<(- n 1)>];
196[xlabel=196, label=<ko(Int)>, fillcolor=<#DDDDFF>];
197[xlabel=197, label=<(if (&lt;= n 1) n (+ (fibonacci (- n 1)) (fibonacci (- n 2))))>];
198[xlabel=198, label=<(if (&lt;= n 1) n (+ (fibonacci (- n 1)) (fibonacci (- n 2))))>];
199[xlabel=199, label=<(&lt;= n 1)>];
200[xlabel=200, label=<ko(Bool)>, fillcolor=<#DDDDFF>];
201[xlabel=201, label=<ko(Bool)>, fillcolor=<#DDDDFF>];
202[xlabel=202, label=<n>];
203[xlabel=203, label=<n>];
204[xlabel=204, label=<(+ (fibonacci (- n 1)) (fibonacci (- n 2)))>];
205[xlabel=205, label=<(+ (fibonacci (- n 1)) (fibonacci (- n 2)))>];
206[xlabel=206, label=<ko(Int)>, fillcolor=<#FFFFAA>];
207[xlabel=207, label=<n>];
208[xlabel=208, label=<ko(Int)>, fillcolor=<#DDDDFF>];
209[xlabel=209, label=<n>];
210[xlabel=210, label=<ko(Int)>, fillcolor=<#FFFFAA>];
211[xlabel=211, label=<(- n 1)>];
212[xlabel=212, label=<(fibonacci (- n 2))>];
213[xlabel=213, label=<(- n 1)>];
214[xlabel=214, label=<(fibonacci (- n 2))>];
215[xlabel=215, label=<(- n 2)>];
216[xlabel=216, label=<(- n 2)>];
217[xlabel=217, label=<ko(Int)>, fillcolor=<#DDDDFF>];
218[xlabel=218, label=<(- n 2)>];
219[xlabel=219, label=<ko(Bool)>, fillcolor=<#DDDDFF>];
220[xlabel=220, label=<(+ (fibonacci (- n 1)) (fibonacci (- n 2)))>];
221[xlabel=221, label=<n>];
222[xlabel=222, label=<n>];
223[xlabel=223, label=<n>];
224[xlabel=224, label=<ko(Int)>, fillcolor=<#DDDDFF>];
225[xlabel=225, label=<ko(Int)>, fillcolor=<#DDDDFF>];
226[xlabel=226, label=<(+ (fibonacci (- n 1)) (fibonacci (- n 2)))>];
227[xlabel=227, label=<n>];
228[xlabel=228, label=<(+ (fibonacci (- n 1)) (fibonacci (- n 2)))>];
229[xlabel=229, label=<n>];
230[xlabel=230, label=<(fibonacci (- n 2))>];
231[xlabel=231, label=<ko(Int)>, fillcolor=<#DDDDFF>];
232[xlabel=232, label=<ko(Int)>, fillcolor=<#FFFFAA>];
233[xlabel=233, label=<(fibonacci (- n 2))>];
234[xlabel=234, label=<(- n 1)>];
235[xlabel=235, label=<ko(Int)>, fillcolor=<#FFFFAA>];
236[xlabel=236, label=<ko(Int)>, fillcolor=<#DDDDFF>];
237[xlabel=237, label=<ko(Int)>, fillcolor=<#DDDDFF>];
238[xlabel=238, label=<ko(Int)>, fillcolor=<#DDDDFF>];
239[xlabel=239, label=<(if (&lt;= n 1) n (+ (fibonacci (- n 1)) (fibonacci (- n 2))))>];
240[xlabel=240, label=<(if (&lt;= n 1) n (+ (fibonacci (- n 1)) (fibonacci (- n 2))))>];
241[xlabel=241, label=<(if (&lt;= n 1) n (+ (fibonacci (- n 1)) (fibonacci (- n 2))))>];
242[xlabel=242, label=<(&lt;= n 1)>];
243[xlabel=243, label=<(&lt;= n 1)>];
244[xlabel=244, label=<ko(Bool)>, fillcolor=<#DDDDFF>];
245[xlabel=245, label=<ko(Bool)>, fillcolor=<#DDDDFF>];
246[xlabel=246, label=<(+ (fibonacci (- n 1)) (fibonacci (- n 2)))>];
247[xlabel=247, label=<(+ (fibonacci (- n 1)) (fibonacci (- n 2)))>];
248[xlabel=248, label=<n>];
249[xlabel=249, label=<n>];
250[xlabel=250, label=<ko(Int)>, fillcolor=<#DDDDFF>];
251[xlabel=251, label=<ko(Int)>, fillcolor=<#FFFFAA>];
252[xlabel=252, label=<(+ (fibonacci (- n 1)) (fibonacci (- n 2)))>];
253[xlabel=253, label=<n>];
254[xlabel=254, label=<ko(Int)>, fillcolor=<#FFFFAA>];
255[xlabel=255, label=<(- n 2)>];
256[xlabel=256, label=<ko(Int)>, fillcolor=<#DDDDFF>];
257[xlabel=257, label=<ko(Int)>, fillcolor=<#DDDDFF>];
258[xlabel=258, label=<ko(Int)>, fillcolor=<#DDDDFF>];
259[xlabel=259, label=<(fibonacci (- n 2))>];
260[xlabel=260, label=<(- n 2)>];
261[xlabel=261, label=<n>];
262[xlabel=262, label=<(+ (fibonacci (- n 1)) (fibonacci (- n 2)))>];
263[xlabel=263, label=<ko(Int)>, fillcolor=<#DDDDFF>];
264[xlabel=264, label=<ko(Int)>, fillcolor=<#DDDDFF>];
265[xlabel=265, label=<(fibonacci (- n 2))>];
266[xlabel=266, label=<(fibonacci (- n 2))>];
267[xlabel=267, label=<ko(Int)>, fillcolor=<#DDDDFF>];
268[xlabel=268, label=<(if (&lt;= n 1) n (+ (fibonacci (- n 1)) (fibonacci (- n 2))))>];
269[xlabel=269, label=<(if (&lt;= n 1) n (+ (fibonacci (- n 1)) (fibonacci (- n 2))))>];
270[xlabel=270, label=<ko(Int)>, fillcolor=<#DDDDFF>];
271[xlabel=271, label=<ko(Int)>, fillcolor=<#FFFFAA>];
272[xlabel=272, label=<(- n 2)>];
273[xlabel=273, label=<(+ (fibonacci (- n 1)) (fibonacci (- n 2)))>];
274[xlabel=274, label=<n>];
275[xlabel=275, label=<ko(Int)>, fillcolor=<#DDDDFF>];

0 -> 1;
1 -> 2;
2 -> 3;
3 -> 4;
4 -> 5;
4 -> 6;
5 -> 7;
6 -> 8;
8 -> 9;
9 -> 10;
10 -> 11;
11 -> 12;
12 -> 13;
13 -> 14;
13 -> 15;
13 -> 16;
13 -> 17;
14 -> 18;
15 -> 178;
16 -> 256;
17 -> 19;
19 -> 20;
20 -> 21;
21 -> 182;
22 -> 23;
23 -> 12;
24 -> 25;
25 -> 26;
26 -> 27;
27 -> 31;
27 -> 33;
27 -> 187;
27 -> 188;
27 -> 189;
27 -> 190;
28 -> 29;
30 -> 19;
31 -> 32;
33 -> 34;
34 -> 193;
35 -> 36;
36 -> 41;
37 -> 38;
38 -> 40;
39 -> 32;
40 -> 44;
41 -> 197;
42 -> 43;
43 -> 49;
44 -> 26;
45 -> 46;
46 -> 26;
47 -> 48;
48 -> 201;
49 -> 50;
50 -> 51;
50 -> 52;
50 -> 53;
50 -> 54;
50 -> 55;
50 -> 56;
51 -> 57;
52 -> 105;
53 -> 57;
54 -> 58;
55 -> 65;
56 -> 66;
57 -> 67;
59 -> 60;
60 -> 195;
61 -> 62;
62 -> 206;
63 -> 34;
64 -> 34;
65 -> 66;
66 -> 69;
66 -> 212;
67 -> 68;
68 -> 79;
69 -> 70;
70 -> 267;
71 -> 72;
72 -> 82;
73 -> 74;
74 -> 84;
75 -> 76;
76 -> 86;
77 -> 78;
78 -> 136;
79 -> 49;
80 -> 81;
81 -> 199;
82 -> 83;
83 -> 95;
83 -> 97;
83 -> 220;
83 -> 221;
83 -> 222;
83 -> 223;
84 -> 85;
85 -> 94;
86 -> 87;
87 -> 88;
87 -> 89;
87 -> 90;
87 -> 91;
87 -> 92;
87 -> 93;
88 -> 225;
89 -> 271;
90 -> 104;
91 -> 105;
92 -> 105;
93 -> 105;
94 -> 98;
94 -> 99;
94 -> 100;
94 -> 101;
94 -> 102;
94 -> 103;
95 -> 96;
96 -> 211;
97 -> 96;
98 -> 235;
99 -> 110;
100 -> 112;
101 -> 111;
102 -> 111;
103 -> 231;
104 -> 116;
104 -> 158;
104 -> 230;
105 -> 213;
106 -> 107;
107 -> 118;
108 -> 109;
110 -> 110;
110 -> 235;
111 -> 234;
112 -> 113;
113 -> 238;
114 -> 115;
115 -> 237;
116 -> 117;
117 -> 131;
118 -> 123;
119 -> 109;
119 -> 120;
120 -> 212;
121 -> 122;
122 -> 133;
123 -> 135;
124 -> 125;
125 -> 137;
126 -> 127;
127 -> 128;
128 -> 82;
129 -> 130;
130 -> 134;
131 -> 132;
132 -> 242;
133 -> 134;
134 -> 245;
135 -> 136;
136 -> 219;
137 -> 86;
138 -> 139;
138 -> 140;
138 -> 141;
138 -> 142;
138 -> 143;
138 -> 144;
139 -> 149;
140 -> 251;
141 -> 150;
142 -> 150;
143 -> 156;
144 -> 150;
145 -> 146;
146 -> 121;
147 -> 148;
149 -> 149;
149 -> 156;
150 -> 155;
151 -> 112;
152 -> 153;
153 -> 114;
153 -> 154;
154 -> 255;
155 -> 159;
156 -> 116;
156 -> 154;
157 -> 154;
157 -> 158;
158 -> 272;
159 -> 160;
160 -> 242;
161 -> 162;
162 -> 163;
163 -> 164;
164 -> 165;
164 -> 166;
164 -> 167;
164 -> 168;
164 -> 169;
164 -> 170;
165 -> 171;
166 -> 172;
167 -> 175;
168 -> 172;
169 -> 172;
170 -> 174;
171 -> 154;
172 -> 173;
173 -> 176;
174 -> 171;
174 -> 174;
174 -> 175;
176 -> 177;
177 -> 163;
178 -> 179;
179 -> 22;
180 -> 181;
181 -> 24;
182 -> 183;
183 -> 184;
184 -> 28;
184 -> 30;
184 -> 185;
184 -> 186;
185 -> 19;
186 -> 257;
187 -> 39;
188 -> 258;
189 -> 60;
190 -> 37;
191 -> 192;
192 -> 42;
193 -> 194;
194 -> 198;
195 -> 196;
196 -> 47;
197 -> 199;
198 -> 199;
199 -> 200;
200 -> 63;
200 -> 64;
200 -> 207;
200 -> 209;
200 -> 261;
200 -> 262;
201 -> 59;
201 -> 61;
201 -> 202;
201 -> 203;
201 -> 204;
201 -> 205;
202 -> 206;
203 -> 263;
204 -> 60;
205 -> 96;
207 -> 208;
208 -> 210;
209 -> 210;
211 -> 71;
212 -> 218;
213 -> 75;
214 -> 215;
215 -> 217;
216 -> 80;
217 -> 268;
218 -> 77;
219 -> 106;
219 -> 108;
219 -> 226;
219 -> 227;
219 -> 228;
219 -> 229;
220 -> 96;
221 -> 232;
222 -> 224;
223 -> 270;
224 -> 232;
225 -> 104;
226 -> 146;
227 -> 120;
228 -> 107;
229 -> 119;
230 -> 124;
231 -> 266;
233 -> 126;
234 -> 236;
236 -> 241;
237 -> 240;
238 -> 239;
239 -> 243;
240 -> 243;
241 -> 85;
242 -> 138;
243 -> 244;
244 -> 151;
244 -> 152;
244 -> 252;
244 -> 253;
244 -> 273;
244 -> 274;
245 -> 145;
245 -> 147;
245 -> 246;
245 -> 247;
245 -> 248;
245 -> 249;
246 -> 146;
247 -> 146;
248 -> 250;
249 -> 157;
250 -> 148;
250 -> 157;
252 -> 112;
253 -> 254;
255 -> 161;
256 -> 180;
257 -> 35;
257 -> 191;
258 -> 259;
259 -> 260;
260 -> 45;
261 -> 264;
262 -> 96;
263 -> 214;
263 -> 266;
264 -> 212;
264 -> 265;
265 -> 216;
266 -> 73;
267 -> 269;
268 -> 48;
269 -> 49;
270 -> 114;
270 -> 158;
270 -> 233;
272 -> 129;
273 -> 112;
274 -> 275;
275 -> 254;
275 -> 275;
}
